ply
format ascii 1.0
comment Created by Open3D
element vertex 2000
property double x
property double y
property double z
property uchar red
property uchar green
property uchar blue
end_header
0.0483814 -0.631899 0.430501 121 109 111
0.0662723 -0.629138 0.425531 113 101 105
-0.00244292 -0.629887 0.438041 160 148 155
0.00209977 -0.63011 0.437067 170 157 164
0.00676643 -0.63209 0.436965 181 166 173
0.0271862 -0.631571 0.43206 206 193 200
0.0385601 -0.631455 0.42954 212 199 206
0.0587145 -0.628865 0.424101 211 201 207
0.0726125 -0.629704 0.42183 215 202 211
0.0822169 -0.631561 0.420971 216 204 212
-0.0529556 -0.629605 0.448134 149 134 142
-0.0506819 -0.629928 0.447671 156 143 150
0.00387512 -0.631281 0.434443 201 188 197
0.00614829 -0.63137 0.433953 200 187 196
0.0353719 -0.628977 0.426206 202 190 196
0.0471824 -0.632269 0.425362 204 191 198
0.053724 -0.630179 0.42299 204 191 198
0.0770401 -0.632178 0.419459 204 194 202
0.0813991 -0.630853 0.418 204 194 202
0.100347 -0.632323 0.41537 202 187 192
-0.0580359 -0.63 0.446916 191 178 185
-0.0329782 -0.632348 0.441331 190 180 188
-0.0216233 -0.630756 0.437625 188 178 186
-0.00126795 -0.630341 0.432414 194 182 188
0.0393048 -0.629043 0.422647 200 189 197
0.0835876 -0.633483 0.416128 206 193 202
0.0900113 -0.630948 0.413738 206 193 202
0.096797 -0.63012 0.412147 207 196 204
0.102393 -0.633984 0.413064 154 138 139
-0.106641 -0.60981 0.44853 194 184 187
-0.0961832 -0.61679 0.448716 183 171 175
-0.0876559 -0.62224 0.448814 181 169 175
-0.0719262 -0.625261 0.445698 179 167 173
-0.0608452 -0.630708 0.445234 179 167 173
-0.0470598 -0.628201 0.440223 183 170 179
-0.0380348 -0.631109 0.439245 184 174 182
-0.0312188 -0.632748 0.43827 186 175 183
0.0799511 -0.630285 0.41249 206 193 202
-0.0920841 -0.617033 0.444826 181 169 173
-0.0808917 -0.61842 0.442185 183 168 175
-0.0565819 -0.627085 0.439491 181 169 175
-0.011405 -0.630109 0.42922 194 183 191
-0.00014879 -0.629832 0.426375 197 184 193
0.00448497 -0.631824 0.426251 198 185 194
0.0134037 -0.630277 0.423441 197 187 195
0.0155088 -0.628511 0.422108 197 187 195
0.0249734 -0.633106 0.422219 201 188 197
0.051915 -0.630631 0.415334 203 193 201
0.0832644 -0.627268 0.407711 207 196 204
-0.109809 -0.610429 0.444319 200 188 192
-0.10749 -0.610091 0.443439 195 183 189
-0.101495 -0.616071 0.44445 187 175 179
-0.0990561 -0.614815 0.443108 186 174 180
-0.0946383 -0.615804 0.442247 184 171 178
-0.0861464 -0.621223 0.442314 184 171 180
-0.0457517 -0.626975 0.433737 187 174 183
-0.0412356 -0.62663 0.432372 186 175 183
-0.0345031 -0.629193 0.431842 189 179 187
-0.0164552 -0.62992 0.427619 194 183 191
-0.0142254 -0.629179 0.426712 195 185 193
-0.0120026 -0.628428 0.425807 195 183 191
0.0128434 -0.6304 0.42089 198 188 196
0.0218693 -0.630512 0.418915 200 189 197
0.0975221 -0.632075 0.40475 216 201 208
-0.079665 -0.619989 0.437083 186 173 182
-0.0707003 -0.62071 0.43486 185 172 181
-0.0551865 -0.624977 0.432579 186 173 182
-0.0529471 -0.625295 0.432121 187 174 183
-0.0394916 -0.627008 0.42935 190 180 188
-0.0372461 -0.627262 0.428884 191 181 189
0.0210408 -0.6279 0.415136 202 192 200
0.0615099 -0.627486 0.406506 208 197 205
0.0769814 -0.625263 0.402522 211 198 207
-0.106021 -0.609971 0.437487 197 184 191
-0.057818 -0.622957 0.42961 186 173 182
-0.015389 -0.625763 0.419928 198 185 194
0.0248623 -0.627085 0.411212 203 193 201
0.0385062 -0.628684 0.409036 206 193 202
0.0676058 -0.627074 0.40245 209 197 205
0.0809935 -0.625807 0.399361 209 199 207
-0.100239 -0.614264 0.435018 193 181 185
-0.0847382 -0.616654 0.431542 192 179 186
-0.0782009 -0.618819 0.430663 190 177 184
-0.0759892 -0.619225 0.43022 190 177 186
-0.0114817 -0.625228 0.41603 199 186 195
0.0174291 -0.625328 0.409353 205 192 201
0.0445121 -0.627624 0.40461 207 196 204
0.082778 -0.626557 0.396713 211 198 207
0.0851989 -0.627209 0.396574 212 199 208
-0.108643 -0.606963 0.431516 203 193 201
-0.100435 -0.612572 0.431596 195 183 189
-0.0873833 -0.616294 0.429445 194 182 188
-0.0741629 -0.618803 0.426805 191 178 185
-0.0566782 -0.626159 0.425353 189 179 185
-0.0499058 -0.625273 0.423126 190 180 186
0.00581007 -0.626098 0.40967 202 190 198
0.0169507 -0.626305 0.407239 205 192 199
0.0237259 -0.627232 0.406168 206 193 200
0.0305218 -0.628076 0.405084 207 195 201
0.0922606 -0.631002 0.394368 213 200 209
-0.0876341 -0.614571 0.426045 198 183 191
-0.0636341 -0.621612 0.422467 194 182 188
-0.061419 -0.621954 0.422016 194 182 188
-0.0547675 -0.622924 0.420656 193 183 188
-0.0458852 -0.624092 0.418826 197 184 191
-0.0392145 -0.624872 0.417441 198 185 192
0.000866383 -0.626919 0.40852 205 192 199
0.00742487 -0.625298 0.406268 204 191 200
0.00978355 -0.627176 0.406585 206 193 202
0.0232499 -0.628201 0.404047 207 195 201
0.0388719 -0.627915 0.400578 208 197 205
0.0522462 -0.627314 0.397569 210 200 206
0.0655983 -0.626384 0.394529 210 200 206
0.0843104 -0.629173 0.392295 212 202 210
-0.0750739 -0.618922 0.421747 197 184 191
-0.0152285 -0.627078 0.409753 205 192 199
0.038288 -0.627961 0.398066 210 200 206
0.0492876 -0.626569 0.395183 211 201 207
0.0558043 -0.62526 0.393295 210 200 206
0.0859053 -0.628969 0.389263 214 203 211
-0.0970088 -0.611036 0.421876 206 193 200
-0.0822062 -0.618656 0.420973 200 188 194
-0.075527 -0.618964 0.419224 200 188 194
-0.0112989 -0.627386 0.406281 206 193 200
-0.00692624 -0.625791 0.404528 207 195 201
0.0402877 -0.630667 0.396205 211 201 207
0.0925604 -0.630905 0.386282 218 208 216
-0.0993657 -0.608792 0.418943 207 197 202
-0.0953707 -0.612434 0.419367 207 195 201
-0.0868535 -0.616035 0.418483 204 191 198
-0.0847565 -0.617365 0.418467 206 193 200
-0.0517051 -0.621819 0.411345 202 190 194
0.050042 -0.624665 0.388937 212 202 208
0.059024 -0.625004 0.387304 211 201 207
0.086462 -0.626957 0.383012 204 194 202
-0.0978509 -0.611082 0.416868 209 197 203
-0.0608854 -0.61878 0.409825 205 193 197
-0.0565003 -0.619411 0.408925 205 193 197
-0.034533 -0.623857 0.405158 206 194 198
-0.0301103 -0.626108 0.405027 208 196 202
0.0117347 -0.623669 0.394038 212 199 206
0.0341009 -0.626253 0.390299 212 202 208
0.0388797 -0.628868 0.390433 214 204 209
0.0516541 -0.62454 0.385954 212 202 208
0.0854328 -0.62515 0.379806 178 166 170
-0.115518 -0.607013 0.417756 215 205 210
-0.109063 -0.608607 0.416495 212 202 208
-0.0853571 -0.614678 0.412193 207 197 202
-0.0591121 -0.618185 0.406469 207 195 199
-0.0482272 -0.621475 0.405013 207 195 199
-0.0372257 -0.622715 0.402718 207 195 199
-0.0350164 -0.622019 0.401858 208 196 200
-0.0261987 -0.62465 0.40079 209 197 201
-0.0173823 -0.624383 0.39852 212 199 206
-0.0129368 -0.625574 0.397965 211 198 205
0.0178745 -0.624622 0.390482 215 203 209
0.0462559 -0.622024 0.383367 214 204 209
0.0531187 -0.623475 0.38261 212 202 208
0.0712033 -0.624789 0.379672 197 184 191
-0.09199 -0.610653 0.409757 212 199 206
-0.0355102 -0.622001 0.399364 211 198 203
-0.00687129 -0.624975 0.39366 213 200 207
0.00636751 -0.62541 0.390791 211 201 207
0.0286329 -0.627261 0.386677 215 205 210
0.074985 -0.624325 0.376183 167 155 159
-0.0206489 -0.62234 0.393235 213 200 207
-0.000787391 -0.625202 0.389743 212 202 208
0.0255631 -0.624498 0.383578 215 205 210
0.0450822 -0.621967 0.378437 216 206 212
0.061165 -0.625546 0.37674 207 195 201
0.0633667 -0.625361 0.376237 204 191 198
0.0809475 -0.623558 0.372191 143 133 134
0.088327 -0.626402 0.372038 171 162 160
-0.071378 -0.616426 0.401232 210 200 204
-0.0538822 -0.617164 0.396864 211 198 203
-0.0495963 -0.619556 0.396745 210 200 204
-0.0452529 -0.620996 0.396224 210 200 204
-0.0430437 -0.620322 0.395378 211 198 203
-0.0145818 -0.622713 0.389349 212 202 208
-0.00347555 -0.626008 0.388112 212 202 208
0.0159682 -0.621744 0.381944 215 205 210
0.0447554 -0.623772 0.376692 217 207 213
0.0469481 -0.623651 0.376198 216 206 212
0.0583579 -0.625684 0.37477 209 199 205
0.0695197 -0.625639 0.372605 190 177 184
0.0876868 -0.626375 0.369564 153 146 144
-0.0952858 -0.609193 0.402344 212 203 206
-0.0781672 -0.61344 0.399278 212 203 206
-0.0500365 -0.618583 0.393877 211 202 205
-0.0369629 -0.620029 0.39114 213 201 205
-0.0260326 -0.622841 0.389591 212 203 206
-0.0238532 -0.622082 0.388746 212 203 206
0.000344992 -0.625172 0.384305 214 204 209
0.0132342 -0.621679 0.379964 215 205 210
0.0577539 -0.625635 0.372303 213 200 207
0.0687327 -0.624669 0.369794 192 180 184
0.0804417 -0.627164 0.368626 134 126 124
0.0894497 -0.626962 0.366917 132 132 120
-0.108519 -0.606272 0.402425 215 205 208
-0.102116 -0.607742 0.401156 215 205 210
-0.0998591 -0.607307 0.400328 212 202 208
-0.0786018 -0.613378 0.396807 212 203 206
-0.0701675 -0.617587 0.39622 212 203 206
-0.0396127 -0.618818 0.388748 214 202 206
-0.030911 -0.62149 0.387666 212 203 206
-0.0178206 -0.62153 0.384501 214 204 207
0.0215017 -0.622502 0.375944 217 207 213
0.028155 -0.623312 0.374846 217 207 213
0.0437115 -0.624578 0.372123 218 209 212
0.0459029 -0.624457 0.371629 217 207 213
-0.108509 -0.603487 0.398758 215 205 208
-0.0981303 -0.6077 0.397442 214 204 207
-0.0509073 -0.616591 0.388175 214 202 206
-0.0465782 -0.617106 0.387271 215 203 207
-0.0444124 -0.61735 0.386818 212 203 206
-0.0357583 -0.620092 0.385744 212 203 206
-0.027048 -0.620841 0.383899 215 205 208
0.0120678 -0.620591 0.374699 216 206 212
0.0232197 -0.62332 0.373361 216 206 212
0.0431263 -0.624501 0.369666 218 209 212
0.0540641 -0.62381 0.367195 215 205 210
0.0588941 -0.626255 0.367221 211 201 207
0.0696898 -0.624319 0.364378 187 175 179
0.0722281 -0.625942 0.364545 180 168 172
0.0877623 -0.625008 0.361326 99 107 86
-0.102421 -0.603954 0.39465 215 205 208
-0.0984182 -0.606705 0.394592 215 205 208
-0.0793825 -0.612301 0.39149 214 204 209
-0.0079451 -0.621914 0.377236 216 206 212
-0.00115136 -0.626802 0.377613 216 206 212
0.014006 -0.624229 0.37319 216 206 212
0.0270252 -0.623139 0.369941 220 207 214
0.0448581 -0.625224 0.367063 219 209 215
0.0582892 -0.626172 0.364764 212 202 208
0.0849345 -0.625225 0.359382 110 109 100
-0.111118 -0.600993 0.393493 215 205 208
-0.0172168 -0.619515 0.375937 215 205 208
0.0004583 -0.625829 0.374313 216 206 212
0.0400178 -0.626289 0.365935 218 209 212
0.0442713 -0.625125 0.364612 218 208 214
0.0619054 -0.624772 0.360982 212 200 204
0.0642529 -0.625501 0.360813 207 195 199
0.0684567 -0.624142 0.359483 190 181 184
0.0757259 -0.627143 0.359282 153 144 145
-0.12198 -0.598255 0.393128 235 225 228
-0.119577 -0.596987 0.391929 218 205 210
-0.1154 -0.598044 0.391105 215 205 208
-0.105449 -0.604186 0.390582 215 205 208
-0.101219 -0.60513 0.389736 215 205 208
-0.0779324 -0.610626 0.385388 214 204 207
-0.0479577 -0.615864 0.379547 214 204 207
-0.0458038 -0.616107 0.379095 215 205 208
-0.0177231 -0.619396 0.373495 216 206 210
0.0371297 -0.625348 0.363637 218 209 212
0.0572329 -0.626904 0.36019 214 204 209
0.0658269 -0.625186 0.357867 202 190 194
0.0794811 -0.626523 0.355819 116 112 107
-0.118011 -0.598309 0.389485 215 205 208
-0.0591665 -0.614393 0.37935 215 206 206
0.00793868 -0.62293 0.366455 218 209 212
0.03632 -0.623355 0.360527 218 209 212
0.0428452 -0.623023 0.359062 218 209 212
-0.120149 -0.595831 0.386702 216 206 210
-0.118379 -0.598181 0.387063 216 204 208
-0.116292 -0.598704 0.38665 215 205 208
-0.11435 -0.600131 0.386621 215 205 208
-0.105962 -0.60211 0.384949 215 205 208
-0.0854513 -0.611991 0.38294 215 205 208
-0.0338197 -0.614303 0.370428 215 205 208
-0.0166726 -0.615497 0.366762 216 206 210
-0.0100904 -0.619549 0.366761 218 205 210
0.0226993 -0.623641 0.361 219 207 211
0.0312903 -0.622457 0.358734 217 207 211
0.0509441 -0.622322 0.354673 218 209 212
-0.123232 -0.598788 0.386238 237 227 230
-0.112774 -0.601411 0.384164 215 205 208
-0.051531 -0.616127 0.373049 218 205 210
-0.0150319 -0.615448 0.363887 219 207 211
0.0155418 -0.622644 0.359676 218 209 212
0.074862 -0.623625 0.348065 153 146 144
0.0772192 -0.624295 0.347874 125 124 117
0.079393 -0.624023 0.347373 111 113 101
0.0813722 -0.622811 0.346563 103 108 93
-0.0512295 -0.133362 0.192843 148 81 63
-0.114796 -0.598012 0.381028 215 205 208
-0.112859 -0.599431 0.38099 215 205 208
-0.110913 -0.600843 0.38095 216 204 208
-0.0837809 -0.608386 0.37616 215 205 208
-0.0770948 -0.605786 0.3734 215 205 208
-0.0581831 -0.610498 0.370178 215 205 208
-0.0561028 -0.611706 0.370091 215 205 208
-0.0476107 -0.613654 0.368658 215 205 208
-0.0326412 -0.614156 0.365143 218 205 210
-0.0262126 -0.616519 0.364465 218 205 210
-0.00899888 -0.618375 0.361106 219 207 211
-0.00464895 -0.619457 0.360509 220 208 212
0.0169937 -0.62058 0.356113 218 209 212
0.0298373 -0.619327 0.352915 218 209 212
0.0321009 -0.620184 0.352758 217 207 211
0.0452991 -0.621379 0.350492 218 209 212
0.0742383 -0.623476 0.345642 160 153 151
0.0787634 -0.623876 0.344948 114 116 106
-0.0529659 -0.132608 0.192931 136 75 57
-0.104884 -0.601199 0.376909 215 205 208
-0.0692217 -0.608822 0.369973 215 205 208
-0.000808735 -0.620329 0.357486 217 207 211
0.00997633 -0.620442 0.355125 218 209 212
0.0121332 -0.620439 0.354651 218 209 212
0.0205776 -0.618452 0.352099 218 209 212
0.0293801 -0.620093 0.35083 220 208 212
0.0381158 -0.620649 0.34922 218 209 212
0.0624468 -0.622616 0.345092 208 198 201
0.0671116 -0.624048 0.344715 200 190 193
-0.0555017 -0.136522 0.194889 92 45 25
-0.113452 -0.598174 0.375808 215 205 208
-0.0822196 -0.605626 0.369819 218 205 210
-0.0314684 -0.614896 0.360216 218 205 210
-0.00564112 -0.620035 0.35601 218 209 212
0.00943839 -0.620256 0.352714 217 207 211
0.0137464 -0.62024 0.351765 218 209 212
0.0375414 -0.620465 0.346814 217 207 211
0.046422 -0.621823 0.345497 218 205 212
0.0528959 -0.621335 0.344033 216 206 212
0.0837985 -0.62175 0.338319 98 108 88
-0.0551181 -0.136844 0.194578 105 56 38
-0.119556 -0.593706 0.373549 215 205 208
-0.113671 -0.597067 0.373046 215 205 208
-0.086925 -0.6056 0.368638 216 204 208
-0.0488932 -0.610273 0.360401 216 204 208
-0.0467769 -0.610503 0.359955 218 205 210
-0.040407 -0.6102 0.358271 218 205 210
-0.0383175 -0.612276 0.358499 218 205 210
-0.0361941 -0.612463 0.358047 218 205 210
-0.027683 -0.615009 0.356902 219 207 211
0.0193897 -0.617119 0.346986 218 209 212
0.0589176 -0.621519 0.340466 212 203 206
0.0813961 -0.623738 0.336998 104 111 95
-0.0829444 -0.604292 0.364676 218 205 210
-0.0808507 -0.604658 0.364245 218 205 210
-0.0535714 -0.609575 0.358901 216 204 208
-0.0260369 -0.614941 0.354049 219 207 211
-0.0132451 -0.615623 0.351292 217 207 211
-0.00247805 -0.617844 0.349616 219 207 211
0.0320981 -0.620273 0.342979 219 207 211
0.0448512 -0.618597 0.339785 218 205 212
0.0674326 -0.623262 0.336987 202 192 196
-0.089719 -0.603857 0.363927 216 204 208
-0.0707156 -0.6052 0.35935 216 206 210
-0.066463 -0.60488 0.358137 216 204 208
-0.0476288 -0.608179 0.354512 218 205 210
-0.0243709 -0.616743 0.351851 219 207 211
-0.011549 -0.617375 0.349083 218 209 212
0.0756262 -0.622973 0.332896 167 160 158
-0.12216 -0.589793 0.365756 214 204 207
-0.0982112 -0.600123 0.362547 216 206 210
-0.0899036 -0.601765 0.360849 216 204 208
-0.0858396 -0.603469 0.360339 216 204 208
-0.0774854 -0.604911 0.358616 216 204 208
-0.0711354 -0.604965 0.356974 216 206 210
-0.0100323 -0.614372 0.345281 219 207 211
0.0222011 -0.618241 0.3395 219 207 211
0.0458254 -0.617998 0.334539 216 204 210
0.0569597 -0.619941 0.332994 212 203 206
-0.0984702 -0.598955 0.359829 216 204 208
-0.0964021 -0.599376 0.359406 216 204 208
-0.0568685 -0.605787 0.35121 218 205 210
-0.0506628 -0.608408 0.350543 218 205 210
-0.0232449 -0.614497 0.345976 219 207 211
-0.0105374 -0.614124 0.342907 217 207 211
-0.00633938 -0.613297 0.341674 220 208 212
0.0130302 -0.617219 0.338708 218 205 210
0.0517857 -0.618197 0.331008 214 202 206
0.0539202 -0.61801 0.330525 214 202 206
0.0647488 -0.61789 0.328383 209 197 201
0.0765279 -0.622256 0.327614 201 192 192
0.0808272 -0.621675 0.326625 200 194 192
0.0827764 -0.620431 0.325854 188 187 180
-0.102974 -0.597837 0.358305 216 204 208
-0.0760563 -0.602875 0.35277 216 204 208
-0.0573044 -0.605527 0.34885 218 205 210
-0.0468267 -0.605757 0.34632 218 205 210
-0.0384696 -0.606544 0.344544 219 207 211
-0.0131911 -0.61284 0.340688 218 209 212
-0.00689133 -0.612085 0.339003 219 207 211
-0.00261877 -0.613124 0.338387 216 204 208
0.00816382 -0.616045 0.336972 218 205 210
0.0295184 -0.616484 0.332557 216 204 208
0.0660994 -0.61646 0.32525 208 196 200
-0.0558922 -0.133987 0.192301 130 72 53
-0.118959 -0.589155 0.357542 216 204 208
-0.113318 -0.593411 0.357344 214 204 207
-0.0907496 -0.598203 0.352739 216 204 208
-0.0597713 -0.60405 0.346609 218 205 210
-0.0451894 -0.605692 0.343527 218 205 210
-0.0179118 -0.612395 0.339242 219 207 211
0.00763389 -0.615778 0.334606 218 205 210
0.00968406 -0.614813 0.333842 218 205 210
0.0182467 -0.615631 0.332263 218 205 210
0.0245121 -0.614487 0.33056 216 204 208
0.0501719 -0.614842 0.325431 214 202 206
0.0547105 -0.616359 0.32503 212 200 204
0.0676129 -0.615955 0.322407 208 196 200
0.0747184 -0.61894 0.322035 204 192 196
0.0766622 -0.617712 0.321275 200 190 193
-0.0553691 -0.132279 0.191342 142 79 61
-0.127907 -0.589573 0.357865 229 217 221
-0.12519 -0.586415 0.35608 212 203 206
-0.123174 -0.586938 0.355675 215 203 207
-0.111775 -0.594547 0.35492 214 204 207
-0.105631 -0.59593 0.353671 215 206 206
-0.101527 -0.59681 0.352834 216 204 208
-0.0993492 -0.596303 0.352079 216 204 208
-0.0969367 -0.593917 0.350657 216 204 208
-0.089076 -0.598312 0.349968 216 204 208
-0.074797 -0.602657 0.347626 216 204 208
-0.0602002 -0.603768 0.344261 218 205 210
-0.0289575 -0.606773 0.337617 219 207 211
-0.0100459 -0.61052 0.334454 219 207 211
0.0238629 -0.613255 0.327921 216 204 208
0.0712386 -0.615168 0.319085 206 194 198
-0.116364 -0.594234 0.353738 215 206 206
-0.0997193 -0.596019 0.349735 216 204 208
-0.0812302 -0.599478 0.345922 216 204 208
-0.0667815 -0.601701 0.342907 216 206 210
-0.0647744 -0.602931 0.342791 216 204 208
-0.0315112 -0.604429 0.335119 218 205 210
-0.0273578 -0.604702 0.334226 219 207 211
0.0128501 -0.614193 0.328202 215 205 208
0.0256244 -0.614791 0.325674 216 204 208
0.0408007 -0.61684 0.323196 213 200 207
0.055488 -0.614653 0.319576 212 199 206
0.0639359 -0.613757 0.317655 207 195 199
0.0729212 -0.615564 0.31652 205 193 197
0.075226 -0.616229 0.316298 204 192 196
-0.0979196 -0.595203 0.346651 214 202 206
-0.0774238 -0.598909 0.342409 216 204 208
-0.0609439 -0.601273 0.338956 216 204 208
-0.0589304 -0.60248 0.338833 216 204 208
-0.0485138 -0.601744 0.336025 218 205 210
-0.0361222 -0.603813 0.333683 218 205 210
-0.0110449 -0.609918 0.329773 216 206 210
0.0142627 -0.611942 0.324824 215 205 208
0.0184668 -0.611841 0.323893 216 204 208
0.0227664 -0.612661 0.32324 214 202 206
0.0249716 -0.613536 0.323051 215 203 207
0.0377362 -0.613825 0.320501 213 200 207
0.0809498 -0.615047 0.312494 201 191 194
-0.131815 -0.592799 0.352929 183 169 171
-0.124161 -0.586064 0.348702 214 202 206
-0.122152 -0.586576 0.348296 215 203 207
-0.11829 -0.588505 0.347812 214 202 206
-0.0448278 -0.601829 0.332828 215 205 208
-0.0427856 -0.602972 0.33269 216 206 210
0.00107114 -0.610768 0.324982 215 205 208
0.00945615 -0.610737 0.323138 215 203 207
0.0220279 -0.610436 0.320355 215 203 209
0.0479738 -0.614633 0.316331 212 199 206
0.0692148 -0.613351 0.311807 205 193 197
0.0855657 -0.618842 0.310442 203 194 195
-0.100818 -0.595101 0.342736 214 204 207
-0.0699394 -0.598569 0.335733 216 204 208
-0.0452713 -0.601497 0.330515 216 206 210
-0.0246296 -0.603975 0.326378 216 206 210
0.00676809 -0.609473 0.320996 214 204 207
0.0129556 -0.608429 0.319338 214 202 206
0.0342612 -0.611415 0.315774 213 200 207
0.053406 -0.611831 0.312052 211 198 205
0.0680675 -0.610188 0.30872 206 192 197
0.069976 -0.608968 0.307989 205 191 196
-0.056476 -0.134297 0.191008 143 78 61
-0.122467 -0.584078 0.343023 212 203 206
-0.114932 -0.588833 0.342361 214 202 206
-0.112918 -0.589304 0.34195 214 202 206
-0.0824202 -0.594427 0.335367 216 204 208
-0.0803865 -0.594765 0.334943 218 205 210
-0.0518821 -0.600537 0.32952 218 205 210
-0.00631846 -0.608119 0.321147 214 204 207
-0.0021525 -0.608172 0.320235 214 204 207
0.0314925 -0.610247 0.31366 213 200 207
0.0592597 -0.611804 0.308566 206 193 200
0.073718 -0.60903 0.304979 204 190 194
0.0759949 -0.609686 0.304748 203 188 193
-0.0594294 -0.139127 0.193071 58 25 14
-0.114958 -0.586627 0.339417 215 203 207
-0.0928252 -0.591325 0.334863 215 203 207
-0.0255635 -0.604237 0.322052 216 206 210
-0.0234827 -0.605302 0.321887 216 204 208
0.0392803 -0.609361 0.309482 212 197 205
-0.059265 -0.139334 0.192784 86 38 25
-0.105131 -0.587592 0.334754 214 204 207
-0.0972228 -0.59019 0.333404 215 205 208
-0.0648983 -0.596459 0.326929 216 204 208
-0.0466211 -0.601398 0.323893 216 204 208
0.0468936 -0.607373 0.30506 208 196 202
0.0531166 -0.606779 0.303655 207 195 201
0.0885043 -0.622599 0.301516 206 193 200
-0.123081 -0.581171 0.33552 211 202 203
-0.089308 -0.589453 0.328841 216 204 208
-0.0874032 -0.590761 0.328722 216 204 208
-0.0735116 -0.595907 0.326648 216 204 208
-0.0387887 -0.597893 0.318715 216 204 208
-0.0244545 -0.602645 0.316736 214 204 207
-0.00790378 -0.605113 0.313691 212 203 206
0.052378 -0.605457 0.301126 206 193 200
0.0546001 -0.6062 0.300902 205 193 197
0.056669 -0.605977 0.300433 206 192 197
-0.0588443 -0.135488 0.191071 104 50 32
-0.123395 -0.580802 0.333246 213 201 203
-0.109666 -0.585041 0.330706 215 203 207
-0.0960494 -0.590789 0.328714 214 204 207
-0.0718 -0.594869 0.323642 216 204 208
-0.059511 -0.594551 0.320496 216 204 208
-0.0554582 -0.595016 0.319634 216 204 208
-0.0494759 -0.598528 0.319181 216 204 208
-0.0207775 -0.604372 0.314099 212 203 206
-0.00844121 -0.603766 0.311138 211 202 205
0.0495819 -0.604328 0.299075 205 193 197
0.0643325 -0.604627 0.296282 203 188 193
-0.104301 -0.587839 0.327798 212 203 206
-0.0964078 -0.590403 0.326432 214 204 207
-0.0862375 -0.591293 0.324041 215 205 208
-0.0842239 -0.591636 0.32362 215 205 208
-0.0742998 -0.595137 0.322076 215 203 207
-0.064028 -0.594616 0.319366 216 204 208
-0.062003 -0.594869 0.318937 216 204 208
-0.0356103 -0.597406 0.313297 215 203 207
-0.0274706 -0.597907 0.31154 212 203 206
0.00765979 -0.605308 0.305756 211 198 203
0.0117079 -0.604262 0.304593 211 198 203
0.017885 -0.604077 0.303225 209 197 201
0.038705 -0.604838 0.299122 207 195 201
-0.0604592 -0.139082 0.191978 73 32 21
-0.127224 -0.575282 0.328301 212 200 204
-0.0927475 -0.590768 0.323318 214 204 207
-0.0866086 -0.590894 0.321769 212 203 206
-0.0746099 -0.593782 0.319515 215 203 207
0.00700088 -0.602974 0.30298 209 197 201
0.0111066 -0.602893 0.302073 209 197 201
0.0359591 -0.60363 0.297078 207 195 201
0.0380139 -0.603476 0.296617 206 193 200
0.0648321 -0.601672 0.290831 200 186 193
0.0752498 -0.601186 0.288724 199 185 190
0.0832402 -0.6088 0.2893 197 183 187
-0.10457 -0.584202 0.322382 215 204 205
-0.0949945 -0.589036 0.321178 214 204 207
-0.0769295 -0.592113 0.317391 216 204 208
-0.0547339 -0.594975 0.312685 214 202 206
-0.0324405 -0.59395 0.307115 214 202 206
-0.0284049 -0.594182 0.306242 214 202 206
-0.0161518 -0.599511 0.304892 212 200 204
0.0310645 -0.601571 0.295264 207 195 201
0.0536835 -0.600574 0.290446 203 188 193
0.0603087 -0.602743 0.289735 200 186 193
-0.106599 -0.581472 0.319964 214 202 206
-0.104627 -0.58189 0.319555 214 202 206
-0.0953494 -0.588619 0.318916 215 203 207
-0.0873451 -0.590065 0.317241 214 204 207
-0.0793213 -0.591382 0.315555 215 203 207
-0.0610926 -0.591945 0.311179 215 203 207
-0.0389302 -0.593109 0.306178 214 202 206
-0.0105219 -0.599222 0.301306 211 198 203
-0.00852807 -0.598284 0.300612 209 197 201
0.00991285 -0.600117 0.297074 208 196 200
0.0120319 -0.601032 0.296864 210 195 200
0.0223397 -0.601609 0.294837 207 195 201
0.0305144 -0.601147 0.293016 206 193 200
0.0488723 -0.599622 0.288899 203 188 193
0.0593786 -0.600406 0.287044 200 186 193
0.0840453 -0.607665 0.284277 197 185 189
-0.128295 -0.574984 0.321879 213 201 203
-0.112981 -0.580688 0.319234 214 202 206
-0.101151 -0.583223 0.316778 214 204 207
-0.0874976 -0.587726 0.314432 214 204 207
-0.0835093 -0.588397 0.313594 214 204 207
-0.0733585 -0.588014 0.310943 215 203 207
-0.0693701 -0.588569 0.310099 214 202 206
-0.0673745 -0.588835 0.309676 214 202 206
-0.0574828 -0.591967 0.30808 215 203 207
-0.0454224 -0.593151 0.305499 214 202 206
-0.0433868 -0.592355 0.304807 213 201 205
-0.0373461 -0.591845 0.303253 212 200 204
-0.00905705 -0.596876 0.298125 211 198 203
0.00518773 -0.597823 0.295251 208 196 200
0.0438071 -0.596693 0.286911 205 191 196
0.0542337 -0.597572 0.285072 200 186 193
0.0604812 -0.597803 0.283914 200 186 193
0.0661971 -0.595078 0.282107 198 184 189
-0.132856 -0.575397 0.321027 213 201 203
-0.124341 -0.573671 0.318272 212 200 202
-0.12063 -0.575577 0.317759 213 201 203
-0.0898486 -0.586937 0.312607 214 204 207
-0.0598961 -0.591293 0.30627 213 201 205
-0.0578917 -0.591519 0.305842 213 201 205
-0.0458501 -0.592701 0.303264 212 200 204
-0.027756 -0.592956 0.299109 212 200 204
-0.0176561 -0.595287 0.297414 208 196 200
0.0311041 -0.597231 0.28741 205 193 197
0.0352764 -0.597903 0.286729 205 191 196
0.0431012 -0.595283 0.284474 203 188 195
0.055512 -0.595932 0.28218 200 186 193
0.0657777 -0.595599 0.280106 198 184 189
-0.0594489 -0.139105 0.190244 134 74 55
-0.10802 -0.583006 0.314094 214 204 207
-0.105904 -0.582474 0.313407 212 203 206
-0.10196 -0.583286 0.312584 214 204 207
-0.0582989 -0.59106 0.30361 213 201 205
-0.0563447 -0.592243 0.303438 213 201 205
-0.0402215 -0.590785 0.299238 212 200 204
-0.0362308 -0.592032 0.298624 211 198 203
-0.0322231 -0.593248 0.298004 211 198 203
-0.0120456 -0.595934 0.294108 208 196 200
0.0204426 -0.597366 0.287444 206 194 198
0.0223658 -0.596294 0.28677 206 194 198
0.0607998 -0.593767 0.278395 199 185 190
-0.0569944 -0.133004 0.187783 147 91 74
-0.128977 -0.572722 0.31492 212 200 204
-0.124748 -0.57183 0.313561 212 200 204
-0.0904473 -0.585068 0.30787 214 202 206
-0.0627599 -0.591099 0.302491 213 201 205
-0.0306626 -0.593857 0.295591 209 197 201
-0.00244478 -0.59553 0.289678 207 195 199
0.00770674 -0.596363 0.287685 206 194 198
0.0117444 -0.596251 0.286794 206 194 198
0.0156924 -0.595134 0.285677 206 194 198
-0.0593855 -0.138252 0.189476 140 80 59
-0.10066 -0.582753 0.307718 214 202 206
-0.0926565 -0.583286 0.3058 214 202 206
-0.0787439 -0.58462 0.302625 214 202 206
-0.0650906 -0.589416 0.30044 212 200 204
-0.0591083 -0.590114 0.299162 212 200 204
-0.0451237 -0.591458 0.296162 209 197 201
-0.0351171 -0.592175 0.294003 209 197 201
-0.0311115 -0.593376 0.293374 208 196 200
-0.00897726 -0.595034 0.28879 206 194 198
0.0233145 -0.595237 0.281904 205 191 196
0.0391359 -0.59213 0.277896 203 188 193
0.0551177 -0.590442 0.274303 200 183 189
0.063444 -0.591331 0.2729 198 184 189
0.0800156 -0.591731 0.269852 193 181 185
-0.123401 -0.571373 0.308761 212 200 204
-0.11989 -0.574207 0.308503 213 201 203
-0.110651 -0.579283 0.307285 214 202 206
-0.0949689 -0.582445 0.304 214 202 206
-0.0911495 -0.584115 0.303431 214 202 206
-0.0435509 -0.591127 0.29352 209 197 201
-0.027557 -0.592111 0.290059 208 196 200
-0.0134463 -0.595465 0.287688 206 194 198
-0.00539192 -0.595534 0.285924 206 194 198
0.0785622 -0.587417 0.266916 193 181 185
-0.137913 -0.571117 0.310438 199 185 188
-0.0912666 -0.581704 0.300709 213 201 205
-0.0793842 -0.582674 0.297965 213 201 205
-0.0773299 -0.582004 0.297298 213 201 205
-0.0419614 -0.589806 0.290649 208 196 200
-0.0319974 -0.588493 0.288032 207 195 199
-0.0161047 -0.589082 0.284574 206 194 198
-0.005976 -0.593086 0.283279 205 193 197
0.0140455 -0.592691 0.278867 205 193 197
0.0536324 -0.587527 0.269565 198 184 189
0.063342 -0.585253 0.267142 196 181 186
-0.125892 -0.569913 0.304781 212 200 204
-0.116786 -0.575088 0.303568 213 201 205
-0.0796533 -0.581202 0.295525 212 200 204
-0.0740235 -0.584955 0.295009 211 198 203
-0.0304557 -0.588081 0.285417 206 194 198
-0.0284729 -0.588174 0.284986 205 193 197
0.0213161 -0.589847 0.274503 204 191 198
0.0254003 -0.59058 0.273823 202 190 196
0.0449919 -0.586951 0.268992 199 185 190
0.0645342 -0.583498 0.264362 194 179 184
0.066685 -0.58417 0.264103 194 179 184
-0.138239 -0.569196 0.305774 239 224 229
-0.131904 -0.567926 0.303791 212 200 204
-0.12444 -0.570838 0.302463 212 200 204
-0.0821643 -0.582314 0.294245 211 198 203
-0.00902656 -0.590096 0.278912 204 192 196
0.0385029 -0.58702 0.268167 200 186 191
0.0582255 -0.584777 0.263738 196 181 186
0.0698179 -0.582083 0.260894 194 179 184
-0.113202 -0.573037 0.297876 212 200 204
-0.0864339 -0.581164 0.29289 209 197 201
-0.0747668 -0.583913 0.290628 207 195 199
-0.0274142 -0.583298 0.279337 204 192 194
0.0219387 -0.585753 0.269146 202 190 194
0.035589 -0.583751 0.265888 202 187 194
0.0725189 -0.578029 0.257358 192 178 183
-0.138343 -0.566291 0.300889 237 225 229
-0.11926 -0.571191 0.296911 211 198 203
-0.115423 -0.572078 0.296107 211 196 203
-0.0554216 -0.584738 0.284009 204 192 194
-0.03767 -0.5842 0.279747 205 191 196
-0.00424153 -0.585101 0.272453 203 188 193
0.0172904 -0.583479 0.267488 203 188 195
0.0464836 -0.580075 0.260765 198 184 189
0.0641553 -0.57873 0.257004 192 178 183
-0.136084 -0.563455 0.297563 211 198 203
-0.123372 -0.569741 0.295545 211 198 203
-0.0636056 -0.582381 0.283303 204 192 196
-0.0538122 -0.583402 0.281198 204 190 194
-0.0165063 -0.584491 0.272892 204 190 194
-0.0106941 -0.582598 0.271198 203 188 193
-0.00286898 -0.58257 0.26948 203 188 195
0.00306527 -0.583445 0.268385 201 189 195
0.00705786 -0.584314 0.267716 203 188 195
0.0267803 -0.584266 0.263558 202 187 194
0.0540214 -0.580518 0.257257 192 178 183
-0.123471 -0.568247 0.293139 209 197 201
-0.111705 -0.568978 0.290253 177 156 159
-0.110108 -0.571307 0.290331 176 148 153
-0.0542116 -0.582842 0.279041 202 187 192
-0.0521716 -0.581071 0.278187 203 188 193
-0.0208877 -0.583845 0.271606 203 188 193
-0.0150686 -0.581997 0.269921 202 187 192
-0.0131156 -0.582018 0.269493 202 187 192
-0.00133943 -0.582957 0.267116 202 187 194
0.00828695 -0.580747 0.264581 202 187 194
0.0161682 -0.581382 0.263045 203 188 193
0.0300469 -0.582427 0.260378 200 186 193
0.0320009 -0.582265 0.259943 200 186 191
0.0453604 -0.578963 0.256545 194 179 184
-0.126787 -0.562947 0.29081 206 192 197
-0.121491 -0.566246 0.290107 206 192 197
-0.119596 -0.566696 0.289708 202 187 192
-0.104812 -0.572904 0.287202 179 129 130
-0.0702169 -0.580548 0.280244 202 187 192
-0.0604106 -0.58071 0.277936 200 186 191
-0.0565132 -0.581108 0.277097 200 186 191
-0.0291668 -0.583012 0.271175 200 186 189
-0.00587893 -0.579487 0.265272 202 187 194
0.0196487 -0.581566 0.260249 203 188 195
0.0541424 -0.57525 0.251943 190 176 180
0.0712272 -0.57164 0.247891 189 174 179
-0.130805 -0.56142 0.289467 207 193 196
-0.107036 -0.571946 0.28546 158 104 104
-0.105266 -0.573298 0.285285 171 112 111
-0.0802964 -0.57864 0.280174 199 185 190
-0.0626781 -0.578944 0.275999 199 185 188
-0.0296074 -0.581449 0.268843 199 185 188
0.0190323 -0.580004 0.25796 200 188 194
0.0305596 -0.578181 0.255202 198 184 189
0.0326203 -0.57899 0.254942 197 183 187
0.077408 -0.574874 0.245289 185 172 179
-0.0610035 -0.132681 0.186011 128 72 50
-0.0747488 -0.577904 0.276571 197 183 185
-0.0629944 -0.577379 0.273657 198 184 187
-0.0591269 -0.577791 0.272824 197 183 185
-0.0339281 -0.579699 0.267369 199 185 188
-0.0242444 -0.578116 0.26487 198 184 189
-0.00692027 -0.57634 0.260688 200 186 191
0.0242244 -0.578046 0.254399 199 185 190
0.045313 -0.575051 0.249506 190 176 180
0.0620254 -0.569786 0.245171 187 172 177
0.0639275 -0.569488 0.244743 188 173 178
-0.066387 -0.1418 0.189 61 29 19
-0.0635215 -0.137965 0.187453 127 69 48
-0.0609269 -0.133952 0.185959 129 73 51
-0.0605118 -0.134215 0.185876 134 78 56
-0.0598858 -0.134604 0.185751 136 80 60
-0.135047 -0.55928 0.286007 201 184 188
-0.0652327 -0.575587 0.271743 196 182 184
-0.059454 -0.576213 0.270498 196 182 184
-0.045858 -0.574462 0.266987 198 184 189
-0.0439631 -0.57558 0.266767 198 184 189
-0.0170128 -0.575708 0.260707 199 185 190
0.0273306 -0.575189 0.251122 195 183 187
0.0446047 -0.573476 0.247274 189 174 179
0.0553921 -0.568091 0.244094 188 173 178
0.0724029 -0.565349 0.240267 182 167 172
-0.0610395 -0.135096 0.185935 134 78 54
-0.157023 -0.573627 0.292395 126 58 47
-0.130964 -0.556825 0.28242 177 158 160
-0.0941972 -0.569835 0.275569 205 186 190
-0.0733672 -0.575011 0.271485 194 177 181
-0.0675969 -0.575731 0.270245 194 179 182
-0.0578038 -0.573839 0.267573 195 181 183
-0.0347568 -0.575538 0.262579 198 184 189
-0.0174909 -0.574109 0.258438 198 184 189
-0.0118537 -0.571198 0.256642 198 184 189
0.00934872 -0.57369 0.252539 199 185 190
0.0172006 -0.575253 0.251178 198 184 189
0.0265734 -0.572616 0.248726 194 182 186
0.0346054 -0.574873 0.247503 192 178 183
0.04375 -0.570913 0.244902 189 174 179
0.0455016 -0.569709 0.244324 189 174 179
0.0548199 -0.567482 0.242052 187 172 177
0.0642659 -0.566038 0.239932 184 170 173
0.0764172 -0.56792 0.237946 173 163 166
-0.122484 -0.561419 0.279034 117 88 85
-0.116164 -0.569879 0.278981 109 53 42
-0.102384 -0.569755 0.275503 165 81 78
-0.0885819 -0.568252 0.271824 198 179 183
-0.0718042 -0.574643 0.268959 193 176 182
-0.0543552 -0.573579 0.264647 196 182 184
-0.0294321 -0.570247 0.258321 198 184 187
-0.0275303 -0.570313 0.257906 197 185 189
0.0298646 -0.57167 0.245821 192 178 183
0.0396731 -0.572682 0.244005 188 173 178
0.0465303 -0.566901 0.241558 188 173 178
0.0557868 -0.564643 0.239304 185 171 176
0.0753821 -0.565376 0.235636 171 160 166
-0.161557 -0.572215 0.289064 138 63 50
-0.139262 -0.555527 0.280241 173 151 156
-0.131454 -0.555616 0.278235 144 123 123
-0.122931 -0.561767 0.277152 107 67 60
-0.121239 -0.56317 0.276973 105 55 44
-0.0889059 -0.567628 0.269729 197 178 182
-0.0547406 -0.572948 0.262556 195 181 183
-0.0470887 -0.573574 0.260899 196 181 186
-0.0355869 -0.573298 0.258221 197 183 185
-0.0336635 -0.571421 0.257444 197 183 185
-0.00337934 -0.567873 0.250102 197 185 189
0.0101868 -0.571359 0.24783 194 182 186
0.0439367 -0.565527 0.239804 184 170 175
0.0456635 -0.564317 0.239239 183 169 173
0.0494173 -0.563828 0.238401 183 169 173
0.0662596 -0.561256 0.234628 179 162 168
-0.065197 -0.139517 0.187121 116 60 40
-0.16807 -0.55728 0.28609 97 41 26
-0.164355 -0.558526 0.285313 126 60 46
-0.156735 -0.568111 0.284947 146 67 59
-0.0930027 -0.566361 0.268448 198 174 180
-0.0417514 -0.573321 0.257571 196 181 186
-0.0321723 -0.567905 0.254436 196 182 184
-0.0264798 -0.570074 0.253544 197 183 187
-0.00767137 -0.5663 0.248726 195 183 187
0.0226676 -0.566939 0.242386 189 174 179
0.0304592 -0.568262 0.241009 184 170 175
0.0324789 -0.569063 0.240736 184 170 175
0.0399115 -0.567287 0.238908 181 166 171
0.0710469 -0.558659 0.231242 168 158 164
-0.170384 -0.55698 0.284582 98 44 28
-0.156466 -0.565621 0.282348 144 66 56
-0.137663 -0.553849 0.275458 121 101 101
-0.129037 -0.559145 0.274148 107 65 57
-0.125694 -0.561986 0.273782 104 54 43
-0.103146 -0.56691 0.268982 165 82 74
-0.0914325 -0.566041 0.265961 194 172 177
-0.0839936 -0.568223 0.264537 188 172 175
-0.0783121 -0.569048 0.263315 187 170 174
-0.0746938 -0.571516 0.262879 187 170 174
-0.0652948 -0.574627 0.261194 191 177 180
-0.0554569 -0.570678 0.258211 194 179 182
-0.0363963 -0.570034 0.25373 196 182 184
-0.0344907 -0.569138 0.253144 196 181 186
-0.0325893 -0.56725 0.252387 196 182 184
-0.0137391 -0.566659 0.248096 193 181 185
0.0316922 -0.566451 0.238418 181 164 170
0.0335764 -0.566264 0.238 179 162 168
0.0373424 -0.565868 0.237163 175 160 165
0.103359 -0.556871 0.222865 103 45 38
0.123196 -0.568954 0.221294 98 62 58
-0.175823 -0.553496 0.283392 92 40 25
-0.159755 -0.553822 0.279175 138 68 55
-0.118122 -0.561185 0.269689 138 72 55
-0.101276 -0.564686 0.266093 182 119 117
-0.0953763 -0.563772 0.264495 195 172 175
-0.0844297 -0.568547 0.262648 186 169 173
-0.0805429 -0.568128 0.261645 186 170 171
-0.00675969 -0.563964 0.244102 194 179 184
0.0103499 -0.56635 0.240837 189 174 179
0.0196574 -0.56478 0.238614 183 169 173
0.0291586 -0.564987 0.236678 176 162 166
0.0347896 -0.564429 0.235428 171 157 162
0.0419889 -0.56162 0.233493 169 155 157
0.0543198 -0.555941 0.230074 160 146 148
0.0616844 -0.554771 0.228428 160 145 150
0.0758306 -0.558248 0.226264 158 148 153
0.0973998 -0.544254 0.219893 98 38 29
0.118943 -0.550723 0.217033 95 39 33
0.122841 -0.544347 0.215304 93 40 33
-0.176959 -0.549432 0.280987 91 39 22
-0.174563 -0.548226 0.280156 95 40 24
-0.172179 -0.547008 0.279326 95 43 27
-0.161764 -0.545426 0.276313 131 65 50
-0.114157 -0.55847 0.266218 152 79 63
-0.103009 -0.560763 0.263835 178 108 104
-0.0991445 -0.560496 0.262844 200 163 167
-0.0885341 -0.5673 0.261383 186 168 169
-0.0867581 -0.568573 0.261165 186 167 171
-0.082972 -0.569147 0.26035 185 169 169
-0.0504881 -0.568845 0.252676 192 178 181
-0.0409595 -0.566528 0.250115 194 179 182
-0.039076 -0.566632 0.249706 194 179 182
-0.0183651 -0.566289 0.245021 194 179 184
-0.012793 -0.564329 0.243474 194 179 184
-0.0090888 -0.563314 0.242498 192 178 183
-0.00529503 -0.564243 0.241829 190 178 182
0.0394364 -0.560193 0.231782 163 151 155
0.0428484 -0.557782 0.230696 160 145 150
0.093655 -0.539254 0.217843 86 27 22
0.0949031 -0.536892 0.217233 86 27 22
0.122771 -0.522622 0.209934 96 46 31
0.135483 -0.525658 0.208192 111 57 39
-0.181965 -0.544943 0.279589 60 25 17
-0.178967 -0.541906 0.278317 82 34 18
-0.171494 -0.54358 0.276585 98 44 28
-0.159109 -0.548794 0.274132 125 61 49
-0.13834 -0.551925 0.269253 103 61 52
-0.13531 -0.555781 0.269088 103 57 46
-0.131823 -0.557702 0.268506 105 57 44
-0.105006 -0.558765 0.261983 180 104 98
-0.102858 -0.557186 0.261204 187 121 121
-0.0909766 -0.568278 0.260088 186 168 169
-0.0300713 -0.567345 0.245779 195 180 185
-0.0188293 -0.564618 0.242844 194 179 184
-0.00772321 -0.561617 0.239932 191 177 182
-0.00213377 -0.561496 0.238704 190 175 182
-0.000207652 -0.562428 0.23844 189 174 179
0.0601498 -0.551482 0.224267 143 129 132
0.0789949 -0.542843 0.21925 87 26 24
0.0938902 -0.528112 0.214141 72 19 12
0.10312 -0.527705 0.212378 76 20 16
0.113495 -0.524683 0.210032 86 33 26
0.124173 -0.517082 0.206967 97 45 28
0.129594 -0.516277 0.205896 107 53 37
-0.142207 -0.550252 0.267972 103 54 45
-0.13695 -0.552719 0.26701 102 56 44
-0.11367 -0.55134 0.260952 168 91 73
-0.110507 -0.555026 0.260742 170 91 77
-0.0398619 -0.564275 0.245483 194 179 184
-0.0230092 -0.563878 0.24165 194 179 184
-0.0211581 -0.562918 0.24109 194 179 184
-0.0155865 -0.561967 0.239715 192 178 183
0.0217653 -0.561467 0.23165 171 159 163
0.0327963 -0.559447 0.229053 162 148 152
0.0696387 -0.544953 0.219452 128 115 115
0.0714373 -0.544603 0.21905 128 115 115
0.0996117 -0.523692 0.210539 66 14 9
0.101901 -0.525126 0.210335 72 18 14
0.12282 -0.514543 0.204979 94 44 29
-0.161289 -0.546907 0.270386 116 57 45
-0.124052 -0.544292 0.260488 143 78 61
-0.113758 -0.549691 0.25874 168 93 78
-0.0838507 -0.566136 0.253975 183 164 168
-0.076414 -0.568164 0.25252 187 170 174
-0.0727206 -0.569625 0.251873 187 172 175
-0.0689321 -0.570075 0.251053 189 175 177
-0.0234377 -0.563178 0.239642 194 179 184
-0.0197481 -0.561248 0.238532 192 178 183
0.035831 -0.557363 0.226139 156 142 145
0.0424409 -0.55156 0.223915 142 128 131
0.044264 -0.55132 0.223511 139 125 127
0.0495591 -0.549575 0.222182 137 120 124
0.0626355 -0.549484 0.219573 122 105 109
0.10641 -0.522978 0.207329 71 17 12
0.121803 -0.512934 0.203091 94 44 29
-0.141491 -0.544144 0.262897 105 52 40
-0.138116 -0.5461 0.262325 112 57 46
-0.134719 -0.548032 0.261747 119 58 44
-0.132698 -0.54755 0.261168 124 63 47
-0.0934171 -0.562986 0.253771 184 160 164
-0.0557232 -0.564788 0.245173 191 177 182
-0.0276077 -0.560412 0.238164 192 178 183
0.00581306 -0.560028 0.230835 185 171 178
0.0316117 -0.55706 0.224993 160 145 150
0.0471915 -0.549132 0.220655 136 119 123
0.0788527 -0.532267 0.211975 58 13 7
0.087581 -0.530237 0.21002 58 12 9
0.0935382 -0.518449 0.207205 59 12 5
0.105755 -0.522291 0.205495 71 19 14
0.115995 -0.519175 0.203188 81 35 26
0.118743 -0.516194 0.202271 87 41 29
-0.148902 -0.534193 0.261411 110 49 33
-0.128697 -0.544904 0.257812 143 77 63
-0.0955837 -0.561967 0.252131 184 159 160
-0.0521773 -0.560432 0.241728 191 177 182
0.0237187 -0.55706 0.224665 167 155 159
0.0255618 -0.556892 0.224258 166 154 158
0.0776586 -0.536786 0.210965 66 21 14
0.0867216 -0.535739 0.209083 61 18 12
0.110527 -0.521022 0.202592 72 26 14
0.115956 -0.520378 0.201515 80 34 24
0.118768 -0.512127 0.199872 89 42 23
0.127251 -0.49968 0.196658 135 77 58
0.133745 -0.506862 0.196492 135 77 56
-0.177654 -0.520614 0.26509 85 40 21
-0.142682 -0.523134 0.256381 122 58 45
-0.132792 -0.536099 0.255662 138 75 58
-0.119191 -0.54251 0.253163 172 103 92
-0.115614 -0.543322 0.252394 177 110 105
-0.112201 -0.545073 0.2518 181 124 123
-0.100593 -0.554413 0.250276 186 158 160
-0.0823127 -0.558408 0.246466 183 167 170
-0.048806 -0.558993 0.238776 192 178 183
-0.00634048 -0.556999 0.229075 189 174 179
0.0286016 -0.554826 0.221381 163 149 154
0.0376201 -0.552823 0.219247 148 134 137
0.110169 -0.521273 0.200843 78 31 22
0.116455 -0.506718 0.197749 88 43 26
0.119856 -0.490789 0.195021 130 72 51
0.124091 -0.492452 0.194487 140 80 59
-0.166645 -0.520888 0.260345 118 62 43
-0.165224 -0.522426 0.260178 120 64 44
-0.128937 -0.54253 0.253633 150 82 64
-0.11924 -0.540827 0.251007 179 112 105
-0.108698 -0.544136 0.248873 191 149 152
-0.0956461 -0.556628 0.24741 181 158 161
-0.0491069 -0.556281 0.236503 191 177 180
-0.0453985 -0.555532 0.23556 191 177 182
-0.0307019 -0.554216 0.232082 192 178 183
-0.0270316 -0.555299 0.231415 192 178 183
-0.0124669 -0.552395 0.227821 188 173 178
-0.00500928 -0.555224 0.22659 188 173 178
0.016786 -0.552103 0.221526 173 161 165
0.0297869 -0.552918 0.218929 161 147 149
0.0316129 -0.552723 0.218526 157 143 146
0.0489813 -0.545456 0.214006 114 66 64
0.0657282 -0.545652 0.210695 91 47 39
0.0802062 -0.535538 0.206524 76 32 22
0.0849667 -0.525209 0.204241 78 31 22
0.0938882 -0.505374 0.19994 102 47 31
0.110594 -0.518146 0.19851 81 35 26
0.115544 -0.48501 0.193317 128 70 47
0.121997 -0.488011 0.192547 139 79 58
0.123932 -0.488367 0.192248 141 83 62
0.147258 -0.528658 0.193269 141 82 64
0.16431 -0.565955 0.195019 125 77 63
-0.175477 -0.506529 0.258932 85 40 23
-0.173713 -0.512441 0.259216 101 52 32
-0.168389 -0.513364 0.257948 110 56 38
-0.161328 -0.527251 0.257889 113 54 38
-0.151007 -0.517204 0.253967 119 60 43
-0.130102 -0.53751 0.251324 157 87 70
-0.112183 -0.540715 0.247335 185 143 148
-0.0811014 -0.557208 0.242059 185 168 171
-0.0720493 -0.560367 0.240358 187 172 175
-0.0643505 -0.557239 0.238161 189 175 177
-0.0513145 -0.555406 0.234931 190 176 178
-0.0402784 -0.555093 0.232393 191 177 182
-0.0292794 -0.553519 0.229729 191 177 182
-0.0274442 -0.554552 0.229459 192 178 183
0.00179115 -0.553226 0.222919 184 170 175
0.053072 -0.550044 0.211868 95 38 37
0.0661135 -0.540681 0.208055 89 39 24
0.0758509 -0.534619 0.205365 93 45 32
0.0837198 -0.502029 0.199663 99 47 32
0.0866886 -0.494032 0.198079 112 53 36
0.114719 -0.479054 0.191015 132 74 52
0.124822 -0.487073 0.190202 142 84 61
0.154968 -0.543981 0.191893 134 78 56
-0.147662 -0.510375 0.25041 126 65 47
-0.130364 -0.528634 0.248351 163 93 75
-0.0442973 -0.553154 0.2311 191 177 182
-0.0370176 -0.555497 0.229766 191 177 182
-0.00779302 -0.552779 0.222988 188 173 178
0.0158 -0.550605 0.217677 173 161 165
0.0175132 -0.549474 0.217172 172 160 164
0.0546786 -0.55097 0.209731 93 38 31
0.056862 -0.552628 0.209502 97 41 35
0.067817 -0.525262 0.203887 96 48 32
0.0736537 -0.527086 0.202974 95 47 31
0.0810222 -0.4874 0.196614 109 53 35
0.0836206 -0.484648 0.19578 115 56 40
0.0897244 -0.488141 0.195058 118 62 45
0.0960829 -0.497738 0.195045 117 61 43
0.111192 -0.495133 0.191926 100 50 31
0.11783 -0.479094 0.188777 140 80 59
0.125344 -0.484835 0.188118 146 88 66
-0.172371 -0.506367 0.254421 102 53 33
-0.160527 -0.515822 0.252499 119 58 42
-0.15912 -0.517334 0.252321 119 60 41
-0.128963 -0.537457 0.24719 161 90 75
-0.103068 -0.548213 0.242211 181 155 157
-0.0780591 -0.55621 0.237281 185 171 174
-0.0762219 -0.556446 0.236882 185 171 176
-0.0594131 -0.554286 0.232733 189 174 179
-0.0500988 -0.551055 0.230211 190 176 180
-0.0483182 -0.552168 0.229946 191 177 182
-0.0392249 -0.553665 0.228085 190 176 180
0.0097825 -0.549236 0.216855 178 164 169
0.0512504 -0.544626 0.207712 103 41 39
0.0620816 -0.52553 0.203218 95 43 29
0.0633839 -0.523246 0.202682 97 44 30
0.0922523 -0.486487 0.192687 120 63 46
0.102494 -0.496966 0.192014 106 52 36
0.1127 -0.475713 0.187631 125 72 49
-0.166625 -0.504663 0.250913 106 54 37
-0.132113 -0.502291 0.241929 164 94 79
-0.129677 -0.522335 0.243672 162 89 75
-0.129451 -0.52952 0.244459 163 90 76
-0.128964 -0.535747 0.24507 162 89 77
-0.126046 -0.539519 0.244798 154 85 77
-0.110966 -0.537881 0.24094 185 150 155
-0.0802105 -0.555205 0.2357 185 171 174
-0.0708716 -0.554375 0.233431 188 174 176
-0.0671365 -0.553791 0.232499 188 173 178
-0.0597636 -0.55352 0.230775 189 174 179
-0.0560058 -0.551853 0.229718 189 175 177
-0.0323112 -0.55118 0.224307 192 178 183
0.0145281 -0.546103 0.213561 174 162 166
0.0218271 -0.546485 0.212075 170 156 161
0.0396347 -0.543467 0.208032 141 122 124
0.0433673 -0.543958 0.207327 129 95 95
0.0467796 -0.542452 0.206455 112 49 45
0.0570896 -0.538755 0.203939 104 48 40
0.0590576 -0.530299 0.202549 99 44 33
0.0651488 -0.516928 0.199768 102 52 39
0.0699755 -0.51489 0.19858 100 49 37
0.0748949 -0.479924 0.193547 110 53 38
0.117314 -0.475191 0.185067 131 75 55
-0.17747 -0.503032 0.251696 83 40 25
-0.156034 -0.504536 0.246387 122 65 48
-0.144116 -0.500104 0.242893 138 75 58
-0.140623 -0.500138 0.242024 147 81 65
-0.0768644 -0.554916 0.232931 185 171 176
-0.0563598 -0.551077 0.227775 189 175 177
-0.0527273 -0.551359 0.226982 189 174 179
-0.0435574 -0.54896 0.224636 191 177 182
-0.0345078 -0.548358 0.222544 191 177 182
0.0268348 -0.546163 0.209089 164 150 155
0.0359567 -0.546115 0.207195 152 136 139
0.0476748 -0.539444 0.204036 108 47 45
0.0553959 -0.53211 0.20164 106 48 38
0.0719724 -0.482808 0.192783 108 51 38
0.15177 -0.530541 0.183149 135 82 61
0.168735 -0.56681 0.184003 137 109 102
-0.168456 -0.502589 0.24752 103 54 36
-0.159703 -0.503616 0.245408 120 63 46
-0.151243 -0.499186 0.242801 129 71 52
-0.129759 -0.511705 0.238823 163 90 78
-0.098609 -0.547889 0.235293 177 156 159
-0.0969436 -0.549183 0.235042 179 158 160
-0.0913877 -0.549102 0.233723 183 164 166
-0.08596 -0.549936 0.232543 185 168 171
-0.0789092 -0.552917 0.231231 185 171 176
-0.0095709 -0.549677 0.215309 185 171 176
-0.000716389 -0.546392 0.213034 181 169 173
0.00997593 -0.544796 0.210577 178 164 169
0.0118591 -0.545662 0.210274 176 162 166
0.0135584 -0.544537 0.20979 174 162 166
0.029782 -0.544 0.206334 161 147 149
0.0398906 -0.538714 0.203664 145 123 128
0.0413457 -0.536497 0.203122 130 105 107
0.0614832 -0.511812 0.196344 104 51 39
0.0698425 -0.482395 0.191492 103 46 31
0.0709249 -0.467739 0.189693 120 63 46
0.0993863 -0.475168 0.185061 118 66 47
0.109326 -0.479231 0.183637 119 65 45
0.12414 -0.481303 0.181129 133 80 57
0.132038 -0.492185 0.180827 132 79 56
-0.170484 -0.502173 0.246184 100 50 33
-0.148396 -0.500412 0.240439 137 74 57
-0.131643 -0.50331 0.236595 163 93 75
-0.130688 -0.506638 0.23671 162 91 76
-0.129577 -0.517147 0.237541 163 87 76
-0.128942 -0.530565 0.238798 161 88 76
-0.126076 -0.53433 0.238498 135 76 73
-0.122181 -0.533231 0.237438 179 142 146
-0.115004 -0.533845 0.235773 178 146 148
-0.11185 -0.536542 0.235302 180 147 151
-0.0424548 -0.545482 0.220184 189 174 179
-0.0316901 -0.545882 0.217831 189 174 179
-0.00825343 -0.54784 0.212914 185 171 176
0.00413367 -0.544333 0.209877 180 165 170
0.00941316 -0.543008 0.208611 177 163 168
0.0218915 -0.541978 0.205871 170 156 159
0.122256 -0.48207 0.179859 128 75 52
0.135524 -0.497311 0.178962 130 76 53
0.155805 -0.537652 0.179307 132 78 58
-0.168331 -0.500146 0.243632 109 58 39
-0.15905 -0.499266 0.241207 125 66 47
-0.150924 -0.495754 0.238826 133 72 56
-0.13619 -0.499242 0.235526 159 91 75
-0.134812 -0.500661 0.23533 160 92 76
-0.13063 -0.520221 0.23628 161 86 75
-0.122588 -0.533418 0.235668 176 144 146
-0.104221 -0.543379 0.232293 177 153 157
-0.0735392 -0.546086 0.225403 187 172 177
-0.069865 -0.545508 0.224499 188 173 178
-0.0626209 -0.545251 0.222815 188 173 178
-0.0428276 -0.544678 0.218286 189 174 179
-0.0392476 -0.54484 0.217504 189 174 179
-0.0338632 -0.543039 0.216121 189 174 179
-0.0105383 -0.546087 0.211324 184 170 175
0.0398138 -0.531951 0.199243 144 119 123
0.0445364 -0.528226 0.197895 120 81 83
0.0508945 -0.524159 0.196186 105 49 43
0.0680289 -0.471713 0.187458 114 55 39
0.0680414 -0.46554 0.186836 116 58 41
0.0787739 -0.458571 0.184055 122 64 45
0.0937335 -0.460321 0.181372 123 65 46
-0.161349 -0.499818 0.240053 128 70 51
-0.138187 -0.498943 0.234227 159 91 75
-0.136573 -0.49941 0.233876 159 91 75
-0.107708 -0.539941 0.230867 174 151 154
-0.10432 -0.541604 0.230228 177 153 157
-0.0827984 -0.544128 0.225438 184 170 175
-0.0396257 -0.544027 0.215614 189 174 179
-0.0360193 -0.541175 0.214529 189 174 179
0.0190149 -0.539543 0.202473 174 160 162
0.0330185 -0.537013 0.1993 160 146 148
0.0511314 -0.518152 0.193735 100 48 43
0.0603915 -0.504201 0.190509 91 42 36
0.0634411 -0.502545 0.189739 96 45 35
0.0776265 -0.455844 0.18245 121 63 42
0.0790756 -0.455433 0.182131 120 61 45
0.0933104 -0.455259 0.17939 129 68 50
0.105686 -0.462669 0.177753 132 74 50
0.119815 -0.477737 0.176524 127 74 51
0.14599 -0.515819 0.175218 130 79 58
-0.171051 -0.50082 0.240788 117 63 45
-0.164669 -0.4979 0.238924 124 70 52
-0.153574 -0.496505 0.236034 137 75 60
-0.142628 -0.494802 0.233176 154 87 68
-0.135818 -0.501951 0.232168 160 92 76
-0.102797 -0.541132 0.22792 176 155 158
-0.0883148 -0.541554 0.224571 184 170 173
-0.0595308 -0.540969 0.217906 188 173 178
-0.0577562 -0.541118 0.217518 188 173 178
-0.0417619 -0.542134 0.214022 188 173 178
-0.0346201 -0.539412 0.212175 188 173 178
-0.0275519 -0.538565 0.210534 188 173 178
-0.0151235 -0.54054 0.208003 184 170 175
0.0201794 -0.537565 0.200173 174 160 162
0.0529965 -0.511832 0.190975 95 45 41
0.0542697 -0.509565 0.190505 92 43 37
0.0588181 -0.506649 0.189316 88 38 32
0.0851418 -0.455782 0.179438 119 58 42
0.114784 -0.470044 0.175104 132 77 55
-0.183755 -0.499375 0.242062 66 29 14
-0.17988 -0.504097 0.24149 84 42 22
-0.160949 -0.496369 0.236088 136 75 57
-0.159345 -0.496925 0.235738 136 75 57
-0.113301 -0.536275 0.228062 174 148 150
-0.101278 -0.540642 0.225619 180 159 161
-0.0705628 -0.540091 0.218456 187 172 177
-0.0634752 -0.540816 0.216907 187 172 177
-0.0526835 -0.538706 0.214275 188 173 178
-0.029712 -0.536711 0.208978 188 173 178
0.00567783 -0.538865 0.201503 180 165 170
0.0214461 -0.536565 0.197957 173 158 163
0.0379258 -0.52753 0.193707 152 136 139
0.0448178 -0.516383 0.191286 118 90 95
0.0652136 -0.47774 0.183716 101 42 28
0.0663296 -0.469256 0.182742 106 46 35
0.082213 -0.452535 0.178162 119 58 42
0.138877 -0.500407 0.171548 129 78 55
-0.18517 -0.502307 0.240855 71 30 15
-0.169325 -0.493637 0.236176 125 71 53
-0.152654 -0.49112 0.231838 148 82 66
-0.148938 -0.490254 0.230852 150 82 66
-0.142608 -0.492238 0.229469 156 85 71
-0.140189 -0.496062 0.229202 157 89 73
-0.136825 -0.503216 0.228988 159 90 77
-0.0548417 -0.538737 0.212897 187 172 177
-0.0459782 -0.538303 0.210871 188 173 178
-0.0335982 -0.533806 0.207728 187 172 177
-0.0301033 -0.534876 0.20705 188 173 178
-0.0195739 -0.535922 0.204833 184 170 175
0.0190871 -0.534912 0.196456 175 160 165
0.0342478 -0.529148 0.192788 161 145 148
0.0662762 -0.464183 0.180725 108 51 38
0.0682194 -0.459572 0.179951 114 57 42
0.102487 -0.452229 0.172701 142 79 59
0.107436 -0.456819 0.172139 140 79 61
-0.170027 -0.489442 0.234258 128 72 52
-0.164365 -0.488375 0.23277 139 78 60
-0.160918 -0.48856 0.231933 144 81 64
-0.148763 -0.488492 0.228941 152 84 68
-0.141654 -0.493813 0.227633 159 89 74
-0.140567 -0.496203 0.227562 159 91 75
-0.127694 -0.531472 0.227315 185 148 151
-0.0814185 -0.534159 0.216694 184 170 173
-0.077821 -0.533627 0.215825 185 171 174
-0.0551295 -0.536899 0.210943 187 172 177
-0.0532742 -0.535036 0.210372 187 172 177
-0.0480583 -0.536365 0.209313 187 172 177
-0.0427385 -0.534644 0.207983 187 172 177
-0.0357091 -0.531915 0.206197 187 172 177
-0.0269961 -0.534073 0.204456 187 172 177
-0.0217546 -0.534087 0.203309 184 170 175
0.0167453 -0.533242 0.194967 173 161 165
0.0220938 -0.533717 0.193879 174 159 164
0.0367293 -0.524871 0.190095 157 140 143
0.0382873 -0.523638 0.189671 154 135 139
0.04639 -0.51022 0.186903 117 91 93
0.0509784 -0.507378 0.185732 91 57 59
0.0764395 -0.451177 0.176097 115 56 40
0.0824459 -0.45045 0.174866 118 57 41
0.0889448 -0.44631 0.173279 135 72 54
0.0969831 -0.446767 0.171769 143 78 61
0.105396 -0.452257 0.170593 144 81 64
0.119496 -0.462942 0.168753 140 84 65
-0.177109 -0.493357 0.234562 115 64 45
-0.17069 -0.485242 0.232366 128 71 54
-0.137156 -0.508761 0.225958 155 91 78
-0.12962 -0.530219 0.225805 162 107 107
-0.113976 -0.5338 0.222378 175 149 153
-0.103327 -0.534889 0.219967 180 162 164
-0.0926772 -0.535715 0.217556 183 167 170
-0.0887923 -0.533301 0.216469 183 169 171
-0.0764686 -0.533987 0.213692 185 171 174
-0.0659038 -0.534152 0.211301 185 171 174
-0.0589129 -0.534781 0.20977 185 171 174
-0.0483335 -0.533521 0.207297 185 171 176
-0.0413307 -0.532869 0.205686 187 172 177
-0.0064676 -0.532894 0.198058 180 168 172
0.0177877 -0.530241 0.192673 176 162 166
0.0406882 -0.519321 0.187034 150 132 133
0.0418833 -0.516101 0.186536 145 124 126
0.0706585 -0.453851 0.175909 111 56 43
0.0727245 -0.450179 0.175221 114 57 42
0.14193 -0.497001 0.165397 135 86 64
-0.184995 -0.499015 0.235148 92 47 30
-0.143472 -0.49168 0.224453 160 92 76
-0.123283 -0.53299 0.22264 173 143 146
-0.0962929 -0.533308 0.216348 182 166 169
-0.0944114 -0.532613 0.215861 183 167 170
-0.0364403 -0.529199 0.202492 185 171 176
-0.027786 -0.531357 0.200748 184 170 175
0.0223718 -0.527857 0.189704 172 160 162
0.0322768 -0.523638 0.187315 168 152 155
0.0426951 -0.513008 0.184366 144 120 126
0.0766925 -0.44908 0.172833 115 56 40
0.0817794 -0.445472 0.171574 120 59 43
0.0825882 -0.443127 0.171249 124 61 44
0.1066 -0.444344 0.166692 150 87 69
0.154574 -0.518783 0.162745 132 83 61
-0.185266 -0.493852 0.23308 89 41 25
-0.171031 -0.479289 0.228602 134 76 57
-0.132995 -0.525741 0.222563 160 90 84
-0.116338 -0.53272 0.219117 173 150 153
-0.112678 -0.532473 0.218243 176 155 158
-0.0769499 -0.531278 0.20991 185 171 176
-0.0682671 -0.532254 0.208007 184 170 175
-0.0631191 -0.533749 0.20695 185 171 174
-0.0506333 -0.5287 0.20379 185 171 174
-0.0368084 -0.528328 0.200693 185 171 174
-0.0350935 -0.529372 0.200388 184 170 175
-0.00571103 -0.529096 0.193961 179 167 171
0.0200458 -0.526183 0.188262 174 162 166
0.0282231 -0.522226 0.186264 172 155 159
0.0477181 -0.505114 0.181018 114 89 91
0.059712 -0.497673 0.178049 68 41 41
0.0672762 -0.493935 0.176259 66 14 11
0.0710857 -0.457933 0.173026 109 54 40
0.07381 -0.450963 0.172009 114 57 44
0.106987 -0.442047 0.164938 150 87 67
-0.157246 -0.478271 0.223475 155 91 74
-0.149286 -0.479915 0.221653 163 97 83
-0.144462 -0.48665 0.220923 161 93 80
-0.121557 -0.529744 0.21828 173 145 148
-0.118098 -0.530514 0.21752 175 149 153
-0.0873569 -0.527033 0.210167 183 169 171
-0.0856387 -0.527282 0.20979 182 168 170
-0.04241 -0.530259 0.200248 185 171 174
-0.0372022 -0.529444 0.199041 185 171 174
-0.00619916 -0.527221 0.192126 179 167 171
0.0092687 -0.526262 0.188747 177 165 169
0.0325266 -0.518706 0.183337 163 133 136
0.0555304 -0.495521 0.177057 70 38 38
0.130539 -0.468104 0.160508 145 90 67
-0.171111 -0.477637 0.225126 140 79 61
-0.144293 -0.484843 0.219072 161 93 77
-0.143266 -0.487234 0.218971 157 92 75
-0.139743 -0.499661 0.218881 146 84 73
-0.134819 -0.52263 0.21911 158 95 89
-0.131635 -0.524473 0.218471 171 127 131
-0.107078 -0.526884 0.212876 180 162 164
-0.0967551 -0.528747 0.210607 182 166 169
-0.0652609 -0.528853 0.203442 184 170 175
-0.0600835 -0.529308 0.202306 184 170 173
-0.0582959 -0.528451 0.201852 184 170 173
-0.0565722 -0.528581 0.201474 184 170 173
-0.0444933 -0.529299 0.198827 184 170 173
-0.00668403 -0.525339 0.190306 177 165 169
0.0495289 -0.500809 0.17692 89 55 55
0.0507635 -0.49854 0.176526 81 46 49
0.0685871 -0.488538 0.172276 89 33 27
0.06931 -0.465676 0.170743 102 46 35
0.0774705 -0.444714 0.167848 118 56 43
0.0793979 -0.440995 0.167242 122 60 47
0.0875033 -0.433122 0.165175 142 79 61
0.0983776 -0.433509 0.163072 150 87 67
0.139483 -0.481643 0.157928 140 87 64
0.150135 -0.502086 0.157059 133 79 59
-0.171479 -0.477735 0.22353 142 79 61
-0.165602 -0.475722 0.221994 155 89 75
-0.155248 -0.475219 0.219466 166 103 88
-0.144389 -0.483986 0.217355 157 91 77
-0.130104 -0.524037 0.216247 175 143 144
-0.103711 -0.525674 0.210196 181 165 168
-0.0794218 -0.527438 0.204738 184 170 173
-0.0551228 -0.526818 0.19923 184 170 173
-0.0448132 -0.52741 0.19697 184 170 173
-0.0327587 -0.524789 0.194155 181 170 171
-0.0190251 -0.526796 0.191268 174 164 168
-0.0105301 -0.524581 0.189294 169 157 159
0.0031371 -0.523872 0.18631 155 146 147
0.0692375 -0.49971 0.171107 60 10 8
0.0754775 -0.44426 0.166715 114 55 41
0.0820493 -0.435962 0.164943 128 65 47
0.0858447 -0.433667 0.164065 138 75 58
-0.18156 -0.480365 0.224419 115 59 39
-0.173373 -0.477234 0.222274 142 79 61
-0.160774 -0.475596 0.219149 158 95 77
-0.157125 -0.474782 0.218231 160 98 85
-0.136608 -0.519488 0.215697 156 100 96
-0.128577 -0.523584 0.214031 173 143 146
-0.125167 -0.524401 0.213278 173 145 148
-0.119845 -0.524599 0.212048 174 151 154
-0.105811 -0.525453 0.208844 182 163 167
-0.102545 -0.527068 0.208179 181 165 168
-0.0988081 -0.525705 0.207247 182 166 169
-0.0571618 -0.525796 0.197821 184 170 175
-0.0554488 -0.525919 0.197445 184 170 175
-0.0451929 -0.527507 0.195251 184 170 175
-0.0127378 -0.521742 0.187823 158 148 149
0.00261305 -0.521977 0.184527 145 136 137
0.0691201 -0.500777 0.16947 45 6 3
0.0723037 -0.450371 0.16617 106 51 42
0.0751733 -0.444342 0.165278 111 54 42
0.0893088 -0.43141 0.161795 146 83 68
0.0920168 -0.430456 0.161212 149 85 70
0.118823 -0.442547 0.156582 148 90 68
0.122932 -0.448405 0.156077 148 90 68
0.155894 -0.508176 0.152666 131 87 68
-0.190989 -0.485256 0.225225 79 35 22
-0.184178 -0.481671 0.223405 111 55 38
-0.162653 -0.475133 0.217909 158 95 77
-0.142012 -0.491329 0.213775 145 83 70
-0.118142 -0.523113 0.209752 176 155 158
-0.0885196 -0.524474 0.203016 182 168 170
-0.0765489 -0.526065 0.200382 183 169 171
-0.0660989 -0.525169 0.197985 183 169 173
-0.0403698 -0.525804 0.192291 173 162 163
-0.0215597 -0.524011 0.188074 161 152 153
0.0344559 -0.507508 0.175261 143 54 52
0.037744 -0.507001 0.174547 133 47 44
0.0699188 -0.498531 0.167476 52 6 6
0.0710967 -0.452775 0.165007 101 48 39
0.0719941 -0.450448 0.164713 104 51 39
0.0846248 -0.431924 0.161289 141 77 62
0.098158 -0.43137 0.158581 149 91 72
0.101221 -0.431277 0.157973 149 91 72
0.111954 -0.434534 0.156021 150 89 68
-0.172755 -0.473664 0.218596 146 80 62
-0.159666 -0.475355 0.215538 160 99 83
-0.152404 -0.473656 0.213737 165 101 89
-0.148145 -0.476103 0.212835 159 93 76
-0.145927 -0.479936 0.21248 151 87 75
-0.14238 -0.491408 0.212153 144 80 68
-0.0938787 -0.522785 0.202349 180 165 168
-0.0663997 -0.524258 0.196207 182 168 170
-0.062986 -0.524565 0.195457 171 159 161
-0.0475973 -0.525605 0.19208 174 163 164
0.00261746 -0.532117 0.181431 140 133 131
0.00435575 -0.531995 0.181053 137 131 129
0.03052 -0.50609 0.174291 141 55 52
0.046504 -0.501469 0.170733 78 22 16
0.0513657 -0.500548 0.16968 67 15 14
0.090765 -0.428714 0.158464 148 89 73
0.0921096 -0.428231 0.158176 148 89 73
0.108798 -0.431455 0.155016 147 87 66
-0.194105 -0.482228 0.222386 78 32 18
-0.167588 -0.472665 0.215653 159 93 74
-0.0959608 -0.522587 0.20101 181 164 170
-0.0905913 -0.521414 0.19974 184 170 175
-0.0802954 -0.521839 0.197428 182 168 170
-0.0785986 -0.522051 0.197055 183 169 173
-0.0427845 -0.523907 0.189145 131 122 123
-0.0359612 -0.524105 0.187651 101 95 95
-0.0204588 -0.530142 0.184516 87 83 80
-0.000448119 -0.544386 0.180789 79 73 70
0.0461521 -0.501543 0.169097 92 24 22
0.0495832 -0.501918 0.168398 81 22 19
0.0654865 -0.504702 0.165217 40 3 2
0.069646 -0.461429 0.16259 98 48 38
0.074815 -0.441261 0.160722 112 58 42
-0.151601 -0.474294 0.210272 161 95 81
-0.141887 -0.506406 0.209169 150 96 92
-0.0823704 -0.52169 0.196098 152 141 142
-0.0739781 -0.523707 0.194287 142 130 134
-0.0704806 -0.523075 0.193479 135 123 125
-0.0501928 -0.528657 0.189175 127 118 119
-0.0467455 -0.528827 0.188419 111 104 104
-0.0449901 -0.527903 0.187996 110 103 103
-0.0381372 -0.530129 0.186571 99 92 92
0.03457 -0.504516 0.169929 138 49 49
0.0381566 -0.505974 0.169229 137 48 46
0.060007 -0.504889 0.164625 61 12 5
0.0624987 -0.508438 0.164241 56 9 4
0.0724901 -0.450242 0.160034 101 48 39
0.0911882 -0.42741 0.155428 145 88 73
0.104031 -0.42895 0.152916 144 86 67
0.129754 -0.45171 0.148609 146 88 66
-0.174659 -0.4714 0.213969 147 82 63
-0.156485 -0.472821 0.209721 161 100 84
-0.155277 -0.474286 0.209484 162 98 83
-0.152248 -0.475303 0.208806 159 93 76
-0.109926 -0.518309 0.200437 160 144 147
-0.0874484 -0.518087 0.195327 136 124 126
-0.0792471 -0.52119 0.193586 127 115 117
-0.0758582 -0.521592 0.192839 129 117 119
-0.0526756 -0.536607 0.188189 114 107 107
0.0602796 -0.507883 0.162937 77 23 18
0.0691866 -0.508935 0.161124 45 4 2
0.070142 -0.505621 0.160816 45 4 2
0.0710428 -0.469281 0.159431 86 34 29
-0.191066 -0.476638 0.216339 109 53 33
-0.186185 -0.473324 0.21509 118 62 43
-0.184311 -0.473035 0.214638 125 66 47
-0.162532 -0.469803 0.209408 155 96 80
-0.154117 -0.474849 0.207577 157 94 76
-0.145155 -0.490231 0.205927 139 77 64
-0.119094 -0.518577 0.200746 149 132 133
-0.113668 -0.517688 0.19948 144 127 131
-0.111988 -0.51803 0.199107 140 126 128
-0.0931449 -0.519365 0.194871 134 122 122
-0.0798437 -0.523231 0.191994 108 99 97
-0.0670771 -0.535632 0.189515 119 110 111
-0.0622983 -0.543049 0.188677 110 101 102
-0.0360438 -0.592285 0.184382 81 77 76
0.0392462 -0.506806 0.165573 137 49 44
0.0445178 -0.507925 0.164496 129 48 41
0.0463425 -0.508611 0.164133 121 42 37
0.0543798 -0.506038 0.162372 101 38 30
0.0727488 -0.448011 0.156871 97 49 35
0.0784618 -0.431641 0.155236 130 72 53
0.155387 -0.494706 0.141485 127 74 53
-0.169183 -0.468566 0.209296 157 94 76
-0.160754 -0.468501 0.20732 156 97 81
-0.146002 -0.485969 0.204313 139 77 64
-0.115726 -0.517388 0.198151 127 113 114
-0.0918357 -0.519673 0.192799 108 99 97
-0.0867695 -0.520409 0.191678 95 84 81
-0.0704693 -0.550454 0.188819 93 84 82
-0.0644 -0.56802 0.187933 94 88 88
0.0727102 -0.449015 0.15539 96 47 36
0.0916314 -0.422809 0.150884 134 82 65
0.102058 -0.426296 0.148855 134 77 60
0.115421 -0.428301 0.146212 146 86 63
-0.205265 -0.487049 0.216492 75 34 18
-0.176879 -0.470009 0.209484 149 84 65
-0.167711 -0.468232 0.207305 156 95 80
-0.161103 -0.468539 0.20577 155 94 80
-0.149603 -0.479783 0.20333 143 79 64
-0.135664 -0.51078 0.200769 145 123 121
-0.0951765 -0.528351 0.191955 87 78 76
-0.0935935 -0.529605 0.191627 93 84 80
-0.088666 -0.532338 0.190581 72 62 54
-0.0597336 -0.613496 0.185946 66 62 57
-0.0497899 -0.623013 0.183965 54 52 48
0.0401734 -0.506617 0.161914 146 63 55
0.0421528 -0.508305 0.161532 148 64 58
0.0622823 -0.506324 0.157254 96 33 27
0.0690691 -0.505765 0.155824 59 14 9
0.0801235 -0.434138 0.152037 127 69 50
0.0976748 -0.423646 0.148239 131 80 61
0.101403 -0.4254 0.147516 130 76 57
-0.18393 -0.469452 0.209469 134 74 55
-0.146776 -0.504747 0.201435 149 95 90
-0.134154 -0.510272 0.19864 106 88 85
-0.126312 -0.514255 0.196922 98 83 81
-0.116676 -0.518444 0.194807 91 79 81
-0.111083 -0.516527 0.193507 89 80 79
-0.102592 -0.528247 0.1918 89 83 78
0.0432697 -0.507063 0.159537 148 69 64
0.0461957 -0.504495 0.158872 139 60 54
0.0748022 -0.482568 0.152488 74 22 17
0.0779647 -0.437909 0.151079 118 62 47
0.0811881 -0.433721 0.150345 123 65 48
0.0903738 -0.420993 0.14825 122 72 55
0.109841 -0.423993 0.144327 137 77 54
0.115386 -0.425942 0.143232 141 81 58
-0.205987 -0.482747 0.213111 86 41 24
-0.183187 -0.466701 0.207605 136 75 55
-0.16148 -0.467654 0.202583 151 93 74
-0.150471 -0.486063 0.200281 140 74 58
-0.13453 -0.5103 0.196954 85 69 67
-0.128793 -0.515836 0.195724 82 69 62
0.0355477 -0.503275 0.159393 133 52 45
0.0423976 -0.504136 0.15795 146 72 65
0.0509271 -0.504557 0.156149 131 62 53
0.06976 -0.504456 0.152181 65 18 11
0.0993804 -0.421726 0.144986 118 69 49
-0.203768 -0.468608 0.210758 80 36 24
-0.20165 -0.476173 0.21032 110 56 38
-0.196276 -0.472051 0.209039 121 65 45
-0.179077 -0.468557 0.205023 145 84 66
-0.164467 -0.465655 0.201627 151 93 76
-0.158001 -0.476399 0.200232 147 81 67
-0.145109 -0.502378 0.197515 147 91 85
0.036662 -0.502041 0.15743 143 73 65
0.0712714 -0.505042 0.150133 68 22 13
0.0754412 -0.500876 0.149218 64 12 5
0.0765634 -0.498511 0.148961 43 0 0
0.0814911 -0.436619 0.147377 115 57 38
0.0822553 -0.434262 0.147197 114 57 40
0.0864293 -0.428612 0.146283 109 57 43
0.100046 -0.420286 0.143402 116 66 49
-0.20043 -0.472534 0.208322 117 62 39
-0.155849 -0.484605 0.198123 144 73 61
-0.151943 -0.500481 0.197311 131 61 46
-0.149522 -0.504332 0.19678 151 82 71
0.0376075 -0.499809 0.155506 136 83 76
0.076264 -0.445529 0.147036 94 43 33
0.0840598 -0.431455 0.145339 109 57 43
0.0871529 -0.427204 0.144676 104 54 41
0.123593 -0.428446 0.137152 125 70 46
-0.183133 -0.463965 0.202658 141 83 62
-0.181294 -0.463651 0.202236 143 85 64
-0.175741 -0.466973 0.200964 148 89 73
-0.166965 -0.466069 0.198956 151 93 76
0.0790179 -0.472758 0.144978 88 37 27
0.0987408 -0.418444 0.140811 108 61 45
0.114741 -0.42358 0.137495 136 78 59
0.16332 -0.492115 0.127449 128 81 63
-0.195699 -0.464078 0.2039 130 72 51
-0.19236 -0.464481 0.203134 138 77 57
-0.185322 -0.464271 0.201524 143 85 64
-0.180167 -0.464259 0.200347 144 86 67
-0.172771 -0.467199 0.19865 150 93 76
-0.169124 -0.466455 0.197822 151 93 76
-0.160591 -0.481166 0.195836 146 79 68
-0.155185 -0.509116 0.19453 136 60 49
0.0759931 -0.500469 0.143926 124 97 85
0.080133 -0.460861 0.143159 89 39 26
0.0902392 -0.424816 0.141144 98 52 38
0.0925603 -0.422883 0.140665 104 61 44
-0.209236 -0.465584 0.205332 85 40 23
-0.172771 -0.466257 0.197024 148 94 76
-0.15444 -0.517786 0.192524 147 75 58
-0.126151 -0.584347 0.185762 150 134 123
-0.11618 -0.573009 0.183612 196 179 169
-0.111772 -0.581893 0.182577 189 170 161
-0.110156 -0.584187 0.182204 190 171 162
-0.0617546 -0.59465 0.171445 187 168 156
-0.0127469 -0.581199 0.160805 157 140 132
-0.0108601 -0.58012 0.1604 156 139 131
0.0328678 -0.573162 0.150977 139 125 114
0.0342353 -0.568936 0.150708 137 123 112
0.0400551 -0.521512 0.149745 130 109 100
0.0476499 -0.515063 0.148156 128 98 90
0.0508129 -0.513427 0.147489 128 105 94
0.0566769 -0.508128 0.146268 136 113 105
0.0671095 -0.516 0.143992 145 124 115
0.0681179 -0.512678 0.143798 142 120 112
0.0793834 -0.501513 0.141474 136 106 98
0.0831669 -0.472349 0.140866 88 40 26
0.0812986 -0.449935 0.141414 87 36 24
0.0825533 -0.439031 0.141224 104 47 37
0.0958818 -0.420416 0.13855 100 54 40
-0.203497 -0.464073 0.202378 120 62 41
-0.185639 -0.46333 0.198337 147 88 69
-0.177547 -0.464504 0.196493 147 91 74
-0.161748 -0.498887 0.192554 150 72 62
-0.155606 -0.570452 0.190416 201 182 172
-0.155181 -0.576762 0.190255 201 182 172
-0.140467 -0.592651 0.186806 198 179 172
-0.0901128 -0.578015 0.175783 174 155 145
0.0367502 -0.562437 0.148254 136 121 112
0.0841372 -0.465665 0.139112 86 35 25
0.0829412 -0.446143 0.139576 93 38 27
0.0896182 -0.429058 0.138348 89 44 30
0.0985714 -0.420293 0.136555 99 54 37
0.1012 -0.419225 0.136013 101 56 39
0.106814 -0.417945 0.134846 121 70 48
0.120468 -0.420542 0.131948 129 74 49
-0.193966 -0.457639 0.198671 142 79 59
-0.192516 -0.458292 0.198334 144 81 62
-0.175637 -0.467523 0.194391 150 93 78
-0.171849 -0.471114 0.193486 146 87 68
-0.170684 -0.472615 0.193202 144 86 69
-0.16472 -0.480071 0.191753 138 77 61
-0.140093 -0.579494 0.184812 186 170 157
-0.122323 -0.569947 0.181004 182 163 154
-0.0976372 -0.57303 0.175498 175 156 147
-0.0670913 -0.574264 0.168753 170 151 142
-0.05006 -0.57721 0.164975 170 149 138
-0.021397 -0.576407 0.158722 161 144 134
-0.0176613 -0.573303 0.157951 160 141 133
0.0204207 -0.572563 0.14969 144 129 121
0.0478359 -0.55142 0.144067 129 115 103
0.0807929 -0.523648 0.137388 170 149 138
0.0847039 -0.452789 0.137585 92 37 28
0.0896423 -0.429984 0.136872 88 45 28
0.0959861 -0.422258 0.135641 91 50 34
0.101267 -0.420137 0.134555 99 54 37
-0.208957 -0.455078 0.200473 85 40 23
-0.189563 -0.458635 0.196046 146 85 67
-0.186654 -0.459895 0.195369 145 84 66
-0.167808 -0.478019 0.190808 141 77 60
-0.166604 -0.479508 0.190511 141 77 60
-0.154466 -0.562656 0.186265 189 170 161
-0.136706 -0.5711 0.18217 185 167 155
-0.109705 -0.573258 0.176158 177 158 149
-0.0730295 -0.571787 0.168108 173 154 144
-0.0218323 -0.575377 0.156839 161 144 134
-0.0142133 -0.575136 0.155182 159 140 130
-0.00654797 -0.575772 0.153502 156 137 130
0.0144985 -0.57513 0.14894 148 131 123
0.0788138 -0.555957 0.135399 162 146 133
0.0840728 -0.53813 0.134597 177 159 147
0.0887147 -0.477555 0.134721 87 31 20
0.0865455 -0.444684 0.135796 94 42 28
0.0973617 -0.422647 0.133903 91 48 33
0.10001 -0.421583 0.13336 94 49 32
0.103967 -0.419948 0.132549 102 57 42
0.131933 -0.429046 0.126441 127 74 51
-0.208868 -0.454148 0.198849 95 46 26
-0.199387 -0.456503 0.196674 135 72 52
-0.194247 -0.456671 0.195521 143 80 60
-0.167042 -0.490025 0.188698 141 77 64
-0.154384 -0.560682 0.184303 189 170 161
-0.146994 -0.56258 0.182625 187 171 161
-0.145142 -0.563035 0.182205 189 170 161
-0.130665 -0.568368 0.178886 184 167 157
-0.126529 -0.567177 0.177999 183 166 156
-0.0999447 -0.569724 0.172084 176 157 148
-0.0963148 -0.571238 0.171252 175 156 147
-0.0486594 -0.568215 0.160863 168 149 138
-0.0429801 -0.566369 0.159661 167 148 136
-0.0411935 -0.570403 0.159182 167 148 136
-0.0203647 -0.574291 0.154549 160 141 133
-0.0127245 -0.575019 0.152868 159 140 130
-0.00516196 -0.573627 0.151251 155 136 127
0.00637792 -0.5748 0.148715 150 133 125
0.0327178 -0.569822 0.143107 140 126 117
0.0714664 -0.568826 0.134749 143 129 117
0.0735605 -0.569374 0.134285 145 131 120
0.07755 -0.569468 0.133422 154 137 127
0.0886573 -0.550178 0.131459 182 163 152
0.0869379 -0.45178 0.134036 95 39 31
0.0876384 -0.444171 0.134057 91 41 31
0.0909824 -0.435584 0.133534 88 44 32
0.095389 -0.42221 0.132894 91 48 35
0.10031 -0.419163 0.131911 95 50 35
0.128671 -0.422718 0.125779 128 75 52
-0.193786 -0.454806 0.193855 142 79 59
-0.174933 -0.476652 0.189088 140 84 67
-0.165294 -0.516993 0.185885 153 73 61
-0.152706 -0.560154 0.181966 189 172 162
-0.149258 -0.562072 0.181155 187 171 161
-0.131081 -0.568322 0.176984 184 167 157
-0.11466 -0.574511 0.173208 177 158 149
-0.0737707 -0.570708 0.16433 173 154 144
-0.0433374 -0.564325 0.157835 167 148 136
-0.0396844 -0.568386 0.156931 166 147 135
-0.0378206 -0.569406 0.156497 166 147 135
-0.0169775 -0.574126 0.151825 159 140 130
0.0323048 -0.569777 0.141215 138 124 115
0.0461099 -0.571668 0.138171 126 112 101
0.0478453 -0.570356 0.137829 126 112 101
0.0498978 -0.571007 0.137367 128 113 102
0.0877465 -0.450309 0.132355 93 40 31
0.0879408 -0.446031 0.132426 93 40 31
0.0906731 -0.435551 0.132116 89 45 33
0.102635 -0.418041 0.13001 99 54 37
0.11814 -0.414385 0.126782 132 78 60
-0.205395 -0.452776 0.19488 118 62 43
-0.193721 -0.453849 0.192265 142 79 61
-0.190456 -0.454217 0.191532 143 85 66
-0.164047 -0.530011 0.183399 132 70 59
-0.143159 -0.567723 0.177662 184 163 149
-0.125679 -0.568433 0.173799 184 167 157
-0.0816139 -0.568953 0.16412 174 155 145
-0.0779518 -0.570317 0.163277 172 153 143
-0.0511883 -0.564056 0.157609 166 145 134
-0.0268978 -0.574314 0.151995 160 141 131
0.0226631 -0.572947 0.141235 140 126 117
0.0264591 -0.572473 0.140423 139 125 116
0.0378264 -0.570867 0.138 135 120 111
0.0553287 -0.570889 0.134196 125 111 100
0.0861397 -0.567033 0.127628 166 150 140
0.0893491 -0.446443 0.130585 91 41 29
0.0913319 -0.438336 0.130402 89 45 33
0.0998217 -0.423345 0.129025 89 46 29
0.102703 -0.418928 0.128538 96 51 35
0.111457 -0.414021 0.1268 128 76 57
-0.211145 -0.442194 0.1949 67 30 15
-0.168741 -0.497068 0.183691 145 78 66
-0.167452 -0.498559 0.183357 147 78 70
-0.141925 -0.569073 0.175345 186 170 159
-0.133992 -0.56879 0.173616 187 168 158
-0.109798 -0.575341 0.168094 179 160 150
-0.0349095 -0.57331 0.151789 165 146 134
-0.0292099 -0.575278 0.150477 162 144 132
-0.000523955 -0.576083 0.14419 152 136 128
0.00877702 -0.572314 0.142291 149 134 125
0.0242576 -0.573646 0.138871 142 127 118
0.0318586 -0.572634 0.13725 138 124 113
0.0609538 -0.571669 0.130948 128 113 102
0.0628499 -0.571279 0.130549 129 115 103
0.0878393 -0.56745 0.125244 168 151 141
0.0894566 -0.452569 0.128823 91 41 31
0.0920788 -0.436843 0.128793 88 44 32
0.100131 -0.420905 0.127593 90 47 30
0.105206 -0.414447 0.126714 105 59 43
0.107029 -0.411478 0.126421 117 70 49
0.128727 -0.414348 0.121622 133 80 57
0.143178 -0.433682 0.117826 134 82 54
-0.213083 -0.452528 0.193351 96 47 29
-0.16568 -0.532764 0.179919 95 49 40
-0.121421 -0.572329 0.168736 183 164 155
-0.119354 -0.57169 0.168309 182 163 154
-0.0750974 -0.571523 0.158647 173 154 144
-0.0694283 -0.571974 0.157391 172 153 143
-0.0334258 -0.573239 0.149481 163 145 133
0.0160368 -0.572478 0.138713 144 129 121
0.0876569 -0.568349 0.123246 166 150 140
0.0894386 -0.453463 0.12724 91 41 31
0.0910271 -0.439181 0.127438 88 42 31
0.0920913 -0.437732 0.127262 88 45 30
0.093196 -0.432014 0.127239 83 42 26
0.096899 -0.425252 0.126691 86 47 31
0.0998301 -0.420856 0.12622 90 47 30
0.105968 -0.409598 0.125312 114 68 47
0.108522 -0.408452 0.1248 124 75 55
0.111862 -0.409106 0.124047 130 79 58
0.154082 -0.449 0.113327 123 73 47
-0.204579 -0.421079 0.191202 69 28 10
-0.200594 -0.447651 0.18922 129 72 48
-0.190264 -0.451302 0.186818 140 82 60
-0.166062 -0.526421 0.178391 97 48 40
-0.158216 -0.567153 0.174968 190 171 162
-0.154228 -0.567161 0.174098 189 170 161
-0.102586 -0.57338 0.16258 177 158 149
-0.0754195 -0.570451 0.156777 173 154 144
-0.0716486 -0.570759 0.155942 173 154 144
-0.0505451 -0.563921 0.151624 168 149 138
-0.0468556 -0.565028 0.150773 168 149 138
-0.00507383 -0.578192 0.141094 155 136 127
0.000488317 -0.574801 0.140022 152 136 128
0.00597721 -0.571345 0.138969 151 134 126
0.0290059 -0.571763 0.133919 138 126 116
0.0982688 -0.564199 0.119091 185 170 161
0.0916737 -0.441947 0.125677 88 42 31
0.109895 -0.40873 0.123084 128 77 55
0.11117 -0.408143 0.12283 129 78 59
0.130718 -0.412914 0.118348 135 83 55
0.154733 -0.447287 0.111645 120 69 45
-0.182423 -0.460147 0.183128 146 90 73
-0.181569 -0.475557 0.182236 142 92 75
-0.172061 -0.498216 0.179135 134 72 61
-0.170773 -0.499714 0.178787 130 68 57
-0.161319 -0.562202 0.173862 187 170 163
-0.142274 -0.564946 0.169599 187 171 161
-0.120363 -0.572513 0.164486 183 164 155
-0.0834699 -0.570654 0.156541 177 155 147
-0.0625578 -0.570316 0.151999 170 151 142
-0.0490896 -0.563896 0.149358 169 150 141
0.0095121 -0.572902 0.13614 147 133 124
0.0322518 -0.570155 0.13129 136 124 115
0.0383366 -0.572259 0.129861 135 120 111
0.0659618 -0.57318 0.123765 132 118 107
0.0718725 -0.572886 0.122482 139 125 114
0.0739834 -0.57342 0.121995 140 126 115
0.0910712 -0.569113 0.118444 169 152 142
0.0925284 -0.49818 0.121389 79 31 20
0.0888517 -0.469058 0.123536 92 39 29
0.0888467 -0.458572 0.124019 91 40 33
0.0902304 -0.452836 0.123978 89 40 29
0.0927564 -0.441371 0.12395 87 43 31
0.0949417 -0.434185 0.1238 82 44 29
0.103939 -0.413368 0.122776 97 54 37
0.123972 -0.406139 0.118697 128 78 49
-0.205491 -0.415134 0.188713 72 32 14
-0.202655 -0.446838 0.186535 125 69 52
-0.1891 -0.450874 0.183416 137 81 61
-0.186636 -0.45303 0.182779 139 80 63
-0.172743 -0.499084 0.177491 125 71 55
-0.167711 -0.511301 0.175795 84 42 33
-0.158281 -0.564077 0.17112 190 173 165
-0.135018 -0.565537 0.166008 187 171 161
-0.131894 -0.569257 0.165145 186 169 161
-0.111307 -0.574032 0.160438 181 162 152
-0.0896521 -0.570944 0.155887 176 157 148
-0.0686978 -0.570863 0.151331 172 153 143
-0.049533 -0.564805 0.147458 168 149 140
-0.0476679 -0.564856 0.147049 169 150 141
-0.0365628 -0.57299 0.144217 166 147 137
-0.00792262 -0.57614 0.137801 156 137 130
-0.000405694 -0.573629 0.136283 152 136 128
0.00704263 -0.571 0.134784 149 134 125
0.00909696 -0.57281 0.134244 147 133 124
0.0206892 -0.573559 0.131666 143 128 119
0.0243813 -0.572093 0.130931 140 125 119
0.0261626 -0.570854 0.130603 140 125 119
0.0554819 -0.572105 0.124106 131 117 106
0.0807277 -0.56955 0.118683 152 136 124
0.0845085 -0.568589 0.117899 161 144 134
0.0912113 -0.447032 0.122493 86 42 31
0.106362 -0.408853 0.121045 113 66 48
0.11399 -0.405323 0.119532 130 79 58
-0.209028 -0.444896 0.186419 114 61 40
-0.171144 -0.503888 0.175137 103 52 42
-0.156833 -0.564467 0.168791 191 174 166
-0.153356 -0.566392 0.167937 192 173 166
-0.128548 -0.569915 0.162386 185 168 160
-0.10935 -0.571269 0.158155 180 161 151
-0.0996222 -0.570661 0.156079 179 160 150
-0.0958496 -0.571155 0.155233 179 160 150
-0.092073 -0.571618 0.154388 177 158 149
-0.0765592 -0.569183 0.15115 174 155 145
-0.0727965 -0.569491 0.150315 173 154 144
-0.0672212 -0.570892 0.149026 172 153 143
-0.0425955 -0.569857 0.143716 166 147 135
-0.0331899 -0.574877 0.141391 162 145 135
-0.0198779 -0.573593 0.138552 160 141 133
-0.00462511 -0.573804 0.135204 154 137 129
0.0147444 -0.5761 0.130834 144 129 121
0.0427451 -0.56818 0.125113 133 119 110
0.0463541 -0.56654 0.124408 132 118 109
0.0670223 -0.572572 0.119531 132 118 107
0.0731373 -0.573228 0.118147 140 127 113
0.0923608 -0.569368 0.114112 168 155 141
0.101803 -0.566663 0.112171 187 170 165
0.0915169 -0.448839 0.120791 84 40 30
0.0966958 -0.436317 0.120315 80 43 28
0.10173 -0.424684 0.119822 89 45 33
0.119576 -0.404591 0.116927 123 73 47
0.127177 -0.404049 0.115263 140 86 57
0.142107 -0.420748 0.111046 129 74 47
-0.187008 -0.456246 0.179497 141 82 66
-0.184536 -0.46269 0.1786 147 93 75
-0.183924 -0.483374 0.177282 138 90 74
-0.179764 -0.491352 0.175934 134 82 65
-0.17314 -0.497957 0.174136 99 51 40
-0.149554 -0.56527 0.165182 189 172 164
-0.145364 -0.564217 0.164341 189 172 164
-0.131041 -0.570413 0.160894 187 170 163
-0.127078 -0.570175 0.160053 185 168 160
-0.12294 -0.568922 0.159232 184 167 157
-0.119537 -0.571568 0.158343 184 165 156
-0.10803 -0.57244 0.155805 181 162 152
-0.101918 -0.570297 0.154606 180 161 151
-0.100033 -0.570555 0.154183 179 160 150
-0.0980119 -0.569815 0.153788 179 160 150
-0.0848116 -0.571352 0.150837 175 156 147
-0.0676318 -0.570786 0.147139 172 153 143
-0.0447771 -0.56573 0.142457 167 148 136
-0.0297944 -0.574727 0.138663 162 145 137
0.000601355 -0.57228 0.132153 151 137 126
0.00446714 -0.572955 0.131266 151 134 126
0.0238802 -0.574859 0.126891 140 125 119
0.0366729 -0.569001 0.124417 133 121 111
0.0442137 -0.567749 0.122828 131 119 109
0.0541283 -0.568956 0.120571 129 117 108
0.062418 -0.571332 0.118603 132 120 108
0.0702017 -0.570637 0.116923 137 123 112
0.0838941 -0.56935 0.113968 157 141 128
0.102183 -0.554902 0.11075 195 183 173
0.109201 -0.40606 0.117759 118 71 48
0.112996 -0.404276 0.117012 125 77 52
0.129401 -0.402644 0.113431 142 85 59
-0.180459 -0.492193 0.174302 136 85 73
-0.179215 -0.493712 0.173944 135 83 68
-0.165611 -0.564172 0.166698 190 173 165
-0.138757 -0.567745 0.160715 187 171 161
-0.127103 -0.568099 0.158186 185 168 160
-0.112387 -0.572723 0.154726 181 161 154
-0.110333 -0.572035 0.154326 181 161 154
-0.0891159 -0.571829 0.149751 175 158 148
-0.0833333 -0.571427 0.148523 176 157 148
-0.0681927 -0.572664 0.145161 172 153 143
-0.0604876 -0.571105 0.143583 169 150 141
-0.0434151 -0.569638 0.139957 167 148 136
-0.0378282 -0.574667 0.138424 166 147 137
-0.0207267 -0.572375 0.134831 161 142 133
-0.00926094 -0.573825 0.132229 154 137 127
-0.0073579 -0.573708 0.13182 154 137 127
0.0799021 -0.571167 0.112726 151 135 122
0.0836986 -0.570203 0.111943 154 141 127
0.0912707 -0.568181 0.110386 168 151 141
0.0883101 -0.450629 0.118304 77 33 23
0.0914917 -0.450551 0.117598 75 36 24
-0.14851 -0.565484 0.160955 187 170 163
-0.125828 -0.569317 0.155838 185 168 160
-0.118473 -0.57166 0.154102 184 165 158
-0.110585 -0.570926 0.152452 181 161 154
-0.0914172 -0.571495 0.148278 176 159 149
-0.0723094 -0.571283 0.144154 173 154 144
-0.0685281 -0.571546 0.143316 172 153 141
-0.0401283 -0.573542 0.137004 164 148 135
-0.0325279 -0.574515 0.135281 165 146 136
-0.0211396 -0.572253 0.132941 161 144 134
0.0114899 -0.574966 0.125599 146 132 123
0.0193242 -0.576089 0.123799 142 127 118
0.0321934 -0.570332 0.121341 138 126 116
0.043383 -0.567514 0.119053 131 119 109
0.0718655 -0.57288 0.11238 138 124 111
0.0832746 -0.570079 0.110025 155 139 126
0.0972654 -0.569342 0.106953 176 159 149
-0.16724 -0.566808 0.162856 187 170 163
-0.138131 -0.569851 0.156437 187 170 163
-0.114766 -0.570194 0.151404 183 164 157
-0.0938437 -0.572136 0.146763 177 158 149
-0.0843694 -0.573162 0.144645 175 156 147
-0.0728888 -0.573144 0.142162 173 154 144
-0.063197 -0.570758 0.140228 168 151 141
-0.051559 -0.564244 0.138157 168 149 140
-0.0234337 -0.573184 0.131389 159 143 133
0.0260937 -0.571017 0.120647 139 127 117
0.0508205 -0.567974 0.115382 129 117 108
0.0773671 -0.572353 0.109164 144 130 119
0.0809527 -0.570434 0.108497 150 136 122
0.0911446 -0.570817 0.106192 164 148 135
0.0949427 -0.569754 0.105416 169 153 140
0.0970906 -0.570171 0.104906 173 157 147
