ply
format ascii 1.0
comment Created by Open3D
element vertex 2000
property double x
property double y
property double z
property uchar red
property uchar green
property uchar blue
end_header
1.01081 -0.013196 0.39097 221 213 221
1.01419 -0.0151721 0.391274 219 211 216
1.02183 -0.0205478 0.392915 219 211 216
1.06458 -0.051769 0.403527 195 182 177
1.00083 -0.00654808 0.385358 229 223 230
1.04969 -0.0351121 0.389677 214 204 209
1.20355 -0.0813409 0.363463 197 188 187
1.20407 -0.0784294 0.360379 201 192 192
1.20823 -0.0593239 0.339901 210 202 205
1.20795 -0.0557034 0.336503 210 202 205
0.992861 -0.00729753 0.386481 162 154 161
0.993384 -0.0041931 0.382994 179 171 179
1.00544 -0.00619341 0.378711 239 230 240
1.01758 -0.0118803 0.378241 238 229 239
1.0557 -0.0326537 0.380058 224 216 221
1.08141 -0.0458403 0.380666 208 198 201
1.16816 -0.0806857 0.374279 208 199 197
1.17332 -0.0799541 0.371195 210 201 202
1.18133 -0.0791256 0.366741 206 199 201
0.997167 -0.00239002 0.37533 236 228 238
1.00501 -0.00472708 0.373606 238 229 241
1.03071 -0.0181193 0.37396 241 233 242
1.03282 -0.0178216 0.372582 241 233 242
1.03493 -0.0175151 0.3712 241 233 242
1.04488 -0.022389 0.371098 243 235 247
1.04837 -0.0242342 0.371202 242 233 246
1.06345 -0.0329496 0.372449 250 242 254
1.0822 -0.0391108 0.369397 254 246 255
1.10854 -0.0515174 0.369025 249 241 251
1.11177 -0.0524132 0.368368 249 241 251
1.12743 -0.0594482 0.367906 212 203 206
1.13401 -0.0610931 0.366434 205 196 199
1.1363 -0.0569906 0.361322 207 197 202
1.1495 -0.0600482 0.3582 219 211 216
1.15447 -0.0593784 0.35526 220 212 219
1.16275 -0.0593503 0.351449 225 217 224
1.16427 -0.0543629 0.345906 228 220 228
1.16528 -0.0522128 0.343358 231 220 231
1.19111 -0.0526654 0.332305 236 228 236
1.02467 -0.0149846 0.369999 240 231 243
1.03871 -0.0193387 0.367222 241 232 244
1.08577 -0.0366254 0.361123 243 235 247
1.10373 -0.04078 0.35658 243 235 247
1.10743 -0.0423912 0.356397 246 235 248
1.11647 -0.0477257 0.357347 246 235 248
1.15048 -0.0471712 0.340994 246 237 247
1.15725 -0.0421468 0.333065 247 236 249
1.17575 -0.044468 0.327017 245 236 246
1.18055 -0.0435202 0.323988 245 236 246
1.18776 -0.0452948 0.322508 245 236 246
1.18863 -0.0430547 0.319991 242 234 244
0.98776 0.000614071 0.369748 174 165 177
0.990202 4.62569e-05 0.369026 202 193 205
1.01533 -0.00983781 0.365816 240 232 241
1.02163 -0.0129938 0.365726 240 231 243
1.02666 -0.0138931 0.364044 241 232 244
1.0317 -0.0147544 0.362332 241 232 244
1.05413 -0.0247983 0.361012 242 233 246
1.07011 -0.0274325 0.355705 243 235 247
1.07827 -0.0323541 0.356557 243 235 247
1.08088 -0.0326109 0.355535 243 235 247
1.09765 -0.0353799 0.350151 243 235 247
1.12141 -0.0366353 0.340132 246 235 248
1.13322 -0.0418483 0.339676 245 236 248
1.15057 -0.0369733 0.327037 245 236 248
1.1538 -0.0376412 0.326212 245 236 248
1.17215 -0.0399715 0.320208 243 235 245
1.1787 -0.0411082 0.318383 243 235 245
1.18405 -0.0408046 0.315734 242 234 244
1.18734 -0.0413267 0.314783 243 235 245
0.984082 0.000314094 0.368303 143 135 147
0.988996 0.00307285 0.362931 218 209 221
0.999131 0.000163104 0.360504 239 230 242
1.0057 -0.00383765 0.361063 239 230 242
1.01233 -0.00779582 0.361557 240 231 243
1.01481 -0.00827493 0.36075 240 231 243
1.02065 -0.0106871 0.360133 240 231 243
1.03111 -0.0131704 0.357249 241 232 244
1.03407 -0.0143208 0.356881 241 232 244
1.05365 -0.0198678 0.352509 242 233 246
1.06276 -0.0230297 0.351097 242 233 246
1.0786 -0.0288012 0.348967 243 235 247
1.09052 -0.0318954 0.346201 243 235 247
1.09626 -0.0330107 0.344525 243 235 247
1.10202 -0.0340808 0.342808 243 235 247
1.11353 -0.0326007 0.33593 245 236 248
1.13053 -0.0380227 0.333197 245 234 247
1.13942 -0.0360054 0.327165 243 235 247
1.14207 -0.0360093 0.325958 243 235 247
1.18336 -0.0397425 0.310943 242 234 244
1.19465 -0.0396654 0.305925 248 240 249
1.0028 -0.00570638 0.360715 239 230 242
1.01104 -0.00869996 0.359378 240 231 243
1.0217 -0.00804605 0.353242 241 233 242
1.0323 -0.0145178 0.354185 241 232 244
1.03753 -0.0193672 0.356281 241 232 244
1.04098 -0.0212398 0.35637 242 233 246
1.10213 -0.0303761 0.335243 242 233 246
1.13099 -0.0349149 0.326023 245 236 248
1.13625 -0.0349679 0.323645 243 235 247
1.14151 -0.0349771 0.321237 243 235 247
1.16197 -0.0338651 0.310909 243 235 245
1.17409 -0.0384215 0.309758 243 235 245
1.18364 -0.0334338 0.300886 241 233 242
1.18752 -0.0346236 0.300291 242 233 246
0.989325 0.00400742 0.354552 235 226 239
0.99214 0.00271352 0.35434 240 231 243
0.995375 0.000680011 0.354637 239 230 242
1.00518 -0.0053575 0.355431 240 232 241
1.01545 -0.00803337 0.352725 241 233 242
1.02375 -0.0108715 0.351228 241 233 242
1.03008 -0.013953 0.351001 241 232 244
1.04148 -0.0177571 0.348918 242 233 246
1.05857 -0.0227761 0.345227 243 235 247
1.06112 -0.0230834 0.34426 243 235 247
1.06976 -0.0254157 0.342243 243 235 247
1.08362 -0.0281049 0.338063 245 236 248
1.08722 -0.0297794 0.33792 243 235 247
1.09446 -0.0296225 0.334281 243 235 247
1.0981 -0.031248 0.334087 243 235 247
1.14002 -0.0360639 0.318969 243 235 247
1.14151 -0.0346297 0.316942 245 236 246
1.14849 -0.0367142 0.315699 242 234 244
1.15375 -0.0366161 0.31321 242 234 244
1.15869 -0.03286 0.307474 242 234 244
1.16692 -0.0361739 0.306855 242 234 244
1.19063 -0.034658 0.294948 255 254 255
0.99979 -0.00270841 0.351998 240 231 243
1.00551 -0.00521918 0.351457 240 232 241
1.03625 -0.0160657 0.346164 242 233 246
1.0408 -0.0160792 0.343879 242 233 246
1.05275 -0.0204439 0.342079 242 233 246
1.072 -0.0247038 0.336633 242 233 246
1.07862 -0.0273994 0.335961 243 235 247
1.12044 -0.0305102 0.318922 243 235 247
1.12415 -0.0320087 0.318593 245 236 248
1.13716 -0.0321255 0.312667 243 235 245
1.14034 -0.0328302 0.311859 242 234 244
1.17147 -0.0347844 0.299555 241 233 242
0.994859 -0.000761973 0.349077 239 230 242
0.999696 -0.00179879 0.347543 240 232 241
1.03151 -0.0150748 0.343894 242 233 246
1.0365 -0.0158594 0.342112 242 233 246
1.05439 -0.0224395 0.339391 242 233 246
1.05644 -0.0220124 0.337963 242 233 246
1.07011 -0.0249204 0.33396 243 235 247
1.08029 -0.0293363 0.333147 243 235 247
1.0942 -0.0317969 0.328723 242 233 246
1.09573 -0.0304991 0.326767 243 235 247
1.11843 -0.0308078 0.316268 243 235 247
1.12102 -0.03087 0.315112 243 235 245
1.12305 -0.0301995 0.313539 242 233 246
1.13138 -0.0310101 0.310412 242 233 246
1.13656 -0.0310145 0.308017 243 235 247
1.14088 -0.0331471 0.307995 242 234 244
1.14752 -0.0316037 0.303527 242 234 244
1.15012 -0.0315441 0.302286 241 233 242
1.15153 -0.0300532 0.300271 241 233 242
1.15791 -0.0312982 0.298519 241 233 242
1.1671 -0.0294065 0.292655 241 232 244
1.17611 -0.0303293 0.289473 241 232 244
1.18391 -0.0297427 0.285487 250 242 252
0.982392 0.00364758 0.347842 198 190 199
0.983979 0.00459981 0.346084 222 214 226
0.989154 0.00274286 0.345131 239 230 242
1.02209 -0.00986536 0.340053 242 233 246
1.04765 -0.0185526 0.335333 243 235 247
1.05915 -0.022053 0.332897 242 233 246
1.0733 -0.0256248 0.329268 243 235 247
1.09273 -0.029276 0.323237 243 235 247
1.10203 -0.0319285 0.321237 243 235 247
1.10407 -0.0313261 0.319701 243 235 247
1.11384 -0.0310102 0.314766 242 233 246
1.12764 -0.0291462 0.306574 242 233 246
1.13507 -0.0320421 0.305777 242 233 246
1.13766 -0.032031 0.304568 242 233 246
1.16843 -0.0243884 0.28363 241 232 244
1.171 -0.0242202 0.282333 241 232 244
0.994247 0.00188193 0.339732 240 231 243
1.00883 -0.00513178 0.338782 241 232 244
1.01656 -0.00725525 0.336795 241 232 244
1.02056 -0.00661331 0.334138 242 233 246
1.02344 -0.00778586 0.333765 242 233 246
1.02725 -0.0104529 0.334336 242 233 246
1.0351 -0.0123706 0.332154 242 233 246
1.04441 -0.0164451 0.331284 243 235 247
1.05035 -0.0186059 0.330329 243 235 247
1.05486 -0.0184833 0.327959 245 236 248
1.07547 -0.0248033 0.323677 245 236 248
1.07902 -0.0265065 0.32352 243 235 247
1.09281 -0.0289292 0.319072 243 235 247
1.10574 -0.0331575 0.316765 243 235 247
1.11477 -0.0285072 0.3082 243 235 247
1.11934 -0.0278976 0.305489 243 235 247
1.12134 -0.0272156 0.303927 242 233 246
1.12703 -0.0279939 0.301977 242 233 246
1.13074 -0.0294479 0.301576 242 233 246
1.14698 -0.0270566 0.291909 241 233 242
1.16617 -0.0276982 0.283779 241 233 242
1.16813 -0.0268364 0.282124 241 233 242
0.979106 0.00763285 0.338774 209 200 210
1.00298 -0.00166555 0.334986 241 233 242
1.01504 -0.00397354 0.330911 241 232 244
1.03038 -0.0113272 0.329942 242 233 246
1.03823 -0.0131996 0.32771 243 235 247
1.04956 -0.016804 0.325368 243 235 247
1.05059 -0.0148704 0.323055 243 235 247
1.05404 -0.0166713 0.323003 243 235 247
1.06301 -0.01976 0.321416 243 235 247
1.06751 -0.023002 0.322189 243 235 247
1.10416 -0.0305695 0.311335 243 235 247
1.1082 -0.0293091 0.30826 245 236 248
1.12698 -0.0275394 0.297792 243 235 247
1.13407 -0.0268 0.293821 242 233 246
1.14135 -0.0230441 0.287077 241 233 242
1.1439 -0.0229789 0.285851 241 233 242
1.15649 -0.0254499 0.28232 241 233 242
1.15904 -0.0253244 0.281048 241 232 244
1.16794 -0.0262917 0.277893 240 233 244
1.17112 -0.0268229 0.276937 238 232 241
1.17506 -0.0220285 0.270918 243 237 246
0.98412 0.00675422 0.333483 240 231 243
0.986884 0.0054509 0.333245 240 231 243
0.995234 0.0015986 0.332459 241 232 244
1.02722 -0.00912705 0.325911 242 233 246
1.04143 -0.0105611 0.320044 243 235 247
1.05122 -0.0152793 0.319484 245 236 248
1.05467 -0.0170778 0.319416 243 235 247
1.07968 -0.0230184 0.312527 245 236 248
1.0822 -0.023211 0.311476 243 235 247
1.08524 -0.0241344 0.310839 245 236 248
1.10565 -0.0287873 0.30523 243 235 247
1.11673 -0.0269559 0.298313 243 235 247
1.12069 -0.0255746 0.295203 242 233 246
1.12577 -0.0256098 0.29285 242 233 246
1.13282 -0.0248587 0.288889 241 232 244
1.1342 -0.023386 0.286932 241 232 244
1.15196 -0.0228825 0.278314 241 233 242
1.15947 -0.0254815 0.277202 241 232 244
1.16911 -0.0211295 0.269001 240 234 242
1.17165 -0.0209358 0.267693 240 234 242
1.17861 -0.0226154 0.26606 179 173 180
1.02846 -0.0069142 0.319683 243 235 247
1.03865 -0.00911354 0.316538 243 235 247
1.04252 -0.0117135 0.316967 243 235 247
1.05283 -0.0137057 0.313625 245 236 248
1.06073 -0.0152801 0.311136 243 235 247
1.06371 -0.0162832 0.310577 245 236 248
1.07319 -0.0199686 0.309252 243 235 247
1.07819 -0.0203785 0.307179 243 235 247
1.08121 -0.0213119 0.30655 243 235 247
1.09191 -0.0262626 0.305826 243 235 247
1.0975 -0.0272755 0.304039 243 235 247
1.10908 -0.0263016 0.297618 243 235 247
1.11359 -0.0256965 0.294933 242 233 246
1.14432 -0.0196562 0.27522 240 233 244
1.15552 -0.0236179 0.273588 241 233 242
1.16243 -0.0254678 0.272071 240 231 243
1.16436 -0.0245968 0.270431 241 232 244
1.16949 -0.021226 0.26516 238 232 241
1.17202 -0.0210255 0.263847 240 234 242
0.984274 0.00806854 0.32533 241 233 242
0.990613 0.00394774 0.325786 242 234 244
1.00092 0.000427936 0.323626 242 233 246
1.0085 -0.00173018 0.321668 242 233 246
1.03291 -0.00996277 0.316672 243 235 247
1.03534 -0.0103208 0.315763 243 235 247
1.03872 -0.0121845 0.315746 243 235 247
1.04212 -0.0140359 0.315713 243 235 247
1.04314 -0.0120933 0.313438 243 235 247
1.05885 -0.0153625 0.308545 245 236 248
1.07626 -0.0204964 0.304584 243 235 247
1.08177 -0.0216186 0.302898 243 235 247
1.0873 -0.022696 0.301173 243 235 247
1.10093 -0.0248224 0.296491 245 236 248
1.10652 -0.0257414 0.294633 243 235 247
1.10793 -0.0243438 0.292712 243 235 247
1.11662 -0.025974 0.290032 242 233 246
1.12408 -0.0194764 0.280767 241 232 244
1.14594 -0.0212241 0.272153 241 233 242
1.15836 -0.0265944 0.271153 241 232 244
1.16475 -0.024698 0.266587 237 231 242
1.17175 -0.0203896 0.259675 242 235 247
0.975247 0.0105651 0.324443 211 202 214
0.990866 0.00426042 0.321948 241 232 244
1.01197 -0.00335914 0.317887 243 235 247
1.01526 -0.0053197 0.317972 243 235 247
1.02051 -0.00691407 0.316714 243 235 247
1.04618 -0.0127657 0.308963 245 236 248
1.05843 -0.014182 0.304117 245 236 248
1.06189 -0.0159411 0.303975 243 235 247
1.08837 -0.0237165 0.29791 245 236 248
1.0975 -0.0263418 0.295814 243 235 247
1.10035 -0.0235879 0.292001 243 235 247
1.12145 -0.018918 0.277856 242 233 246
1.12394 -0.0189106 0.276676 242 233 246
1.14694 -0.0220576 0.268721 241 232 244
1.15632 -0.0238358 0.265954 240 231 243
1.17084 -0.0190249 0.255194 249 243 252
0.985193 0.00794092 0.318204 241 232 244
0.987519 0.00742174 0.317448 242 233 246
0.990268 0.00613982 0.317164 242 233 246
0.993449 0.00409635 0.317344 242 233 246
1.00372 0.000646648 0.315097 243 235 247
1.01172 -0.00222396 0.313541 245 236 248
1.02263 -0.00616674 0.311473 243 235 247
1.02549 -0.00731788 0.311041 243 235 247
1.02883 -0.00922236 0.311047 245 236 248
1.04094 -0.0109556 0.306454 243 235 247
1.05116 -0.0129258 0.303075 245 236 248
1.0531 -0.0124469 0.301676 243 235 247
1.06592 -0.0179848 0.300223 245 236 248
1.07566 -0.0152572 0.293013 245 236 248
1.09781 -0.0229721 0.289041 243 235 247
1.09976 -0.0223271 0.287534 243 235 247
1.11394 -0.0248679 0.282969 242 234 244
1.15803 -0.0193071 0.257572 238 232 243
1.15992 -0.018424 0.255954 238 232 243
1.16179 -0.0175322 0.254334 240 233 244
0.977683 0.0114429 0.315678 241 232 244
0.993668 0.00446111 0.313524 242 233 246
1.01041 -0.00294127 0.311433 245 236 248
1.0313 -0.0126377 0.309343 245 236 248
1.04104 -0.0105159 0.302514 245 236 248
1.04491 -0.013113 0.30286 243 235 247
1.05222 -0.0139853 0.299962 245 236 248
1.06055 -0.0162826 0.29783 245 236 248
1.06401 -0.0180345 0.297652 245 236 248
1.06791 -0.0169714 0.294785 245 236 248
1.07089 -0.0179345 0.294163 243 235 247
1.07283 -0.0173803 0.292718 243 235 247
1.08977 -0.0213512 0.287908 243 235 247
1.11215 -0.0220874 0.277765 242 233 246
1.12422 -0.0184424 0.268893 241 232 244
1.13108 -0.0175921 0.264938 241 232 244
1.13178 -0.0153507 0.262682 241 232 244
1.13545 -0.0167329 0.262158 240 233 244
1.13912 -0.0180993 0.261618 241 232 244
1.15466 -0.0180777 0.254416 238 232 243
1.15715 -0.0179147 0.253134 240 231 243
0.994301 0.00407415 0.310182 243 235 247
1.00454 0.000659533 0.307874 243 235 247
1.00925 -0.000218246 0.306208 242 233 246
1.02145 -0.00648031 0.30546 245 236 248
1.0291 -0.00837243 0.303216 245 236 248
1.03872 -0.00973603 0.299526 243 235 247
1.04161 -0.010817 0.299013 245 236 248
1.04936 -0.0124689 0.29656 245 236 248
1.05958 -0.0142737 0.293028 245 236 248
1.0669 -0.0149516 0.289986 245 236 248
1.06986 -0.0159126 0.28936 246 237 249
1.08019 -0.0173828 0.285556 245 236 248
1.09496 -0.0181475 0.279028 243 235 247
1.09743 -0.0182385 0.277914 243 235 247
1.10651 -0.0206734 0.275642 243 235 247
1.11225 -0.0185641 0.271081 243 235 247
1.12288 -0.016345 0.264135 241 232 244
1.12723 -0.0155378 0.261395 241 232 244
1.12851 -0.0140263 0.259502 241 232 244
1.14077 -0.0166101 0.255972 241 232 244
1.14633 -0.0170997 0.253807 238 232 243
1.1482 -0.0162456 0.252218 238 232 243
1.15006 -0.015383 0.250627 238 232 243
1.15748 -0.0148894 0.246796 238 232 243
0.967158 0.0142042 0.312255 176 167 179
0.969431 0.0136307 0.311548 200 192 204
0.979376 0.0098622 0.309595 242 233 246
0.986697 0.00752033 0.307796 243 235 247
0.999154 0.00354138 0.304774 242 233 246
1.01547 -0.00293062 0.302003 245 236 248
1.02304 -0.0048723 0.299812 245 236 248
1.0388 -0.00925539 0.295614 245 236 248
1.05668 -0.0127541 0.289665 245 236 248
1.0655 -0.015724 0.287849 245 236 248
1.06897 -0.0174481 0.28762 246 237 249
1.09297 -0.0182099 0.276502 242 235 247
1.10528 -0.018581 0.270872 243 235 247
1.10831 -0.0193655 0.270087 242 233 246
1.11589 -0.0164757 0.264001 242 233 246
1.13746 -0.0152953 0.252827 240 233 244
1.14424 -0.0142292 0.248768 240 231 243
1.14916 -0.0139477 0.246249 238 232 243
0.96788 0.00967908 0.312616 158 150 162
0.978936 0.00767484 0.308477 241 232 244
0.985431 0.00688657 0.305728 242 233 246
0.995967 0.00257897 0.303961 245 236 248
1.00253 0.00197669 0.301059 245 236 248
1.03361 -0.00734034 0.293163 246 237 249
1.04562 -0.0124213 0.291471 245 236 248
1.07192 -0.0178474 0.282994 245 236 248
1.08988 -0.0167539 0.273235 243 235 247
1.12061 -0.0157776 0.257622 241 232 244
1.1219 -0.0142734 0.255746 242 233 246
1.13905 -0.0137494 0.247231 241 232 244
1.14028 -0.0121807 0.245342 240 231 243
1.14212 -0.0113301 0.243775 241 232 244
1.14456 -0.0111935 0.242524 238 232 243
0.978342 0.00966144 0.303788 242 233 246
0.986466 0.00575607 0.302887 242 233 246
0.988351 0.00603856 0.301647 243 235 247
0.99528 0.00459033 0.299263 243 235 247
1.01246 -2.74867e-05 0.294317 245 236 248
1.03272 -0.00527986 0.288449 245 236 248
1.04758 -0.011402 0.286173 246 237 249
1.05189 -0.0111656 0.283801 246 237 249
1.05822 -0.0139497 0.283006 245 236 248
1.06511 -0.0174461 0.282548 245 236 248
1.07571 -0.0160951 0.276137 246 237 249
1.08681 -0.0152707 0.269986 243 235 247
1.10405 -0.0128603 0.259585 242 233 246
1.10891 -0.0129061 0.257286 242 233 246
0.9676 0.0120606 0.304204 198 189 201
0.972133 0.0109387 0.302751 243 235 247
0.97668 0.00985115 0.301268 242 233 246
0.985816 0.00777985 0.298215 242 233 246
0.998741 0.00650074 0.292529 243 235 247
1.0038 0.0048422 0.291317 245 236 248
1.03041 -0.00440898 0.285523 246 237 249
1.04135 -0.00797193 0.282995 245 236 248
1.0485 -0.00880173 0.280086 246 237 249
1.0548 -0.0116056 0.279299 245 236 248
1.06891 -0.0157284 0.275738 246 237 249
1.11172 -0.0129505 0.252499 242 233 246
1.11717 -0.0136596 0.250482 242 233 246
1.11901 -0.0128885 0.24896 241 233 242
1.12203 -0.0135839 0.248098 241 232 244
1.13177 -0.013303 0.243245 241 232 244
1.13726 -0.0107925 0.238589 241 232 244
1.14986 -0.00464449 0.227653 240 233 244
0.966362 0.0114891 0.302158 188 179 191
0.974209 0.0116357 0.297833 242 233 246
0.980184 0.011632 0.29466 242 233 246
1.015 0.000621629 0.28584 246 237 251
1.03046 -0.00384769 0.281686 246 237 249
1.05239 -0.010768 0.276403 246 237 249
1.06782 -0.0135828 0.271044 245 236 248
1.0718 -0.0160485 0.271127 246 237 249
1.07369 -0.0154515 0.269688 246 237 249
1.07611 -0.0156071 0.26862 245 236 248
1.08122 -0.0129814 0.263907 242 235 247
1.09218 -0.011966 0.257688 243 235 247
1.11577 -0.011443 0.245853 241 232 244
1.11819 -0.0114077 0.244666 241 232 244
1.12061 -0.0113618 0.243473 241 232 244
1.12184 -0.00983032 0.241625 241 232 244
1.1315 -0.00950577 0.236773 241 232 244
1.13453 -0.0101285 0.235854 241 232 244
1.13634 -0.00927848 0.234306 240 231 243
1.15125 -0.00290037 0.222134 241 234 246
0.977268 0.0142251 0.290812 243 235 247
0.983456 0.0100482 0.291083 243 235 247
1.00491 0.00434215 0.284657 245 235 250
1.00722 0.00392848 0.283807 246 237 251
1.01693 0.001585 0.280751 246 237 251
1.02205 8.1255e-05 0.27938 246 237 249
1.03665 -0.00621447 0.277194 246 237 249
1.05953 -0.0108258 0.269485 246 237 249
1.06244 -0.0117971 0.268838 246 237 249
1.06483 -0.0119908 0.267802 246 237 249
1.07683 -0.0128073 0.262515 245 236 248
1.08296 -0.0116592 0.25854 242 235 247
1.08906 -0.010431 0.254529 243 235 247
1.0933 -0.00981866 0.251951 243 235 247
1.09754 -0.00916915 0.249354 242 233 246
1.12517 -0.0104584 0.237112 241 232 244
1.1336 -0.00859594 0.231591 237 231 242
1.14138 -0.00585406 0.225703 240 233 244
0.972543 0.0165841 0.288182 243 235 247
0.995477 0.0109119 0.280843 245 236 248
1.01839 -0.000174582 0.278216 246 237 251
1.03853 -0.00511716 0.272008 247 238 250
1.04473 -0.00799396 0.271245 247 238 250
1.05082 -0.00719911 0.267504 246 237 249
1.06238 -0.0111403 0.264953 246 237 249
1.10509 -0.00923172 0.242348 242 233 246
1.13209 -0.00936002 0.229497 240 233 244
1.13746 -0.00677343 0.224869 240 233 244
1.14756 -0.00374532 0.217686 241 232 244
1.15058 -0.00426669 0.216689 240 233 244
0.965243 0.0203305 0.285824 243 235 247
0.967857 0.0189858 0.285552 242 233 246
0.970074 0.0184457 0.284821 243 235 247
0.986435 0.00983904 0.283332 245 236 248
1.01104 0.00233609 0.27669 246 237 251
1.03101 -0.00280997 0.27065 247 238 250
1.06468 -0.0106446 0.260039 246 237 249
1.07076 -0.00960251 0.25615 246 237 249
1.07336 -0.00682723 0.25259 245 236 248
1.11859 -0.00750731 0.231053 241 232 244
1.12754 -0.00642839 0.225901 241 232 244
1.12932 -0.00558187 0.224375 240 233 244
1.15269 -0.00627082 0.213875 241 234 246
0.96062 0.02279 0.283183 229 221 233
0.974091 0.0152868 0.282213 243 235 247
0.977983 0.0115861 0.283214 243 235 247
0.98795 0.0115256 0.277983 245 236 248
1.00696 0.00294476 0.275099 246 237 251
1.02356 -0.000417456 0.269258 246 237 251
1.02636 -0.00153091 0.268732 246 237 251
1.02917 -0.00263339 0.268194 247 238 250
1.06484 -0.00703037 0.253688 246 237 249
1.06774 -0.00796052 0.252995 245 236 248
1.08797 -0.00743582 0.242536 243 235 247
1.10344 -0.00614499 0.233927 241 232 244
1.11056 -0.00608505 0.230422 241 232 244
1.11234 -0.00529834 0.22893 242 233 246
1.12422 -0.00493898 0.22293 240 233 244
1.14148 -0.0047123 0.214526 240 233 244
0.958212 0.0247175 0.279845 220 211 223
0.967761 0.0209067 0.277867 243 235 247
0.979522 0.0132518 0.277903 245 236 248
1.00656 0.00435926 0.270959 246 237 249
1.02126 0.000574274 0.266416 246 237 251
1.02492 0.00148402 0.26379 246 237 251
1.04228 -0.0057363 0.260755 247 238 250
1.04646 -0.00545642 0.258401 246 237 249
1.05636 -0.00711309 0.254727 246 237 249
1.0676 -0.00721865 0.249158 245 236 248
1.07414 -0.00685977 0.245605 245 236 248
1.07777 -0.00555436 0.242756 243 235 247
1.08012 -0.00565276 0.241666 243 235 247
1.09418 -0.00902056 0.237415 242 233 246
1.10253 -0.00758013 0.232176 242 233 246
1.10665 -0.00982701 0.231954 242 234 244
1.11557 -0.00284114 0.222084 241 232 244
1.12983 -0.00531194 0.217181 240 233 244
0.98272 0.0117683 0.274321 245 236 248
0.986334 0.0124153 0.271879 246 237 251
0.998897 0.00781074 0.269006 246 237 251
1.00524 0.00381671 0.268925 247 238 252
1.01298 0.0046639 0.264204 247 238 252
1.0162 0.00272507 0.2641 247 238 252
1.03426 -0.0026571 0.259129 247 238 252
1.04456 -0.00527867 0.25597 247 238 250
1.05678 -0.00715201 0.251272 246 237 251
1.08742 -0.008822 0.237276 243 235 247
1.09452 -0.00896172 0.233879 242 233 246
1.104 -0.00900178 0.229254 241 232 244
1.12054 -0.00253406 0.216127 241 232 244
1.12769 -0.00527754 0.214831 240 233 244
1.13058 -0.00279883 0.211506 240 233 244
1.1317 -0.00118185 0.209706 240 233 244
1.14583 -9.15873e-05 0.202128 240 233 244
0.957547 0.0240483 0.274743 226 219 230
0.977529 0.0149701 0.271401 245 236 248
0.984621 0.0127199 0.269454 245 235 250
1.00211 0.00646727 0.265281 244 237 251
1.00392 0.00686165 0.264016 246 237 251
1.00891 0.005294 0.262668 246 237 251
1.01118 0.00492127 0.261783 247 238 252
1.01944 0.00148781 0.260247 247 238 252
1.03191 -0.0016567 0.256328 248 239 253
1.04398 -0.00376365 0.251821 247 238 252
1.04631 -0.00399878 0.250823 247 238 252
1.05848 -0.00580291 0.24608 246 237 251
1.0621 -0.00459482 0.243296 246 237 249
1.0639 -0.0039787 0.2419 245 236 248
1.10198 -0.00587983 0.224479 241 232 244
1.12895 -0.000395125 0.207109 240 233 244
1.13129 -0.000246717 0.205867 240 233 244
1.13598 8.26878e-05 0.203364 240 233 244
1.14004 0.00118622 0.200572 240 233 244
1.14112 0.00284542 0.198779 241 234 246
1.14218 0.00450973 0.196989 241 234 246
1.14388 0.00545301 0.195458 253 244 254
0.973221 0.0166119 0.269331 246 237 249
0.983837 0.0149767 0.264992 247 238 252
1.00846 0.00678453 0.258587 248 239 253
1.01667 0.00332886 0.257061 247 238 252
1.02123 0.00266116 0.255226 247 238 252
1.03136 -0.000136571 0.252212 247 238 250
1.0524 -0.00600929 0.246091 247 238 252
1.05369 -0.00464847 0.244361 246 237 249
1.0718 -0.00511648 0.235586 245 236 248
1.09699 -0.00501189 0.222975 241 232 244
1.12213 -0.000582202 0.207256 240 233 244
1.12325 0.00102249 0.205481 240 233 244
1.12373 0.00337235 0.203436 240 233 244
1.12668 0.00277072 0.202479 240 233 244
1.13429 0.00251596 0.199014 240 233 244
0.981696 0.0161212 0.262182 246 237 251
0.997226 0.00945903 0.259258 247 238 252
1.01211 0.00475295 0.255179 247 238 252
1.01485 0.00360598 0.254657 248 239 253
1.02575 0.00277948 0.249654 247 238 250
1.04019 -0.00332327 0.24701 247 238 252
1.04583 -0.00536798 0.245723 247 238 252
1.04764 -0.00480579 0.244358 247 238 252
1.05047 -0.00580082 0.24369 247 238 250
1.05587 -0.00403733 0.23956 246 237 249
1.05872 -0.00499081 0.23886 246 237 249
1.05998 -0.00359975 0.237133 246 237 249
1.06231 -0.00375587 0.236081 247 238 250
1.06749 -0.00481225 0.234287 245 236 248
1.0914 -0.00636538 0.223531 242 233 246
1.09145 -0.00333948 0.221163 242 233 246
1.09612 -0.00336036 0.218869 241 232 244
1.10371 -0.00406891 0.215671 242 233 246
1.10543 -0.00021761 0.211861 240 233 244
1.12051 0.00186014 0.202909 241 234 246
1.12392 0.00360079 0.199922 240 233 244
1.13338 0.00111673 0.197247 240 233 244
1.1391 0.00315697 0.192941 241 234 246
0.965509 0.0183859 0.266035 245 236 248
0.978221 0.0161515 0.260994 246 237 251
0.982621 0.0152059 0.259398 247 238 252
0.989686 0.0130493 0.25735 247 238 252
1.01792 0.0060685 0.248019 248 239 253
1.02114 0.00415985 0.247835 247 238 252
1.04931 -0.00342983 0.239239 247 238 252
1.05625 -0.00399624 0.236143 246 237 249
1.08168 -0.0083137 0.226631 242 233 246
1.08827 -0.0016503 0.21822 242 233 246
1.09408 -0.0001656 0.214198 241 232 244
1.11375 0.00176564 0.20304 240 233 244
1.11994 0.00593789 0.19685 240 233 244
1.12472 0.00310617 0.196675 240 233 244
1.1363 0.00396734 0.190421 241 234 246
1.13671 0.00637006 0.188409 241 234 246
1.13775 0.00804344 0.18665 242 235 249
0.957527 0.0239333 0.263002 243 236 250
0.963046 0.0204039 0.262799 245 236 248
0.967795 0.0185362 0.26171 246 237 251
0.975251 0.0189545 0.257387 247 238 252
0.987509 0.0142123 0.254572 247 238 252
1.00625 0.00573669 0.25129 248 239 253
1.01513 0.00797014 0.244908 246 240 253
1.01834 0.00605174 0.244725 248 239 253
1.02236 0.0062246 0.242499 248 239 253
1.05199 -0.00358066 0.234811 246 237 251
1.06123 -0.00425248 0.230621 246 237 249
1.06693 -0.00608401 0.229131 246 237 249
1.07103 -0.0055398 0.22664 245 236 248
1.07921 -0.00434283 0.221603 242 233 246
1.08265 -0.00594563 0.221099 242 233 246
1.08448 -0.00219863 0.217325 243 235 247
1.08509 6.44602e-05 0.215296 243 235 247
1.0874 3.54028e-05 0.214166 242 233 246
1.10352 0.00319566 0.203773 240 233 244
1.11444 0.00434663 0.197538 240 233 244
1.12365 0.00485481 0.192655 240 233 244
1.12994 0.0060866 0.188675 240 233 244
1.13327 0.00793674 0.185671 241 234 246
0.963151 0.0210961 0.259254 245 235 250
0.967061 0.020862 0.257332 247 238 252
0.971391 0.0198478 0.255796 246 237 251
0.973561 0.0193536 0.255018 247 238 252
0.983146 0.0158454 0.252626 247 238 252
1.02052 0.00653989 0.240142 249 240 255
1.03025 0.000900776 0.239422 248 239 253
1.05288 -0.00429966 0.231745 247 238 250
1.05361 -0.00212277 0.229711 246 237 249
1.06334 -0.00351934 0.225813 245 236 248
1.09513 0.00250541 0.20527 240 233 244
1.11508 0.00696508 0.192073 241 234 246
1.12132 0.00811069 0.188159 241 234 246
0.949239 0.0275792 0.258841 194 188 197
0.964985 0.0221018 0.254558 246 237 251
0.988435 0.0141011 0.24818 247 238 252
0.995083 0.00922068 0.248401 247 238 252
0.999068 0.00922672 0.246288 245 239 252
1.01197 0.00784219 0.240562 246 240 253
1.02061 0.00367614 0.23922 246 240 253
1.03367 0.00280291 0.233098 249 240 255
1.03543 0.00335013 0.231772 248 239 251
1.05624 -0.00219282 0.225274 247 238 250
1.05907 -0.00312935 0.224537 246 237 249
1.07644 0.000593172 0.212912 242 233 246
1.08332 0.000449713 0.209556 240 233 244
1.08333 0.00349521 0.207267 241 234 246
1.08961 0.00422449 0.203576 241 234 246
1.10502 0.00525175 0.195143 240 233 244
1.1102 0.0046688 0.193015 240 233 244
1.12271 0.00692812 0.185188 241 234 246
1.12894 0.00818928 0.181209 241 234 246
1.1316 0.0107968 0.177987 241 234 248
0.947636 0.0280485 0.256484 179 171 183
0.956511 0.0249691 0.254029 244 237 251
0.958642 0.024425 0.253292 246 237 251
0.992871 0.010413 0.245659 247 238 252
1.00209 0.0116837 0.239815 248 239 253
1.02424 0.00181543 0.235671 249 240 255
1.03279 0.00153013 0.231439 249 240 255
1.05993 -0.00379186 0.221454 247 238 250
1.06222 -0.00392695 0.220381 245 236 248
1.07843 0.00149619 0.208095 241 234 246
1.08072 0.00145303 0.206974 241 234 246
1.09381 0.00525365 0.197579 240 233 244
1.10064 0.0053842 0.194073 240 233 244
1.10352 0.00469135 0.193153 240 233 244
1.10977 0.00570518 0.189306 240 233 244
1.11311 0.00742964 0.186383 241 234 246
1.12905 0.0085297 0.177734 242 235 247
0.947753 0.0287755 0.253015 203 197 208
0.987138 0.0144854 0.242647 248 239 253
0.992413 0.0120241 0.2417 247 238 252
1.00076 0.0112676 0.237846 246 240 253
1.02013 0.00245623 0.234278 249 240 255
1.02463 0.0018703 0.232364 249 240 255
1.04882 -0.0028574 0.22334 247 238 250
1.05233 -0.00162779 0.220614 247 238 250
1.06038 -0.000643978 0.21575 245 236 248
1.06565 0.00438119 0.209327 243 235 247
1.06847 0.003511 0.208537 243 235 247
1.07018 0.00420828 0.20715 242 233 246
1.0821 0.00318217 0.201871 241 234 246
1.0838 0.00393311 0.200459 241 234 246
1.0855 0.00469188 0.199044 241 234 246
1.09232 0.00471969 0.195596 241 234 246
1.11203 0.00924708 0.182453 241 234 246
1.12889 0.0120501 0.1721 242 235 247
0.95035 0.0281314 0.249253 245 236 248
0.952455 0.0275718 0.248531 243 236 250
0.958794 0.0259425 0.246322 247 238 252
0.960914 0.0254161 0.245571 247 238 252
0.966831 0.0211084 0.24562 247 238 252
0.975424 0.0191644 0.242459 246 240 253
0.977148 0.0195168 0.24127 246 240 253
1.00873 0.00862235 0.232638 248 241 255
1.05439 -0.00085246 0.21588 246 237 249
1.05786 0.000437792 0.213141 245 236 248
1.06421 0.0038931 0.207346 243 235 247
1.08233 0.00342105 0.198475 241 234 246
1.08571 0.00494453 0.195649 241 234 246
1.09478 0.00502637 0.191022 240 233 244
1.10614 0.00536354 0.185091 241 234 246
1.10764 0.00934514 0.18145 240 233 244
1.10929 0.0102113 0.180001 241 234 246
1.12409 0.00961545 0.173097 242 235 247
1.12735 0.0114872 0.170138 241 234 246
1.13476 0.0114068 0.16655 229 223 232
0.950437 0.0289031 0.245803 247 238 252
0.957148 0.0264389 0.244 247 238 252
0.977151 0.020339 0.237763 246 240 253
0.986659 0.016953 0.235194 246 240 253
0.999838 0.010907 0.232669 246 240 253
1.00517 0.0085627 0.23158 248 241 255
1.00959 0.00787868 0.229749 248 241 255
1.01402 0.00723166 0.227892 248 241 255
1.03916 -0.00319752 0.222416 249 240 253
1.04164 -0.000431082 0.219091 248 239 253
1.07802 0.00372298 0.197351 241 234 246
1.0814 0.00522421 0.194544 241 234 246
1.08818 0.00522595 0.19111 240 233 244
1.10655 0.011196 0.177563 240 233 244
1.10819 0.0120659 0.176121 241 234 246
1.1133 0.0115761 0.173927 241 234 246
1.12517 0.0116795 0.167959 242 235 247
0.947123 0.029165 0.244609 240 233 244
0.949214 0.0285991 0.243889 246 240 253
0.966904 0.0227241 0.238644 246 240 253
0.98752 0.0161773 0.232404 246 240 253
1.02624 0.00133895 0.222798 249 240 255
1.03397 -0.00101675 0.220465 249 240 253
1.04145 0.000514765 0.215445 248 239 251
1.051 -0.000994855 0.211585 246 237 249
1.05735 0.00239453 0.205836 242 235 247
1.06472 0.00432974 0.200643 245 236 248
1.06922 0.00417454 0.198447 241 234 246
1.07035 0.00567266 0.196785 242 235 247
1.07485 0.00557325 0.194559 240 233 244
1.0771 0.00553877 0.193436 242 235 247
1.09918 0.00339797 0.183781 241 234 246
1.10251 0.00507825 0.180896 241 234 246
1.10892 0.0116772 0.172963 241 234 246
1.11627 0.0113573 0.16952 242 235 247
1.12076 0.0117003 0.167039 242 235 247
0.947205 0.0299657 0.241183 248 239 253
0.950079 0.027746 0.241249 247 238 252
0.955073 0.0249939 0.240553 245 239 252
0.956774 0.0252871 0.239412 245 239 252
0.95929 0.0239335 0.239041 245 239 252
0.965642 0.0224058 0.23672 246 240 253
0.980577 0.0191405 0.231063 246 240 253
0.983167 0.0178888 0.23059 248 241 255
0.986214 0.0158285 0.230464 248 241 255
0.997514 0.013043 0.226464 248 241 255
1.00767 0.0091971 0.223871 249 240 255
1.01967 0.00603981 0.219825 250 241 255
1.0328 0.00153177 0.216197 249 240 253
1.03625 0.00268867 0.213549 248 239 251
1.04193 0.00368388 0.209868 247 238 250
1.05248 0.000633758 0.206582 246 237 249
1.05367 0.00207775 0.204929 243 235 247
1.05537 0.00273642 0.20357 243 235 247
1.0633 0.00692941 0.196464 242 235 247
1.06722 0.00756104 0.193999 241 234 246
1.06945 0.00749962 0.192896 241 234 246
1.08679 0.00814446 0.183585 241 234 246
1.08962 0.0074042 0.182676 240 233 244
1.11734 0.0134276 0.164441 242 235 247
1.12054 0.0152898 0.161526 242 235 249
1.12659 0.0166576 0.157552 244 238 249
1.12946 0.016147 0.156487 249 243 252
0.948457 0.028293 0.238947 248 239 253
0.967775 0.0227697 0.23247 248 241 255
0.993096 0.0147041 0.224711 246 240 253
1.01339 0.00705315 0.219443 249 240 255
1.02988 0.00353403 0.213278 249 240 253
1.03725 0.00506259 0.208317 248 239 251
1.04656 0.000513213 0.206717 247 238 250
1.0534 0.00309422 0.201311 245 236 248
1.0551 0.00375863 0.199954 245 236 248
1.05903 0.00432086 0.197516 241 232 244
1.06185 0.00649224 0.194509 242 235 247
1.07189 0.0077378 0.188453 241 234 246
1.09037 0.00697102 0.179554 241 234 246
1.09917 0.0103691 0.172684 241 234 246
1.11964 0.0140381 0.159803 242 235 247
1.12346 0.0151868 0.157088 242 235 247
0.943986 0.0310897 0.236597 242 235 249
0.955576 0.0258403 0.234064 246 240 253
0.969457 0.0239985 0.227857 248 241 255
0.977991 0.0185003 0.227211 248 241 255
0.986201 0.0139248 0.226086 248 241 255
0.996869 0.0157023 0.219094 248 241 255
1.01374 0.00719197 0.216211 252 242 255
1.01546 0.00770814 0.214934 252 242 255
1.02377 0.00742446 0.210743 252 242 255
1.02698 0.00556066 0.21038 249 240 255
1.03858 0.00366198 0.205634 247 238 250
1.04237 0.001071 0.205493 248 239 251
1.04684 0.000728191 0.203396 246 237 249
1.05758 0.00389498 0.195556 243 235 247
1.06319 0.00826428 0.18956 241 234 246
1.06982 0.0111714 0.18409 242 235 247
1.08207 0.00954955 0.178944 242 235 247
1.09706 0.0106651 0.170514 242 235 247
1.11747 0.0142942 0.157666 242 235 247
1.12001 0.0169294 0.154557 242 235 247
0.949764 0.0274838 0.233282 245 239 252
0.954736 0.0247365 0.232536 246 240 253
0.965235 0.0258511 0.226022 248 241 255
0.972837 0.0219562 0.22469 248 241 255
0.976262 0.0190241 0.224934 248 241 255
0.980525 0.0181516 0.223256 249 242 255
0.991235 0.016125 0.218942 249 242 255
0.992002 0.0182087 0.217047 249 242 255
0.997227 0.0158354 0.215939 250 241 255
1.00656 0.00990688 0.215172 252 242 255
1.017 0.00921375 0.210114 252 242 255
1.02628 0.00736699 0.206513 249 240 253
1.03341 0.00588602 0.203804 248 239 251
1.04882 0.00160836 0.198733 246 237 249
1.06671 0.0100173 0.183527 241 234 246
1.08503 0.00915561 0.174696 241 234 246
1.10018 0.0159513 0.16224 242 235 247
1.10238 0.0160702 0.161037 242 235 247
1.10803 0.0148258 0.159033 242 235 247
1.11184 0.0158973 0.156368 242 235 247
1.11626 0.0162545 0.153889 242 235 247
1.11941 0.0181494 0.150993 243 237 248
0.963549 0.0264161 0.223765 248 241 255
0.980469 0.0190843 0.219797 249 242 255
0.988088 0.0191109 0.215674 249 242 255
0.998045 0.0151654 0.213117 252 242 255
1.00114 0.0131805 0.212859 250 241 255
1.00473 0.0103897 0.212909 250 241 255
1.01633 0.0110283 0.206279 252 242 255
1.02119 0.0096864 0.204643 249 240 255
1.02438 0.00781607 0.204266 250 242 254
1.02709 0.00676831 0.203572 248 239 251
1.03641 0.00510834 0.199811 248 239 251
1.0497 0.00412348 0.193521 245 236 248
1.06028 0.00744923 0.18568 242 235 247
1.06746 0.00956348 0.180485 241 234 246
1.08236 0.010278 0.172288 240 233 244
1.09426 0.0153098 0.162715 242 235 247
1.09805 0.0162733 0.160113 241 234 246
1.12989 0.0148713 0.144937 246 240 249
0.951099 0.0303885 0.225006 249 242 255
0.953976 0.0281874 0.224985 248 241 255
0.973622 0.0221614 0.21853 249 242 255
0.998387 0.0153318 0.209967 252 242 255
1.00196 0.0125294 0.210014 252 242 255
1.01181 0.0126101 0.204694 252 242 255
1.01763 0.0096086 0.203688 252 242 255
1.03513 0.00777409 0.19569 247 238 250
1.06543 0.00995543 0.178307 242 235 247
1.0665 0.0114848 0.176696 242 235 247
1.0709 0.0114226 0.174455 242 235 247
1.10718 0.014075 0.153974 242 235 247
1.11223 0.0192894 0.147853 243 237 248
0.94457 0.0337701 0.22351 248 241 255
0.958116 0.0280894 0.220061 249 242 255
0.969371 0.02402 0.216767 250 243 255
0.981985 0.0214285 0.211733 250 243 255
0.997047 0.015036 0.208054 252 242 255
1.00134 0.0143586 0.206219 252 242 255
1.00731 0.0142301 0.203109 253 244 255
1.01575 0.0100985 0.201457 250 241 255
1.01842 0.00901697 0.200782 249 240 255
1.0216 0.00713283 0.200391 250 241 255
1.03216 0.00984868 0.19291 248 239 251
1.04576 0.00497351 0.189084 243 237 248
1.05407 0.0083645 0.182386 243 235 247
1.0634 0.0103632 0.176138 242 235 247
1.06666 0.0118519 0.17342 242 235 247
1.0926 0.0184994 0.155469 242 235 247
1.10881 0.0211198 0.145391 243 237 248
0.934858 0.0366984 0.224153 166 148 161
0.942559 0.0352515 0.220911 249 242 255
0.965944 0.027954 0.213162 250 243 255
0.973493 0.0241011 0.211717 251 244 255
0.976028 0.022837 0.211213 251 244 255
0.978573 0.0215832 0.210698 250 243 255
0.987012 0.019985 0.207231 253 244 255
1.01074 0.0125218 0.199601 252 242 255
1.01388 0.0106039 0.199236 252 242 255
1.01971 0.00762451 0.198165 250 241 255
1.02239 0.0065611 0.197463 250 241 255
1.02858 0.00972213 0.192006 248 239 251
1.03835 0.00734808 0.188445 246 237 249
1.04054 0.00718424 0.187397 246 237 249
1.04273 0.00703032 0.186343 243 237 248
1.04826 0.0113094 0.18051 242 235 247
1.05099 0.0103992 0.179693 243 235 247
1.05372 0.00950134 0.178866 241 234 246
1.06194 0.00999457 0.174222 242 235 247
1.06852 0.00987208 0.170861 242 235 247
1.07718 0.0129961 0.164232 242 235 247
1.08416 0.0154842 0.158928 242 235 247
1.0923 0.0165637 0.153992 242 235 247
1.10635 0.0190158 0.145115 243 237 248
1.10728 0.0207026 0.143509 242 235 247
1.11289 0.0195654 0.141395 244 238 249
1.1198 0.0169829 0.139591 242 235 247
1.12354 0.0182063 0.136865 248 241 255
0.936143 0.0387342 0.219396 249 242 255
0.938151 0.0381612 0.218682 250 243 255
0.95684 0.028828 0.214824 250 243 255
0.970986 0.0226378 0.211341 251 244 255
0.977715 0.0205055 0.209139 251 244 255
0.981026 0.0213488 0.206764 251 244 255
0.98313 0.0209501 0.205895 251 244 255
0.999833 0.0151093 0.200857 254 245 255
1.037 0.0100784 0.184403 246 237 249
1.03971 0.00911086 0.183622 246 237 249
1.043 0.0104272 0.180987 243 237 248
1.04464 0.0110965 0.179667 243 237 248
1.04846 0.0116571 0.177275 243 237 248
1.05063 0.0115509 0.176198 242 235 247
1.06696 0.0126372 0.166887 242 235 247
1.07075 0.0133958 0.164394 242 235 247
1.08166 0.013499 0.15863 242 235 247
1.08485 0.0151642 0.15586 241 234 246
1.08703 0.0152335 0.154681 242 235 247
1.10046 0.0183019 0.145679 243 237 248
1.10637 0.0195377 0.141813 243 237 248
1.12545 0.0165261 0.134021 253 244 255
0.942932 0.0326364 0.217188 250 243 255
0.950671 0.0313348 0.213812 251 244 255
0.973875 0.0215327 0.207776 251 244 255
0.992098 0.0158755 0.201711 252 246 255
1.03289 0.0107473 0.183264 246 237 249
1.03401 0.0121909 0.181699 246 237 249
1.04267 0.0115779 0.177506 242 235 247
1.06755 0.0154062 0.161825 243 237 248
1.07939 0.0170765 0.154513 242 235 247
1.08471 0.0188118 0.150592 242 235 247
1.08903 0.0189811 0.148226 242 235 247
1.10666 0.0225344 0.13675 243 237 248
1.11632 0.0193721 0.133854 242 235 249
1.12131 0.0190944 0.131471 243 236 250
0.935734 0.0378341 0.215 254 245 255
0.943337 0.0327592 0.214231 251 244 255
0.947807 0.0345348 0.210564 251 244 255
0.9576 0.029128 0.20883 252 246 255
0.964618 0.0260162 0.20708 252 246 255
0.974668 0.0208837 0.205042 252 246 255
0.990761 0.0156286 0.199816 255 246 255
0.994537 0.0157557 0.197682 253 247 255
1.00092 0.014767 0.194894 254 245 255
1.01638 0.0119627 0.188436 250 241 255
1.02385 0.00962219 0.185989 249 240 255
1.04124 0.011268 0.175606 245 236 248
1.04287 0.0119418 0.174292 245 236 248
1.04879 0.015511 0.168778 241 234 246
1.06504 0.0135077 0.161514 242 235 247
1.06721 0.0134903 0.160382 243 237 248
1.06939 0.0134832 0.159244 243 237 248
1.08282 0.016055 0.150497 242 235 247
1.09124 0.0195957 0.143772 243 237 248
1.09495 0.0206069 0.141178 243 237 248
1.10574 0.0213915 0.135058 242 235 247
1.11846 0.0201869 0.129269 241 234 248
0.928058 0.036644 0.217458 121 67 62
0.939699 0.0340001 0.212772 251 244 255
0.945757 0.0323603 0.210521 253 247 255
0.956339 0.0289472 0.206973 252 246 255
0.975896 0.0194104 0.202622 253 246 255
0.983835 0.0186434 0.198801 253 247 255
0.995313 0.015175 0.194868 253 247 255
1.01614 0.0130885 0.184996 249 240 255
1.01828 0.012848 0.184002 250 241 255
1.0279 0.0103499 0.180489 248 239 253
1.04839 0.0167194 0.165345 241 234 246
1.0554 0.0156951 0.1623 241 234 246
1.05755 0.0156407 0.161195 241 234 246
1.063 0.0139753 0.159406 241 234 246
1.07108 0.0147374 0.15464 243 237 248
1.07366 0.0171374 0.151711 242 235 247
1.0811 0.0188921 0.146651 243 237 248
1.0873 0.0223336 0.141157 243 237 248
1.09712 0.0212917 0.136706 243 237 248
1.10113 0.0191486 0.136009 243 237 248
1.11156 0.0233346 0.12787 242 235 249
0.925974 0.034555 0.217414 138 69 60
0.928108 0.0376134 0.214187 152 82 78
0.936085 0.0352699 0.211313 253 246 255
0.94978 0.0323275 0.205687 253 247 255
0.961216 0.0273308 0.202701 253 247 255
0.963268 0.0268656 0.201881 252 246 255
0.990919 0.0169562 0.19331 253 247 255
0.997727 0.0151145 0.190822 255 246 255
1.00409 0.0141891 0.187978 254 245 255
1.00688 0.016097 0.185212 253 244 255
1.01275 0.0161246 0.182018 250 241 255
1.01852 0.0131762 0.180844 248 241 255
1.02812 0.0106988 0.177303 247 238 252
1.02871 0.0129601 0.175501 247 238 252
1.0464 0.0172338 0.163241 241 234 246
1.04909 0.0163421 0.162389 241 234 246
1.06527 0.0144164 0.155046 243 237 248
1.079 0.0193427 0.144593 243 237 248
1.08485 0.0203522 0.140863 242 235 247
1.08518 0.0227738 0.139121 243 237 248
1.09099 0.023883 0.135357 242 235 247
1.10533 0.0257882 0.126632 242 235 249
1.10683 0.0267496 0.12523 242 235 249
1.11452 0.0259175 0.121766 245 239 252
0.924031 0.0279519 0.220266 84 37 30
0.92496 0.0299008 0.218458 130 68 55
0.92478 0.0344272 0.215568 160 86 79
0.932875 0.0357136 0.210205 252 242 255
0.936482 0.0354226 0.208392 252 246 255
0.947721 0.0338793 0.203178 252 246 255
0.95706 0.0293346 0.201011 253 246 255
0.971528 0.0223825 0.197617 255 245 255
0.988652 0.0184149 0.190843 253 247 255
0.995426 0.0165575 0.188364 255 246 255
1.00272 0.0139578 0.186093 254 245 255
1.00599 0.0150379 0.183611 252 242 255
1.01825 0.014343 0.177431 248 241 255
1.03696 0.0135114 0.167896 242 235 247
1.04605 0.0153479 0.161834 240 233 244
1.04819 0.0152578 0.160746 241 234 246
1.06436 0.013317 0.15338 242 235 247
1.06852 0.0164866 0.149124 243 237 248
1.07418 0.0205402 0.143517 242 235 247
1.07846 0.0206526 0.141183 243 237 248
1.08733 0.0234355 0.134713 242 235 247
1.0962 0.0207471 0.131772 242 235 247
1.11852 0.0245558 0.117659 243 235 247
0.920225 0.0256553 0.221279 79 38 27
0.919767 0.0310396 0.218006 116 59 46
0.923761 0.0297742 0.216598 147 75 65
0.926456 0.0356614 0.211235 184 100 96
0.951738 0.0301706 0.200769 253 247 255
0.964809 0.0256222 0.196516 255 248 255
0.977333 0.0192745 0.193758 255 248 255
0.983135 0.0189499 0.190786 255 247 255
0.987314 0.0182167 0.188973 253 247 255
0.989408 0.0178635 0.188057 255 246 255
1.00135 0.0137375 0.184212 253 244 255
1.00935 0.0134395 0.180055 252 242 255
1.0121 0.0154083 0.177286 249 240 255
1.0264 0.0116306 0.171986 247 238 252
1.03873 0.0146065 0.163422 241 234 246
1.03979 0.0161047 0.16189 240 233 244
1.04246 0.0151824 0.161046 240 233 244
1.0446 0.0150796 0.159965 240 233 244
1.04888 0.0149035 0.157785 240 233 244
1.05205 0.0163707 0.155145 241 234 246
1.05632 0.0162689 0.152924 241 234 246
1.06231 0.0138179 0.151298 242 235 247
1.06604 0.0145984 0.14881 243 237 248
1.06761 0.0153978 0.14746 242 235 247
1.06958 0.0185971 0.144367 243 237 248
1.07055 0.0202034 0.142825 243 237 248
1.07268 0.0202412 0.141668 241 234 246
1.07423 0.0210743 0.140316 242 235 247
1.0767 0.0235437 0.137426 243 237 248
1.07883 0.0236165 0.136253 241 234 246
1.10036 0.0273907 0.122495 242 235 247
0.919503 0.0328764 0.214366 146 77 66
0.92474 0.0327242 0.211531 189 101 97
0.935265 0.0363365 0.20331 255 247 255
0.938456 0.0369383 0.201144 255 247 255
0.942837 0.0350038 0.199961 255 247 255
0.944835 0.0344766 0.199192 255 247 255
0.959437 0.0263893 0.196332 253 246 255
0.979275 0.0199932 0.189523 255 248 255
0.988066 0.0176737 0.186191 255 246 255
0.995295 0.0149885 0.18396 254 245 255
1.00487 0.0151548 0.178623 253 244 255
1.04687 0.015447 0.155701 240 233 244
1.05059 0.0161059 0.153286 240 233 244
1.0597 0.0151321 0.149021 241 234 246
1.06653 0.0175015 0.14386 243 237 248
1.06693 0.019894 0.142131 243 237 248
1.06943 0.0223184 0.13926 242 235 247
1.07885 0.0241852 0.133066 242 235 247
1.08521 0.0244828 0.129501 241 234 246
1.10454 0.0284319 0.116797 242 235 249
0.923695 0.0363231 0.207223 202 116 111
0.931686 0.0376656 0.201891 255 247 255
0.933276 0.0379546 0.200817 255 247 255
0.944785 0.0355553 0.195948 255 247 255
0.949601 0.0328267 0.195022 253 246 255
0.982558 0.0182208 0.186155 255 247 255
0.998619 0.0133302 0.180458 253 244 255
1.00121 0.0121944 0.179764 253 244 255
1.00236 0.0135718 0.178259 252 242 255
1.00398 0.0141213 0.17702 252 242 255
1.01567 0.0142645 0.170554 249 240 255
1.0284 0.0130825 0.164385 243 236 250
1.03373 0.0142535 0.160756 241 234 246
1.04542 0.0151972 0.153842 240 233 244
1.05439 0.0173001 0.14768 242 235 249
1.06447 0.0180227 0.141817 243 237 248
1.06486 0.0204165 0.1401 242 235 247
1.06735 0.0228377 0.137242 243 237 248
1.08126 0.0216459 0.130565 242 235 247
1.08278 0.0225261 0.129202 243 237 248
1.08732 0.0252104 0.125106 242 235 247
1.09516 0.0265855 0.120081 242 235 249
1.10721 0.0285603 0.112469 242 235 249
0.913613 0.0413547 0.207129 180 99 90
0.921771 0.0379691 0.204707 204 119 111
0.931679 0.03873 0.198673 255 247 255
0.933648 0.0381643 0.197933 255 248 255
0.943142 0.0363138 0.193815 255 247 255
0.95765 0.0282146 0.190897 255 247 255
0.959676 0.0277513 0.190067 255 248 255
0.970736 0.0238675 0.186407 255 248 255
0.974841 0.0230565 0.184653 253 244 255
0.997921 0.0153504 0.176824 253 244 255
1.00422 0.014486 0.173915 252 242 255
1.01216 0.0142936 0.169696 252 242 255
1.0201 0.0142432 0.165393 246 240 253
1.03654 0.0137589 0.156759 238 232 243
1.03705 0.0160813 0.155023 240 233 244
1.04341 0.0157688 0.151774 240 233 244
1.0593 0.0169704 0.142448 242 235 247
1.06142 0.0169631 0.141307 242 235 247
1.10354 0.0280246 0.111914 243 236 250
1.10501 0.029009 0.110523 242 235 249
1.11262 0.0282322 0.106972 255 248 255
0.901153 0.0489841 0.206825 141 75 63
0.930468 0.0386568 0.196869 255 247 255
0.948274 0.0338348 0.189967 253 247 255
0.955113 0.0306661 0.188156 255 249 255
0.959567 0.0288852 0.186802 255 247 255
0.961159 0.0292872 0.185665 254 245 255
0.988203 0.0164693 0.178754 255 246 255
1.02503 0.0134756 0.160427 243 236 250
1.02822 0.014787 0.157871 240 233 244
1.02927 0.0162733 0.156368 240 233 244
1.044 0.0186162 0.146908 241 234 248
1.04655 0.0209006 0.144105 242 235 247
1.06073 0.0215064 0.136064 243 237 248
1.06379 0.0231272 0.133413 242 235 247
1.07432 0.0233726 0.127592 243 237 248
1.08393 0.0278906 0.119651 242 235 247
1.08751 0.0289422 0.117087 242 235 249
1.0959 0.0296174 0.11219 242 235 247
1.10219 0.0302342 0.108456 242 235 249
1.10574 0.0314567 0.105813 242 235 249
0.895019 0.0402659 0.213331 60 29 21
0.897142 0.0522697 0.20459 131 69 58
0.903134 0.0493359 0.203043 159 85 76
0.917946 0.0413153 0.19972 216 126 122
0.936724 0.0372221 0.191744 255 247 255
0.938694 0.0366831 0.190979 255 247 255
0.940269 0.0370131 0.189892 255 247 255
0.944221 0.0359745 0.188333 255 247 255
0.97541 0.0237037 0.178638 185 140 151
0.987071 0.0193532 0.174893 254 245 255
1.01106 0.0176121 0.162763 249 240 255
1.01474 0.0179997 0.160507 246 240 253
1.01944 0.0167676 0.158694 244 237 251
1.03779 0.0193985 0.147046 241 234 248
1.03935 0.0201144 0.145758 241 234 248
1.06324 0.024508 0.130097 242 235 247
1.07071 0.0230575 0.126951 243 237 248
1.07492 0.0232008 0.124593 242 235 247
1.07643 0.024073 0.123246 242 235 247
1.0845 0.027764 0.116643 243 236 250
1.0935 0.0276211 0.111898 243 236 250
1.09498 0.0285747 0.110526 242 235 249
1.104 0.0286511 0.105651 243 236 250
1.11094 0.0286403 0.10195 250 243 255
0.891999 0.0500201 0.206493 84 37 28
0.89569 0.0531368 0.202461 134 69 59
0.900984 0.0519395 0.200209 156 83 73
0.907682 0.0473183 0.199295 193 110 104
0.912201 0.0442797 0.198632 199 113 110
0.942978 0.0359064 0.186536 255 245 255
0.954998 0.0291532 0.183999 240 231 243
0.959316 0.0312084 0.180321 206 175 185
0.968244 0.0277895 0.177465 154 79 79
0.983661 0.0195633 0.173983 255 246 255
0.999263 0.0187285 0.16587 252 242 255
1.00183 0.0176164 0.16514 252 242 255
1.01075 0.0188834 0.159448 248 241 255
1.017 0.018249 0.1564 243 236 250
1.0238 0.0168753 0.153514 241 234 248
1.02852 0.0157374 0.151623 240 233 246
1.03062 0.0155955 0.150558 238 232 245
1.03376 0.0169776 0.147993 241 234 248
1.04308 0.0212962 0.140263 241 234 246
1.05908 0.025064 0.129264 242 235 247
1.06744 0.0251978 0.124649 242 235 247
1.07312 0.0261921 0.120969 243 237 248
1.0761 0.0279461 0.118293 243 236 250
1.09364 0.0308071 0.107101 243 236 250
1.0999 0.0314266 0.103365 242 235 249
1.10551 0.0329002 0.0994636 243 236 250
0.889921 0.0435792 0.209234 46 18 12
0.897975 0.0526247 0.199084 137 75 62
0.911884 0.0462372 0.195149 190 97 94
0.939766 0.0363689 0.185526 255 248 255
0.958742 0.0332538 0.176822 159 102 101
0.964738 0.0319652 0.174268 178 103 104
0.975039 0.0261165 0.172113 211 129 131
0.982528 0.0224822 0.170173 252 242 255
0.986628 0.0218046 0.168312 249 242 255
0.990738 0.0211631 0.166425 252 242 255
0.996922 0.0202693 0.163547 250 241 255
1.00154 0.0188811 0.161837 252 242 255
1.01035 0.0170635 0.158081 249 242 255
1.01193 0.0176747 0.156837 249 240 255
1.01559 0.0180882 0.154569 244 237 251
1.02656 0.0163833 0.149573 240 233 246
1.02916 0.0185657 0.146818 240 233 246
1.03591 0.0205515 0.141914 240 233 246
1.05551 0.0248525 0.128601 243 237 248
1.05759 0.0248578 0.127463 242 235 247
1.06893 0.0266827 0.120194 242 235 247
1.09626 0.0309522 0.102831 243 236 250
0.886351 0.0551566 0.201748 70 30 21
0.887259 0.0570636 0.200066 92 45 36
0.888785 0.0572183 0.199104 99 51 40
0.902629 0.054308 0.193026 169 101 90
0.911776 0.043607 0.194378 202 120 118
0.918724 0.0428653 0.190905 146 82 83
0.934612 0.0373937 0.185287 253 243 255
0.971912 0.0294315 0.169243 215 132 137
0.976199 0.0247965 0.169664 183 116 118
0.98686 0.0222109 0.165299 249 242 255
1.00174 0.0193248 0.158787 253 244 255
1.00745 0.0194248 0.155565 250 241 255
1.00902 0.0200317 0.154331 250 241 255
1.01991 0.0182013 0.149421 241 234 248
1.02667 0.0200469 0.144587 240 233 246
1.05024 0.0270808 0.127423 243 236 250
1.05853 0.0270925 0.122885 243 237 248
1.07395 0.0291733 0.113236 243 236 250
1.08993 0.0310882 0.103411 243 236 250
1.10317 0.0341473 0.0944228 242 235 249
0.885534 0.0588608 0.197606 89 44 32
0.88761 0.0618151 0.194636 98 48 35
0.900125 0.0578401 0.189933 172 103 94
0.917901 0.0419828 0.189452 144 78 80
0.945887 0.0363387 0.177089 126 75 67
0.946608 0.0384426 0.175417 135 80 69
0.959964 0.0361158 0.169332 160 90 84
0.96437 0.0344249 0.167884 205 124 133
0.978473 0.0248327 0.165771 255 249 255
0.983002 0.0232896 0.164172 249 240 255
0.986611 0.0234806 0.162046 250 241 255
0.993221 0.0217173 0.159425 252 242 255
1.00919 0.0205148 0.151281 246 240 253
1.01383 0.019264 0.149458 244 237 251
1.02886 0.0204508 0.140442 241 234 248
1.03355 0.0193994 0.13848 240 233 246
1.04273 0.0238196 0.130791 243 236 250
1.04632 0.0245407 0.128389 244 237 251
1.06976 0.0296645 0.112502 243 236 250
1.07536 0.0307545 0.108798 243 236 250
1.0795 0.0310065 0.106394 243 236 250
1.10209 0.0306019 0.0943413 243 236 250
1.10303 0.0349178 0.0912833 244 237 251
0.884383 0.0452321 0.204107 40 19 12
0.882888 0.0633236 0.194103 84 41 28
0.884384 0.0634751 0.19316 86 45 32
0.885246 0.0653972 0.191516 93 47 35
0.886092 0.0673241 0.189879 97 49 33
0.892984 0.0653967 0.187114 156 92 77
0.900154 0.0589705 0.186893 178 107 97
0.906989 0.0497562 0.188534 191 117 110
0.916437 0.0466264 0.185055 66 25 25
0.94633 0.0435027 0.170064 175 103 95
0.957373 0.0386502 0.166758 185 109 98
0.963075 0.0343742 0.16611 207 129 130
0.966394 0.0313978 0.166024 207 126 135
0.987769 0.0222241 0.159533 253 244 255
0.995951 0.0210468 0.155671 253 244 255
1.00779 0.0203948 0.149471 247 238 252
1.01141 0.0208057 0.147218 247 238 252
1.01449 0.0189403 0.146612 245 235 250
1.02689 0.0211312 0.138442 241 234 248
1.02949 0.0201834 0.137561 241 234 248
1.04111 0.026859 0.127197 242 235 249
1.04411 0.0283923 0.124641 242 235 249
1.05177 0.0291323 0.119987 243 236 250
1.05736 0.0299841 0.116409 244 237 251
1.06912 0.0311427 0.109273 243 236 250
1.0821 0.0310914 0.102198 244 237 251
1.08829 0.0316007 0.0985141 243 236 250
1.09385 0.0329738 0.0946713 243 236 250
1.10687 0.0336991 0.0871523 207 199 211
0.883048 0.0552819 0.196493 75 36 26
0.882417 0.0616221 0.193085 81 37 25
0.911199 0.0525234 0.182116 138 82 76
0.913868 0.0577041 0.177531 169 125 128
0.916418 0.0629245 0.172994 155 87 76
0.926572 0.05455 0.172214 162 96 84
0.93545 0.0459862 0.172271 171 107 94
0.945752 0.0456125 0.166687 190 117 103
0.952608 0.0386441 0.166948 191 112 105
0.954136 0.0390604 0.165843 188 107 102
0.956528 0.0377612 0.165266 196 115 108
0.959803 0.0347516 0.165203 196 115 108
0.979853 0.0239789 0.160314 250 241 255
0.994093 0.0217974 0.153635 253 244 255
1.00327 0.0190703 0.150117 250 241 255
1.02028 0.0229416 0.138376 240 233 246
1.03719 0.0243963 0.128139 242 235 249
1.05029 0.0289777 0.118218 243 236 250
1.05734 0.0306548 0.113346 244 237 251
1.07086 0.0294785 0.106587 244 237 251
1.07911 0.029965 0.10177 244 237 251
1.0888 0.0315817 0.0955102 243 236 250
1.09768 0.0316706 0.0905946 243 236 250
1.09975 0.0319131 0.0893243 243 236 250
1.10117 0.0329298 0.087954 243 236 250
0.883231 0.037187 0.204711 31 16 10
0.881646 0.0562303 0.1944 74 35 23
0.890909 0.069268 0.181442 172 102 87
0.893374 0.066818 0.18148 178 106 91
0.894498 0.0679069 0.180199 177 104 94
0.905679 0.0593509 0.178871 103 47 39
0.907556 0.0624923 0.175959 101 48 37
0.916243 0.0679448 0.167832 166 95 85
0.922245 0.0615694 0.168175 173 102 90
0.934927 0.0480923 0.168909 182 113 102
0.938056 0.0449722 0.16897 186 117 104
0.97266 0.0280507 0.159385 253 244 255
0.977592 0.0256241 0.158034 252 242 255
0.980071 0.0244271 0.157342 253 244 255
0.998846 0.0209093 0.148875 251 244 255
1.00089 0.0206592 0.147877 250 243 255
1.00245 0.0212602 0.146658 249 242 255
1.00604 0.0216437 0.144426 246 240 253
1.01476 0.0200061 0.140512 242 235 249
1.02296 0.0225353 0.134469 241 234 248
1.02654 0.0231046 0.132145 242 235 249
1.05585 0.0305027 0.111587 244 237 251
1.06491 0.032384 0.105491 244 237 251
1.06815 0.0308877 0.104567 244 237 251
1.07346 0.0295216 0.102426 243 236 250
1.08663 0.032159 0.0936437 244 237 251
1.08949 0.0341015 0.0909511 244 237 251
1.09691 0.0332316 0.0873745 243 236 250
1.10038 0.0344986 0.0847383 244 237 251
0.881235 0.0398921 0.201846 38 18 13
0.880755 0.0462488 0.198412 46 23 10
0.880543 0.0608915 0.189991 78 39 27
0.88657 0.0698689 0.181313 149 90 76
0.894159 0.0699747 0.176924 168 95 83
0.897397 0.0695321 0.175337 140 80 68
0.918726 0.0668776 0.164765 181 107 96
0.935606 0.047604 0.166405 189 121 105
0.938739 0.0444866 0.166443 194 125 112
0.953727 0.0347127 0.163646 208 124 123
0.965121 0.0261122 0.162206 205 133 127
0.970236 0.0266656 0.159002 255 247 255
0.980745 0.0240369 0.15461 252 242 255
0.987887 0.0244832 0.150337 253 244 255
0.994936 0.0219384 0.147852 252 246 255
1.01078 0.0209321 0.139556 243 236 250
1.03414 0.0273483 0.122812 242 235 249
1.05289 0.0295313 0.111123 243 236 250
1.05494 0.0295586 0.109971 243 236 250
1.06136 0.0321582 0.104916 243 236 250
1.07013 0.0317225 0.100305 243 236 250
1.07627 0.0321008 0.096689 243 236 250
1.08589 0.0337153 0.0904468 244 237 251
1.09534 0.03303 0.0856218 244 237 251
0.878849 0.0627633 0.187592 82 43 31
0.879963 0.0684062 0.183695 105 57 44
0.882253 0.0705111 0.181169 126 72 56
0.887254 0.069272 0.179027 157 94 76
0.890488 0.0687752 0.177467 173 102 90
0.894492 0.0702926 0.174306 154 86 73
0.897023 0.0716281 0.172093 145 81 69
0.899532 0.0729861 0.16988 154 88 72
0.913812 0.0719129 0.162375 188 112 104
0.923176 0.0614647 0.163076 193 118 104
0.942986 0.0400417 0.164175 209 141 127
0.947278 0.0382245 0.162789 212 139 127
0.962684 0.0247636 0.161814 203 136 129
0.964684 0.024357 0.160917 218 156 156
0.971362 0.0253987 0.156546 253 244 255
0.983275 0.0202407 0.152788 254 245 255
0.986395 0.0213228 0.150409 251 244 255
1.00424 0.0197949 0.141247 248 241 255
1.00628 0.0195769 0.140223 248 241 255
1.03023 0.0249418 0.123732 241 234 248
1.03973 0.02865 0.116308 244 237 251
1.06071 0.0336825 0.101748 244 237 251
1.06477 0.033847 0.0993928 244 237 251
1.08272 0.0300577 0.0915809 243 236 250
1.08477 0.030238 0.0903397 244 237 251
1.08558 0.0319846 0.0888979 244 237 251
0.880541 0.0724094 0.178836 121 71 56
0.885509 0.0711632 0.176707 155 91 76
0.891265 0.0719618 0.17296 155 89 73
0.896285 0.0746292 0.168569 161 95 79
0.905498 0.074388 0.163454 184 111 101
0.909069 0.0731856 0.162107 189 116 104
0.918203 0.0664816 0.160735 201 126 112
0.937478 0.0419258 0.163788 200 134 122
0.946013 0.0382417 0.161043 216 142 131
0.952438 0.0321089 0.160894 213 135 125
0.96094 0.025612 0.159776 213 159 154
0.962932 0.025202 0.158881 237 204 208
0.970482 0.0245114 0.155001 254 243 255
0.978051 0.0239548 0.151037 253 244 255
1.00438 0.0203484 0.138233 246 240 253
1.00592 0.0209781 0.13701 244 237 251
1.01254 0.0227297 0.132287 241 234 248
1.04177 0.0292971 0.112166 244 237 251
1.04845 0.0284623 0.108901 244 237 251
1.05487 0.0309839 0.103887 244 237 251
1.06326 0.0337134 0.0976575 243 236 250
1.06815 0.0356077 0.0938632 243 236 250
1.07078 0.0349414 0.0927711 243 236 250
1.07484 0.0352197 0.0903516 243 236 250
1.07933 0.032242 0.0895306 243 236 250
1.08296 0.0359009 0.0854443 244 237 251
1.0864 0.0370785 0.0828696 244 237 251
1.09121 0.0392948 0.0789437 244 237 251
0.875318 0.0481316 0.193385 44 20 15
0.875124 0.0536273 0.190381 66 28 22
0.878023 0.0723754 0.178091 112 64 49
0.891308 0.0769614 0.167888 164 99 82
0.907174 0.0750643 0.159901 199 126 114
0.910738 0.0738844 0.158536 205 132 118
0.933924 0.0433515 0.162587 198 127 114
0.938151 0.041466 0.161247 212 148 135
0.985339 0.0249087 0.143816 251 244 255
0.986394 0.0263223 0.142422 252 246 255
0.9959 0.022688 0.139094 250 243 255
1.00858 0.0205132 0.133156 243 236 250
1.01671 0.0230091 0.127169 240 233 246
1.02025 0.0235604 0.12486 241 234 248
1.02326 0.0249748 0.122371 241 234 248
1.02626 0.0264169 0.119877 242 235 249
1.03032 0.0262384 0.11769 243 236 250
1.03883 0.0284148 0.111686 243 236 250
1.05626 0.0325751 0.0995708 243 236 250
1.05854 0.0351056 0.0968753 244 237 251
1.06603 0.0362708 0.0920322 243 236 250
1.07797 0.0346111 0.086276 242 235 249
1.08 0.0347854 0.0850441 243 236 250
1.08422 0.0376988 0.0810621 244 237 251
0.873224 0.0610358 0.185013 85 44 31
0.882365 0.0741024 0.172432 141 87 69
0.884439 0.0725063 0.172139 153 92 76
0.892301 0.075548 0.165929 178 109 96
0.89512 0.0760158 0.164054 183 112 99
0.906033 0.0751918 0.158276 205 132 120
0.907432 0.0754789 0.157316 205 132 120
0.909966 0.0731244 0.157187 208 138 123
0.925757 0.0514925 0.160289 206 133 121
0.940858 0.03664 0.159992 217 155 146
0.947501 0.0334713 0.15798 217 148 139
0.964947 0.0266017 0.151894 255 242 255
0.982443 0.0243335 0.143224 251 244 255
0.994025 0.0235008 0.137121 252 245 255
1.00971 0.022608 0.128742 241 234 248
1.01122 0.0232719 0.127514 241 234 248
1.02225 0.0272835 0.119046 241 234 248
1.02724 0.0286404 0.115475 243 236 250
1.04782 0.0307125 0.102721 244 237 251
1.05273 0.0324202 0.0990056 244 237 251
1.05359 0.0340763 0.0976051 244 237 251
1.05905 0.0350748 0.0939782 243 236 250
1.08065 0.0373582 0.080587 244 237 251
1.08468 0.0377632 0.0780989 243 236 250
1.08607 0.0387555 0.0767701 243 236 250
1.08809 0.0389825 0.0755145 243 236 250
1.09817 0.0402766 0.0691533 255 254 255
0.875348 0.0698195 0.176658 103 60 45
0.883026 0.0735466 0.170177 154 93 77
0.894704 0.0743819 0.163016 186 117 104
0.897166 0.0757638 0.160838 187 118 105
0.898568 0.0760189 0.159893 192 121 109
0.899605 0.0771677 0.158661 201 130 120
0.905263 0.0744429 0.156935 209 135 124
0.912499 0.0682539 0.156229 214 145 132
0.930348 0.0422319 0.16046 209 135 124
0.944284 0.0339743 0.157079 225 170 168
0.954022 0.0317272 0.152769 255 244 255
0.965165 0.0270934 0.148984 253 242 255
0.968229 0.0280772 0.146694 254 245 255
0.986618 0.0242871 0.138328 252 246 255
0.988143 0.0248618 0.137143 252 246 255
0.993187 0.0257763 0.133771 251 244 255
1.00322 0.0214623 0.130457 245 239 252
1.01131 0.0238958 0.124524 241 234 248
1.01678 0.027479 0.119445 240 233 246
1.01879 0.0273489 0.118375 241 234 248
1.02377 0.0286746 0.114823 242 235 249
1.04229 0.0306167 0.103277 244 237 251
1.04605 0.0338847 0.0993489 244 237 251
1.0495 0.0347482 0.0969282 243 236 250
1.05436 0.0365076 0.093217 244 237 251
1.06903 0.036414 0.0849955 243 236 250
1.07585 0.0386108 0.0799438 243 236 250
1.07724 0.039572 0.0786327 243 236 250
1.08263 0.0409455 0.0748414 242 235 249
1.08992 0.0400922 0.0712126 243 236 250
0.870157 0.0593784 0.183196 82 44 27
0.870784 0.0622073 0.181278 87 47 31
0.872533 0.0707203 0.175584 92 51 35
0.879248 0.0771003 0.168211 158 96 81
0.885105 0.0732034 0.16699 171 105 91
0.888346 0.0765209 0.163303 185 115 100
0.893243 0.0754255 0.161095 192 121 109
0.898122 0.0782101 0.156765 206 137 124
0.901992 0.0760829 0.155715 211 140 127
0.906637 0.0722141 0.155179 212 141 128
0.911714 0.0674977 0.154862 218 149 139
0.915042 0.0633857 0.155215 213 142 130
0.935302 0.0359821 0.15867 206 145 143
0.947993 0.0343928 0.152283 254 227 238
0.957067 0.0300486 0.149482 255 243 255
0.960992 0.029241 0.147683 255 244 255
0.975878 0.0280853 0.139821 251 244 255
0.983822 0.0268518 0.135968 252 246 255
0.99083 0.0274691 0.131637 252 245 255
1.00838 0.0231904 0.12399 240 233 246
1.0143 0.0291125 0.117384 241 234 248
1.02272 0.0310188 0.111554 243 236 250
1.02673 0.0308454 0.109372 243 236 250
1.02874 0.0307733 0.108272 243 236 252
1.03767 0.0321949 0.102427 243 236 252
1.03968 0.0321788 0.101296 244 237 251
1.044 0.0346242 0.0975135 243 236 250
1.05202 0.0347602 0.0928926 243 236 250
1.05545 0.0356903 0.0904434 243 236 250
1.05746 0.0357681 0.0892647 244 237 251
1.07291 0.0375451 0.0795483 243 236 250
1.07308 0.0400673 0.0780811 243 236 250
1.07446 0.0410236 0.076778 243 236 250
1.07522 0.0427678 0.0753991 244 237 251
1.08508 0.0412654 0.0706445 242 235 249
1.08845 0.0425188 0.0680608 243 236 250
1.09444 0.0433179 0.0642423 255 254 255
0.867065 0.0510529 0.187274 44 23 12
0.866933 0.0565779 0.184338 56 26 18
0.867038 0.0612046 0.181754 69 37 25
0.868284 0.0668645 0.17795 85 46 32
0.870027 0.0707412 0.174833 85 46 32
0.876764 0.0770948 0.167491 161 101 87
0.878488 0.0763768 0.16689 167 106 90
0.883686 0.0742641 0.165051 178 110 94
0.886913 0.0775837 0.161386 185 115 100
0.899107 0.0768586 0.154773 206 137 124
0.932137 0.0365638 0.15775 195 125 119
0.935636 0.0325205 0.157943 230 182 183
0.949069 0.0331247 0.149916 255 244 255
0.98293 0.0260014 0.134415 252 245 255
0.984445 0.026572 0.133239 253 247 255
0.987462 0.0277337 0.130885 252 246 255
1.00696 0.0231655 0.122234 242 235 249
1.01087 0.029235 0.116711 238 232 245
1.01529 0.0313257 0.113059 240 233 246
1.01728 0.0312024 0.111989 241 234 248
1.04108 0.0337436 0.0970628 244 237 253
1.04308 0.0337514 0.0959196 244 237 251
1.04794 0.0354509 0.0922386 244 237 251
1.05277 0.0372214 0.0885348 244 237 251
1.06536 0.0370099 0.0814938 243 236 250
1.07491 0.0411027 0.0738601 243 236 250
1.07753 0.0405115 0.0726959 243 236 250
1.08278 0.0393713 0.070336 243 236 250
1.08415 0.0403732 0.0690158 243 236 250
1.08752 0.0416258 0.0664308 244 237 251
1.09415 0.0416555 0.062656 244 237 251
0.866608 0.0641978 0.178162 73 39 26
0.867528 0.0707783 0.17408 77 41 26
0.869815 0.0728659 0.171634 82 46 31
0.872068 0.0749751 0.169197 81 39 19
0.884004 0.0746447 0.162498 180 111 98
0.896594 0.0767628 0.154108 206 137 124
0.901846 0.0749052 0.152089 214 145 132
0.913826 0.0609872 0.152704 215 141 130
0.924004 0.0447924 0.155583 212 141 130
0.930501 0.0375302 0.155763 207 161 163
0.949298 0.0336224 0.147075 255 243 255
0.957931 0.0301957 0.143966 255 244 255
0.969247 0.0288141 0.138221 254 245 255
0.971215 0.0284692 0.137278 251 244 255
0.973645 0.0272683 0.136532 252 245 255
0.9776 0.0266254 0.134611 252 245 255
0.984584 0.0271647 0.13032 252 246 255
0.992536 0.0261246 0.126326 250 243 255
0.994529 0.0258877 0.125312 249 242 255
1.00789 0.0317456 0.114516 240 233 246
1.01187 0.0314459 0.112404 240 233 246
1.02037 0.0301286 0.108251 242 235 249
1.02673 0.0322846 0.103457 243 236 252
1.03729 0.0312577 0.0979826 245 238 254
1.04103 0.0345151 0.0940985 244 237 253
1.04786 0.0362445 0.089272 244 237 253
1.04811 0.0387145 0.0878056 244 237 251
1.05407 0.0389104 0.0842991 244 237 253
1.05805 0.0390915 0.0819331 243 236 250
1.06983 0.0373543 0.0761487 243 236 250
1.07797 0.040613 0.0697663 244 237 251
1.08405 0.043833 0.0645807 244 237 251
1.0952 0.0410519 0.0597242 249 240 255
0.863566 0.0558755 0.182165 47 23 15
0.864633 0.0624406 0.17804 66 34 22
0.866752 0.0747177 0.170256 90 52 38
0.878056 0.0760344 0.16303 175 109 95
0.891305 0.0761838 0.15531 201 132 119
0.893044 0.0755352 0.154655 203 135 121
0.896181 0.0751539 0.153051 208 139 126
0.897929 0.0745264 0.152379 209 141 127
0.906814 0.0676344 0.15094 215 144 134
0.91453 0.056681 0.152344 213 137 126
0.923551 0.0431252 0.154386 211 142 134
0.934255 0.0339396 0.153127 255 249 255
0.941131 0.0337561 0.149268 255 245 255
0.971383 0.0290392 0.134391 251 244 255
0.973348 0.0287086 0.133438 251 244 255
0.986213 0.0283619 0.126234 252 246 255
0.997617 0.0245975 0.121694 248 241 255
1.00212 0.0233372 0.119783 243 236 250
1.00655 0.0285402 0.114467 240 233 246
1.02782 0.0313726 0.100766 243 236 252
1.04181 0.0369462 0.0897842 245 238 254
1.05912 0.0383363 0.0791395 244 237 251
1.08907 0.0437269 0.0591505 242 235 251
0.863378 0.0681823 0.173525 63 33 23
0.866537 0.0768724 0.167103 103 58 42
0.876978 0.0762327 0.16141 177 111 95
0.878379 0.076424 0.160499 177 111 95
0.883687 0.081967 0.154503 192 126 112
0.889852 0.0772721 0.153427 204 136 123
0.891929 0.0757237 0.153047 207 138 125
0.893667 0.07508 0.152384 208 139 128
0.896445 0.0756052 0.150503 214 145 132
0.900299 0.0734722 0.149407 214 145 132
0.910038 0.0609669 0.150399 215 141 130
0.926126 0.038255 0.153125 195 147 150
0.928407 0.036838 0.152559 248 222 230
0.936429 0.0339232 0.149473 255 245 255
0.937943 0.0343217 0.14839 255 245 255
0.941781 0.0333734 0.146679 255 245 255
0.954018 0.0329504 0.139849 254 245 255
0.95833 0.0312756 0.138249 254 245 255
0.960716 0.030016 0.137541 253 244 255
0.962223 0.030512 0.13641 254 245 255
0.964777 0.0323945 0.133945 252 245 255
0.966723 0.0320404 0.13301 254 244 255
0.969128 0.0308269 0.132266 251 244 255
0.971542 0.0296244 0.131511 251 244 255
0.989273 0.0270222 0.122676 251 244 255
0.990766 0.0276345 0.121494 251 244 255
0.99771 0.0252524 0.118756 244 237 251
1.03806 0.0344477 0.0907001 244 237 251
1.0457 0.0378246 0.0845325 244 237 251
1.0471 0.0386839 0.0832751 244 237 251
1.05047 0.0396178 0.0808448 244 237 251
1.05443 0.0397838 0.0784842 243 236 250
1.06037 0.0401091 0.074901 243 236 250
1.06554 0.0387914 0.072625 243 236 250
1.06692 0.0397355 0.0713355 243 236 250
1.06952 0.0391077 0.0701763 243 236 250
1.07759 0.0424214 0.063798 244 237 253
0.86125 0.0515762 0.181289 42 23 18
0.872301 0.0740937 0.163105 170 111 95
0.875902 0.0764404 0.159793 181 115 98
0.880902 0.0828633 0.15354 199 135 120
0.909605 0.0593416 0.149263 215 141 132
0.914023 0.0525131 0.150284 211 135 127
0.922627 0.0398009 0.151967 195 131 130
0.924892 0.0383703 0.151407 223 183 188
0.9394 0.0321703 0.14627 255 246 255
0.947168 0.0373923 0.13905 255 245 255
0.952716 0.0330332 0.138128 255 244 255
0.977937 0.0252664 0.127629 252 245 255
0.995809 0.0261312 0.116862 246 240 253
1.01155 0.0311922 0.105134 241 234 248
1.01803 0.0300111 0.102015 242 235 251
1.02237 0.0322524 0.098339 243 236 252
1.02524 0.0337806 0.0958828 244 237 253
1.0315 0.0360955 0.0910663 244 237 251
1.03291 0.0368983 0.0898303 245 238 254
1.04838 0.0403928 0.0790865 243 236 252
1.04977 0.0412709 0.0778297 244 237 251
1.0543 0.0406431 0.0755447 244 237 251
1.06676 0.0406281 0.0683727 243 236 250
0.859661 0.0535792 0.178925 44 22 16
0.86073 0.0704116 0.169582 66 29 16
0.861332 0.0732651 0.167754 96 58 39
0.862472 0.074305 0.166555 109 66 49
0.86812 0.0748878 0.162982 164 110 94
0.870633 0.0761222 0.160888 165 107 90
0.872033 0.0762945 0.159988 174 113 95
0.876981 0.0788531 0.155797 190 126 111
0.878778 0.0819727 0.153139 195 132 117
0.8873 0.0785855 0.149961 206 133 119
0.899102 0.0711665 0.146975 216 147 136
0.904441 0.0654735 0.146835 212 141 130
0.908797 0.0586147 0.147868 215 141 132
0.933509 0.0350224 0.145791 255 246 255
0.938127 0.0322744 0.144542 255 245 255
0.940737 0.0339921 0.142141 255 244 255
0.952909 0.0335954 0.135302 254 245 255
0.971263 0.028556 0.127291 251 244 255
0.981072 0.0270447 0.122398 253 246 255
0.982565 0.0276322 0.12123 252 246 255
0.989474 0.0283346 0.116868 250 243 255
0.991936 0.0272457 0.116007 248 240 255
0.9949 0.0253133 0.115294 246 240 253
1.00184 0.0262292 0.110806 241 234 248
1.01367 0.0285665 0.102748 241 234 250
1.02695 0.0377791 0.090293 244 237 253
1.02891 0.037745 0.0891733 244 237 253
1.03088 0.0377208 0.0880479 245 238 254
1.04016 0.0385624 0.0822446 244 237 251
1.04964 0.0421335 0.0749116 245 239 252
1.05219 0.0414177 0.0738043 244 237 251
1.06856 0.041708 0.0641895 243 236 250
1.07053 0.0418911 0.0629536 243 236 250
1.07583 0.0432846 0.0591682 243 236 252
1.07851 0.0452967 0.0565721 243 236 252
0.865656 0.0749601 0.162255 163 104 90
0.866771 0.0760236 0.161064 169 108 94
0.871753 0.0785146 0.156898 193 129 114
0.872831 0.0796048 0.155713 200 134 120
0.876968 0.0801882 0.153016 203 135 121
0.880431 0.0826333 0.149754 208 139 126
0.884156 0.0803759 0.148753 208 138 123
0.908353 0.0569971 0.146719 212 141 130
0.913116 0.0492474 0.147934 211 137 130
0.915698 0.0468896 0.147647 206 132 127
0.919424 0.0418585 0.148068 184 129 131
0.932646 0.0342544 0.144302 255 245 255
0.938364 0.0328007 0.141732 255 244 255
0.939869 0.0332196 0.140644 255 245 255
0.941371 0.0336451 0.139555 255 244 255
0.943116 0.0371682 0.136735 255 245 255
0.960798 0.0326388 0.128803 254 244 255
0.962283 0.0331513 0.127678 252 245 255
0.964666 0.0319244 0.126926 252 245 255
0.973916 0.0311613 0.121951 252 245 255
0.980715 0.0285592 0.119342 253 246 255
0.993004 0.0262158 0.113415 248 241 255
0.998439 0.0264548 0.110139 242 235 249
0.999914 0.0271193 0.108942 240 233 246
1.00526 0.0306915 0.104005 241 232 246
1.01731 0.0356222 0.0944822 243 236 252
1.01927 0.0355412 0.0933842 244 237 253
1.03137 0.0377152 0.0852447 244 237 253
1.03417 0.0393494 0.0827804 244 237 253
1.04341 0.0403063 0.0769264 245 238 254
1.05974 0.0402516 0.0674779 244 237 253
1.06307 0.0413371 0.0649838 242 235 251
1.06714 0.0442122 0.0611458 243 236 252
1.07499 0.0450148 0.0561777 245 235 252
1.07961 0.0472777 0.0523307 243 234 251
1.0868 0.0491273 0.0472089 250 241 255
0.856838 0.0669803 0.169313 61 31 18
0.857832 0.0736037 0.165373 101 58 42
0.85952 0.0728155 0.164794 122 77 58
0.870386 0.0796626 0.155013 199 135 120
0.871459 0.0807535 0.153836 203 134 123
0.874518 0.0802269 0.152328 202 134 120
0.877264 0.0806327 0.150528 206 140 128
0.896841 0.0676964 0.145732 212 141 128
0.907539 0.0562812 0.145317 211 137 130
0.935186 0.0334026 0.140879 255 245 255
0.941421 0.0381787 0.134828 255 245 255
0.95179 0.034284 0.13078 255 246 255
0.962884 0.0328956 0.125036 252 245 255
0.979343 0.0286341 0.11763 253 246 255
0.988658 0.0282187 0.112422 251 244 255
0.999463 0.0286916 0.105895 238 232 245
1.00238 0.0300497 0.103504 238 232 245
1.00384 0.030739 0.102308 241 232 246
1.00777 0.0304475 0.100166 242 233 248
1.01066 0.0318788 0.0977544 242 235 251
1.01316 0.030923 0.0967881 243 234 251
1.01782 0.0355751 0.0917075 243 236 252
1.01957 0.0387647 0.089069 244 237 253
1.02097 0.0395345 0.0878593 244 237 253
1.02347 0.038653 0.0868517 244 237 253
1.03213 0.0401871 0.0810292 244 237 251
1.05386 0.0433069 0.0667857 244 237 253
1.06289 0.0422618 0.0620516 244 237 253
1.06425 0.0432188 0.0607755 243 236 252
1.06621 0.0433923 0.059545 243 236 252
1.07672 0.04621 0.0519844 242 235 251
1.07742 0.0480069 0.0506626 241 234 250
1.08 0.0474815 0.0494253 242 235 251
0.854231 0.0568397 0.17378 45 24 13
0.855012 0.06996 0.166735 67 33 20
0.85626 0.0756778 0.163138 125 78 57
0.857937 0.0748872 0.162562 129 80 60
0.869325 0.0799122 0.153421 203 137 123
0.877232 0.0819992 0.147777 210 143 132
0.881969 0.0808541 0.145599 211 136 123
0.883998 0.0792781 0.145211 210 130 118
0.893952 0.0685398 0.144821 212 139 127
0.901347 0.0612684 0.144176 213 142 130
0.916612 0.04307 0.144446 193 147 149
0.943509 0.0383169 0.131177 255 245 255
0.953878 0.0344916 0.127061 255 245 255
0.966426 0.0337262 0.120133 252 246 255
0.968812 0.0325288 0.119344 253 246 255
0.972681 0.0319067 0.117402 252 246 255
0.976559 0.0313206 0.115436 252 245 255
0.9814 0.0290411 0.11376 254 245 255
0.988723 0.0257089 0.111167 243 235 247
1.00438 0.0306436 0.0995464 243 234 249
1.0087 0.0327727 0.0959472 243 236 252
1.0153 0.0372924 0.0898191 246 236 253
1.02201 0.0386922 0.0851913 244 237 253
1.04064 0.0428141 0.0722292 244 237 251
1.05234 0.0433052 0.0651419 244 237 253
1.06858 0.0437435 0.0554224 243 236 252
1.08227 0.0453761 0.0465832 243 236 252
1.08423 0.0456516 0.0452991 242 235 251
1.08878 0.0454659 0.0427289 243 236 252
0.850965 0.0597284 0.172056 47 23 13
0.852295 0.071019 0.16567 67 35 21
0.861372 0.0793531 0.156251 184 118 104
0.862468 0.0804187 0.155083 186 120 106
0.880221 0.0829226 0.143508 210 135 122
0.884933 0.0779556 0.143236 211 133 121
0.890054 0.0721208 0.143156 213 140 128
0.892818 0.0687663 0.143216 213 137 126
0.904107 0.055461 0.14326 212 138 131
0.911347 0.0452745 0.144111 209 137 132
0.915025 0.0441424 0.142531 197 158 160
0.926148 0.0409385 0.13764 255 245 255
0.938868 0.0384614 0.131452 255 245 255
0.94034 0.0389008 0.130374 255 245 255
0.943274 0.0397994 0.128214 255 245 255
0.9498 0.0367816 0.125907 255 245 255
0.962264 0.0359281 0.119052 251 244 255
0.966552 0.0343853 0.117315 252 245 255
0.970862 0.0328825 0.115545 253 246 255
0.977132 0.0311383 0.112749 254 245 255
0.984402 0.0277551 0.110184 227 218 230
0.987809 0.0249252 0.109603 225 214 225
0.995689 0.0240667 0.105422 234 216 226
1.00346 0.029859 0.0979815 242 233 248
1.00907 0.0359702 0.0916443 245 235 252
1.01439 0.0365117 0.0882621 245 235 252
1.01861 0.0387982 0.084647 244 237 253
1.02723 0.0402645 0.0788605 244 237 253
1.03251 0.0410827 0.0753594 243 236 252
1.03388 0.0419192 0.0741335 244 237 253
1.04828 0.0440153 0.0646405 243 236 252
1.05921 0.0430358 0.0587129 243 236 252
1.06177 0.0423979 0.0575307 243 236 252
1.06568 0.0427471 0.0550602 243 236 252
1.07031 0.0449205 0.0512533 243 236 252
1.07937 0.0442983 0.0462438 242 235 251
1.08196 0.043786 0.0449811 243 236 252
0.848459 0.0598865 0.171272 36 17 12
0.848217 0.0664028 0.168207 46 22 14
0.849344 0.073016 0.1643 67 33 20
0.855599 0.0763252 0.159034 149 92 77
0.860331 0.0796229 0.154657 183 117 103
0.871311 0.0809989 0.147586 205 134 121
0.904 0.052958 0.142331 213 139 132
0.907239 0.0487526 0.142512 209 138 130
0.912342 0.0439892 0.141879 210 153 152
0.927548 0.0388103 0.135549 255 244 255
0.935051 0.0368679 0.13212 255 246 255
0.935716 0.0390766 0.130642 255 245 255
0.940112 0.0403896 0.127424 255 247 255
0.94199 0.0399529 0.12654 255 247 255
0.943449 0.0404112 0.12546 255 247 255
0.947643 0.038694 0.123854 252 245 255
0.964754 0.0353831 0.115467 252 245 255
0.96997 0.0321262 0.114019 252 245 255
0.971899 0.0318235 0.113038 253 246 255
0.973363 0.0324002 0.111895 255 246 255
0.976233 0.0303763 0.111212 250 241 255
0.980589 0.0289702 0.109353 209 196 207
0.98593 0.0258772 0.107748 207 165 170
0.99957 0.0309425 0.0972419 243 234 249
1.0048 0.0346001 0.0923646 243 234 251
1.00853 0.0376168 0.0886812 245 235 250
1.02493 0.0386815 0.0785149 244 237 253
1.02632 0.0394886 0.0772979 245 238 254
1.03021 0.0394745 0.0750171 244 237 253
1.03046 0.0419496 0.0736417 244 237 253
1.03183 0.0427832 0.0724214 244 237 253
1.03786 0.0453695 0.0675957 244 237 253
1.04871 0.0441379 0.0618162 243 236 252
1.05648 0.044638 0.0569921 243 236 252
1.06547 0.0437204 0.0521455 243 236 252
1.08555 0.0427653 0.0407798 243 236 252
1.08814 0.0422923 0.039484 233 223 240
1.08755 0.0456829 0.0381507 211 202 216
0.846708 0.068506 0.165942 48 24 14
0.84814 0.0685944 0.165066 64 31 19
0.848823 0.0714486 0.163279 84 48 33
0.849484 0.0743076 0.161503 96 53 38
0.850635 0.0753322 0.160335 106 61 42
0.85819 0.078839 0.154228 187 118 105
0.86095 0.0791357 0.152476 199 130 117
0.866152 0.0807155 0.148674 207 141 127
0.871915 0.0805588 0.145389 209 143 128
0.873588 0.0798501 0.144758 217 153 143
0.876312 0.0802776 0.14296 214 148 136
0.877992 0.0795887 0.142315 216 147 136
0.883392 0.0766541 0.140592 214 138 129
0.888826 0.0698892 0.140715 213 137 126
0.891578 0.0665231 0.140747 212 139 127
0.894354 0.0631681 0.14076 212 139 129
0.900327 0.055586 0.140965 208 133 127
0.903884 0.0504552 0.141387 207 135 128
0.907119 0.0462437 0.141548 207 137 133
0.912968 0.043618 0.139408 240 220 229
0.923664 0.0412897 0.134284 255 244 255
0.925909 0.0398824 0.133656 255 244 255
0.927772 0.0393813 0.13281 254 245 255
0.933782 0.0370338 0.130435 255 245 255
0.934852 0.0383521 0.129165 255 245 255
0.939662 0.0387756 0.126139 255 247 255
0.943004 0.0387978 0.124168 255 247 255
0.950552 0.0371648 0.120539 255 245 255
0.964322 0.0337645 0.114117 253 246 255
0.982582 0.0262209 0.107075 133 89 94
0.993834 0.0257539 0.100684 176 127 132
0.994801 0.0272804 0.0993686 215 189 198
1.00725 0.0344343 0.0885338 245 235 252
1.00762 0.0368556 0.0871319 245 235 250
1.01732 0.0364228 0.0816233 244 237 253
1.02012 0.0379846 0.0792064 246 236 253
1.02401 0.0379123 0.0769499 244 237 253
1.0254 0.0387196 0.0757337 245 238 254
1.02734 0.0387065 0.0745937 244 237 253
1.04794 0.0458856 0.0588991 244 237 253
1.06392 0.0437242 0.0505137 243 234 251
1.06781 0.0441201 0.0480167 245 235 252
1.08468 0.0471946 0.0365146 107 98 113
0.844931 0.0603221 0.168813 39 19 14
0.846873 0.0697904 0.163125 85 46 34
0.85354 0.0768855 0.155825 171 105 91
0.857155 0.0791256 0.152639 186 115 103
0.866758 0.0802647 0.146486 208 139 126
0.8745 0.0785126 0.142808 213 149 136
0.883277 0.0741897 0.139761 214 138 127
0.895306 0.061877 0.13866 208 134 125
0.902701 0.0506735 0.139735 206 134 129
0.916517 0.0439676 0.134876 254 243 255
0.918355 0.0434301 0.134058 254 243 255
0.92204 0.0423793 0.132404 253 244 255
0.979766 0.0289384 0.104956 157 96 92
0.984609 0.0267143 0.103177 174 99 95
0.993281 0.0338725 0.0945923 226 204 216
0.996137 0.0352355 0.0922454 214 194 205
1.01145 0.0374914 0.082099 246 236 253
1.02613 0.0412473 0.0715904 244 237 253
1.0275 0.0420717 0.0703771 244 237 253
1.03023 0.0437402 0.0679481 244 237 253
1.04643 0.0459261 0.0572825 245 235 252
1.05474 0.0456297 0.0524909 245 235 252
1.07908 0.0413836 0.0401014 240 230 249
0.895187 0.0593964 0.137747 204 132 122
0.915296 0.0441756 0.133214 252 242 255
0.923032 0.0411649 0.130106 254 245 255
0.936865 0.0360049 0.124437 255 247 255
0.941262 0.0373641 0.121198 255 247 255
0.943141 0.0369401 0.120294 253 246 255
0.948367 0.0366069 0.117374 252 245 255
0.952726 0.038113 0.114084 252 245 255
0.991689 0.0404823 0.0899214 185 128 129
0.9936 0.04031 0.0888724 182 123 123
1.01997 0.0397287 0.0735117 244 237 253
1.03415 0.047224 0.0614745 244 237 253
1.05441 0.0440651 0.0509372 241 232 248
0.980395 0.0328006 0.0978716 136 75 73
0.983754 0.0332062 0.0956864 119 71 67
0.983666 0.0396813 0.0926631 119 71 67
