ply
format ascii 1.0
comment Created by Open3D
element vertex 2000
property double x
property double y
property double z
property uchar red
property uchar green
property uchar blue
end_header
-0.185049 -0.438714 0.25914 172 168 176
-0.179698 -0.441598 0.258002 173 172 179
-0.177422 -0.443892 0.257641 179 175 183
-0.17607 -0.44459 0.257352 180 176 184
-0.173359 -0.445968 0.256771 180 179 186
-0.1716 -0.445757 0.25627 182 180 188
-0.170638 -0.447325 0.256187 183 182 189
-0.164787 -0.449069 0.254802 187 183 191
-0.162421 -0.451258 0.254414 189 185 193
-0.159296 -0.451617 0.253613 191 188 196
-0.157917 -0.45224 0.253313 193 189 197
-0.185848 -0.439758 0.25793 173 169 179
-0.184511 -0.440489 0.257645 170 169 176
-0.182314 -0.439458 0.256936 172 171 178
-0.180063 -0.441768 0.256576 176 173 181
-0.178719 -0.442475 0.256288 177 174 182
-0.177788 -0.444062 0.256209 179 178 185
-0.176436 -0.44476 0.255919 179 178 185
-0.175081 -0.445452 0.255628 180 179 186
-0.17332 -0.445248 0.25513 182 180 188
-0.170607 -0.446601 0.254545 185 184 191
-0.167884 -0.447931 0.253957 187 183 191
-0.166132 -0.447688 0.253459 188 184 192
-0.164769 -0.448338 0.253164 189 185 193
-0.162411 -0.450525 0.252771 189 185 193
-0.161037 -0.451159 0.252473 191 188 196
-0.159292 -0.45088 0.251974 193 189 197
-0.157552 -0.450592 0.251476 193 189 197
-0.136114 -0.457347 0.246526 204 201 209
-0.200278 -0.430658 0.259366 158 154 164
-0.198973 -0.431448 0.259091 159 155 165
-0.197198 -0.431375 0.258599 161 159 169
-0.196355 -0.433012 0.258538 161 159 169
-0.191954 -0.434451 0.25749 164 163 172
-0.190187 -0.434339 0.256997 166 165 175
-0.189316 -0.435956 0.256929 169 168 175
-0.188436 -0.437571 0.256859 169 167 177
-0.187547 -0.439185 0.256787 171 170 179
-0.185776 -0.439047 0.256292 171 170 179
-0.184443 -0.439776 0.256008 172 171 178
-0.182677 -0.439621 0.255514 173 172 179
-0.181342 -0.440338 0.255228 175 171 179
-0.179083 -0.442638 0.25486 180 176 184
-0.1768 -0.444924 0.254485 180 179 186
-0.175446 -0.445616 0.254193 180 179 186
-0.173684 -0.445412 0.253698 183 182 189
-0.171927 -0.445198 0.253203 183 182 189
-0.170573 -0.44587 0.25291 184 183 190
-0.169216 -0.446536 0.252616 185 184 191
-0.167857 -0.447197 0.252322 188 184 192
-0.166496 -0.447852 0.252027 189 185 193
-0.165132 -0.448502 0.251731 188 184 192
-0.163767 -0.449146 0.251433 189 185 193
-0.162398 -0.449784 0.251136 191 188 196
-0.159286 -0.450136 0.250342 193 189 197
-0.157548 -0.449846 0.249848 193 189 197
-0.156179 -0.450458 0.249549 194 190 198
-0.154807 -0.451065 0.249248 194 194 198
-0.153433 -0.451667 0.248947 196 192 200
-0.149644 -0.454356 0.248229 197 194 202
-0.21327 -0.425126 0.260832 146 144 154
-0.211984 -0.42597 0.260563 147 144 152
-0.210196 -0.425969 0.260074 149 146 154
-0.208907 -0.4268 0.259804 149 148 155
-0.207615 -0.427625 0.259534 154 150 161
-0.206808 -0.42929 0.259479 153 149 159
-0.205507 -0.430107 0.259205 151 150 159
-0.203723 -0.430068 0.258715 155 153 163
-0.200639 -0.430815 0.257951 160 156 166
-0.199805 -0.432461 0.257889 158 157 166
-0.197559 -0.431532 0.257186 159 158 168
-0.196252 -0.432309 0.256909 162 160 170
-0.194942 -0.433081 0.256632 166 162 172
-0.19363 -0.433847 0.256353 166 162 170
-0.192315 -0.434608 0.256073 167 163 171
-0.190997 -0.435363 0.255793 168 166 174
-0.190125 -0.436982 0.255719 168 166 176
-0.188798 -0.437729 0.255436 170 168 178
-0.186576 -0.44008 0.255074 173 172 182
-0.185239 -0.440811 0.254787 173 172 182
-0.18213 -0.441376 0.254008 177 173 184
-0.180789 -0.442089 0.25372 177 176 183
-0.179866 -0.443681 0.253633 179 178 185
-0.178516 -0.444384 0.253342 179 178 185
-0.177165 -0.445082 0.25305 180 179 186
-0.17581 -0.445775 0.252758 182 180 188
-0.174454 -0.446461 0.252464 183 182 189
-0.17229 -0.445355 0.251773 184 183 190
-0.170935 -0.446027 0.251479 184 183 190
-0.169579 -0.446694 0.251185 185 184 191
-0.16822 -0.447355 0.250889 188 184 192
-0.16588 -0.449562 0.250491 187 186 193
-0.164511 -0.450207 0.250193 190 187 195
-0.162762 -0.449942 0.2497 191 188 196
-0.161017 -0.449668 0.249208 193 189 197
-0.159277 -0.449385 0.248717 193 189 197
-0.15791 -0.450003 0.248417 194 190 198
-0.15654 -0.450616 0.248117 194 190 198
-0.153125 -0.454253 0.247587 197 194 202
-0.146894 -0.454747 0.245993 199 196 204
-0.145508 -0.455314 0.245686 199 196 204
-0.14412 -0.455876 0.245379 201 197 205
-0.139623 -0.456598 0.244271 202 198 206
-0.138231 -0.457136 0.243961 201 200 207
-0.133737 -0.45778 0.242851 204 201 209
-0.132341 -0.458294 0.242539 204 201 209
-0.214407 -0.423595 0.25947 144 143 150
-0.211843 -0.425284 0.258933 148 145 153
-0.210058 -0.42528 0.258448 150 149 156
-0.209268 -0.426951 0.258392 150 149 156
-0.207484 -0.426932 0.257906 155 153 163
-0.206681 -0.428596 0.257847 155 153 163
-0.205384 -0.42941 0.257573 155 153 163
-0.204084 -0.430219 0.257299 156 154 164
-0.202302 -0.43017 0.256812 159 155 165
-0.201 -0.430966 0.256536 160 156 166
-0.199695 -0.431756 0.256259 159 158 168
-0.197919 -0.431682 0.255773 161 159 169
-0.193532 -0.433134 0.25473 167 163 171
-0.191358 -0.435514 0.254375 168 166 174
-0.190038 -0.436264 0.254092 169 167 177
-0.188273 -0.439495 0.253931 171 170 179
-0.187377 -0.441108 0.253847 172 171 180
-0.183831 -0.44081 0.252868 175 173 181
-0.182493 -0.441528 0.25258 178 177 184
-0.179808 -0.442948 0.252001 179 178 185
-0.177528 -0.445235 0.251615 180 180 184
-0.175763 -0.445037 0.251125 183 182 189
-0.17441 -0.445722 0.250831 183 182 189
-0.171297 -0.446179 0.250048 185 184 191
-0.169941 -0.446846 0.249752 185 184 191
-0.168582 -0.447507 0.249456 186 185 192
-0.167221 -0.448162 0.249159 187 186 193
-0.164874 -0.45036 0.248753 191 188 196
-0.163503 -0.451 0.248453 191 188 196
-0.161754 -0.450727 0.247963 193 189 197
-0.16001 -0.450445 0.247474 193 189 197
-0.15827 -0.450154 0.246986 193 189 197
-0.156901 -0.450767 0.246685 195 191 199
-0.155529 -0.451374 0.246383 194 190 198
-0.154513 -0.452891 0.246265 195 191 199
-0.153488 -0.454405 0.246145 196 192 200
-0.151753 -0.45408 0.245656 197 194 202
-0.150022 -0.453746 0.245168 197 194 202
-0.14864 -0.454325 0.244862 198 195 203
-0.147256 -0.454899 0.244555 198 195 203
-0.144149 -0.455103 0.24376 199 196 204
-0.142763 -0.455657 0.243452 199 196 204
-0.139662 -0.45582 0.242657 201 197 205
-0.138274 -0.456356 0.242347 200 199 206
-0.136883 -0.456887 0.242037 203 199 207
-0.134097 -0.457932 0.241414 204 201 209
-0.132701 -0.458446 0.241102 203 199 207
-0.131303 -0.458954 0.240789 203 201 209
-0.127916 -0.458071 0.239819 204 203 210
-0.126521 -0.45856 0.239505 205 202 210
-0.125123 -0.459043 0.239191 204 203 210
-0.213486 -0.424587 0.257792 149 146 154
-0.212202 -0.425429 0.257521 147 146 153
-0.209627 -0.427096 0.256978 151 150 157
-0.207843 -0.427077 0.256495 154 152 162
-0.207041 -0.428741 0.256432 156 154 164
-0.205744 -0.429556 0.256157 156 154 164
-0.204927 -0.431215 0.256089 158 154 164
-0.203141 -0.431168 0.255605 160 156 166
-0.201836 -0.431966 0.255327 161 159 169
-0.200055 -0.431901 0.254843 161 159 169
-0.197808 -0.430969 0.254153 162 160 170
-0.194736 -0.431651 0.253393 166 162 170
-0.19389 -0.433278 0.253317 168 164 173
-0.192579 -0.434037 0.253036 165 164 171
-0.190847 -0.43728 0.252873 170 168 178
-0.189521 -0.438026 0.252588 171 170 179
-0.188635 -0.439641 0.252502 172 171 180
-0.1873 -0.440378 0.252215 175 173 183
-0.185964 -0.44111 0.251927 173 172 182
-0.184192 -0.440955 0.25144 175 173 181
-0.180591 -0.44398 0.250765 179 178 185
-0.179242 -0.444683 0.250472 179 178 185
-0.177891 -0.445381 0.250179 182 181 186
-0.17518 -0.446761 0.249589 184 183 190
-0.173417 -0.446547 0.249102 185 184 191
-0.17206 -0.447221 0.248806 184 183 190
-0.1707 -0.44789 0.248509 185 184 191
-0.169337 -0.448552 0.248212 186 185 192
-0.167582 -0.448308 0.247725 186 185 192
-0.166606 -0.449861 0.247614 187 186 193
-0.165237 -0.450506 0.247313 190 189 196
-0.163866 -0.451146 0.247012 191 188 196
-0.162116 -0.450873 0.246526 191 188 196
-0.158631 -0.4503 0.245554 194 190 198
-0.156252 -0.452434 0.245131 195 191 199
-0.154875 -0.453037 0.244827 195 191 199
-0.153851 -0.454552 0.244703 196 192 200
-0.152466 -0.455145 0.244396 196 192 200
-0.150731 -0.454813 0.24391 196 192 200
-0.149001 -0.454471 0.243424 197 194 202
-0.147617 -0.455045 0.243117 198 195 203
-0.143123 -0.455803 0.242016 202 198 206
-0.141734 -0.456352 0.241706 202 198 206
-0.140021 -0.455966 0.241223 202 198 206
-0.138633 -0.456502 0.240912 201 197 205
-0.137242 -0.457033 0.240601 203 199 207
-0.13585 -0.457558 0.24029 203 199 207
-0.13306 -0.458591 0.239664 203 199 207
-0.131361 -0.458161 0.239182 203 201 209
-0.129668 -0.457722 0.238701 203 201 209
-0.128274 -0.458216 0.238387 203 201 209
-0.126879 -0.458705 0.238073 204 203 210
-0.21283 -0.423054 0.255962 149 148 155
-0.211554 -0.423892 0.255692 149 148 155
-0.210775 -0.425564 0.255629 153 149 157
-0.209489 -0.426393 0.255357 155 151 162
-0.207707 -0.426372 0.254877 154 152 162
-0.20691 -0.428034 0.25481 156 152 163
-0.204803 -0.430504 0.254463 161 157 168
-0.203501 -0.431308 0.254186 161 159 169
-0.198166 -0.431108 0.252742 162 160 170
-0.196395 -0.431022 0.252262 166 162 172
-0.194629 -0.430927 0.251783 169 166 174
-0.193327 -0.431687 0.251504 166 165 173
-0.19248 -0.433309 0.251422 168 166 176
-0.191623 -0.43493 0.251338 170 168 178
-0.190756 -0.436549 0.251252 170 168 178
-0.189881 -0.438166 0.251163 171 170 179
-0.188996 -0.439781 0.251073 171 170 179
-0.187662 -0.440518 0.250784 172 171 180
-0.186325 -0.44125 0.250495 173 172 182
-0.184553 -0.441096 0.250011 177 176 183
-0.183214 -0.441814 0.249721 176 175 182
-0.180531 -0.443235 0.249139 179 178 185
-0.179185 -0.443936 0.248846 179 178 183
-0.178253 -0.445522 0.248742 180 180 184
-0.175134 -0.446008 0.247963 184 183 190
-0.173779 -0.446688 0.247667 184 183 190
-0.171061 -0.44803 0.247072 185 184 191
-0.169699 -0.448693 0.246773 185 184 191
-0.168335 -0.44935 0.246474 186 185 192
-0.165599 -0.450647 0.245873 187 186 193
-0.164228 -0.451287 0.245571 189 187 195
-0.162477 -0.451014 0.245087 191 188 196
-0.161105 -0.451641 0.244784 193 189 197
-0.15936 -0.451351 0.244301 193 189 197
-0.157988 -0.451966 0.243998 194 190 198
-0.156613 -0.452574 0.243693 195 191 199
-0.155235 -0.453178 0.243388 194 190 198
-0.153856 -0.453775 0.243083 194 193 200
-0.152122 -0.453448 0.2426 196 192 200
-0.150743 -0.454033 0.242294 198 195 203
-0.147635 -0.454261 0.241505 199 196 204
-0.146253 -0.454828 0.241197 198 195 203
-0.144534 -0.454462 0.240716 199 196 204
-0.143151 -0.455015 0.240407 201 197 203
-0.141767 -0.455563 0.240098 201 197 205
-0.140056 -0.455174 0.239618 201 197 205
-0.138671 -0.45571 0.239308 202 198 206
-0.137285 -0.456239 0.238997 202 198 206
-0.135896 -0.456763 0.238686 201 200 207
-0.134506 -0.457281 0.238373 201 200 207
-0.131417 -0.457362 0.237582 204 201 209
-0.130025 -0.457861 0.237269 205 202 210
-0.127236 -0.458844 0.236639 204 203 210
-0.124156 -0.458859 0.235847 204 203 210
-0.122478 -0.458383 0.235371 203 201 209
-0.212678 -0.42235 0.254352 149 148 155
-0.21191 -0.424025 0.254287 152 148 156
-0.21063 -0.424857 0.254015 153 149 159
-0.209348 -0.425683 0.253742 155 153 163
-0.208064 -0.426505 0.253469 155 153 163
-0.207267 -0.428168 0.253397 158 154 164
-0.205974 -0.42898 0.253121 159 155 165
-0.205162 -0.430638 0.253044 158 157 166
-0.203859 -0.431442 0.252766 159 158 168
-0.202554 -0.43224 0.252486 161 159 169
-0.198522 -0.431241 0.251331 165 161 171
-0.196283 -0.430293 0.250656 164 163 170
-0.194984 -0.431059 0.250377 167 163 171
-0.193682 -0.43182 0.250096 168 166 174
-0.192836 -0.433442 0.25001 169 168 175
-0.19198 -0.435063 0.249922 169 168 175
-0.191114 -0.436682 0.249831 171 170 179
-0.19024 -0.4383 0.249738 171 170 179
-0.189356 -0.439916 0.249642 172 171 180
-0.188022 -0.440653 0.249353 173 172 182
-0.184912 -0.44123 0.248582 175 173 181
-0.183574 -0.441948 0.248291 176 175 182
-0.182234 -0.442661 0.247999 178 177 184
-0.179545 -0.444071 0.247413 178 177 184
-0.175494 -0.446143 0.246527 183 182 189
-0.173185 -0.448393 0.246116 185 184 191
-0.168696 -0.449485 0.245034 186 185 192
-0.167329 -0.450136 0.244733 187 186 193
-0.16596 -0.450782 0.244431 186 185 192
-0.164207 -0.450515 0.24395 189 187 195
-0.162838 -0.451148 0.243648 191 188 196
-0.161466 -0.451776 0.243344 193 189 197
-0.15972 -0.451486 0.242864 193 189 197
-0.158348 -0.4521 0.24256 194 190 198
-0.156973 -0.452709 0.242255 195 191 199
-0.154216 -0.45391 0.241643 196 192 200
-0.152835 -0.454501 0.241335 196 192 200
-0.151102 -0.454167 0.240856 197 194 202
-0.14972 -0.454746 0.240548 197 194 202
-0.147994 -0.454395 0.240069 198 195 203
-0.146612 -0.454962 0.23976 198 195 203
-0.144892 -0.454595 0.239283 199 198 205
-0.143177 -0.454221 0.238806 198 197 202
-0.140089 -0.454377 0.238021 201 197 205
-0.138707 -0.454911 0.237711 203 199 207
-0.137007 -0.454505 0.237236 199 198 205
-0.135626 -0.455026 0.236925 200 199 206
-0.134243 -0.455541 0.236614 201 200 207
-0.133165 -0.456989 0.236464 201 200 207
-0.130382 -0.457995 0.235836 201 200 207
-0.128988 -0.458489 0.235521 203 201 209
-0.127593 -0.458978 0.235205 203 201 209
-0.126195 -0.45946 0.234889 204 203 210
-0.124512 -0.458992 0.234415 204 203 210
-0.0311562 -0.567232 0.220741 172 166 162
-0.0220741 -0.564665 0.218285 172 167 160
-0.212523 -0.42164 0.252748 150 149 156
-0.211759 -0.423313 0.252679 153 149 159
-0.210985 -0.424984 0.252608 154 151 159
-0.209704 -0.425811 0.252334 154 152 160
-0.208419 -0.426632 0.252059 155 154 161
-0.207132 -0.427448 0.251784 156 155 162
-0.203735 -0.430716 0.251149 159 158 168
-0.202433 -0.431512 0.250869 161 159 167
-0.200653 -0.431445 0.250393 161 159 167
-0.198877 -0.431368 0.249918 163 161 171
-0.197106 -0.431282 0.249443 166 162 172
-0.195338 -0.431186 0.248969 167 163 171
-0.192732 -0.432701 0.248406 168 166 174
-0.192336 -0.43519 0.248505 169 168 175
-0.191472 -0.43681 0.248409 170 168 178
-0.19015 -0.437555 0.248122 170 168 178
-0.18794 -0.439904 0.247733 172 171 180
-0.186607 -0.440634 0.247443 173 172 182
-0.184836 -0.440477 0.246966 175 173 183
-0.183502 -0.441194 0.246675 177 175 185
-0.182593 -0.44279 0.246567 178 177 184
-0.179905 -0.444199 0.245979 180 179 186
-0.178557 -0.444896 0.245684 180 179 186
-0.177206 -0.445586 0.245388 182 180 188
-0.175443 -0.445378 0.24491 183 182 189
-0.174499 -0.446951 0.244793 184 183 190
-0.173142 -0.447625 0.244495 184 183 190
-0.171782 -0.448294 0.244195 185 184 191
-0.169056 -0.449613 0.243594 186 185 192
-0.1673 -0.449361 0.243116 186 185 192
-0.166321 -0.450911 0.24299 186 185 192
-0.164567 -0.450644 0.242511 189 187 195
-0.163197 -0.451277 0.242208 193 189 197
-0.161826 -0.451904 0.241904 193 189 197
-0.160079 -0.451614 0.241426 193 189 197
-0.158707 -0.452228 0.241121 194 190 198
-0.155955 -0.453441 0.240509 194 190 198
-0.154576 -0.454038 0.240202 193 192 199
-0.153195 -0.45463 0.239894 196 192 200
-0.151461 -0.454295 0.239417 196 192 200
-0.149732 -0.453951 0.238942 197 194 202
-0.148352 -0.454523 0.238633 197 194 202
-0.14663 -0.454164 0.238158 199 196 204
-0.145249 -0.454723 0.237849 197 196 203
-0.143534 -0.454348 0.237375 198 197 202
-0.141823 -0.453965 0.236902 199 196 204
-0.140444 -0.454504 0.236592 201 197 205
-0.138741 -0.454105 0.23612 201 197 205
-0.137362 -0.454632 0.23581 200 199 206
-0.135666 -0.454217 0.235339 200 199 206
-0.134598 -0.455669 0.235186 200 199 206
-0.133213 -0.456179 0.234874 201 200 207
-0.131826 -0.456683 0.23456 201 200 207
-0.130438 -0.457181 0.234246 204 201 209
-0.129048 -0.457674 0.233932 204 201 209
-0.127656 -0.458162 0.233616 203 201 209
-0.121793 -0.459106 0.232196 204 203 210
-0.120122 -0.458614 0.231728 204 203 210
-0.114534 -0.460383 0.230453 203 201 209
-0.113389 -0.461767 0.230279 204 203 210
-0.212875 -0.421761 0.251349 149 148 155
-0.211339 -0.425105 0.2512 154 151 159
-0.210058 -0.425932 0.250925 154 152 160
-0.207486 -0.427569 0.250373 156 155 162
-0.205706 -0.42753 0.249901 158 154 162
-0.204091 -0.430838 0.249731 161 159 169
-0.20231 -0.430778 0.249258 161 159 169
-0.201009 -0.431566 0.248977 162 161 168
-0.199232 -0.431489 0.248505 162 160 170
-0.19746 -0.431403 0.248033 166 162 172
-0.195691 -0.431307 0.247562 166 162 172
-0.19439 -0.432067 0.24728 168 164 175
-0.193545 -0.43369 0.247184 168 166 174
-0.190057 -0.436803 0.246513 170 168 178
-0.189182 -0.438416 0.24641 171 170 179
-0.187855 -0.439149 0.246121 173 172 182
-0.186526 -0.439877 0.24583 172 171 180
-0.184758 -0.439718 0.245356 175 173 183
-0.183427 -0.440433 0.245065 176 174 184
-0.182522 -0.442027 0.244954 175 173 183
-0.181183 -0.442733 0.24466 178 177 184
-0.179841 -0.443433 0.244366 179 178 185
-0.178916 -0.445018 0.244249 180 180 184
-0.177565 -0.445709 0.243952 180 179 186
-0.175801 -0.4455 0.243477 182 180 188
-0.17445 -0.446178 0.243179 184 183 190
-0.173096 -0.446851 0.24288 184 183 190
-0.169022 -0.448834 0.24198 186 185 192
-0.164543 -0.449859 0.240901 189 185 193
-0.163177 -0.450491 0.240597 189 187 195
-0.160065 -0.450824 0.239819 191 190 197
-0.158696 -0.451437 0.239514 191 190 197
-0.157325 -0.452045 0.239208 194 190 198
-0.155951 -0.452646 0.238902 195 191 199
-0.154576 -0.453242 0.238595 193 192 199
-0.153199 -0.453833 0.238287 193 192 199
-0.150089 -0.454074 0.237505 197 194 202
-0.146645 -0.45336 0.236563 198 195 203
-0.145268 -0.453918 0.236253 198 197 204
-0.14389 -0.45447 0.235943 198 197 204
-0.142179 -0.454086 0.235473 199 196 204
-0.140799 -0.454625 0.235163 202 198 206
-0.136019 -0.454338 0.233915 200 199 206
-0.134952 -0.45579 0.233758 200 199 206
-0.132181 -0.456804 0.233131 201 200 207
-0.130793 -0.457303 0.232816 203 201 209
-0.1297 -0.458738 0.232653 201 200 207
-0.128011 -0.458283 0.232185 203 201 209
-0.126617 -0.458765 0.231868 204 201 209
-0.125222 -0.459241 0.231551 203 201 209
-0.121868 -0.458278 0.230619 203 201 209
-0.120199 -0.457785 0.230154 203 201 209
-0.11908 -0.459186 0.229983 203 201 209
-0.114626 -0.45955 0.228881 205 202 210
-0.113487 -0.460933 0.228703 204 203 210
-0.213737 -0.422714 0.250145 149 148 155
-0.212464 -0.423549 0.249872 151 150 157
-0.211189 -0.424379 0.249598 152 148 156
-0.209911 -0.425204 0.249323 155 152 160
-0.20863 -0.426023 0.249047 155 154 161
-0.207346 -0.426837 0.24877 156 155 162
-0.205569 -0.426795 0.248302 157 156 163
-0.20477 -0.428448 0.248214 160 156 166
-0.203962 -0.4301 0.248124 161 159 169
-0.202664 -0.430894 0.247843 162 161 168
-0.201363 -0.431682 0.247561 162 161 168
-0.20006 -0.432465 0.247278 163 162 169
-0.198283 -0.432381 0.246808 165 164 173
-0.196511 -0.432286 0.246339 166 162 170
-0.194359 -0.434674 0.245955 169 165 176
-0.192589 -0.434558 0.245485 168 166 176
-0.19173 -0.436176 0.245381 169 167 177
-0.190412 -0.436919 0.245093 169 167 177
-0.189091 -0.437656 0.244804 171 170 179
-0.186882 -0.439993 0.244404 173 172 182
-0.185113 -0.439834 0.243932 173 172 182
-0.183783 -0.440549 0.24364 173 172 182
-0.182879 -0.442144 0.243525 176 174 184
-0.18154 -0.44285 0.24323 177 175 185
-0.180198 -0.44355 0.242935 179 178 185
-0.177508 -0.444934 0.242341 180 179 186
-0.175746 -0.444723 0.24187 182 180 188
-0.174808 -0.446295 0.241745 183 182 189
-0.173049 -0.44607 0.241273 184 183 190
-0.172098 -0.447634 0.241145 184 183 190
-0.168985 -0.448048 0.240372 185 184 191
-0.167234 -0.447792 0.239901 186 185 192
-0.166264 -0.449339 0.239768 189 185 193
-0.164516 -0.449068 0.239297 189 185 193
-0.163153 -0.449698 0.238993 189 187 195
-0.161789 -0.450322 0.238689 191 190 197
-0.160422 -0.450941 0.238384 190 189 196
-0.158683 -0.450639 0.237914 191 190 197
-0.157682 -0.452161 0.237772 193 189 197
-0.156309 -0.452763 0.237465 194 190 198
-0.154574 -0.45244 0.236995 195 191 199
-0.1532 -0.453029 0.236687 194 193 200
-0.151471 -0.45269 0.236218 196 192 200
-0.149748 -0.452343 0.23575 197 194 202
-0.147 -0.453476 0.235132 198 195 203
-0.144245 -0.454586 0.234511 198 197 204
-0.142533 -0.454202 0.234044 198 197 204
-0.141154 -0.454741 0.233733 202 198 206
-0.139449 -0.454342 0.233267 201 197 205
-0.136372 -0.454454 0.23249 200 199 206
-0.134993 -0.454968 0.232178 201 200 207
-0.133612 -0.455476 0.231865 201 200 207
-0.132535 -0.45692 0.231701 201 200 207
-0.131147 -0.457418 0.231386 201 200 207
-0.129757 -0.457911 0.23107 203 199 207
-0.128365 -0.458399 0.230753 203 199 207
-0.126972 -0.45888 0.230436 204 201 209
-0.123896 -0.458879 0.229654 204 201 209
-0.120551 -0.4579 0.228731 203 201 209
-0.11916 -0.45835 0.228413 203 201 209
-0.117768 -0.458794 0.228094 204 203 210
-0.114979 -0.459665 0.227455 204 203 210
-0.112183 -0.460514 0.226813 203 201 209
-0.110532 -0.459971 0.226354 204 201 209
-0.103993 -0.463886 0.225006 203 202 207
-0.102581 -0.464269 0.22468 204 203 208
-0.0981184 -0.464415 0.223569 203 202 207
-0.214088 -0.422823 0.248742 151 150 157
-0.212816 -0.423659 0.248467 152 148 156
-0.21154 -0.424489 0.248192 153 149 157
-0.209761 -0.424469 0.247727 154 150 161
-0.208483 -0.425286 0.247451 152 151 161
-0.207698 -0.426947 0.247362 155 153 163
-0.20592 -0.426904 0.246896 156 155 162
-0.204634 -0.427705 0.246617 161 157 168
-0.203831 -0.429355 0.246523 161 157 168
-0.202536 -0.430147 0.246242 158 157 164
-0.201239 -0.430934 0.24596 161 159 167
-0.198636 -0.43249 0.245393 166 162 172
-0.197331 -0.433261 0.245108 166 162 172
-0.194713 -0.434784 0.244536 168 164 173
-0.1934 -0.435538 0.244249 169 167 177
-0.192084 -0.436286 0.243961 169 167 177
-0.190766 -0.437029 0.243672 170 168 178
-0.189445 -0.437766 0.243382 171 170 179
-0.188566 -0.439376 0.243268 171 170 179
-0.187237 -0.440104 0.242976 173 172 182
-0.185468 -0.439944 0.242508 173 172 182
-0.183235 -0.442254 0.242095 175 173 183
-0.181896 -0.44296 0.241799 177 175 185
-0.180554 -0.44366 0.241503 178 177 184
-0.179211 -0.444355 0.241206 177 176 183
-0.176102 -0.444833 0.240439 182 180 188
-0.174755 -0.44551 0.24014 182 180 188
-0.173405 -0.44618 0.239841 184 183 190
-0.172052 -0.446845 0.239541 184 183 190
-0.170698 -0.447505 0.239239 184 183 190
-0.169341 -0.448159 0.238937 185 184 191
-0.166621 -0.44945 0.238331 187 186 193
-0.164872 -0.449178 0.237863 187 186 193
-0.163127 -0.448899 0.237396 189 187 195
-0.160403 -0.450138 0.236787 191 190 197
-0.159409 -0.451664 0.236642 193 189 197
-0.158038 -0.452272 0.236335 194 190 198
-0.156665 -0.452873 0.236027 195 191 199
-0.153556 -0.453139 0.235251 194 193 200
-0.151826 -0.4528 0.234785 196 192 200
-0.150102 -0.452453 0.23432 197 194 202
-0.148729 -0.453022 0.234011 197 194 202
-0.147355 -0.453586 0.233701 198 195 203
-0.145978 -0.454144 0.23339 197 196 203
-0.141508 -0.454851 0.232303 199 196 204
-0.139802 -0.454451 0.23184 201 197 205
-0.138423 -0.454978 0.231527 199 198 205
-0.137042 -0.455499 0.231214 199 198 205
-0.13566 -0.456015 0.2309 200 199 206
-0.134275 -0.456525 0.230586 201 200 207
-0.132889 -0.457029 0.23027 201 200 207
-0.131197 -0.456586 0.229809 203 199 207
-0.130111 -0.458021 0.229638 203 201 209
-0.128719 -0.458509 0.229321 203 201 209
-0.127326 -0.45899 0.229003 203 201 209
-0.125931 -0.459466 0.228684 203 201 209
-0.124249 -0.458989 0.228224 204 201 209
-0.122573 -0.458503 0.227765 204 201 209
-0.120903 -0.458009 0.227307 204 201 209
-0.117849 -0.45795 0.226531 204 201 209
-0.10552 -0.462645 0.223768 203 201 209
-0.21495 -0.423765 0.247525 148 145 153
-0.208833 -0.42539 0.246047 155 153 163
-0.207553 -0.426202 0.245769 155 154 161
-0.205778 -0.426157 0.245306 156 155 162
-0.204496 -0.426956 0.245027 156 155 162
-0.203211 -0.427749 0.244747 159 158 168
-0.199815 -0.430958 0.244082 161 159 167
-0.198516 -0.431731 0.243798 165 161 169
-0.195066 -0.434889 0.243118 166 165 173
-0.193294 -0.434771 0.242654 168 166 176
-0.192437 -0.436391 0.242541 169 167 177
-0.190667 -0.436258 0.242076 170 168 178
-0.18935 -0.436994 0.241786 170 168 178
-0.18715 -0.439328 0.241376 172 171 180
-0.185384 -0.439167 0.240911 175 173 183
-0.183158 -0.441473 0.240494 175 173 183
-0.181823 -0.442177 0.240199 176 174 184
-0.180485 -0.442876 0.239902 179 178 185
-0.179145 -0.443569 0.239605 178 177 184
-0.177802 -0.444256 0.239307 179 178 185
-0.176043 -0.444043 0.238842 182 180 188
-0.174699 -0.444718 0.238543 182 180 188
-0.173352 -0.445387 0.238243 183 182 189
-0.172004 -0.44605 0.237943 183 182 189
-0.170653 -0.446708 0.237642 185 184 191
-0.169697 -0.448263 0.237502 185 184 191
-0.167944 -0.448007 0.237037 186 185 192
-0.166976 -0.449554 0.236894 186 185 192
-0.165227 -0.449283 0.236429 187 186 193
-0.163482 -0.449003 0.235965 189 187 195
-0.1625 -0.450537 0.235819 189 187 195
-0.160758 -0.450243 0.235354 191 190 197
-0.159393 -0.450854 0.235048 193 189 197
-0.158025 -0.45146 0.234741 194 190 198
-0.156656 -0.45206 0.234433 194 190 198
-0.154923 -0.451736 0.23397 193 192 199
-0.153195 -0.451402 0.233507 194 193 200
-0.151472 -0.45106 0.233046 194 193 200
-0.150105 -0.451633 0.232738 196 192 200
-0.148736 -0.452201 0.232428 196 192 200
-0.147365 -0.452763 0.232118 196 194 202
-0.146332 -0.454248 0.231958 197 196 201
-0.144954 -0.4548 0.231645 197 196 201
-0.143573 -0.455347 0.231333 197 196 203
-0.141862 -0.454955 0.230872 199 198 205
-0.140481 -0.455489 0.230558 198 197 204
-0.138776 -0.455082 0.230099 201 197 205
-0.136013 -0.456119 0.22947 200 199 206
-0.134317 -0.455689 0.229012 200 199 206
-0.132627 -0.455252 0.228555 201 200 207
-0.131246 -0.455748 0.22824 201 200 207
-0.129863 -0.456238 0.227924 203 199 207
-0.127386 -0.458149 0.22743 203 201 209
-0.124316 -0.458144 0.226656 203 199 207
-0.122643 -0.457657 0.2262 203 201 209
-0.114285 -0.460305 0.22428 203 201 209
-0.108437 -0.460995 0.222859 203 201 209
-0.0957821 -0.46437 0.219925 203 201 209
-0.0331279 -0.561977 0.21126 134 126 122
-0.0240903 -0.55641 0.208663 129 118 115
-0.214025 -0.424701 0.24584 149 148 155
-0.21224 -0.42469 0.24538 151 147 155
-0.210963 -0.425515 0.245102 153 149 157
-0.207902 -0.426299 0.244363 156 155 162
-0.20662 -0.427106 0.244083 156 155 162
-0.204844 -0.427054 0.243623 156 155 162
-0.204046 -0.428702 0.24352 158 157 166
-0.200166 -0.431056 0.242671 162 161 168
-0.198867 -0.43183 0.242386 162 161 168
-0.197565 -0.432598 0.2421 163 161 171
-0.196261 -0.43336 0.241813 168 164 173
-0.195418 -0.434987 0.241699 168 164 173
-0.193645 -0.434869 0.241237 165 164 173
-0.19279 -0.436489 0.24112 169 167 177
-0.191019 -0.436357 0.240658 170 168 178
-0.189702 -0.437092 0.240367 170 168 178
-0.188829 -0.4387 0.240245 171 170 179
-0.18706 -0.438546 0.239783 172 171 180
-0.185736 -0.439265 0.239489 173 172 182
-0.183079 -0.440686 0.238901 176 174 184
-0.181318 -0.4405 0.238439 178 177 184
-0.179988 -0.441195 0.238143 177 176 183
-0.177319 -0.442568 0.23755 180 179 186
-0.175981 -0.443247 0.237251 180 179 186
-0.175052 -0.444816 0.237114 182 180 188
-0.173298 -0.444587 0.236653 183 182 189
-0.171953 -0.445248 0.236352 184 183 190
-0.170605 -0.445904 0.236051 184 183 190
-0.169654 -0.447459 0.235908 185 184 191
-0.167904 -0.4472 0.235446 186 185 192
-0.165194 -0.448473 0.234839 187 186 193
-0.163452 -0.448191 0.234378 189 187 195
-0.162094 -0.448812 0.234073 189 187 195
-0.160735 -0.449428 0.233767 190 189 196
-0.159374 -0.450038 0.233461 193 189 197
-0.15801 -0.450642 0.233154 194 190 198
-0.154914 -0.450914 0.232386 194 190 198
-0.153548 -0.4515 0.232078 194 193 200
-0.151824 -0.451158 0.23162 194 193 200
-0.150457 -0.451731 0.23131 196 192 200
-0.149088 -0.452299 0.231 196 192 200
-0.147717 -0.452861 0.23069 196 194 202
-0.146344 -0.453417 0.230379 198 197 202
-0.14497 -0.453968 0.230067 198 197 202
-0.141884 -0.45412 0.229297 201 197 205
-0.139128 -0.45518 0.22867 198 197 204
-0.137747 -0.455701 0.228355 199 198 205
-0.136365 -0.456217 0.22804 200 199 206
-0.134668 -0.455787 0.227585 201 200 207
-0.132977 -0.455349 0.227131 201 200 207
-0.131597 -0.455845 0.226815 203 201 209
-0.130214 -0.456336 0.226499 200 199 206
-0.126056 -0.457774 0.225547 203 201 209
-0.124667 -0.458242 0.225228 203 199 207
-0.12271 -0.456804 0.224643 203 199 207
-0.121045 -0.456308 0.224193 201 200 207
-0.119662 -0.456755 0.223875 201 200 207
-0.115768 -0.459019 0.223046 204 201 209
-0.114636 -0.460402 0.222852 201 200 207
-0.113238 -0.460824 0.222529 203 199 207
-0.107629 -0.462453 0.221232 201 200 207
-0.102226 -0.464957 0.220046 204 201 209
-0.0961331 -0.464467 0.218495 203 201 209
-0.0947204 -0.464814 0.218165 203 201 209
-0.0876392 -0.466459 0.216511 203 201 209
-0.0245949 -0.560519 0.207186 117 108 107
-0.00440351 -0.587736 0.204069 121 105 101
0.00320322 -0.589607 0.202348 112 98 91
0.00509292 -0.589557 0.201887 114 97 91
0.0129365 -0.594264 0.200299 114 95 90
-0.214375 -0.424793 0.24443 149 148 155
-0.212589 -0.424783 0.243973 152 148 156
-0.211312 -0.425607 0.243693 154 151 159
-0.20903 -0.424733 0.243058 155 152 160
-0.208251 -0.426391 0.242956 156 155 162
-0.206968 -0.427198 0.242675 156 155 162
-0.205192 -0.427145 0.242218 156 155 162
-0.203104 -0.429584 0.241828 159 158 168
-0.201811 -0.430369 0.241543 161 159 167
-0.199216 -0.431922 0.240972 162 161 168
-0.197915 -0.43269 0.240685 163 162 169
-0.196144 -0.432585 0.240228 165 161 171
-0.195305 -0.43421 0.240109 167 163 171
-0.192684 -0.435708 0.23953 169 167 177
-0.19137 -0.436449 0.239239 170 168 178
-0.190053 -0.437184 0.238947 170 169 176
-0.188733 -0.437914 0.238655 171 170 179
-0.187412 -0.438638 0.238361 172 171 180
-0.185647 -0.438475 0.237903 173 172 182
-0.184324 -0.439186 0.237609 175 173 183
-0.182998 -0.439892 0.237314 175 173 183
-0.179912 -0.440397 0.23656 177 176 183
-0.17767 -0.442661 0.236126 182 180 188
-0.176332 -0.443339 0.235827 182 180 188
-0.172711 -0.446241 0.235082 184 183 190
-0.17136 -0.446899 0.234779 185 184 191
-0.170007 -0.447551 0.234475 184 183 190
-0.168257 -0.447293 0.234017 185 184 191
-0.166903 -0.447932 0.233712 188 184 192
-0.165159 -0.447657 0.233255 190 187 195
-0.162066 -0.447993 0.232493 189 187 195
-0.16071 -0.448607 0.232187 190 189 196
-0.159726 -0.45013 0.23203 190 189 196
-0.158363 -0.450735 0.231722 191 190 197
-0.156997 -0.451333 0.231414 192 191 198
-0.155266 -0.451007 0.230957 192 191 196
-0.15354 -0.450671 0.230502 193 192 199
-0.152175 -0.45125 0.230193 194 194 198
-0.150809 -0.451823 0.229883 196 192 200
-0.146696 -0.45351 0.228949 197 196 203
-0.14361 -0.453674 0.228182 197 196 203
-0.142235 -0.454212 0.227869 198 197 204
-0.140859 -0.454745 0.227555 199 196 204
-0.139156 -0.454336 0.227103 198 197 204
-0.137779 -0.454856 0.226788 199 198 205
-0.1364 -0.45537 0.226473 199 198 205
-0.135019 -0.455879 0.226158 201 200 207
-0.131947 -0.455937 0.22539 201 200 207
-0.130262 -0.455484 0.22494 200 199 206
-0.129181 -0.456913 0.224756 201 200 207
-0.126407 -0.457866 0.224119 201 200 207
-0.123059 -0.456896 0.223222 200 199 206
-0.121394 -0.456399 0.222775 203 201 209
-0.118899 -0.458242 0.222264 203 199 207
-0.116117 -0.459111 0.221622 204 201 209
-0.114724 -0.459537 0.2213 203 199 207
-0.113588 -0.460915 0.2211 204 201 209
-0.10889 -0.460223 0.219886 203 201 209
-0.10235 -0.464083 0.218493 203 199 207
-0.100939 -0.464453 0.218165 203 201 209
-0.0879901 -0.466551 0.215078 204 203 210
-0.035866 -0.5641 0.208272 108 102 102
-0.0271886 -0.576523 0.206923 107 98 96
-0.00654232 -0.598848 0.20328 111 93 90
-0.00461721 -0.598836 0.202812 108 87 85
0.00311923 -0.599707 0.200989 104 86 81
0.00508861 -0.600654 0.20057 103 83 78
0.0128703 -0.601367 0.198731 102 80 74
0.0150461 -0.605264 0.198445 103 82 75
-0.214723 -0.42488 0.24302 150 149 156
-0.213445 -0.425712 0.24274 153 149 157
-0.21166 -0.425694 0.242285 153 149 157
-0.209376 -0.424819 0.241656 155 152 160
-0.2081 -0.425628 0.241376 155 154 161
-0.206821 -0.426433 0.241095 155 154 161
-0.205047 -0.426378 0.240641 156 155 162
-0.204255 -0.428025 0.24053 160 156 164
-0.202967 -0.428813 0.240246 160 156 164
-0.20216 -0.430455 0.240131 159 158 166
-0.200864 -0.431235 0.239845 161 160 165
-0.199565 -0.432008 0.239558 161 159 167
-0.194724 -0.432557 0.238361 166 165 175
-0.192575 -0.434921 0.237947 169 167 177
-0.189951 -0.436394 0.237364 170 168 178
-0.188636 -0.437122 0.237071 171 170 179
-0.187317 -0.437844 0.236778 172 171 180
-0.185997 -0.438561 0.236484 173 172 182
-0.182913 -0.439092 0.235734 173 172 182
-0.181158 -0.438902 0.235279 177 176 183
-0.178508 -0.440279 0.234687 178 177 184
-0.1776 -0.441854 0.234545 179 178 185
-0.176266 -0.44253 0.234246 183 182 189
-0.172656 -0.445428 0.233497 184 183 190
-0.171309 -0.446084 0.233195 184 183 190
-0.17036 -0.447638 0.233042 185 184 191
-0.167255 -0.448019 0.232282 186 185 192
-0.164155 -0.44837 0.231521 187 186 193
-0.157972 -0.448987 0.230001 191 190 197
-0.156613 -0.449583 0.229693 192 191 198
-0.155253 -0.450173 0.229384 193 192 199
-0.15353 -0.449836 0.228933 194 193 200
-0.152169 -0.450413 0.228624 194 193 200
-0.149791 -0.452477 0.228143 197 194 202
-0.147391 -0.454525 0.227657 196 194 202
-0.142586 -0.454299 0.226441 198 197 204
-0.140881 -0.453896 0.225991 198 197 204
-0.139506 -0.454422 0.225677 199 198 205
-0.138129 -0.454942 0.225361 199 198 205
-0.13675 -0.455457 0.225046 200 199 206
-0.133677 -0.455527 0.224281 200 199 206
-0.132297 -0.456023 0.223965 201 200 207
-0.130611 -0.45557 0.223518 201 200 207
-0.129231 -0.456053 0.223201 201 200 207
-0.126465 -0.457004 0.222564 201 200 207
-0.12508 -0.457471 0.222245 201 200 207
-0.123408 -0.456981 0.2218 201 200 207
-0.121741 -0.456484 0.221357 200 199 206
-0.120358 -0.456932 0.221038 203 199 207
-0.119248 -0.458327 0.22084 203 199 207
-0.117858 -0.458765 0.220519 201 200 207
-0.116466 -0.459197 0.220197 204 201 209
-0.115074 -0.459623 0.219875 201 200 207
-0.112539 -0.461417 0.219346 203 201 209
-0.110886 -0.460867 0.218904 203 201 209
-0.109487 -0.46127 0.218579 201 200 207
-0.104807 -0.460517 0.217374 204 201 209
-0.103644 -0.461861 0.217162 201 200 207
-0.099655 -0.463935 0.216291 203 201 209
-0.098245 -0.464293 0.215962 203 199 207
-0.0925927 -0.465667 0.21464 203 201 209
-0.0911765 -0.465996 0.214309 203 201 209
-0.0897592 -0.46632 0.213976 204 203 210
-0.21507 -0.424961 0.241609 152 151 159
-0.213793 -0.425793 0.241328 153 149 157
-0.212513 -0.42662 0.241047 154 151 159
-0.208945 -0.426558 0.240142 155 154 161
-0.207166 -0.426513 0.23969 154 152 160
-0.205392 -0.426458 0.239239 158 154 162
-0.204111 -0.42725 0.238956 159 155 163
-0.203314 -0.428893 0.238839 158 157 164
-0.202024 -0.429676 0.238553 159 159 164
-0.200732 -0.430453 0.238267 161 160 165
-0.199913 -0.432089 0.238144 162 161 168
-0.196839 -0.432752 0.237403 167 163 171
-0.195071 -0.432638 0.236951 168 164 173
-0.192923 -0.435002 0.236532 169 167 177
-0.191613 -0.435741 0.23624 169 167 177
-0.190752 -0.437352 0.236106 171 170 179
-0.188984 -0.437202 0.235653 170 168 178
-0.186345 -0.438642 0.235064 173 172 182
-0.184584 -0.438468 0.234612 176 174 184
-0.182827 -0.438286 0.23416 175 173 183
-0.179281 -0.441252 0.233423 177 175 185
-0.178371 -0.442828 0.233276 179 178 185
-0.176108 -0.445077 0.232825 183 182 189
-0.174351 -0.444847 0.232372 183 182 189
-0.172599 -0.444607 0.23192 183 182 189
-0.17166 -0.446165 0.231766 184 183 190
-0.170311 -0.446815 0.231461 185 184 191
-0.168563 -0.446554 0.231009 185 184 191
-0.16586 -0.447824 0.230398 187 186 193
-0.164119 -0.44754 0.229947 187 186 193
-0.161031 -0.44786 0.229191 189 187 195
-0.160053 -0.449382 0.229026 190 189 196
-0.158321 -0.449068 0.228576 192 191 198
-0.156963 -0.449663 0.228267 192 191 198
-0.155603 -0.450253 0.227958 193 192 199
-0.15424 -0.450838 0.227648 193 192 197
-0.15151 -0.45199 0.227026 196 195 200
-0.150141 -0.452558 0.226714 196 192 200
-0.147398 -0.453677 0.226088 194 193 200
-0.146024 -0.454228 0.225774 197 196 203
-0.14123 -0.453977 0.224565 199 196 204
-0.139529 -0.453566 0.224119 199 196 204
-0.138479 -0.455022 0.223934 201 197 205
-0.136781 -0.454598 0.223489 200 199 206
-0.135405 -0.455105 0.223173 199 198 205
-0.134026 -0.455607 0.222856 200 199 206
-0.132646 -0.456103 0.222539 201 200 207
-0.13096 -0.45565 0.222095 200 199 206
-0.129579 -0.456133 0.221777 201 200 207
-0.127901 -0.455664 0.221335 200 199 206
-0.125139 -0.456601 0.220698 200 199 206
-0.12347 -0.456111 0.220257 201 200 207
-0.122089 -0.456564 0.219938 200 199 206
-0.120984 -0.457964 0.219738 201 200 207
-0.119596 -0.458407 0.219416 201 200 207
-0.117083 -0.460233 0.218889 201 200 207
-0.112632 -0.460538 0.217802 201 200 207
0.00427039 -0.603871 0.196847 63 34 30
0.0060842 -0.600817 0.196244 62 32 31
0.00806282 -0.601748 0.195814 62 31 27
0.0100997 -0.603669 0.195424 61 27 25
0.0122062 -0.606578 0.19507 53 20 15
0.0143352 -0.609479 0.19471 59 20 17
0.0163623 -0.610376 0.194268 65 23 17
0.0202981 -0.610151 0.193303 87 40 35
0.0221175 -0.608034 0.19275 89 42 38
0.0239989 -0.606905 0.192234 91 43 39
0.0260349 -0.607762 0.191788 90 41 35
0.0279075 -0.606618 0.191274 90 41 35
0.029861 -0.606462 0.190794 92 43 37
0.0338627 -0.607123 0.189863 89 43 36
0.035818 -0.606943 0.189382 94 47 40
0.0380858 -0.609738 0.188984 99 50 46
0.040484 -0.613516 0.188608 98 49 45
0.0427998 -0.61629 0.188199 100 51 47
0.0447901 -0.616074 0.187707 99 50 46
0.0467797 -0.61585 0.187216 96 50 43
0.0486448 -0.614626 0.186701 96 52 44
0.049865 -0.608437 0.186075 97 53 45
0.0516941 -0.607202 0.185569 95 50 45
0.0535145 -0.605959 0.185064 108 66 62
0.0554651 -0.605699 0.184581 118 82 76
0.0572721 -0.604442 0.184079 119 86 81
0.059802 -0.608123 0.183667 119 90 86
-0.215417 -0.425036 0.240198 149 148 155
-0.21414 -0.425868 0.239916 149 146 154
-0.212859 -0.426695 0.239633 154 151 159
-0.20929 -0.426633 0.238733 155 154 161
-0.208008 -0.427439 0.23845 156 155 162
-0.20623 -0.427386 0.238001 157 156 163
-0.204946 -0.42818 0.237716 159 155 163
-0.204146 -0.429826 0.237593 160 156 164
-0.202854 -0.430611 0.237306 160 156 164
-0.201558 -0.43139 0.237018 161 160 165
-0.20026 -0.432164 0.236729 162 161 168
-0.198959 -0.432932 0.23644 165 161 169
-0.197186 -0.432827 0.23599 166 162 170
-0.195883 -0.433582 0.2357 166 165 173
-0.194578 -0.434332 0.235408 166 165 173
-0.19196 -0.435816 0.234823 170 168 178
-0.190647 -0.436549 0.23453 170 168 178
-0.188014 -0.438 0.23394 171 170 179
-0.186694 -0.438717 0.233644 172 171 180
-0.185371 -0.439428 0.233347 175 173 183
-0.183609 -0.439247 0.232898 175 173 183
-0.180529 -0.439748 0.232152 176 174 184
-0.179203 -0.440434 0.231853 178 177 186
-0.176964 -0.442686 0.231402 180 179 186
-0.176043 -0.444254 0.231247 182 180 188
-0.174289 -0.444022 0.230798 183 182 189
-0.172948 -0.444682 0.230495 183 182 189
-0.17026 -0.445986 0.229887 185 184 191
-0.168912 -0.446629 0.229582 186 185 192
-0.167562 -0.447267 0.229276 185 184 191
-0.16621 -0.447899 0.228969 186 185 192
-0.164468 -0.447615 0.228521 187 186 193
-0.162731 -0.447322 0.228074 189 187 195
-0.16138 -0.447934 0.227767 189 187 195
-0.160403 -0.449457 0.227598 190 189 196
-0.157312 -0.449738 0.226841 192 191 198
-0.155952 -0.450328 0.226531 192 191 198
-0.15459 -0.450913 0.226221 193 192 197
-0.152866 -0.450568 0.225775 193 192 199
-0.151504 -0.45114 0.225464 196 194 202
-0.148772 -0.452267 0.224839 197 194 202
-0.145692 -0.452441 0.224082 198 197 204
-0.142952 -0.45352 0.223454 198 197 204
-0.139877 -0.45364 0.222696 201 197 205
-0.138504 -0.454159 0.222381 198 197 204
-0.135753 -0.45518 0.221748 201 200 207
-0.134375 -0.455681 0.22143 201 200 207
-0.131307 -0.455724 0.220672 201 200 207
-0.129927 -0.456207 0.220353 200 199 206
-0.128546 -0.456686 0.220034 200 199 206
-0.126868 -0.45621 0.219595 200 199 206
-0.125486 -0.456675 0.219276 201 200 207
-0.122435 -0.456638 0.218519 201 200 207
-0.121053 -0.457085 0.218198 201 200 207
-0.11577 -0.459777 0.217024 203 199 207
-0.0214185 -0.599035 0.200788 76 36 34
-0.0194631 -0.595083 0.200116 86 40 39
-0.0175496 -0.594119 0.199603 89 42 40
-0.0156435 -0.596143 0.19924 91 42 38
-0.0137179 -0.599159 0.198922 82 35 35
-0.0117849 -0.600169 0.198502 75 34 34
-0.007865 -0.604163 0.197748 63 25 24
-0.00590142 -0.60515 0.19732 60 21 21
-0.00395328 -0.60513 0.196846 54 17 16
-2.66948e-05 -0.606064 0.19594 52 18 16
0.00185565 -0.604023 0.195382 54 23 17
0.00372246 -0.601974 0.194827 54 22 19
0.00557369 -0.599918 0.194276 51 22 18
0.00754754 -0.60085 0.193844 47 21 16
0.00952881 -0.601773 0.19341 50 21 17
0.0116249 -0.604683 0.193046 50 19 16
0.0138588 -0.609581 0.192748 55 18 17
0.0178531 -0.610369 0.19182 78 29 23
0.0198208 -0.610253 0.191338 86 34 29
0.0214965 -0.606141 0.190728 90 39 33
0.0232944 -0.604016 0.190188 93 44 40
0.0252376 -0.603878 0.189711 92 43 37
0.0270115 -0.601739 0.189176 93 44 38
0.0288578 -0.600589 0.188672 92 43 37
0.0309718 -0.602418 0.188252 92 43 37
0.0329087 -0.602248 0.187775 91 44 37
0.034845 -0.60207 0.187299 93 47 37
0.0371945 -0.605862 0.186919 97 48 42
0.0395738 -0.609643 0.186532 98 49 43
0.0418717 -0.612419 0.186115 99 50 44
0.0439617 -0.613198 0.185649 96 47 40
0.0476721 -0.61076 0.184633 97 47 44
0.0492618 -0.607547 0.18409 95 48 44
0.0565153 -0.602564 0.182095 120 76 68
-0.214996 -0.426781 0.238668 153 149 157
-0.213713 -0.42761 0.238383 154 151 159
-0.211923 -0.427586 0.237935 155 152 160
-0.210136 -0.427552 0.237487 155 154 161
-0.208353 -0.427508 0.23704 156 155 162
-0.206574 -0.427455 0.236594 157 156 163
-0.204799 -0.427393 0.236148 159 155 163
-0.204004 -0.429037 0.236021 160 156 164
-0.203199 -0.43068 0.235893 160 156 164
-0.201904 -0.431459 0.235604 162 159 167
-0.201084 -0.433097 0.235471 163 162 169
-0.199306 -0.433001 0.235024 164 163 170
-0.197532 -0.432896 0.234577 167 163 171
-0.195762 -0.432781 0.23413 167 163 171
-0.194924 -0.434401 0.233993 166 165 173
-0.193617 -0.435146 0.2337 165 164 173
-0.192307 -0.435885 0.233406 169 167 177
-0.191448 -0.437496 0.233264 170 168 178
-0.19013 -0.438226 0.232967 170 168 178
-0.188808 -0.43895 0.23267 172 171 180
-0.187041 -0.438786 0.232223 173 172 182
-0.185278 -0.438612 0.231777 173 172 182
-0.182198 -0.439126 0.231033 177 175 185
-0.17955 -0.440503 0.230436 179 178 185
-0.178222 -0.441184 0.230136 178 177 184
-0.176892 -0.441858 0.229835 182 180 188
-0.175976 -0.443426 0.229677 183 182 189
-0.174637 -0.444091 0.229374 182 180 188
-0.17236 -0.446309 0.228906 184 183 190
-0.170608 -0.446055 0.22846 185 184 191
-0.16966 -0.447605 0.228294 185 184 191
-0.167911 -0.447336 0.227848 186 185 192
-0.166559 -0.447969 0.22754 185 184 191
-0.165205 -0.448595 0.227232 187 186 193
-0.163464 -0.448304 0.226787 187 186 193
-0.161728 -0.448003 0.226343 191 190 197
-0.160752 -0.449526 0.226169 190 189 196
-0.159392 -0.450129 0.225859 192 191 198
-0.15766 -0.449807 0.225415 192 191 198
-0.1563 -0.450397 0.225104 191 190 197
-0.154575 -0.450059 0.224661 193 192 199
-0.151852 -0.451209 0.224038 194 193 200
-0.15084 -0.452702 0.223855 197 194 202
-0.14947 -0.453264 0.22354 197 194 202
-0.147752 -0.452891 0.223099 196 192 200
-0.145009 -0.453984 0.222469 197 196 201
-0.1433 -0.453589 0.222028 197 196 203
-0.141596 -0.453184 0.221588 198 197 204
-0.140225 -0.453709 0.221273 199 196 204
-0.138852 -0.454228 0.220957 199 198 205
-0.137157 -0.453801 0.220518 199 198 205
-0.135784 -0.454307 0.220202 200 199 206
-0.133342 -0.456246 0.219686 201 200 207
-0.131655 -0.455792 0.219248 200 199 206
-0.130275 -0.456276 0.218929 200 199 206
-0.128893 -0.456754 0.21861 200 199 206
-0.12692 -0.45533 0.218058 200 199 206
-0.125833 -0.456744 0.217854 201 200 207
-0.121118 -0.4562 0.216666 200 199 206
-0.115852 -0.458887 0.215489 201 200 207
-0.0417566 -0.543199 0.201158 63 61 60
-0.0218606 -0.597129 0.198771 82 39 35
-0.0199177 -0.594175 0.198163 89 42 42
-0.0180165 -0.595209 0.197748 95 45 43
-0.0161083 -0.597233 0.197377 96 44 43
-0.0141788 -0.601248 0.197091 83 33 32
-0.0122322 -0.603258 0.196709 75 29 31
-0.0102702 -0.605259 0.196324 67 21 21
-0.00827847 -0.608252 0.195976 59 18 18
-0.00631878 -0.608239 0.1955 55 16 16
-0.00438127 -0.60722 0.194983 54 15 15
-0.00242556 -0.607192 0.194507 55 16 16
0.00138441 -0.604115 0.193442 55 22 19
0.00506484 -0.599012 0.192316 52 23 19
0.00703401 -0.599943 0.191881 51 24 19
0.00901056 -0.600866 0.191444 49 23 18
0.0111529 -0.604776 0.191103 53 21 18
0.0132689 -0.607678 0.190722 56 20 16
0.015347 -0.609574 0.190305 64 21 18
0.0172471 -0.608468 0.189794 79 27 24
0.019139 -0.607355 0.189285 86 34 29
0.020735 -0.602246 0.188666 91 40 35
0.0224437 -0.599125 0.18811 92 43 37
0.0242883 -0.597991 0.187612 92 43 37
0.0261246 -0.59685 0.187115 95 45 39
0.0279527 -0.595702 0.18662 93 45 36
0.0300458 -0.597533 0.186197 92 43 35
0.0320587 -0.59836 0.185748 91 43 32
0.0339797 -0.598183 0.185275 93 45 36
0.0362077 -0.600982 0.184864 96 47 38
0.0408403 -0.607544 0.184043 93 44 38
0.0430246 -0.609319 0.183596 91 42 36
0.0468281 -0.607877 0.182611 88 42 35
0.0484093 -0.604665 0.182083 93 44 40
0.0500959 -0.602439 0.181575 98 49 43
0.0521654 -0.60318 0.181109 105 54 47
0.0543785 -0.604903 0.180653 115 64 54
0.0559024 -0.601666 0.180138 117 71 64
0.0579804 -0.602382 0.179669 120 73 64
0.0599166 -0.602101 0.179189 102 71 61
-0.216622 -0.42601 0.237535 149 148 155
-0.215342 -0.426845 0.237251 153 149 157
-0.213551 -0.426828 0.236805 153 149 157
-0.209979 -0.426765 0.235916 156 153 161
-0.208199 -0.426719 0.235472 155 154 161
-0.205927 -0.42581 0.234872 155 154 161
-0.205142 -0.427455 0.234743 160 156 164
-0.203859 -0.428242 0.234457 161 157 166
-0.203059 -0.429883 0.234324 162 159 167
-0.201767 -0.43066 0.234035 162 159 167
-0.20143 -0.433161 0.234052 162 159 167
-0.200127 -0.433931 0.23376 163 162 169
-0.198348 -0.433827 0.233315 165 161 169
-0.197043 -0.434585 0.233022 167 163 171
-0.195269 -0.434464 0.232577 167 163 171
-0.193962 -0.435209 0.232284 168 166 176
-0.192652 -0.435948 0.231989 170 168 178
-0.191795 -0.437559 0.231842 170 168 178
-0.190928 -0.439169 0.231692 170 168 178
-0.189156 -0.439014 0.231247 171 170 179
-0.187387 -0.438849 0.230802 172 171 180
-0.186065 -0.43956 0.230504 173 172 182
-0.184302 -0.439379 0.23006 175 173 183
-0.182544 -0.439189 0.229617 177 173 184
-0.18079 -0.438989 0.229175 179 175 185
-0.179896 -0.440566 0.229018 180 176 186
-0.178144 -0.440352 0.228576 178 177 184
-0.176817 -0.441025 0.228275 180 179 186
-0.174571 -0.443255 0.22781 184 183 190
-0.173234 -0.443913 0.227506 183 182 189
-0.172301 -0.445469 0.227339 184 183 190
-0.170553 -0.445213 0.226896 184 183 190
-0.166515 -0.447122 0.225976 186 185 192
-0.1611 -0.449589 0.22474 189 187 195
-0.157636 -0.448951 0.223859 193 192 199
-0.15628 -0.449539 0.223548 194 190 198
-0.154922 -0.450122 0.223237 195 191 199
-0.153561 -0.4507 0.222925 194 194 198
-0.152199 -0.451272 0.222612 194 193 200
-0.151188 -0.452765 0.222424 196 192 200
-0.149818 -0.453327 0.222109 196 192 200
-0.1481 -0.452954 0.22167 197 194 202
-0.146386 -0.452572 0.221232 198 195 203
-0.143311 -0.452717 0.220481 197 196 203
-0.141942 -0.453247 0.220165 198 197 204
-0.140572 -0.453772 0.219849 198 197 204
-0.137824 -0.454803 0.219215 200 199 206
-0.13613 -0.45437 0.21878 200 199 206
-0.13507 -0.455813 0.218578 200 199 206
-0.133379 -0.455365 0.218143 200 199 206
-0.131694 -0.45491 0.21771 200 199 206
-0.130318 -0.455392 0.217391 201 200 207
-0.12894 -0.455869 0.217072 201 200 207
-0.12618 -0.456806 0.216431 200 199 206
-0.121463 -0.456262 0.215249 201 200 207
-0.120361 -0.457658 0.215036 201 200 207
-0.118701 -0.457138 0.214606 201 200 207
-0.117588 -0.458525 0.21439 201 200 207
-0.116199 -0.45895 0.214066 201 200 207
-0.114808 -0.459369 0.213742 201 200 207
-0.113417 -0.459783 0.213417 204 201 209
-0.110628 -0.460593 0.212766 201 200 207
-0.109232 -0.46099 0.212439 201 200 207
-0.1034 -0.461553 0.211031 203 199 207
-0.10223 -0.462888 0.210799 203 199 207
-0.100825 -0.463251 0.21047 204 201 209
-0.0243455 -0.603155 0.197595 65 36 34
-0.0223389 -0.598211 0.196902 88 38 36
-0.0203988 -0.596256 0.196349 97 42 40
-0.0165804 -0.601313 0.195631 99 44 44
-0.0146454 -0.602331 0.195203 83 31 28
-0.0127028 -0.603342 0.194773 72 24 24
-0.0107329 -0.606343 0.194419 53 12 12
-0.00875367 -0.608337 0.194021 49 11 10
-0.00679391 -0.608324 0.193544 48 11 10
-0.00287474 -0.608276 0.19259 50 12 11
0.000912997 -0.6042 0.191502 55 18 17
0.00271043 -0.600153 0.190897 55 22 19
0.00451737 -0.597098 0.190332 53 24 21
0.006301 -0.594035 0.189772 52 25 23
0.00815752 -0.592963 0.189277 53 24 21
0.0102655 -0.596875 0.188928 54 20 18
0.0124038 -0.600777 0.188572 56 20 16
0.0143938 -0.601676 0.188126 63 22 18
0.0162642 -0.600572 0.187627 75 23 20
0.0181265 -0.59946 0.18713 81 29 24
0.0198386 -0.596347 0.186585 87 35 30
0.0216021 -0.594224 0.18607 91 40 33
0.0234285 -0.593092 0.18558 92 43 35
0.0253292 -0.592948 0.185114 92 43 35
0.0272293 -0.592797 0.184647 93 45 36
0.0291288 -0.592638 0.184181 93 45 36
0.0330237 -0.593292 0.183265 91 42 34
0.0374583 -0.598885 0.182423 86 40 30
0.039818 -0.60266 0.182009 82 36 27
0.0417553 -0.60245 0.181531 76 32 22
0.0438086 -0.603226 0.181067 70 26 16
0.0456272 -0.602007 0.180576 74 28 17
0.0474374 -0.600781 0.180088 85 36 28
0.0491107 -0.598557 0.179591 94 43 35
0.0510321 -0.598309 0.179116 106 53 43
0.0532244 -0.600035 0.178657 114 62 47
0.0547323 -0.5968 0.178159 116 65 55
0.0563598 -0.59455 0.177672 118 67 57
0.0581185 -0.593284 0.177195 104 62 53
-0.216967 -0.426068 0.236119 149 148 155
-0.215687 -0.426902 0.235834 152 148 156
-0.213895 -0.426885 0.235391 153 149 157
-0.211327 -0.428523 0.234817 155 154 161
-0.20904 -0.427629 0.23422 154 152 160
-0.20726 -0.427576 0.233779 156 155 162
-0.205977 -0.428369 0.233491 159 155 163
-0.204691 -0.429157 0.233203 159 155 163
-0.203402 -0.42994 0.232914 161 159 167
-0.202593 -0.43158 0.232774 161 159 167
-0.201776 -0.433218 0.232632 162 161 168
-0.198693 -0.433885 0.231897 166 162 170
-0.197388 -0.434642 0.231603 167 163 171
-0.19608 -0.435394 0.231308 168 164 173
-0.193456 -0.436881 0.230716 169 167 177
-0.191275 -0.439227 0.230265 171 170 179
-0.189502 -0.439071 0.229822 171 170 179
-0.187733 -0.438906 0.229381 172 171 180
-0.186411 -0.439618 0.229081 173 172 182
-0.184647 -0.439437 0.22864 175 173 183
-0.182888 -0.439246 0.2282 177 173 184
-0.181565 -0.439937 0.2279 177 173 186
-0.178913 -0.441304 0.227298 178 177 184
-0.177162 -0.441082 0.226859 179 178 185
-0.176251 -0.442648 0.226692 180 179 186
-0.174916 -0.443312 0.226388 183 182 189
-0.17358 -0.44397 0.226084 184 183 190
-0.172241 -0.444623 0.225778 184 183 190
-0.171303 -0.446176 0.225605 184 183 190
-0.169956 -0.446819 0.225298 185 184 191
-0.16821 -0.446549 0.224858 186 185 192
-0.167255 -0.448089 0.22468 185 184 191
-0.165511 -0.447805 0.224241 187 186 193
-0.162421 -0.448123 0.223494 189 187 195
-0.161447 -0.449647 0.22331 191 190 197
-0.159712 -0.449331 0.222873 191 190 197
-0.158355 -0.449927 0.222561 193 192 199
-0.156995 -0.450517 0.222249 195 191 199
-0.155268 -0.450179 0.221812 195 191 199
-0.153908 -0.450757 0.221499 194 194 198
-0.152187 -0.450403 0.221064 194 193 200
-0.151181 -0.451895 0.220872 196 192 200
-0.149464 -0.451527 0.220437 196 192 200
-0.1481 -0.452081 0.220122 198 195 203
-0.146733 -0.452629 0.219807 198 195 203
-0.145364 -0.453172 0.219491 197 196 203
-0.142288 -0.453304 0.218741 197 196 203
-0.140918 -0.453828 0.218425 199 196 204
-0.138171 -0.45486 0.217789 198 197 204
-0.135102 -0.454927 0.217039 201 200 207
-0.133414 -0.454479 0.216608 200 199 206
-0.13204 -0.454967 0.21629 201 200 207
-0.13036 -0.454503 0.215861 200 199 206
-0.129286 -0.455926 0.21565 201 200 207
-0.127313 -0.4545 0.215114 201 200 207
-0.126232 -0.455913 0.214901 201 200 207
-0.121808 -0.456319 0.213832 200 199 206
-0.120427 -0.456759 0.21351 200 199 206
-0.119045 -0.457195 0.213188 201 200 207
-0.117933 -0.458581 0.212967 200 199 206
-0.116277 -0.458048 0.212542 201 200 207
-0.113763 -0.459839 0.211993 201 200 207
-0.112113 -0.459286 0.211568 201 200 207
-0.110722 -0.459687 0.211243 201 200 207
-0.10933 -0.460083 0.210917 204 201 209
-0.107936 -0.460473 0.21059 203 199 207
-0.10654 -0.460857 0.210263 203 201 209
-0.105382 -0.462203 0.21003 201 201 205
-0.102577 -0.462945 0.209371 203 199 207
-0.100946 -0.462338 0.20895 202 198 206
-0.0981405 -0.463045 0.20829 201 200 207
-0.0969515 -0.464362 0.208048 203 201 209
-0.0939232 -0.464061 0.207297 203 199 207
-0.024834 -0.604231 0.195701 67 33 31
-0.0170519 -0.602388 0.19374 106 50 48
-0.015114 -0.603407 0.193307 84 29 27
-0.0131634 -0.605417 0.192908 72 23 21
-0.0111887 -0.608419 0.192541 48 9 9
-0.00522831 -0.612379 0.191241 39 7 4
-0.00322934 -0.613349 0.190792 43 9 7
-0.00133465 -0.610315 0.190219 49 11 10
0.000505066 -0.606275 0.18962 54 15 15
0.002207 -0.59923 0.188943 56 20 18
0.0038945 -0.593178 0.188307 56 25 22
0.00562237 -0.589117 0.187736 59 30 26
0.00746068 -0.588045 0.187249 58 29 23
0.00954584 -0.591958 0.18689 59 25 21
0.0135725 -0.595765 0.186055 61 21 18
0.0154209 -0.594661 0.185565 71 24 17
0.0172612 -0.593551 0.185078 79 27 22
0.0190233 -0.591436 0.184571 84 33 28
0.0209174 -0.591308 0.184107 90 39 31
0.0227333 -0.590176 0.183624 96 45 37
0.0264258 -0.588887 0.18268 99 50 42
0.0302868 -0.58956 0.18177 91 43 32
0.0320767 -0.588391 0.181292 87 41 29
0.0340597 -0.589205 0.180842 84 40 30
0.0364677 -0.593989 0.180438 80 35 28
0.0385881 -0.595778 0.179991 73 32 23
0.0404987 -0.595572 0.17952 70 28 19
0.0426404 -0.597343 0.179068 72 27 19
0.0446767 -0.598113 0.178603 76 32 22
0.0464726 -0.596889 0.178122 88 39 30
0.04826 -0.595658 0.177644 94 43 33
0.0501701 -0.595411 0.177172 109 53 44
0.0535709 -0.591925 0.176218 119 66 54
0.0548962 -0.587698 0.175739 116 66 53
0.0566293 -0.586435 0.175272 99 62 54
-0.216031 -0.426954 0.234416 151 150 157
-0.214238 -0.426937 0.233976 153 149 157
-0.212956 -0.427759 0.233688 154 151 159
-0.209382 -0.427681 0.232809 154 152 160
-0.207601 -0.427627 0.232371 159 155 163
-0.205033 -0.429209 0.231793 160 156 164
-0.203744 -0.429991 0.231503 159 158 166
-0.202453 -0.430769 0.231212 161 159 167
-0.20212 -0.43327 0.231212 161 159 167
-0.200817 -0.43404 0.230918 162 161 168
-0.198563 -0.433068 0.230334 166 162 170
-0.197732 -0.434694 0.230184 165 161 169
-0.196424 -0.435446 0.229888 165 161 169
-0.195114 -0.436192 0.229592 168 166 174
-0.193801 -0.436933 0.229294 168 166 176
-0.192943 -0.438547 0.229137 169 167 177
-0.189847 -0.439123 0.228398 171 170 179
-0.186313 -0.438784 0.227521 173 172 182
-0.184992 -0.439488 0.227221 176 172 183
-0.183668 -0.440187 0.22692 176 172 183
-0.181909 -0.439989 0.226483 177 175 185
-0.177505 -0.441134 0.225442 180 179 186
-0.176177 -0.441801 0.225139 180 179 186
-0.174846 -0.442463 0.224835 182 180 188
-0.173925 -0.444022 0.224661 183 182 189
-0.172586 -0.444675 0.224355 183 182 189
-0.17165 -0.446227 0.224177 185 184 191
-0.170303 -0.446871 0.223869 185 184 191
-0.167602 -0.448141 0.22325 186 185 192
-0.166249 -0.448768 0.22294 186 185 192
-0.164505 -0.448476 0.222503 187 186 193
-0.163151 -0.44909 0.222192 189 187 195
-0.161414 -0.448782 0.221757 190 189 196
-0.160058 -0.449383 0.221446 191 190 197
-0.158328 -0.449059 0.221012 191 190 197
-0.157342 -0.450569 0.220821 195 191 199
-0.154254 -0.450808 0.220074 193 192 197
-0.152892 -0.45138 0.219759 193 192 199
-0.151172 -0.451019 0.219327 193 192 199
-0.148445 -0.452132 0.218697 196 194 202
-0.146734 -0.451749 0.218266 196 195 200
-0.145369 -0.45229 0.217951 197 196 203
-0.144002 -0.452825 0.217635 197 196 203
-0.1423 -0.452419 0.217205 198 197 204
-0.140933 -0.452943 0.216888 198 197 204
-0.139891 -0.454398 0.216682 200 199 206
-0.138193 -0.453972 0.216253 200 199 206
-0.132076 -0.454072 0.214762 201 200 207
-0.130703 -0.454554 0.214443 200 199 206
-0.129329 -0.455029 0.214123 200 199 206
-0.127954 -0.455499 0.213803 201 200 207
-0.126577 -0.455964 0.213482 201 200 207
-0.124907 -0.455471 0.213058 201 200 207
-0.12353 -0.455923 0.212737 200 199 206
-0.121868 -0.455416 0.212314 201 200 207
-0.116621 -0.458099 0.211122 201 200 207
-0.115235 -0.458517 0.210798 200 199 206
-0.109425 -0.45917 0.209402 201 200 207
-0.103856 -0.460692 0.208094 201 200 207
-0.0252296 -0.600303 0.193608 70 28 29
-0.02321 -0.594358 0.192919 95 37 31
-0.0213156 -0.5954 0.192493 109 45 44
-0.0194283 -0.598432 0.192136 115 52 46
-0.0175143 -0.600458 0.191738 111 49 47
-0.0155848 -0.602476 0.191337 90 35 33
-0.0116562 -0.609487 0.190616 49 13 11
-0.00966916 -0.611482 0.1902 35 5 4
-0.00766685 -0.613468 0.18978 34 4 3
-0.00566864 -0.614447 0.189327 34 4 3
-0.00370928 -0.613419 0.188817 36 5 4
-0.00183883 -0.609386 0.188228 46 7 7
7.63255e-07 -0.605344 0.187646 53 12 12
0.00170537 -0.598299 0.186997 56 18 15
0.00335609 -0.591247 0.186361 57 21 17
0.00503763 -0.586187 0.185783 59 25 21
0.00691159 -0.586115 0.185326 65 31 27
0.00878523 -0.586034 0.184868 64 28 26
0.0107124 -0.586945 0.184431 60 22 18
0.0127046 -0.588845 0.184011 65 23 19
0.0145886 -0.588741 0.18355 76 27 21
0.018217 -0.586516 0.182595 82 31 25
0.0200921 -0.58639 0.182135 86 35 27
0.0218898 -0.585259 0.181661 91 42 34
0.0236793 -0.584121 0.181189 83 32 24
0.0274986 -0.584812 0.180285 93 47 37
0.0295513 -0.586639 0.179848 89 44 32
0.0314267 -0.586467 0.179387 86 42 29
0.0335009 -0.588277 0.178945 82 38 28
0.0355897 -0.590078 0.178498 76 34 25
0.037693 -0.59187 0.178047 71 32 20
0.0395884 -0.591664 0.177581 71 29 21
0.041713 -0.593438 0.177125 72 32 23
0.0436144 -0.593216 0.176656 76 34 23
0.0455149 -0.592987 0.176188 89 40 31
0.0490527 -0.590522 0.175247 106 51 42
0.0525563 -0.588031 0.174315 114 62 47
0.0540119 -0.584795 0.173854 118 65 51
0.0560254 -0.585512 0.17339 109 64 57
0.0574486 -0.582266 0.172936 82 58 50
-0.215344 -0.425312 0.232698 153 149 157
-0.213557 -0.425291 0.232262 153 149 157
-0.212282 -0.426108 0.231975 155 152 160
-0.211509 -0.427771 0.231835 154 152 160
-0.206659 -0.428466 0.230673 159 155 163
-0.204882 -0.428396 0.230238 160 156 164
-0.202794 -0.430814 0.2298 161 159 167
-0.201982 -0.432451 0.229649 164 163 170
-0.200683 -0.43322 0.229355 162 161 168
-0.198906 -0.433114 0.228919 166 162 170
-0.196768 -0.435492 0.228468 168 164 173
-0.194993 -0.435364 0.228031 170 169 176
-0.19283 -0.437715 0.227573 170 168 178
-0.191512 -0.438445 0.227273 170 168 178
-0.189741 -0.438287 0.226837 170 168 178
-0.187974 -0.43812 0.226402 172 171 180
-0.186656 -0.43883 0.226102 172 171 180
-0.184012 -0.440233 0.225499 177 173 184
-0.182686 -0.440926 0.225196 176 174 184
-0.179601 -0.441401 0.224458 179 178 185
-0.177848 -0.441179 0.224025 179 178 185
-0.174269 -0.444068 0.223238 182 180 188
-0.17334 -0.445624 0.223057 183 182 189
-0.170649 -0.446917 0.22244 185 184 191
-0.1693 -0.447554 0.22213 185 184 191
-0.167948 -0.448187 0.221819 185 184 191
-0.166203 -0.447902 0.221386 186 185 192
-0.163112 -0.44822 0.220643 190 189 196
-0.161759 -0.448827 0.220331 189 187 195
-0.160404 -0.449429 0.220019 190 189 196
-0.159047 -0.450024 0.219706 191 190 197
-0.158058 -0.451536 0.219509 194 190 198
-0.156326 -0.451199 0.219078 195 191 199
-0.154599 -0.450854 0.218647 195 191 199
-0.153237 -0.451426 0.218333 194 193 200
-0.151517 -0.451065 0.217903 194 193 200
-0.150154 -0.451624 0.217588 194 193 200
-0.14879 -0.452178 0.217272 194 193 200
-0.147424 -0.452726 0.216956 196 195 200
-0.146056 -0.453268 0.216639 197 196 203
-0.144685 -0.453805 0.216321 197 196 203
-0.142979 -0.453401 0.215893 197 196 203
-0.141277 -0.452988 0.215467 198 197 204
-0.140236 -0.454444 0.215257 199 198 205
-0.138538 -0.454017 0.214831 199 198 205
-0.136845 -0.453582 0.214406 200 199 206
-0.135158 -0.453138 0.213982 199 198 205
-0.134102 -0.454575 0.213768 201 200 207
-0.132419 -0.454117 0.213345 200 199 206
-0.130741 -0.453652 0.212923 201 200 207
-0.129673 -0.455074 0.212705 200 199 206
-0.127999 -0.454595 0.212283 200 199 206
-0.126625 -0.455058 0.211963 200 199 206
-0.123873 -0.455968 0.21132 198 197 204
-0.122211 -0.45546 0.2109 199 198 205
-0.121115 -0.456855 0.210674 200 199 206
-0.116965 -0.458144 0.209703 201 200 207
-0.0257172 -0.601363 0.191717 70 29 27
-0.0236883 -0.595417 0.19105 99 38 34
-0.0218032 -0.597458 0.190652 110 45 42
-0.0179821 -0.600518 0.189813 120 54 51
-0.0160552 -0.603536 0.189433 98 37 33
-0.0141085 -0.605547 0.189019 85 31 26
-0.0101365 -0.612543 0.188259 38 9 7
-0.00813228 -0.61453 0.187831 31 4 2
-0.00616806 -0.61351 0.187323 30 3 0
-0.00418935 -0.613481 0.186842 31 4 2
-0.00234131 -0.608448 0.186245 39 7 6
-0.000501836 -0.604406 0.18568 47 10 9
0.00120545 -0.59736 0.185058 56 15 13
0.00285884 -0.590308 0.18445 57 20 14
0.00454119 -0.585247 0.183892 57 21 19
0.00641131 -0.585175 0.183436 63 27 25
0.00823202 -0.584096 0.182962 67 31 30
0.0100977 -0.584008 0.182506 67 27 24
0.0138885 -0.584808 0.181609 74 28 21
0.0156924 -0.5837 0.181138 80 28 23
0.0174882 -0.582584 0.180669 81 31 25
0.0194201 -0.583456 0.180226 83 34 26
0.0212831 -0.583323 0.179769 91 42 34
0.0230659 -0.582186 0.179303 78 29 21
0.0250077 -0.583034 0.178856 95 46 37
0.026869 -0.582878 0.178399 94 48 38
0.030685 -0.58354 0.177492 82 40 29
0.0325483 -0.583361 0.177034 78 37 26
0.0346162 -0.585164 0.176585 74 35 23
0.0365922 -0.585963 0.176128 72 33 21
0.0385749 -0.586754 0.17567 72 33 21
0.0406787 -0.58853 0.175211 74 35 23
0.042679 -0.589304 0.174748 81 37 27
0.0461977 -0.586857 0.173821 97 44 32
0.0476857 -0.583641 0.173366 104 51 39
0.0494161 -0.582402 0.172909 111 56 45
0.0527105 -0.578914 0.172007 116 64 52
0.054845 -0.580624 0.171539 117 67 54
0.057142 -0.583314 0.17106 105 63 52
0.0591563 -0.584016 0.170591 86 56 48
-0.213385 -0.424484 0.230708 154 151 159
-0.212622 -0.426148 0.230565 154 151 159
-0.209562 -0.426914 0.229843 155 154 161
-0.206999 -0.428506 0.229263 158 154 162
-0.205221 -0.428436 0.228831 159 155 163
-0.204426 -0.430077 0.22868 158 157 164
-0.203135 -0.430855 0.228387 159 158 166
-0.202806 -0.433356 0.228371 161 159 167
-0.201024 -0.43326 0.227937 165 161 169
-0.198771 -0.432285 0.227366 165 161 169
-0.197473 -0.433038 0.227071 166 162 170
-0.196642 -0.434659 0.226911 167 163 171
-0.195335 -0.435404 0.226613 169 166 174
-0.193173 -0.437755 0.22615 168 166 176
-0.191856 -0.438485 0.225849 170 168 178
-0.190084 -0.438327 0.225416 171 170 179
-0.188765 -0.439044 0.225114 172 171 180
-0.187443 -0.439756 0.224812 173 172 182
-0.186119 -0.440462 0.22451 173 172 182
-0.184793 -0.441162 0.224206 177 173 184
-0.183464 -0.441857 0.223902 177 175 185
-0.180371 -0.442336 0.223165 178 177 186
-0.178614 -0.442116 0.222733 182 180 190
-0.177283 -0.442785 0.222428 180 179 186
-0.175949 -0.443449 0.222122 182 180 188
-0.174613 -0.444108 0.221814 183 182 189
-0.173274 -0.44476 0.221507 184 183 190
-0.171933 -0.445408 0.221198 184 183 190
-0.17059 -0.44605 0.220889 185 184 191
-0.168845 -0.445777 0.22046 185 184 191
-0.167898 -0.447317 0.220269 186 185 192
-0.166548 -0.447942 0.219958 186 185 192
-0.164806 -0.447648 0.219528 187 186 193
-0.163456 -0.44826 0.219217 189 187 195
-0.162103 -0.448867 0.218904 190 189 196
-0.159392 -0.450064 0.218278 191 190 197
-0.158404 -0.451576 0.218077 193 189 197
-0.156671 -0.451239 0.217648 193 189 197
-0.154944 -0.450894 0.217221 195 191 199
-0.153221 -0.450539 0.216794 193 192 199
-0.151861 -0.451104 0.216479 194 193 200
-0.150499 -0.451664 0.216163 194 193 200
-0.147422 -0.451834 0.215422 194 193 200
-0.1464 -0.453308 0.215212 198 197 204
-0.14503 -0.453845 0.214893 198 197 204
-0.143323 -0.45344 0.214469 197 196 203
-0.14162 -0.453027 0.214046 202 198 206
-0.140581 -0.454483 0.213831 197 196 203
-0.138882 -0.454056 0.213408 199 198 205
-0.136867 -0.45268 0.212885 198 197 204
-0.1355 -0.453178 0.212566 198 197 204
-0.132451 -0.453211 0.211828 199 198 205
-0.131083 -0.453691 0.211508 200 199 206
-0.128341 -0.454634 0.210868 200 199 206
-0.126672 -0.454147 0.21045 201 200 207
-0.123927 -0.455054 0.209808 200 199 206
-0.122553 -0.4555 0.209486 199 198 205
-0.0261649 -0.600416 0.189757 69 31 26
-0.022255 -0.596511 0.188709 108 42 40
-0.0203508 -0.597545 0.188272 113 50 49
-0.0184499 -0.600571 0.187887 117 53 52
-0.0165242 -0.60259 0.18747 104 43 38
-0.0145853 -0.603601 0.187025 92 36 32
-0.0106452 -0.609598 0.186219 46 12 12
-0.00864063 -0.612585 0.185807 31 4 2
-0.00466949 -0.613535 0.184866 31 4 2
-0.00281683 -0.608501 0.184289 34 4 3
-0.00103167 -0.60246 0.183702 40 6 4
0.000707282 -0.596413 0.183127 53 13 10
0.00240007 -0.590359 0.182562 57 16 14
0.00404655 -0.584299 0.182009 60 20 15
0.00595717 -0.585226 0.181568 64 23 19
0.0077788 -0.584147 0.181098 71 30 28
0.00959244 -0.58306 0.18063 71 28 25
0.0115098 -0.583964 0.180187 70 26 20
0.013315 -0.582863 0.17972 74 28 21
0.0151122 -0.581755 0.179255 79 30 24
0.0169013 -0.58064 0.178792 81 31 25
0.0188957 -0.58251 0.178354 84 35 29
0.0207549 -0.582377 0.177899 92 43 35
0.0225349 -0.58124 0.177437 70 21 15
0.0298546 -0.579608 0.175617 77 35 26
0.0337534 -0.581236 0.17471 71 31 24
0.0376799 -0.58283 0.173795 71 31 22
0.0397666 -0.584608 0.173333 73 34 22
0.0417507 -0.585383 0.17287 81 37 27
0.0453655 -0.583932 0.171954 96 46 33
0.0484327 -0.578488 0.17107 111 56 45
0.0502763 -0.578235 0.170616 114 59 48
0.0519792 -0.576984 0.17017 116 64 50
0.0539607 -0.577707 0.169706 120 67 55
0.0559487 -0.57842 0.169241 116 66 53
0.0577921 -0.578137 0.168785 104 65 53
0.0599443 -0.579821 0.168304 93 63 53
-0.214991 -0.423698 0.22959 153 149 157
-0.213722 -0.424519 0.229302 154 151 159
-0.213471 -0.427031 0.229297 155 152 160
-0.210403 -0.427801 0.228575 155 154 161
-0.20862 -0.427747 0.228145 156 155 162
-0.207338 -0.428541 0.227853 159 155 163
-0.206053 -0.429329 0.227561 159 155 163
-0.205255 -0.430972 0.227405 159 158 166
-0.203148 -0.433391 0.22695 162 161 168
-0.200886 -0.432427 0.226384 164 163 170
-0.198634 -0.43145 0.225821 166 162 170
-0.19734 -0.432201 0.225525 167 163 171
-0.19521 -0.434563 0.225064 169 166 174
-0.19483 -0.437054 0.225026 169 165 176
-0.193516 -0.437789 0.224726 170 166 177
-0.190426 -0.438361 0.223994 171 170 179
-0.188658 -0.438194 0.223564 172 171 180
-0.180714 -0.44237 0.221741 178 177 186
-0.178956 -0.44215 0.221312 180 179 188
-0.177625 -0.442819 0.221006 179 180 186
-0.176291 -0.443483 0.220699 180 181 188
-0.174955 -0.444142 0.220391 182 180 188
-0.172276 -0.445442 0.219773 184 183 190
-0.170934 -0.446084 0.219463 184 183 190
-0.169188 -0.445811 0.219036 185 184 191
-0.166498 -0.447064 0.218415 186 185 192
-0.16515 -0.447682 0.218103 189 185 193
-0.163799 -0.448294 0.217791 190 187 195
-0.162447 -0.448901 0.217477 191 188 196
-0.161092 -0.449502 0.217164 190 189 196
-0.159736 -0.450098 0.216849 191 190 197
-0.158749 -0.45161 0.216644 194 190 198
-0.155287 -0.450927 0.215794 195 191 199
-0.153564 -0.450573 0.215371 193 192 199
-0.151846 -0.450211 0.214948 194 193 200
-0.149478 -0.452251 0.214421 196 194 202
-0.147765 -0.451867 0.213999 197 196 203
-0.146744 -0.453342 0.213784 197 196 203
-0.145375 -0.453879 0.213465 198 197 204
-0.143666 -0.453474 0.213044 198 195 203
-0.141963 -0.453061 0.212624 199 198 205
-0.140595 -0.453578 0.212305 198 197 204
-0.127013 -0.45418 0.209038 201 200 207
-0.125641 -0.454637 0.208716 199 198 205
-0.124269 -0.455088 0.208394 199 198 205
-0.122894 -0.455533 0.208072 200 199 206
-0.0267196 -0.604459 0.187938 69 31 26
-0.0246322 -0.596513 0.187262 93 34 29
-0.0208158 -0.59759 0.186358 110 46 45
-0.0189048 -0.598616 0.185916 117 51 51
-0.0169939 -0.602634 0.185537 104 46 43
-0.0150572 -0.602646 0.185066 95 38 37
-0.00910709 -0.61363 0.183854 34 4 3
-0.00712834 -0.61361 0.183372 27 0 0
-0.00324386 -0.610546 0.182363 28 2 0
-0.00147357 -0.603505 0.181783 35 5 4
0.000274772 -0.597457 0.18123 47 10 9
0.00194114 -0.590403 0.180675 54 14 12
0.00545945 -0.58427 0.179689 65 23 19
0.00908894 -0.582105 0.178761 70 28 21
0.0110014 -0.583009 0.178315 73 26 21
0.0129213 -0.583904 0.177867 77 30 23
0.0145356 -0.579802 0.177387 78 29 21
0.0163843 -0.579685 0.176935 81 32 23
0.018373 -0.581556 0.176491 84 35 29
0.0201544 -0.580426 0.176033 92 43 35
0.0220054 -0.580286 0.17558 60 14 7
0.023856 -0.580139 0.175127 81 35 28
0.025706 -0.579984 0.174673 82 38 28
0.027466 -0.578825 0.17422 76 34 25
0.0292178 -0.57766 0.173769 71 31 24
0.0310582 -0.577484 0.173317 70 30 23
0.0332003 -0.580284 0.172855 68 28 21
0.0351553 -0.581086 0.172396 68 28 21
0.0371173 -0.581879 0.171935 68 28 21
0.0389738 -0.58167 0.171479 72 32 23
0.0408296 -0.581454 0.171023 81 37 27
0.0424448 -0.579245 0.170582 89 44 32
0.0442912 -0.579014 0.170128 98 48 35
0.0458818 -0.576793 0.169693 106 53 41
0.0475876 -0.575557 0.169251 114 59 48
0.0492848 -0.574315 0.168811 116 64 52
0.0529389 -0.573791 0.16791 123 71 57
0.0568893 -0.575214 0.166978 110 72 57
0.0590284 -0.576901 0.166492 107 73 57
0.0610236 -0.57759 0.166021 97 66 58
-0.206391 -0.429357 0.22615 159 155 163
-0.196852 -0.433849 0.223947 167 163 171
-0.195549 -0.434591 0.223649 168 164 173
-0.193857 -0.437818 0.223302 170 166 177
-0.192997 -0.439428 0.223125 170 168 178
-0.189449 -0.439107 0.222269 172 171 180
-0.188128 -0.439818 0.221965 172 171 180
-0.183713 -0.441028 0.220928 176 174 184
-0.181056 -0.442398 0.220316 178 177 184
-0.177966 -0.442848 0.219583 180 179 186
-0.177052 -0.444412 0.219392 182 180 188
-0.175297 -0.44417 0.218967 184 183 190
-0.173959 -0.444823 0.218658 183 182 189
-0.173028 -0.446376 0.218462 185 184 191
-0.171276 -0.446112 0.218037 185 184 191
-0.169931 -0.446748 0.217726 185 184 191
-0.168584 -0.447379 0.217414 186 185 192
-0.167235 -0.448004 0.217101 186 185 192
-0.165492 -0.44771 0.216677 189 185 193
-0.164142 -0.448322 0.216364 190 187 195
-0.16279 -0.448929 0.21605 190 187 195
-0.160079 -0.450126 0.215421 191 190 197
-0.15872 -0.450717 0.215105 193 189 197
-0.15699 -0.450378 0.214683 194 190 198
-0.15563 -0.450956 0.214367 195 191 199
-0.153906 -0.450601 0.213947 194 193 200
-0.152547 -0.451166 0.21363 194 193 200
-0.151185 -0.451725 0.213313 194 193 200
-0.148107 -0.451895 0.212576 196 194 202
-0.146743 -0.452437 0.212258 197 196 203
-0.145718 -0.453907 0.212037 197 196 203
-0.142305 -0.453089 0.211202 198 197 204
-0.140937 -0.453606 0.210883 198 197 204
-0.13924 -0.453178 0.210467 199 198 205
-0.137549 -0.452741 0.210053 198 197 204
-0.136183 -0.453239 0.209733 199 198 205
-0.133445 -0.454218 0.209091 199 198 205
-0.132074 -0.454699 0.20877 199 198 205
-0.1307 -0.455175 0.208448 199 198 205
-0.129024 -0.454695 0.208036 200 199 206
-0.025115 -0.597549 0.185373 84 35 29
-0.0231979 -0.597592 0.184909 99 38 36
-0.0212807 -0.597627 0.184444 106 45 41
-0.0174601 -0.601672 0.183585 103 44 42
-0.0155273 -0.601683 0.183116 94 40 38
-0.0135904 -0.602686 0.182662 83 33 32
-0.0096463 -0.608669 0.181806 36 7 5
-0.00568833 -0.61062 0.180878 27 0 0
-0.00197175 -0.602542 0.179835 30 2 2
0.00151701 -0.591438 0.178796 50 12 11
0.00313979 -0.584378 0.17828 59 16 15
0.00500601 -0.584306 0.177825 64 21 18
0.00677932 -0.582228 0.177358 67 22 19
0.00858716 -0.581142 0.176899 69 25 19
0.0104949 -0.582046 0.176451 73 26 21
0.0140857 -0.579837 0.175539 77 28 22
0.0159344 -0.57972 0.175087 77 28 22
0.0214008 -0.578327 0.173732 44 0 0
0.0233244 -0.579177 0.173278 77 35 28
0.0251706 -0.579023 0.172825 76 34 25
0.0305132 -0.576524 0.171481 62 27 18
0.0324489 -0.577335 0.171023 60 25 17
0.0343917 -0.578138 0.170563 66 26 19
0.0382977 -0.579719 0.169638 74 30 22
0.0400307 -0.57851 0.169195 83 34 26
0.0416364 -0.576302 0.168765 91 43 30
0.0467478 -0.572618 0.167455 117 62 51
0.0484346 -0.571378 0.167022 123 68 54
0.0501128 -0.570131 0.166591 126 71 58
0.0519242 -0.569867 0.166145 130 75 59
0.0538801 -0.570586 0.16568 133 78 65
0.0559918 -0.572284 0.165193 125 76 58
0.0579646 -0.572985 0.164724 120 74 60
0.0599438 -0.573677 0.164252 112 76 61
0.0617688 -0.573373 0.163802 94 68 58
-0.164484 -0.448345 0.214938 189 185 193
-0.161396 -0.448634 0.214204 190 189 196
-0.158315 -0.448896 0.213471 191 190 197
-0.152528 -0.450261 0.212106 194 193 200
-0.149811 -0.451371 0.211471 194 193 200
-0.139581 -0.4532 0.209047 198 197 204
-0.0279455 -0.61652 0.184281 62 36 31
-0.0237266 -0.60162 0.183062 95 38 35
-0.0217699 -0.599655 0.182561 101 42 39
-0.0198615 -0.601682 0.182124 108 47 45
-0.0179378 -0.603701 0.181683 99 43 39
-0.0159968 -0.602712 0.181199 93 39 35
-0.0140602 -0.602716 0.180728 86 34 31
-0.0120955 -0.606711 0.180303 63 20 16
-0.0101327 -0.607699 0.179839 41 9 9
-0.00616584 -0.610649 0.178913 24 2 0
-0.0042437 -0.608614 0.178419 22 0 0
-0.00236322 -0.605571 0.177922 25 0 0
-0.000536026 -0.601521 0.177424 36 7 5
0.00287482 -0.589403 0.176436 56 15 13
0.00476022 -0.589329 0.175976 61 18 14
0.00646374 -0.585253 0.175508 65 19 18
0.0101492 -0.584071 0.174595 71 24 19
0.0138178 -0.58286 0.173685 75 25 21
0.0156134 -0.581744 0.173233 74 24 20
0.0175377 -0.582617 0.172776 75 25 21
0.019397 -0.582484 0.172321 80 38 34
0.0211037 -0.580349 0.171877 23 0 0
0.0229542 -0.580202 0.171424 67 27 20
0.0246369 -0.578055 0.170985 67 27 20
0.0263036 -0.575901 0.17055 63 22 18
0.0280457 -0.574736 0.17011 58 23 16
0.0319008 -0.576368 0.169191 59 21 15
0.0338388 -0.577171 0.168729 65 25 20
0.0357837 -0.577966 0.168265 66 26 19
0.037625 -0.577759 0.167812 75 31 23
0.0394655 -0.577545 0.16736 90 40 29
0.0427787 -0.574116 0.166506 106 53 43
0.044354 -0.571897 0.166092 112 57 46
0.0474564 -0.567442 0.165275 127 70 55
0.0491204 -0.566197 0.164852 134 75 61
0.0507758 -0.564946 0.164431 138 81 66
0.0528564 -0.566656 0.163945 138 83 70
0.0548027 -0.567368 0.163478 137 83 64
0.0569078 -0.56906 0.162986 131 81 66
0.0611601 -0.572414 0.16199 105 70 57
-0.0261481 -0.602598 0.181615 68 40 34
-0.0241613 -0.599642 0.181106 85 38 33
-0.0222105 -0.597677 0.180615 93 39 35
-0.020321 -0.600703 0.180183 98 44 39
-0.0183976 -0.601722 0.179725 93 39 35
-0.0145323 -0.601737 0.178786 78 31 26
-0.0106172 -0.60672 0.17788 44 13 10
-0.00865172 -0.6077 0.17741 29 6 5
-0.0066434 -0.610671 0.176949 24 2 0
-0.00469795 -0.609635 0.176466 21 0 0
-0.0027351 -0.609591 0.175988 22 0 0
-0.000830669 -0.607539 0.175506 30 2 2
0.00274767 -0.598417 0.174553 49 11 8
0.00458621 -0.596345 0.174086 54 13 14
0.00627583 -0.591268 0.173629 58 15 14
0.00807161 -0.589181 0.173173 63 18 17
0.0117281 -0.586984 0.172262 65 20 14
0.0133649 -0.58288 0.171825 65 19 16
0.015225 -0.582763 0.171371 62 17 16
0.0170848 -0.582638 0.170916 65 19 18
0.0190152 -0.583502 0.170453 67 29 25
0.0208026 -0.582364 0.170007 26 0 0
0.0242702 -0.579071 0.169131 54 21 16
0.0260292 -0.577913 0.168691 50 19 14
0.0275992 -0.574757 0.168279 50 19 14
0.0316483 -0.578378 0.167323 57 22 15
0.037284 -0.578774 0.165949 79 32 25
0.0390151 -0.577565 0.165515 91 41 31
0.0406207 -0.575357 0.165102 101 48 39
0.0423311 -0.574137 0.164673 110 54 46
0.0437837 -0.570925 0.164288 116 59 46
0.0468822 -0.566471 0.163489 132 70 57
0.0484072 -0.564236 0.163095 141 82 68
0.050056 -0.562986 0.16268 147 88 71
0.0518398 -0.56272 0.162241 149 90 74
0.0539176 -0.564423 0.161747 149 92 75
0.0560094 -0.566116 0.16125 149 92 77
0.0582704 -0.568788 0.160721 136 84 68
0.0599177 -0.5675 0.160305 119 77 59
0.0613936 -0.565221 0.159922 80 60 53
-0.0246814 -0.602654 0.179212 79 37 33
-0.0207785 -0.599717 0.17825 93 39 37
-0.0188726 -0.602736 0.177802 91 37 32
-0.0169362 -0.602747 0.177331 87 35 30
-0.0149985 -0.603751 0.176866 79 32 27
-0.0130478 -0.605746 0.176401 71 23 21
-0.0110909 -0.606734 0.17593 50 14 12
-0.00912643 -0.607714 0.175458 33 6 4
-0.00713761 -0.609685 0.174984 25 3 1
-0.00517468 -0.609649 0.174506 19 0 0
-0.00316319 -0.611604 0.174026 18 0 0
-0.00122104 -0.610552 0.173548 22 0 0
0.000649112 -0.607493 0.173078 35 5 4
0.00242438 -0.602428 0.17262 44 10 8
0.00431974 -0.601354 0.172153 50 12 11
0.00603312 -0.596276 0.17171 55 11 12
0.00959979 -0.591095 0.170814 58 12 12
0.0114914 -0.590991 0.170353 60 14 14
0.013206 -0.587885 0.169919 57 14 13
0.01496 -0.58577 0.16948 56 13 12
0.0168976 -0.586642 0.169012 56 13 12
0.0187017 -0.58551 0.168566 48 11 10
0.0203494 -0.582377 0.168148 24 0 0
0.0221296 -0.581233 0.167707 46 15 9
0.023738 -0.578088 0.167298 46 15 9
0.0256652 -0.578922 0.166831 46 15 9
0.0273312 -0.576761 0.166413 48 17 12
0.0311978 -0.578391 0.165476 54 21 14
0.0331415 -0.579194 0.165005 63 22 18
0.0348827 -0.578 0.164573 70 28 21
0.0383399 -0.575592 0.163714 93 42 32
0.0447703 -0.567722 0.162099 129 70 56
0.0461782 -0.564502 0.161737 137 75 62
0.0475624 -0.561278 0.161381 144 82 69
0.0493396 -0.561019 0.160944 150 88 75
0.0512586 -0.561743 0.160477 154 93 77
0.0531841 -0.562458 0.160008 155 94 80
0.0555672 -0.566129 0.159442 154 95 78
0.0578254 -0.5688 0.158902 146 92 74
0.0596315 -0.5685 0.158457 129 82 66
0.0612749 -0.567206 0.158047 100 65 54
-0.0252069 -0.60566 0.177294 73 38 32
-0.0231401 -0.597696 0.176785 82 37 32
-0.0212452 -0.599722 0.176327 88 38 32
-0.0154688 -0.604757 0.174929 77 30 25
-0.0135163 -0.606752 0.174456 71 23 23
-0.0115646 -0.60674 0.173981 54 15 15
-0.00961308 -0.606719 0.173507 37 10 7
-0.00763004 -0.608691 0.173026 26 4 2
-0.00567103 -0.608655 0.172549 19 0 0
-0.00366524 -0.61061 0.172063 18 0 0
0.000298388 -0.611497 0.171098 28 2 0
0.0022332 -0.610429 0.170626 38 6 3
0.00419887 -0.610353 0.170147 44 10 6
0.00595127 -0.605273 0.169715 50 9 9
0.00959147 -0.600089 0.168822 52 11 11
0.0114093 -0.597986 0.168376 51 10 10
0.0132114 -0.595876 0.167934 45 11 9
0.0149978 -0.593759 0.167496 42 11 6
0.0168994 -0.593631 0.167032 41 10 7
0.0204817 -0.59036 0.166153 30 1 0
0.0220622 -0.586223 0.165763 37 8 2
0.0235308 -0.581083 0.165399 41 10 5
0.0252992 -0.579924 0.164965 43 14 8
0.0268824 -0.576767 0.164574 47 15 12
0.0286265 -0.575595 0.164146 49 18 13
0.0304587 -0.575412 0.163697 57 22 15
0.0322899 -0.575221 0.163249 64 23 19
0.0341206 -0.575022 0.1628 74 29 24
0.0377795 -0.574604 0.161903 98 45 35
0.0394925 -0.57339 0.161482 109 51 43
0.0411971 -0.57217 0.161062 117 60 49
0.0426477 -0.568959 0.160703 126 66 54
0.0442011 -0.566736 0.160319 133 74 59
0.0457384 -0.564507 0.159939 140 80 68
0.0472596 -0.562274 0.159563 146 84 71
0.0489027 -0.561025 0.159158 152 90 77
0.0508207 -0.561748 0.158688 155 94 80
0.0548259 -0.564158 0.157706 156 95 82
0.0570737 -0.566831 0.157156 154 95 78
0.0590292 -0.567519 0.156676 141 89 72
0.060509 -0.565239 0.156309 105 68 58
-0.0258167 -0.612656 0.175361 69 38 32
-0.0236523 -0.600693 0.174873 75 35 28
-0.01788 -0.603751 0.173462 79 32 27
-0.0159399 -0.603754 0.17299 74 27 25
-0.0139899 -0.60675 0.172507 72 24 24
-0.0120383 -0.606738 0.172032 58 15 16
-0.00810581 -0.608689 0.17107 28 5 4
-0.00614682 -0.608653 0.170593 21 1 0
-0.0021241 -0.612555 0.169601 18 0 0
-9.00641e-05 -0.614493 0.169099 23 0 0
0.003872 -0.614348 0.168134 39 7 4
0.005686 -0.610266 0.167704 40 8 5
0.00760549 -0.609175 0.167239 40 8 5
0.00936901 -0.60508 0.166821 43 9 7
0.0112078 -0.602976 0.166379 40 8 5
0.0130308 -0.600865 0.16594 38 10 3
0.0148989 -0.599745 0.165487 38 10 3
0.0166942 -0.59762 0.165055 35 6 2
0.0186107 -0.597483 0.164587 32 5 3
0.0219093 -0.590208 0.163802 35 6 2
0.0232379 -0.583074 0.163498 40 9 3
0.0249311 -0.580918 0.16309 42 13 7
0.0263458 -0.575769 0.16276 47 15 12
0.0279043 -0.572606 0.162387 48 17 12
0.0315447 -0.572235 0.161496 71 29 23
0.033261 -0.571043 0.161079 79 32 25
0.0369998 -0.571621 0.160159 102 46 38
0.0387024 -0.570409 0.159745 112 57 48
0.0403965 -0.569191 0.159332 123 65 55
0.0418384 -0.565982 0.158988 128 69 55
0.0435079 -0.564751 0.158581 133 73 61
0.0450395 -0.562524 0.158211 140 79 65
0.0465549 -0.560291 0.157845 147 85 74
0.0520169 -0.560484 0.1565 160 98 85
0.0542364 -0.563168 0.155946 158 96 81
0.0566299 -0.566829 0.155345 158 96 83
0.0588965 -0.569491 0.154779 147 93 77
-0.026357 -0.615645 0.173382 64 35 29
-0.0221527 -0.597711 0.172491 78 35 32
-0.0183347 -0.600741 0.171542 75 30 27
-0.0164106 -0.603744 0.171053 73 28 23
-0.0144658 -0.60574 0.170566 68 23 18
-0.012512 -0.606727 0.170083 59 16 17
-0.0105606 -0.606707 0.169609 42 11 8
-0.00856768 -0.609679 0.169103 30 5 5
-0.00662269 -0.608643 0.168636 23 2 0
-0.00462084 -0.610598 0.168135 19 0 0
-0.000571775 -0.614483 0.16712 20 0 0
0.00140932 -0.614414 0.166638 28 2 0
0.00342698 -0.615336 0.166139 34 5 1
0.0053299 -0.613253 0.165689 36 7 3
0.00904036 -0.608066 0.16482 35 6 2
0.0108402 -0.604963 0.164403 35 5 4
0.0126727 -0.602852 0.16397 35 6 0
0.0163541 -0.599606 0.163093 32 5 3
0.0200589 -0.597329 0.162202 28 2 0
0.0256376 -0.572772 0.161009 49 18 13
0.0289965 -0.56943 0.160209 63 25 20
0.0307068 -0.568246 0.159798 72 30 24
0.0379176 -0.567421 0.158031 120 62 54
0.0396011 -0.566204 0.157626 127 67 56
0.0411553 -0.563988 0.157259 130 73 60
0.0429429 -0.563751 0.156821 136 77 65
0.0444725 -0.561524 0.15646 143 81 68
0.0461183 -0.560282 0.156063 153 89 79
0.0478917 -0.560024 0.155628 156 91 81
0.0515793 -0.560475 0.154715 160 98 85
0.0560344 -0.565832 0.153579 156 95 80
0.0582944 -0.568494 0.153002 151 92 78
0.060576 -0.571145 0.15242 126 78 63
