ply
format ascii 1.0
comment Created by Open3D
element vertex 2000
property double x
property double y
property double z
property uchar red
property uchar green
property uchar blue
end_header
0.190249 -0.557725 0.376009 202 189 182
0.197477 -0.561701 0.376761 200 188 183
0.146606 -0.565021 0.386335 213 202 197
0.148184 -0.563923 0.385411 214 204 198
0.161492 -0.564848 0.383028 219 208 203
0.164322 -0.561651 0.380784 213 202 199
0.200652 -0.56177 0.373957 213 202 197
0.110711 -0.562338 0.391249 214 203 200
0.118201 -0.563794 0.390116 221 211 205
0.13255 -0.562781 0.386108 227 216 213
0.134341 -0.56262 0.385605 227 216 213
0.136131 -0.562453 0.3851 228 217 214
0.139709 -0.562094 0.38409 226 215 212
0.152906 -0.563255 0.381752 227 216 213
0.160316 -0.563114 0.380099 229 218 215
0.184981 -0.563315 0.375297 226 218 214
0.215923 -0.562391 0.369431 229 220 216
0.23862 -0.563198 0.366366 225 216 215
0.257215 -0.562556 0.363515 216 207 206
0.284988 -0.561355 0.359632 200 191 187
0.306777 -0.559512 0.356562 197 186 181
0.0654693 -0.56343 0.40213 202 188 186
0.0689972 -0.562766 0.400728 202 192 188
0.0726585 -0.563855 0.400218 205 194 191
0.124754 -0.563348 0.385997 230 219 216
0.137686 -0.564057 0.3833 230 219 216
0.143494 -0.56526 0.382592 233 222 219
0.194142 -0.564002 0.371683 236 225 222
0.24081 -0.565226 0.364742 237 228 226
0.264866 -0.562413 0.360173 230 221 219
0.28056 -0.563047 0.358603 222 213 211
0.301346 -0.559799 0.354889 163 152 147
0.315091 -0.559294 0.353366 184 173 170
0.319182 -0.55824 0.352527 195 187 183
0.0488663 -0.564697 0.405601 200 187 185
0.122339 -0.563459 0.384379 231 221 217
0.133654 -0.565287 0.3826 234 223 220
0.166628 -0.563755 0.374591 236 225 222
0.17556 -0.562152 0.371999 236 225 222
0.253814 -0.563412 0.359779 240 229 226
0.267628 -0.561088 0.356912 236 227 225
0.278811 -0.561517 0.355781 235 226 224
0.280138 -0.559923 0.354889 236 227 225
0.289145 -0.560042 0.353947 231 223 219
0.311644 -0.562882 0.352973 198 190 188
0.0876893 -0.564337 0.39161 229 220 218
0.0892661 -0.562563 0.390267 226 214 214
0.105754 -0.565097 0.387142 233 221 221
0.107549 -0.565042 0.386648 233 221 221
0.121543 -0.562542 0.381854 234 223 220
0.12547 -0.56408 0.381677 234 223 220
0.160575 -0.564623 0.374026 237 226 223
0.183439 -0.565131 0.369701 237 226 223
0.188811 -0.563979 0.368125 238 228 224
0.205392 -0.566661 0.366466 240 229 226
0.269035 -0.561289 0.354548 242 233 229
0.294262 -0.562611 0.352268 235 226 222
0.302571 -0.564951 0.352463 235 226 224
0.0424589 -0.565842 0.403612 221 212 210
0.0478449 -0.565551 0.401753 223 212 211
0.0674831 -0.564487 0.39521 229 218 217
0.0693436 -0.565486 0.395169 230 221 219
0.071141 -0.565581 0.394689 222 211 210
0.0746583 -0.564851 0.393295 193 184 182
0.082113 -0.567791 0.392655 226 214 214
0.0889055 -0.564322 0.389002 227 216 215
0.0906961 -0.564334 0.388516 229 218 217
0.168825 -0.563124 0.36934 236 225 222
0.172935 -0.564245 0.369065 238 228 224
0.188397 -0.56486 0.366384 238 228 224
0.235627 -0.568319 0.360109 240 232 228
0.259692 -0.565749 0.355518 242 233 229
0.309102 -0.565692 0.349808 222 213 211
0.00419778 -0.561479 0.412032 200 187 185
0.00592528 -0.562728 0.412047 200 187 185
0.0275515 -0.564767 0.405637 225 213 212
0.0329755 -0.561981 0.402439 224 215 214
0.0365479 -0.563355 0.401964 224 215 214
0.0616168 -0.564991 0.394943 228 219 217
0.0669369 -0.564444 0.39308 229 220 218
0.0687938 -0.565445 0.393036 229 220 218
0.0798287 -0.568602 0.391432 156 145 144
0.0958436 -0.566983 0.386192 164 153 152
0.148485 -0.566113 0.372878 238 224 222
0.15661 -0.568688 0.372371 236 225 222
0.162265 -0.568749 0.371202 239 226 223
0.189467 -0.564456 0.363748 238 228 224
0.214258 -0.567768 0.360962 238 228 224
0.230855 -0.568661 0.358718 241 230 227
0.242044 -0.565951 0.355778 242 233 229
0.24464 -0.567033 0.355905 242 233 229
0.248643 -0.56661 0.35514 240 232 228
0.265609 -0.562164 0.35083 239 231 227
0.274076 -0.561728 0.349581 240 232 228
0.285298 -0.561989 0.34838 242 233 229
0.326525 -0.568164 0.346898 226 218 214
-0.0216005 -0.559039 0.417976 189 174 170
-0.00721745 -0.561737 0.413961 203 190 187
-0.00525989 -0.56039 0.412578 207 194 192
0.0125835 -0.564978 0.408526 219 207 207
0.0217367 -0.562099 0.403958 220 208 210
0.0253087 -0.56267 0.403042 216 205 204
0.0306846 -0.562577 0.401211 227 216 215
0.0486491 -0.56745 0.397875 228 219 217
0.0628159 -0.564164 0.391905 229 220 218
0.0754952 -0.566629 0.389415 229 219 220
0.0793491 -0.569457 0.38972 181 172 171
0.084674 -0.568683 0.387837 237 226 225
0.135272 -0.567514 0.374322 235 224 221
0.140446 -0.566045 0.372413 235 224 221
0.149842 -0.566733 0.370644 236 225 222
0.198102 -0.568916 0.362052 237 226 223
0.200548 -0.570227 0.362233 238 228 224
0.216002 -0.569012 0.358996 238 228 224
0.219605 -0.567973 0.357917 240 229 226
0.22753 -0.56753 0.356442 240 229 226
0.238052 -0.568063 0.355076 240 232 228
0.253639 -0.565535 0.351682 239 231 227
0.280881 -0.563654 0.347355 242 233 229
0.288121 -0.564572 0.346922 240 232 228
0.292181 -0.563754 0.346104 240 232 228
0.313986 -0.569002 0.346108 233 225 223
-0.0221444 -0.55989 0.416277 206 193 191
0.019404 -0.563535 0.403175 200 184 185
0.0283593 -0.564947 0.400874 229 218 217
0.0301528 -0.565208 0.400411 228 217 216
0.074937 -0.566568 0.38729 255 255 255
0.14201 -0.567583 0.370572 235 224 221
0.16219 -0.566608 0.365705 236 225 222
0.174966 -0.565259 0.362459 238 224 222
0.203746 -0.570188 0.359391 237 226 223
0.207017 -0.568372 0.357972 237 226 223
0.25104 -0.566237 0.350099 239 231 227
0.267507 -0.564911 0.347293 238 230 226
0.286801 -0.563826 0.344461 239 230 229
0.323699 -0.56685 0.34191 230 221 219
-0.0263768 -0.560637 0.415924 214 203 202
-0.0228069 -0.561608 0.415043 214 203 202
-0.000963199 -0.563265 0.407837 212 200 202
0.0296439 -0.566044 0.398709 228 217 216
0.049456 -0.569314 0.393983 226 218 216
0.0512618 -0.569485 0.393508 226 218 216
0.0618448 -0.565834 0.388515 228 219 217
0.107046 -0.569236 0.377605 231 220 219
0.141995 -0.570222 0.369609 234 223 220
0.143797 -0.570008 0.369099 234 223 220
0.148969 -0.568422 0.367188 234 223 220
0.150533 -0.567281 0.366301 235 224 221
0.18226 -0.566428 0.359365 236 225 222
0.212686 -0.569514 0.355283 236 225 222
0.228524 -0.568713 0.352322 237 228 224
0.232498 -0.568425 0.35157 237 228 224
0.248852 -0.567772 0.348841 238 230 226
0.271145 -0.565163 0.344676 238 229 228
0.273383 -0.56525 0.344432 237 228 226
-0.0533221 -0.561576 0.424582 189 174 170
-0.0288379 -0.561851 0.415125 216 207 206
-0.0269242 -0.561474 0.414217 214 203 202
-0.0233524 -0.562446 0.413335 216 207 206
-0.0215641 -0.56292 0.412892 221 212 210
-0.0182006 -0.565606 0.412929 225 216 215
0.00758776 -0.564149 0.402964 205 192 190
0.0381237 -0.568062 0.394671 229 218 217
0.0435396 -0.569588 0.393691 226 218 216
0.0489317 -0.569242 0.391841 226 218 216
0.0595201 -0.565628 0.386868 228 219 217
0.0647658 -0.564167 0.384602 228 219 217
0.0701084 -0.564449 0.383176 230 221 221
0.10271 -0.568369 0.37608 233 221 221
0.12816 -0.56873 0.369894 231 221 217
0.160826 -0.566495 0.361505 236 225 222
0.181548 -0.566379 0.357265 236 225 222
0.240064 -0.568609 0.348252 239 231 227
0.288777 -0.566455 0.340819 237 228 224
0.304421 -0.569582 0.340388 228 219 217
0.319325 -0.570607 0.339264 219 211 209
-0.0667894 -0.559683 0.426817 185 169 165
-0.0540697 -0.56328 0.42333 205 194 191
-0.023898 -0.563275 0.411623 198 186 186
-0.0187456 -0.56644 0.411208 226 218 216
-0.0150396 -0.566457 0.409853 165 154 153
0.0950633 -0.569331 0.376334 225 213 212
0.115126 -0.570462 0.371678 231 221 217
0.131301 -0.569225 0.367165 235 224 221
0.201193 -0.569227 0.352692 236 225 222
0.205446 -0.570052 0.352309 235 224 221
0.207243 -0.569572 0.351777 236 225 222
0.213667 -0.570713 0.351182 237 226 223
0.215467 -0.570199 0.350646 237 226 223
0.233745 -0.565504 0.345599 238 230 226
0.238484 -0.566883 0.345485 239 231 227
0.240668 -0.567126 0.345263 238 230 226
0.265907 -0.5667 0.341515 237 228 224
0.318947 -0.571519 0.337357 222 213 211
0.322577 -0.569611 0.336202 236 227 225
-0.0693587 -0.560705 0.425991 198 185 183
-0.0675711 -0.561374 0.425564 199 186 184
-0.0562545 -0.562641 0.421555 208 197 194
-0.0209765 -0.565922 0.409476 209 198 197
-0.0155819 -0.567282 0.408131 215 206 206
-0.00621946 -0.565843 0.404069 206 194 196
0.0762024 -0.565428 0.377464 221 212 210
0.0818219 -0.568285 0.377232 231 220 219
0.0836131 -0.568313 0.376748 230 221 219
0.111066 -0.57147 0.370951 231 220 219
0.116307 -0.570261 0.36907 231 221 217
0.149451 -0.570658 0.361474 234 223 220
0.229776 -0.567521 0.344889 238 230 226
0.260638 -0.566453 0.339876 237 228 226
0.283017 -0.567336 0.337348 237 228 226
0.287069 -0.566551 0.336525 237 228 226
0.298914 -0.567309 0.335462 233 225 223
0.311388 -0.568588 0.334623 232 223 222
-0.0741535 -0.562732 0.42654 206 193 189
-0.0627726 -0.564166 0.422535 213 202 201
-0.0379251 -0.564003 0.412662 180 169 168
-0.0321381 -0.562938 0.409961 218 209 208
-0.0285672 -0.56394 0.409079 231 222 221
-0.00487525 -0.566161 0.401457 249 238 237
0.00965727 -0.566375 0.396493 228 218 219
0.0455729 -0.568787 0.385912 225 216 217
0.049163 -0.569134 0.384966 235 225 226
0.0633183 -0.56658 0.379516 228 219 217
0.0651021 -0.566681 0.37904 229 220 218
0.0758088 -0.567135 0.376169 207 195 197
0.0830439 -0.568202 0.37464 231 220 219
0.119783 -0.572649 0.367104 233 222 219
0.145412 -0.57195 0.360756 233 222 219
0.159534 -0.568946 0.356304 235 224 221
0.178496 -0.569222 0.352544 235 224 221
0.189514 -0.567753 0.34976 235 224 221
0.191918 -0.56911 0.349914 236 225 222
0.204285 -0.570835 0.348422 235 224 221
0.303911 -0.565548 0.331904 233 225 223
0.312811 -0.568551 0.332165 231 222 221
-0.0940646 -0.561301 0.431911 178 168 160
-0.087961 -0.561064 0.429202 199 188 183
-0.0665356 -0.561972 0.420714 207 194 194
-0.058813 -0.561941 0.417585 220 209 206
-0.0554227 -0.564034 0.417185 225 213 212
-0.032826 -0.564624 0.4087 214 203 200
-0.0289841 -0.563866 0.406907 241 230 229
-0.0271989 -0.564355 0.406464 151 140 137
-0.014557 -0.566681 0.402888 252 242 238
-0.0107782 -0.56575 0.401097 222 212 213
-0.00898908 -0.566162 0.400646 238 229 230
0.0414952 -0.570115 0.385562 194 183 182
0.048617 -0.56811 0.382428 240 233 233
0.0593598 -0.568968 0.379582 228 219 217
0.06105 -0.56726 0.378291 225 216 215
0.0861497 -0.569026 0.371962 252 243 244
0.0899473 -0.570857 0.371771 214 204 205
0.105964 -0.569587 0.366962 229 218 217
0.109993 -0.572164 0.367114 230 219 216
0.171324 -0.566619 0.350625 234 223 220
0.173378 -0.567168 0.350455 233 222 219
0.201087 -0.56947 0.346187 234 223 220
0.2078 -0.57157 0.345909 236 225 222
0.221066 -0.56969 0.342819 237 226 223
0.27189 -0.566285 0.33383 237 228 226
0.295717 -0.564913 0.330318 236 227 225
-0.108243 -0.559829 0.435012 173 160 153
-0.104396 -0.560652 0.433694 179 169 159
-0.0370984 -0.56527 0.408314 218 209 208
-0.00055322 -0.568905 0.396659 223 220 214
0.028399 -0.570255 0.387552 229 220 218
0.0409938 -0.570904 0.383846 188 177 176
0.0606145 -0.568956 0.376992 225 216 215
0.0820032 -0.568863 0.37083 228 216 218
0.0856781 -0.569811 0.37025 254 247 247
0.0874685 -0.569816 0.369764 242 230 232
0.0949874 -0.572508 0.368965 213 201 203
0.111639 -0.574691 0.365639 230 221 217
0.134498 -0.57007 0.358007 233 222 219
0.155324 -0.572018 0.354199 237 221 220
0.204917 -0.571102 0.344009 235 224 221
0.208842 -0.571005 0.343272 236 225 222
0.240861 -0.569842 0.337511 237 228 226
-0.0833071 -0.563214 0.423472 183 169 169
-0.05262 -0.565105 0.41192 227 216 215
-0.0449608 -0.564777 0.408801 223 214 212
-0.0373574 -0.564304 0.405686 198 190 184
-0.0113615 -0.562863 0.395475 215 204 203
0.00820862 -0.566945 0.390501 207 196 195
0.0315089 -0.569702 0.384066 255 248 247
0.0583377 -0.569617 0.375759 226 218 216
0.060079 -0.568818 0.374883 225 216 215
0.0781249 -0.57141 0.370867 187 176 177
0.0797418 -0.569611 0.369604 236 227 223
0.0814369 -0.568721 0.368732 228 216 218
0.124549 -0.568983 0.357698 231 221 217
0.161814 -0.57073 0.350054 223 206 203
0.167176 -0.569773 0.348514 228 217 214
0.179932 -0.568175 0.345243 231 221 217
0.230328 -0.5711 0.337486 237 228 224
0.33457 -0.565286 0.321805 144 135 133
0.336355 -0.564256 0.321235 119 110 109
-0.0680603 -0.563524 0.415032 216 202 200
-0.0626969 -0.565453 0.413733 230 216 216
-0.0253808 -0.568574 0.400846 214 204 205
0.0220116 -0.570125 0.385098 226 215 212
0.0274156 -0.569994 0.383286 231 220 219
0.0525442 -0.571822 0.376276 245 236 237
0.061329 -0.568778 0.372302 225 216 215
0.0792667 -0.570379 0.367891 230 219 216
0.0829403 -0.571346 0.367306 220 208 210
0.0919021 -0.571335 0.364868 223 211 215
0.108019 -0.570846 0.360443 230 219 216
0.129639 -0.570169 0.354837 230 219 216
0.149045 -0.57439 0.352238 209 189 182
0.155519 -0.570584 0.34916 216 160 154
0.175381 -0.567908 0.343864 233 220 217
0.183957 -0.570866 0.343441 234 223 220
0.203751 -0.571812 0.340131 235 224 221
0.252976 -0.56772 0.330399 237 228 226
0.264937 -0.566017 0.328007 238 229 228
-0.108285 -0.563114 0.429276 207 214 184
-0.0941684 -0.563644 0.42349 218 213 203
-0.0719888 -0.562126 0.413692 131 126 112
-0.0182883 -0.567603 0.395574 226 214 214
-0.00361603 -0.567269 0.390238 135 122 122
0.00332942 -0.571424 0.389682 220 208 210
0.0160356 -0.571862 0.385605 227 216 215
0.0376849 -0.57303 0.379157 211 199 199
0.0661391 -0.568901 0.368772 215 206 206
0.0860529 -0.572126 0.364613 225 213 212
0.105626 -0.570773 0.358848 213 202 201
0.107412 -0.570689 0.358355 228 217 214
0.109349 -0.571517 0.358226 228 217 214
0.150635 -0.575816 0.350316 182 121 114
0.186806 -0.56993 0.340318 235 224 221
0.200228 -0.569512 0.337621 234 223 220
0.215122 -0.572222 0.336102 232 224 220
0.227341 -0.572411 0.334115 233 225 221
0.245026 -0.57034 0.330457 237 228 226
0.25436 -0.567831 0.328044 237 228 226
0.285208 -0.572462 0.325658 232 223 222
0.306581 -0.569647 0.321941 235 226 224
0.315789 -0.569216 0.320731 232 223 222
-0.146962 -0.6027 0.460327 36 30 27
-0.118408 -0.561336 0.43054 223 213 207
-0.0927247 -0.564351 0.420833 214 203 202
-0.080345 -0.562748 0.41504 214 201 199
-0.0602535 -0.568272 0.409363 186 175 174
-0.0224012 -0.567476 0.394749 223 214 212
-0.0148297 -0.56564 0.391234 224 210 210
0.00466844 -0.571628 0.387074 155 141 141
0.0371791 -0.572874 0.37703 214 202 204
0.0730168 -0.572689 0.366291 223 212 211
0.0800159 -0.571 0.363597 228 217 216
0.119453 -0.570647 0.353168 230 219 216
0.151531 -0.574494 0.347369 186 95 94
0.16865 -0.568698 0.341258 227 214 212
0.195922 -0.570317 0.336585 235 224 221
0.228349 -0.571736 0.331479 235 226 224
0.238456 -0.571319 0.329679 236 227 225
0.286524 -0.568265 0.321612 231 222 221
0.306983 -0.567911 0.31898 232 223 222
0.316167 -0.567461 0.317765 233 225 223
-0.153491 -0.60644 0.46213 9 3 3
-0.0953623 -0.565225 0.419955 217 209 201
-0.0910343 -0.564183 0.417719 221 212 210
-0.085193 -0.564676 0.415518 208 197 194
-0.0829396 -0.563676 0.414176 214 203 200
-0.0715723 -0.565208 0.410229 211 200 197
-0.0664097 -0.568032 0.409373 209 195 193
-0.0450797 -0.566673 0.400542 216 205 204
-0.0229413 -0.568233 0.393025 225 213 212
0.000693228 -0.569876 0.385434 211 200 197
0.00420909 -0.571476 0.384931 225 214 210
0.0115003 -0.570954 0.382259 240 226 226
0.0258674 -0.573184 0.378532 219 207 207
0.027667 -0.57343 0.378063 219 207 209
0.0384713 -0.572908 0.374436 225 213 212
0.0563813 -0.572651 0.368898 224 216 212
0.0635591 -0.573075 0.366981 226 215 212
0.0671493 -0.573242 0.366018 226 215 212
0.0903807 -0.572678 0.359331 227 216 213
0.131673 -0.571151 0.3483 230 219 216
0.13764 -0.573292 0.34782 229 218 215
0.1726 -0.571466 0.339458 228 215 213
0.188603 -0.567918 0.33482 234 223 220
0.203727 -0.56693 0.331599 232 224 220
0.237656 -0.571229 0.32758 236 227 225
0.243815 -0.571049 0.32654 236 227 225
0.250946 -0.568374 0.324389 236 227 225
0.269979 -0.56787 0.32145 234 228 225
-0.154987 -0.586029 0.451945 0 0 0
-0.117557 -0.562953 0.426086 204 193 190
-0.0817402 -0.565153 0.411991 219 208 203
-0.0739328 -0.565308 0.408913 214 203 200
-0.0705714 -0.567502 0.408491 214 203 200
-0.0629977 -0.568317 0.405851 215 204 201
0.037966 -0.572731 0.372319 223 212 209
0.0861196 -0.571595 0.357851 227 216 213
0.124801 -0.576286 0.349949 230 219 216
0.154591 -0.569678 0.340358 200 110 113
0.170112 -0.571665 0.337897 227 214 212
0.179591 -0.571618 0.335957 233 222 219
0.185803 -0.56729 0.332962 234 223 220
0.192353 -0.569593 0.332647 234 223 220
0.203314 -0.567683 0.329836 233 225 221
0.214611 -0.571349 0.329302 233 225 221
0.238246 -0.569623 0.324669 235 226 224
0.243979 -0.568558 0.323348 236 227 225
0.270911 -0.567036 0.318807 232 223 222
0.288831 -0.567351 0.316541 230 221 219
0.305208 -0.56788 0.314714 232 223 222
0.308257 -0.565216 0.313358 232 223 222
-0.161246 -0.630616 0.469905 86 80 77
-0.159814 -0.63334 0.470361 80 74 72
-0.124143 -0.568656 0.42886 22 16 13
-0.108094 -0.564568 0.42034 87 134 50
-0.0947617 -0.567537 0.415979 212 201 198
-0.0633719 -0.568198 0.403657 215 204 201
-0.0499323 -0.56795 0.398387 168 155 152
-0.0461913 -0.568177 0.397068 223 209 207
0.035667 -0.575107 0.371848 225 214 210
0.0517457 -0.572021 0.365645 226 215 212
0.0837639 -0.5714 0.356254 227 216 213
0.112571 -0.572327 0.349128 229 218 215
0.12184 -0.573494 0.347334 228 219 217
0.127391 -0.573917 0.346175 229 218 215
0.145231 -0.57936 0.344292 157 90 83
0.149742 -0.574913 0.341445 165 76 74
0.181548 -0.567947 0.331931 230 219 216
0.201129 -0.568915 0.32859 232 224 220
0.239221 -0.568875 0.322052 236 227 225
0.27767 -0.568864 0.316389 231 222 221
0.344396 -0.573375 0.31013 185 179 176
-0.112838 -0.56537 0.420323 204 193 188
-0.098683 -0.565913 0.414609 209 198 195
-0.0793295 -0.568062 0.407604 202 192 184
-0.0737312 -0.569225 0.405853 212 201 198
-0.071512 -0.568141 0.404534 212 199 197
-0.0278777 -0.567741 0.387896 220 209 208
-0.0243167 -0.56866 0.386998 224 215 214
0.0135834 -0.572853 0.375753 225 214 210
0.0333784 -0.572864 0.369426 225 214 210
0.0387395 -0.570692 0.366856 225 214 210
0.0655739 -0.573588 0.360098 226 215 212
0.0813215 -0.57026 0.354299 227 216 215
0.170215 -0.570053 0.33294 227 214 212
0.193605 -0.571527 0.328899 233 222 219
0.198611 -0.569235 0.327046 232 224 220
0.219494 -0.572099 0.324427 233 225 223
0.221643 -0.572422 0.324183 233 225 223
0.298882 -0.567938 0.311078 232 225 223
0.333162 -0.569293 0.307582 231 222 221
-0.158236 -0.633725 0.464303 76 69 67
-0.116726 -0.563604 0.418928 200 190 184
0.0382422 -0.571406 0.365141 225 214 210
0.0454142 -0.573946 0.364009 226 215 212
0.0524859 -0.571737 0.360982 224 216 212
0.0668188 -0.573448 0.357526 226 215 212
0.0973435 -0.574467 0.349615 228 217 214
0.10285 -0.575189 0.348484 228 217 216
0.132057 -0.575722 0.341517 226 214 214
0.14166 -0.57739 0.339969 143 92 84
0.194644 -0.5709 0.326315 231 221 217
0.216577 -0.571617 0.322594 232 223 222
0.220864 -0.572277 0.322104 233 225 223
0.233682 -0.569001 0.318686 233 225 223
0.287656 -0.569688 0.310966 230 221 219
0.316774 -0.567923 0.306698 232 223 222
-0.1839 -0.622044 0.468422 64 58 55
-0.113478 -0.565194 0.415843 201 191 185
-0.0780244 -0.567619 0.402326 176 163 158
-0.0607198 -0.568119 0.395791 219 208 205
-0.0325161 -0.568233 0.385337 220 209 206
-0.0307379 -0.568712 0.384888 219 208 205
-0.00193204 -0.57353 0.376794 222 211 208
0.0071107 -0.574291 0.374082 223 212 209
0.019806 -0.57356 0.369648 222 211 208
0.0234434 -0.572226 0.36794 223 212 209
0.0252063 -0.573392 0.367857 223 212 209
0.0413128 -0.572471 0.362481 225 214 210
0.0466689 -0.572954 0.361061 226 215 212
0.0627579 -0.574003 0.356764 226 215 212
0.0915007 -0.575316 0.349356 227 216 213
0.0949638 -0.5743 0.348029 228 217 216
0.114932 -0.575154 0.34328 225 217 213
0.118344 -0.573947 0.341953 228 219 217
0.125665 -0.574226 0.340291 228 217 216
0.129428 -0.574782 0.339619 226 214 214
0.153654 -0.568604 0.331639 164 89 73
0.159447 -0.56952 0.330751 184 102 86
0.168813 -0.569663 0.328833 225 212 209
0.172626 -0.569847 0.328119 225 214 210
0.18175 -0.568801 0.325869 229 218 215
0.215447 -0.570565 0.320245 230 221 219
0.221497 -0.570664 0.319227 233 225 223
0.253335 -0.57253 0.314744 235 226 224
0.286785 -0.569605 0.30886 230 221 219
-0.182598 -0.624081 0.465872 0 0 0
-0.173022 -0.61935 0.459837 69 62 60
-0.16831 -0.625949 0.460255 80 74 72
-0.167601 -0.63034 0.461608 78 72 69
-0.146164 -0.612533 0.44555 61 53 49
-0.100205 -0.567294 0.408833 208 197 194
-0.0940743 -0.566991 0.406218 209 198 195
-0.0668282 -0.567877 0.395788 209 195 193
-0.0445081 -0.570389 0.388362 219 208 205
-0.0292316 -0.568087 0.381889 221 210 207
-0.00229983 -0.572408 0.374268 222 211 210
0.00838732 -0.575312 0.371882 223 212 209
0.0120838 -0.574074 0.370172 223 212 209
0.0264901 -0.574331 0.365661 223 212 209
0.028282 -0.57456 0.365191 223 212 209
0.0479387 -0.572871 0.358495 225 214 210
0.0532216 -0.571404 0.356338 225 214 210
0.0676431 -0.57492 0.353595 227 216 213
0.0694335 -0.574977 0.353112 224 216 212
0.0999928 -0.575747 0.345165 227 216 215
0.127186 -0.575675 0.338376 225 213 212
0.162809 -0.570487 0.328305 154 94 82
0.177502 -0.569402 0.324843 227 216 213
0.260922 -0.572126 0.311272 228 222 219
0.275166 -0.570202 0.308495 231 224 222
0.280954 -0.568628 0.307118 231 224 222
0.283195 -0.568652 0.306819 232 223 222
0.297509 -0.566 0.303975 232 223 222
0.314961 -0.567823 0.302452 231 222 221
-0.171403 -0.626526 0.459118 110 101 100
-0.161818 -0.633617 0.457612 80 74 72
-0.144654 -0.6075 0.440407 55 49 44
-0.114688 -0.566672 0.412266 198 185 183
-0.104095 -0.565608 0.407474 205 194 191
-0.0847622 -0.567868 0.40054 176 163 158
-0.0727289 -0.566676 0.395351 195 182 177
-0.0709531 -0.567321 0.394914 210 197 192
-0.0636297 -0.568945 0.392732 211 198 193
-0.0373037 -0.569565 0.383179 221 210 207
-0.0352329 -0.568257 0.381913 220 209 206
-0.0336 -0.569645 0.381873 220 209 206
-0.0211086 -0.57284 0.378706 221 210 207
-0.000882088 -0.571621 0.371293 223 212 211
0.000900513 -0.571962 0.370833 223 212 211
0.00606968 -0.575699 0.37061 223 212 211
0.0115679 -0.574772 0.36844 223 212 209
0.026026 -0.573175 0.363178 223 212 209
0.0438938 -0.574192 0.35809 225 214 210
0.0654289 -0.576481 0.352704 225 214 210
0.0743259 -0.575797 0.349931 224 216 212
0.0870739 -0.577702 0.34721 227 216 215
0.105185 -0.578055 0.342613 225 216 215
0.117765 -0.577204 0.33913 225 216 215
0.140099 -0.578598 0.334371 132 83 76
0.14684 -0.575734 0.331723 132 69 54
0.149483 -0.571492 0.329482 143 78 59
0.188032 -0.574391 0.32255 233 221 221
0.190124 -0.574857 0.322318 234 223 222
0.199818 -0.56934 0.318373 236 225 224
0.22534 -0.573608 0.315391 236 227 225
0.252196 -0.568941 0.309282 233 227 224
0.260517 -0.572861 0.309433 229 223 221
0.293092 -0.567671 0.302965 230 221 219
0.320412 -0.566478 0.299133 230 221 219
-0.110864 -0.566493 0.408298 204 193 190
-0.109081 -0.567303 0.407868 204 193 190
-0.106743 -0.566393 0.406564 204 193 190
-0.0937176 -0.570042 0.402666 178 165 163
-0.048841 -0.568929 0.384941 219 206 203
-0.00889352 -0.574536 0.372966 222 211 208
-0.00701179 -0.573993 0.372114 222 211 208
0.00740666 -0.575783 0.36802 222 211 208
0.00914727 -0.577011 0.367935 222 211 208
0.0290641 -0.576166 0.361256 223 212 209
0.0487911 -0.576249 0.355296 225 214 210
0.0557655 -0.572064 0.351597 225 214 210
0.0722749 -0.579252 0.349726 226 215 212
0.0812004 -0.578419 0.346939 227 216 215
0.10514 -0.581546 0.341854 226 218 216
0.119102 -0.577742 0.336883 224 215 214
0.141235 -0.578123 0.331793 134 75 59
0.143941 -0.573913 0.329554 127 69 50
0.148579 -0.57033 0.327134 141 76 57
0.154399 -0.564545 0.323635 172 97 79
0.166279 -0.573944 0.324684 217 192 189
0.197633 -0.570521 0.317119 211 198 193
0.247006 -0.568427 0.307773 230 221 221
0.255754 -0.569105 0.30665 227 220 220
0.285946 -0.568451 0.30203 235 226 224
0.293488 -0.565847 0.300105 232 223 222
-0.233058 -0.611916 0.476331 70 66 62
-0.18381 -0.630255 0.460494 112 104 100
-0.13343 -0.581484 0.42096 23 14 12
-0.128806 -0.574812 0.416549 121 110 107
-0.124545 -0.568947 0.412591 200 187 185
-0.118865 -0.564742 0.40866 197 184 181
-0.0912619 -0.567145 0.39831 194 179 175
-0.0568612 -0.569164 0.385797 217 204 201
-0.036464 -0.57054 0.37885 221 208 206
-0.0236058 -0.571057 0.374493 220 209 206
-0.0219446 -0.572401 0.374433 220 209 206
-0.00914298 -0.572471 0.370062 220 209 206
0.0142631 -0.57394 0.362906 222 211 208
0.0736717 -0.580906 0.347836 227 216 213
0.0993607 -0.583423 0.34192 225 213 212
0.186589 -0.579865 0.32063 200 176 173
0.18839 -0.579428 0.32011 200 176 173
0.190498 -0.579892 0.319867 200 176 173
0.245655 -0.571569 0.306984 198 190 188
0.285666 -0.573424 0.301629 222 213 211
0.306884 -0.562728 0.295144 236 227 225
-0.207718 -0.636015 0.470395 140 129 125
-0.196782 -0.63532 0.465281 124 115 114
-0.121544 -0.565449 0.407734 191 179 172
-0.0518985 -0.57065 0.382306 218 205 200
-0.0240167 -0.570822 0.372367 219 208 205
0.0566565 -0.575376 0.348381 226 215 212
0.252661 -0.57457 0.304786 179 168 167
-0.238113 -0.625104 0.47765 73 67 67
-0.194556 -0.629662 0.459555 116 107 105
-0.186445 -0.623058 0.453673 109 98 95
-0.163082 -0.597361 0.43444 96 88 84
-0.102092 -0.567406 0.398209 203 190 187
-0.0631013 -0.567871 0.383223 214 202 197
-0.0157538 -0.57449 0.368736 220 209 206
0.0113496 -0.576852 0.360648 221 210 207
0.0203292 -0.578187 0.358297 223 212 209
0.0293289 -0.579336 0.355927 223 212 209
0.0456625 -0.585616 0.353373 222 211 208
0.0492089 -0.582144 0.351004 218 207 203
0.0867764 -0.595439 0.345489 179 164 160
0.12543 -0.591421 0.33412 102 87 83
0.139249 -0.577367 0.32561 117 69 55
0.244026 -0.589794 0.309373 110 102 98
0.251709 -0.578609 0.304195 116 107 103
0.264136 -0.581946 0.303388 141 133 129
0.276765 -0.576461 0.299595 147 138 137
0.300447 -0.578093 0.296799 180 171 169
-0.24108 -0.635166 0.47959 78 72 69
-0.195964 -0.620776 0.454382 121 110 107
-0.152732 -0.582749 0.422371 70 62 60
-0.136614 -0.569979 0.411038 135 124 121
-0.12214 -0.565145 0.403287 194 181 174
-0.108559 -0.567478 0.398573 196 183 180
-0.0876605 -0.571357 0.391679 207 195 190
-0.0515746 -0.574348 0.37915 213 200 196
-0.00178075 -0.576256 0.362543 221 210 209
0.0270005 -0.580715 0.355013 212 201 198
0.0378665 -0.58845 0.354599 202 188 186
0.0544024 -0.589734 0.350189 183 170 165
0.0562416 -0.589839 0.349695 178 165 161
0.0637653 -0.593001 0.348728 172 157 153
0.0960645 -0.599677 0.342415 132 119 116
0.098062 -0.600553 0.34222 131 115 114
0.140326 -0.553734 0.314585 130 76 57
0.146106 -0.542144 0.309059 143 78 59
0.150152 -0.54433 0.308972 158 88 71
0.164066 -0.562089 0.312448 171 93 85
0.174835 -0.579392 0.31646 170 98 91
0.217142 -0.582101 0.309194 124 114 108
0.23134 -0.586611 0.308243 123 114 110
0.248307 -0.586689 0.305379 125 117 113
0.260935 -0.5859 0.303059 124 117 113
0.264226 -0.579281 0.300281 126 118 114
0.302337 -0.578745 0.294553 131 122 119
0.552972 -0.913951 0.371558 224 215 216
-0.234765 -0.638633 0.475034 68 60 56
-0.176568 -0.594075 0.434113 103 93 89
-0.146422 -0.571951 0.41353 149 136 132
-0.106816 -0.567219 0.395516 200 187 185
-0.101221 -0.568664 0.393796 203 190 185
-0.0765871 -0.572569 0.385611 210 197 190
-0.0408833 -0.575446 0.373494 193 115 107
-0.0390914 -0.575943 0.373039 196 121 110
0.0226588 -0.588392 0.357055 195 181 179
0.035507 -0.595496 0.355745 183 168 164
0.112335 -0.610904 0.340159 98 85 80
0.125056 -0.606079 0.335237 78 62 58
0.137796 -0.568167 0.318405 115 69 57
0.171223 -0.575832 0.313828 175 95 93
0.210246 -0.581726 0.308193 122 111 108
0.250524 -0.588456 0.303428 125 117 113
0.251536 -0.585987 0.302419 125 117 113
0.268295 -0.580177 0.297783 130 121 117
-0.198714 -0.603818 0.444572 133 122 119
-0.178762 -0.587712 0.430415 107 96 93
-0.170929 -0.580901 0.424713 96 87 86
-0.162137 -0.57665 0.419479 136 125 122
-0.155293 -0.571236 0.414706 150 139 136
-0.149949 -0.569052 0.411684 164 151 149
-0.121265 -0.566499 0.39885 194 184 178
-0.114766 -0.565558 0.395879 195 182 177
-0.110656 -0.565446 0.394182 195 182 177
-0.105354 -0.5678 0.392884 200 188 183
-0.0727104 -0.570962 0.381345 212 199 194
-0.0687319 -0.570428 0.379659 213 200 196
-0.0396377 -0.576597 0.371279 200 110 106
-0.0228297 -0.576143 0.365257 217 204 201
-0.0138656 -0.578161 0.362948 218 205 202
-0.00495294 -0.580921 0.360984 206 193 191
0.00382909 -0.586291 0.360075 196 181 177
0.00719276 -0.59156 0.360917 192 176 172
0.0330602 -0.605354 0.35789 158 143 139
0.0406183 -0.601387 0.354161 133 120 115
0.0616449 -0.608393 0.350596 116 102 100
0.069217 -0.60771 0.348209 120 107 105
0.0792406 -0.613517 0.347558 117 107 103
0.0811684 -0.613523 0.347035 117 107 103
0.104016 -0.625312 0.345266 109 95 93
0.125771 -0.613336 0.33546 78 62 58
0.141049 -0.540185 0.305615 140 75 56
0.189207 -0.580076 0.309552 125 61 49
0.193951 -0.57685 0.307488 152 95 84
0.229762 -0.591292 0.305779 122 113 109
0.239477 -0.59923 0.306771 123 114 110
0.240579 -0.596788 0.305748 122 113 109
0.281899 -0.590652 0.296987 130 121 117
0.300901 -0.591397 0.294442 128 122 117
-0.0371353 -0.244978 0.252915 91 83 77
-0.0370583 -0.24724 0.253594 92 86 81
-0.237313 -0.621404 0.464962 119 108 105
-0.169289 -0.571544 0.41846 142 129 125
-0.158791 -0.568271 0.41285 174 161 154
-0.152361 -0.568764 0.410276 183 168 164
-0.150225 -0.568906 0.409419 187 172 168
-0.123633 -0.56632 0.397487 195 182 177
-0.100613 -0.570749 0.389792 202 192 186
-0.0947487 -0.571215 0.387658 205 192 188
-0.0653306 -0.5705 0.376222 213 200 196
-0.0484452 -0.571054 0.370253 169 96 93
-0.0401841 -0.577244 0.369517 194 104 100
-0.0165131 -0.581185 0.362762 194 179 175
0.00817576 -0.598114 0.360764 164 147 141
0.030652 -0.603945 0.355862 113 100 98
0.106382 -0.632521 0.344934 97 84 79
0.11351 -0.62641 0.340925 85 72 70
0.11959 -0.626927 0.339585 78 65 61
0.146442 -0.536835 0.301329 167 93 75
0.150196 -0.538082 0.300948 170 93 76
0.162094 -0.555286 0.304415 184 100 87
0.20699 -0.576703 0.30283 121 110 107
0.210153 -0.579792 0.303289 118 110 106
0.242063 -0.601944 0.305005 122 113 109
0.250071 -0.605246 0.304724 124 115 112
0.553656 -0.956675 0.373122 194 185 183
-0.0467681 -0.258073 0.26077 143 131 124
-0.224036 -0.601552 0.449921 133 122 116
-0.1329 -0.567759 0.399501 193 177 174
-0.130805 -0.567794 0.398652 191 178 174
-0.0968468 -0.57026 0.385912 203 190 185
-0.0874532 -0.572059 0.382904 206 193 189
-0.0791637 -0.570322 0.379146 210 197 192
-0.0698533 -0.571717 0.376138 210 197 192
-0.0407304 -0.577883 0.367753 184 100 96
-0.0216969 -0.589328 0.365226 174 154 149
0.0513996 -0.620557 0.353393 116 106 100
0.0675042 -0.628848 0.351751 115 105 99
0.0941665 -0.636492 0.347197 105 94 89
0.102464 -0.638124 0.345598 98 87 84
0.11172 -0.631946 0.341031 80 69 66
0.113716 -0.63182 0.34048 79 67 62
0.120008 -0.633278 0.339415 78 65 61
0.136592 -0.596086 0.322319 90 77 72
0.144414 -0.537704 0.30018 167 92 77
0.147412 -0.536177 0.298993 170 95 77
0.151937 -0.540201 0.299401 173 97 79
0.154095 -0.541732 0.299465 175 98 80
0.227734 -0.600174 0.304751 119 111 107
0.273588 -0.618579 0.302895 122 116 112
0.301532 -0.608392 0.295253 128 123 115
0.540935 -0.959983 0.371824 139 133 126
-0.0430948 -0.254538 0.257233 87 82 75
-0.0589989 -0.28374 0.273526 159 144 138
-0.191135 -0.571934 0.423331 141 128 125
-0.11654 -0.567523 0.390522 194 181 176
-0.107113 -0.56976 0.387531 199 186 184
-0.0931026 -0.569709 0.382053 204 191 186
-0.0875366 -0.57093 0.380333 205 192 188
-0.0644676 -0.571464 0.371875 214 198 194
-0.0261635 -0.590965 0.365104 155 131 125
0.013696 -0.620248 0.362366 109 96 91
0.0293111 -0.625038 0.359235 112 99 96
0.0491942 -0.632444 0.355929 113 102 97
0.090192 -0.642948 0.348169 103 93 87
0.106103 -0.639587 0.342813 86 75 70
0.110015 -0.638427 0.341403 81 71 65
0.119798 -0.635859 0.338037 84 73 70
0.126986 -0.630451 0.334378 82 72 66
0.131812 -0.613626 0.327368 90 77 74
0.140052 -0.542855 0.301024 149 79 62
0.157506 -0.543491 0.297418 182 103 86
0.174497 -0.552491 0.296922 110 39 29
0.232901 -0.598979 0.301208 119 111 107
0.297168 -0.615263 0.29577 130 121 117
-0.214808 -0.57892 0.433575 137 129 122
-0.211674 -0.577804 0.431831 131 121 115
-0.183347 -0.565207 0.415409 172 157 151
-0.179395 -0.566597 0.414133 176 164 156
-0.169573 -0.565159 0.409447 179 164 158
-0.165274 -0.565588 0.407748 180 165 161
-0.133786 -0.568215 0.395466 191 178 174
-0.129279 -0.567412 0.393369 192 179 177
-0.0807602 -0.573368 0.376389 207 195 190
-0.0650226 -0.572087 0.370117 210 195 189
-0.0602928 -0.567829 0.366941 181 157 149
-0.0525283 -0.566412 0.363653 125 65 53
-0.0504214 -0.565125 0.362458 122 60 47
-0.0186499 -0.60389 0.364828 99 81 78
-0.00979735 -0.612341 0.364828 108 91 87
-0.00812735 -0.615506 0.365379 108 91 87
-0.00627244 -0.616801 0.365224 108 90 89
-0.000726272 -0.621579 0.365088 108 92 89
0.00689523 -0.62661 0.364404 109 93 92
0.0406645 -0.634412 0.356774 109 99 93
0.0712956 -0.643585 0.351168 119 108 103
0.0974688 -0.640604 0.343057 85 74 69
0.109219 -0.637222 0.338843 80 70 64
0.111094 -0.636157 0.337998 80 70 64
0.117417 -0.637643 0.336912 87 77 71
0.129934 -0.617324 0.326853 84 71 68
0.136571 -0.544892 0.300591 138 72 57
0.143362 -0.537899 0.296695 167 92 77
0.145611 -0.533571 0.294737 170 95 79
0.163148 -0.546704 0.29538 120 47 37
0.16985 -0.551113 0.295454 81 10 2
0.173371 -0.545288 0.292789 134 68 54
0.177288 -0.546292 0.292329 150 84 70
0.266398 -0.62145 0.300371 122 116 112
0.290887 -0.618616 0.295471 126 118 114
0.301761 -0.625501 0.295928 126 120 115
-0.187943 -0.564446 0.414819 170 158 151
-0.180434 -0.568076 0.412695 175 162 155
-0.170204 -0.565816 0.407602 179 164 158
-0.159473 -0.566798 0.403368 183 169 162
-0.151301 -0.568217 0.400403 183 170 167
-0.139355 -0.565311 0.394539 189 174 172
-0.131645 -0.567178 0.391998 191 178 174
-0.123322 -0.567177 0.388644 192 179 175
-0.115656 -0.568738 0.386101 196 183 180
-0.104179 -0.570809 0.382278 200 187 185
-0.0840558 -0.576894 0.376601 209 194 190
-0.0505982 -0.563905 0.359991 130 68 55
-0.04589 -0.568185 0.359767 145 75 62
-0.034292 -0.601041 0.366876 105 79 74
-0.00971788 -0.62737 0.367652 109 92 89
0.0462552 -0.642185 0.355448 134 121 116
0.0483326 -0.644221 0.355541 135 122 118
0.0503488 -0.643406 0.354676 135 122 118
0.105042 -0.640959 0.338852 81 71 65
0.126418 -0.623102 0.327418 79 67 62
0.133731 -0.557488 0.303552 125 63 50
0.134355 -0.552539 0.301747 127 66 52
0.146566 -0.532881 0.292431 170 95 77
0.148423 -0.533503 0.292232 172 97 79
0.227204 -0.593702 0.296159 119 113 108
0.266841 -0.634349 0.302046 123 114 110
0.268719 -0.623148 0.298192 121 115 112
0.271512 -0.624137 0.298031 124 115 114
0.277635 -0.617398 0.294903 122 117 110
0.299298 -0.646415 0.300413 125 117 113
-0.170065 -0.564821 0.404917 178 163 156
-0.15546 -0.566918 0.399432 183 168 166
-0.135438 -0.56519 0.390652 189 176 171
-0.108301 -0.569902 0.381369 199 186 184
-0.102166 -0.569546 0.378873 203 190 187
-0.0933084 -0.573177 0.376662 202 187 181
-0.0544142 -0.562524 0.358787 120 62 50
-0.0406877 -0.58962 0.362993 180 99 90
0.00731288 -0.635767 0.362698 115 99 96
0.0193559 -0.638377 0.359839 132 119 116
0.0661655 -0.645792 0.3486 138 124 122
0.0701941 -0.644947 0.347189 127 116 113
0.0804821 -0.646014 0.344719 107 96 91
0.0849233 -0.649805 0.344794 100 89 84
0.0968388 -0.645761 0.340257 74 61 52
0.12416 -0.648933 0.334341 95 81 79
0.166633 -0.538894 0.288253 145 77 59
-0.180919 -0.567754 0.408118 171 159 152
-0.172845 -0.565235 0.403917 176 162 155
-0.166397 -0.565875 0.401392 178 162 158
-0.157844 -0.566569 0.39803 182 167 163
-0.139544 -0.564017 0.389711 188 174 172
-0.125954 -0.566715 0.385088 190 177 172
-0.122742 -0.569254 0.384615 190 177 172
-0.104508 -0.569407 0.377532 200 188 183
-0.100705 -0.570015 0.376264 192 175 169
-0.093117 -0.578045 0.375959 173 151 149
-0.0856797 -0.579914 0.37377 163 139 133
-0.0680379 -0.571507 0.364535 78 47 44
-0.0437804 -0.572202 0.35612 168 90 75
-0.0340241 -0.619908 0.368526 113 88 85
-0.0319457 -0.619444 0.367671 112 87 84
-0.00337348 -0.635751 0.36371 130 113 110
0.0369943 -0.642879 0.353657 163 150 146
0.0636147 -0.647348 0.34746 137 127 121
0.0719425 -0.649464 0.345841 122 111 108
0.091045 -0.655157 0.342547 84 74 66
0.116252 -0.655948 0.336264 85 75 67
0.142072 -0.532682 0.289648 163 88 70
0.143178 -0.530512 0.288699 163 86 69
0.155098 -0.531056 0.28628 181 107 87
0.191631 -0.550756 0.285104 180 104 84
-0.205687 -0.560306 0.414277 161 149 139
-0.195599 -0.563788 0.410905 166 153 146
-0.185104 -0.566199 0.407106 171 159 152
-0.177394 -0.564566 0.403336 174 161 154
-0.120952 -0.568957 0.381592 196 183 180
-0.100856 -0.575769 0.375952 160 140 137
-0.0581501 -0.558953 0.354778 123 67 49
-0.0276189 -0.628877 0.366986 113 94 89
-0.0121592 -0.636835 0.36452 156 139 133
-0.00215496 -0.639569 0.362209 164 146 143
0.0262465 -0.643487 0.354699 174 160 158
0.0323613 -0.643163 0.352757 170 157 155
0.0824174 -0.658784 0.343653 99 89 81
0.132231 -0.550433 0.295741 126 64 53
0.137767 -0.53096 0.288214 156 81 65
0.417278 -0.994028 0.377703 120 114 109
0.462692 -0.995962 0.370453 122 116 112
0.468284 -0.998901 0.370402 125 117 113
-0.202822 -0.563324 0.411558 161 149 139
-0.180588 -0.565753 0.402735 173 160 153
-0.133152 -0.561913 0.382047 188 178 172
-0.104041 -0.578279 0.375736 140 120 118
-0.0678736 -0.559406 0.356347 51 8 7
-0.065732 -0.558176 0.355182 47 4 2
-0.0629739 -0.554212 0.352928 68 23 18
-0.0345379 -0.630947 0.367609 140 122 117
-0.0252435 -0.638795 0.367048 164 148 144
0.0589984 -0.662814 0.349034 145 132 127
0.0634973 -0.668699 0.349674 139 126 121
0.0701216 -0.672694 0.349119 123 114 110
0.142901 -0.731128 0.348972 79 67 60
0.130853 -0.597825 0.309244 90 19 21
0.131119 -0.563748 0.298316 115 55 46
0.140916 -0.525915 0.28408 164 89 71
0.144054 -0.525314 0.283195 171 96 80
0.147187 -0.524686 0.282309 177 100 85
0.168905 -0.529632 0.279253 192 116 94
0.180981 -0.539487 0.279854 187 111 91
-0.204793 -0.561972 0.409683 160 147 140
-0.188562 -0.567158 0.40421 171 156 149
-0.180817 -0.565553 0.400469 171 159 152
-0.15536 -0.563519 0.389298 182 167 163
-0.138568 -0.564166 0.382691 188 175 170
-0.127548 -0.562489 0.377802 162 149 146
-0.117385 -0.568286 0.37558 137 126 123
-0.074003 -0.559978 0.35667 63 13 14
-0.0613948 -0.545675 0.347637 103 47 39
-0.0465055 -0.601698 0.360035 175 95 83
0.0572679 -0.68916 0.355523 149 136 132
0.0973396 -0.762295 0.367849 71 61 53
0.107377 -0.786016 0.372742 60 51 40
0.121703 -0.818104 0.379202 66 58 51
0.141102 -0.71167 0.34054 191 180 177
0.166223 -0.533735 0.279232 189 112 90
0.168817 -0.531072 0.277878 194 118 96
-0.200622 -0.562548 0.405719 162 150 140
-0.194495 -0.564394 0.403622 164 152 145
-0.151745 -0.564338 0.385831 186 170 167
-0.145788 -0.565445 0.383751 178 165 163
-0.132921 -0.56481 0.37843 146 133 128
-0.130848 -0.564808 0.37761 142 129 127
-0.123956 -0.574217 0.377717 121 110 109
-0.0865128 -0.576903 0.36435 90 29 26
-0.0482028 -0.608769 0.360584 170 92 80
-0.0427902 -0.624696 0.36371 189 174 170
-0.0304713 -0.639192 0.364126 195 182 177
-0.0205717 -0.643212 0.362142 191 178 174
-0.0126088 -0.646665 0.360657 187 173 171
-0.0105633 -0.647037 0.360119 185 172 170
-0.000912437 -0.657283 0.360289 184 171 167
0.00117357 -0.65761 0.359739 184 171 167
0.0071813 -0.663279 0.359656 181 168 163
0.0176362 -0.667519 0.357787 180 166 164
0.032416 -0.684353 0.358666 167 157 153
0.043653 -0.708156 0.362884 168 155 152
0.125061 -0.852404 0.385978 81 70 67
0.128142 -0.854184 0.385736 87 78 74
0.139396 -0.852582 0.382341 143 134 130
0.13245 -0.622027 0.312126 98 28 27
0.135176 -0.526823 0.282039 143 73 56
0.135806 -0.522775 0.280651 154 81 67
0.140714 -0.522852 0.279573 171 94 77
0.190653 -0.544607 0.275698 191 112 94
-0.159436 -0.566251 0.387272 181 166 162
-0.126104 -0.579158 0.377789 103 94 93
-0.114147 -0.574446 0.371792 99 88 85
-0.0962628 -0.581899 0.367279 104 43 40
-0.0891091 -0.5777 0.363372 92 28 30
-0.054983 -0.545224 0.341221 140 79 63
-0.0533981 -0.554512 0.343498 150 85 66
-0.0444309 -0.619233 0.360254 192 179 175
-0.0181622 -0.655 0.362626 191 178 176
0.0157166 -0.705275 0.367648 167 157 153
0.0199412 -0.717233 0.37009 172 161 158
0.0266497 -0.733229 0.373057 165 154 151
0.133216 -0.855715 0.381635 184 178 173
0.13892 -0.855367 0.380067 193 184 182
0.130332 -0.594577 0.302009 82 11 12
0.128251 -0.549941 0.288868 122 65 52
0.136494 -0.52109 0.278201 165 90 74
0.154111 -0.525422 0.275626 185 109 89
0.155953 -0.526 0.275403 185 109 89
0.17023 -0.533525 0.274645 198 124 101
0.189916 -0.544208 0.273824 190 112 90
0.191477 -0.538618 0.271874 178 102 82
-0.205409 -0.561412 0.402821 161 148 141
-0.186225 -0.565183 0.395753 164 152 145
-0.114713 -0.568952 0.368205 96 83 78
-0.08768 -0.571067 0.358707 88 22 22
-0.0728677 -0.543812 0.345202 71 15 9
-0.0552933 -0.544821 0.339227 145 79 62
-0.0361351 -0.614292 0.353673 192 168 165
-0.0329514 -0.619875 0.354312 192 168 165
-0.028437 -0.647893 0.361355 200 188 183
-0.0267262 -0.651146 0.361788 196 183 178
-0.0110644 -0.689692 0.368532 185 172 168
-0.00750735 -0.701798 0.371114 188 175 170
-0.000131173 -0.730731 0.377672 180 167 162
0.0579121 -0.848184 0.396472 145 134 131
0.0786108 -0.865199 0.395866 173 162 159
0.0849471 -0.873932 0.396789 170 159 156
0.0908618 -0.874946 0.395477 167 157 153
0.110481 -0.866127 0.387492 196 187 186
0.116778 -0.87076 0.387239 204 195 194
0.128423 -0.578725 0.295591 62 1 0
0.131899 -0.531169 0.280488 127 63 46
0.134088 -0.519955 0.276634 155 83 66
0.138954 -0.520042 0.275562 177 98 82
-0.216656 -0.563553 0.405888 156 144 135
-0.208689 -0.562417 0.402179 161 148 141
-0.192105 -0.562448 0.39518 163 151 144
-0.126669 -0.57856 0.373369 99 93 90
-0.105969 -0.56548 0.36173 110 64 55
-0.0958496 -0.577653 0.361494 105 35 34
-0.0616208 -0.532612 0.33588 130 66 54
-0.0598036 -0.532236 0.335123 141 75 61
-0.0521457 -0.580676 0.346796 167 95 76
-0.0288081 -0.663998 0.363908 174 161 156
-0.0251077 -0.710996 0.376839 177 164 160
0.0259706 -0.856309 0.404964 142 131 128
0.0345128 -0.86665 0.405571 151 140 137
0.0846462 -0.882485 0.396105 195 186 185
0.148845 -0.875623 0.377103 172 163 161
0.150595 -0.867733 0.374302 167 158 157
0.146557 -0.823474 0.362079 146 138 134
0.130127 -0.532856 0.279583 125 62 47
0.16016 -0.526782 0.271133 182 110 89
0.169033 -0.538651 0.272701 192 118 95
0.173562 -0.536448 0.271122 198 124 99
0.175793 -0.537866 0.271071 196 123 98
-0.213279 -0.561396 0.401551 159 144 138
-0.179874 -0.560275 0.387253 150 138 133
-0.168259 -0.563992 0.383512 121 110 107
-0.157477 -0.579489 0.383434 102 91 90
-0.105364 -0.556414 0.356791 107 60 53
-0.102245 -0.558753 0.356288 124 68 60
-0.0937949 -0.569225 0.356151 103 35 31
-0.0904936 -0.564513 0.353587 81 17 16
-0.0715296 -0.535756 0.33841 132 68 56
-0.0584876 -0.532335 0.332768 155 84 69
-0.0577252 -0.536524 0.333718 156 85 71
-0.00605872 -0.851514 0.409915 156 143 139
-9.69159e-05 -0.846576 0.406618 158 148 142
0.00772656 -0.863883 0.409389 159 148 145
0.0106429 -0.863271 0.408327 160 150 146
0.0510923 -0.868741 0.398062 183 175 171
0.0811746 -0.888113 0.395358 168 159 158
0.144247 -0.891303 0.379561 119 111 107
0.125512 -0.552629 0.284617 113 58 47
0.164667 -0.532079 0.269892 187 115 94
-0.216126 -0.561555 0.400491 156 144 137
-0.191658 -0.560332 0.389895 152 139 134
-0.166144 -0.568236 0.381573 101 92 90
-0.164386 -0.56923 0.381136 101 92 90
-0.140772 -0.585831 0.376361 98 91 89
-0.0817648 -0.5456 0.342956 66 5 5
-0.078865 -0.541701 0.340798 61 5 0
-0.0692465 -0.532273 0.334655 135 69 55
-0.0639951 -0.532122 0.33274 143 74 61
-0.0591971 -0.53373 0.331504 158 88 73
-0.0400481 -0.604786 0.345447 148 61 63
-0.0415058 -0.758595 0.390648 167 154 147
0.0563246 -0.878551 0.396124 145 134 131
0.0871982 -0.902527 0.394526 140 132 128
0.0993847 -0.903503 0.391495 131 122 119
0.114729 -0.905163 0.387874 111 103 99
0.121009 -0.906892 0.386721 113 105 101
0.1277 -0.602731 0.296634 65 12 12
0.152899 -0.517209 0.2664 186 112 91
0.178538 -0.538864 0.267081 196 119 97
-0.194004 -0.555403 0.387342 127 116 111
-0.170428 -0.562411 0.379521 98 91 89
-0.166956 -0.564423 0.378656 101 92 90
-0.140884 -0.590759 0.375481 91 83 79
-0.0962787 -0.543545 0.3457 120 67 53
-0.0757693 -0.535545 0.335987 118 58 46
-0.0736713 -0.534321 0.33489 138 75 60
-0.0550552 -0.588762 0.343733 157 79 67
-0.0445153 -0.605318 0.344883 163 70 70
-0.0261902 -0.868594 0.41452 167 157 149
0.0441077 -0.912347 0.406028 0 0 0
0.0588771 -0.893969 0.396498 118 110 106
0.116211 -0.929145 0.390924 124 115 112
0.127836 -0.529496 0.273733 123 59 47
0.129874 -0.524221 0.271771 134 68 54
0.155857 -0.517862 0.264197 185 116 94
0.174285 -0.538378 0.265975 193 119 94
-0.188164 -0.561179 0.384182 93 87 84
-0.188525 -0.566383 0.385662 96 89 87
-0.169048 -0.577933 0.380801 102 93 91
-0.162598 -0.594118 0.382505 100 91 89
-0.157467 -0.592629 0.380107 98 89 88
-0.140832 -0.589569 0.372867 84 78 73
-0.137688 -0.586958 0.370967 83 77 72
-0.0716062 -0.531733 0.331509 136 72 57
-0.0692995 -0.529569 0.33009 136 70 56
-0.0613527 -0.532304 0.32804 161 90 75
-0.0435086 -0.608209 0.343154 175 72 77
-0.0497207 -0.86137 0.416563 173 160 153
-0.0275919 -0.87608 0.413727 158 148 142
0.1343 -0.95737 0.390608 127 119 115
0.14113 -0.959919 0.389557 127 119 115
0.124032 -0.553115 0.279424 109 57 45
0.124525 -0.539269 0.275444 113 58 47
0.125105 -0.534256 0.27391 117 60 45
0.144953 -0.515704 0.264238 191 112 94
0.148262 -0.515973 0.263583 191 114 95
0.159989 -0.52223 0.262757 187 118 94
0.162419 -0.524645 0.262897 186 117 93
0.187802 -0.542985 0.262599 187 111 89
-0.191562 -0.576283 0.387136 97 91 86
-0.175213 -0.57103 0.379219 99 93 88
-0.173241 -0.576447 0.379818 101 92 90
-0.164319 -0.597248 0.381667 98 90 86
-0.150118 -0.589966 0.374266 92 86 81
-0.148287 -0.590888 0.373802 93 84 80
-0.124646 -0.562017 0.357192 85 74 69
-0.0866835 -0.533692 0.335548 121 64 51
-0.0821587 -0.530435 0.33303 109 51 41
-0.0602516 -0.533288 0.326024 168 93 78
-0.0571055 -0.542215 0.327374 173 100 84
-0.0545528 -0.554843 0.329957 168 95 79
-0.0381146 -0.608257 0.339176 171 60 68
0.0144742 -0.925144 0.411274 103 97 92
0.0492906 -0.962646 0.411629 137 131 127
0.129272 -0.97978 0.394495 134 126 124
0.135686 -0.977558 0.3922 123 114 112
0.139229 -0.979319 0.391769 122 113 111
0.156349 -0.982128 0.38815 118 110 106
0.117734 -0.61017 0.2948 98 36 37
0.124394 -0.604539 0.291608 83 14 15
0.126472 -0.595455 0.288599 72 11 9
0.123909 -0.538764 0.273625 112 57 48
0.127741 -0.526314 0.269311 123 65 48
0.12864 -0.523194 0.268249 131 68 51
0.132357 -0.518573 0.266128 172 97 79
0.158442 -0.518917 0.260434 190 120 98
-0.210976 -0.554608 0.387484 93 84 78
-0.202827 -0.561253 0.385728 95 86 82
-0.197593 -0.569069 0.385503 93 87 82
-0.149794 -0.599305 0.374274 89 81 77
-0.109329 -0.540021 0.343603 107 56 46
-0.104552 -0.537032 0.341044 112 59 45
-0.097059 -0.531102 0.336718 119 64 51
-0.0911444 -0.529518 0.334132 130 73 60
-0.0567903 -0.546885 0.326592 171 99 82
-0.0537035 -0.604916 0.34124 180 80 79
-0.0485726 -0.609233 0.340697 176 76 78
-0.0379253 -0.616766 0.339235 165 62 65
-0.0364236 -0.620043 0.339638 171 73 76
-0.00208418 -0.927089 0.413201 103 97 92
0.000738321 -0.934193 0.414307 104 98 93
0.0161483 -0.949403 0.413904 107 98 94
0.0814465 -0.973479 0.401879 122 116 112
0.136032 -0.989084 0.391521 100 90 91
0.127557 -0.5277 0.26796 123 65 48
0.146426 -0.51305 0.259749 191 115 93
0.147664 -0.511763 0.259134 189 116 93
-0.209617 -0.564314 0.386998 91 83 79
-0.169975 -0.608656 0.382068 104 95 94
-0.131438 -0.572738 0.358262 86 77 73
-0.0839488 -0.528005 0.329216 116 59 46
-0.0581076 -0.543126 0.3241 170 100 82
-0.0520047 -0.887129 0.414259 110 95 91
-0.0502107 -0.898168 0.416666 107 96 91
-0.0105623 -0.951112 0.418698 104 98 93
0.0212845 -0.972085 0.414887 111 104 102
0.0344451 -0.974151 0.411612 106 100 97
0.0844421 -0.985059 0.400458 98 91 89
0.12088 -0.636231 0.296739 93 32 32
0.124583 -0.581819 0.281288 68 7 2
0.122482 -0.536771 0.269797 110 54 46
0.143282 -0.51508 0.259267 187 111 89
0.150292 -0.511471 0.256774 191 120 96
0.174964 -0.536505 0.257994 193 119 96
-0.20808 -0.578482 0.387449 95 87 80
-0.198562 -0.5976 0.388194 95 86 82
-0.190271 -0.600377 0.385579 95 86 84
-0.189667 -0.609315 0.387515 101 92 88
-0.179278 -0.618303 0.385664 104 95 94
-0.0947457 -0.527297 0.331044 127 70 55
-0.0910243 -0.526812 0.329567 129 72 57
-0.0664641 -0.526043 0.320624 152 84 66
-0.0427482 -0.93938 0.421794 107 98 92
-0.00245737 -0.96666 0.41673 106 100 97
0.000728568 -0.968973 0.416393 110 103 101
0.136019 -0.519909 0.260441 175 103 84
0.158241 -0.517914 0.254993 194 122 99
0.160061 -0.518459 0.25474 189 118 92
0.162782 -0.52181 0.255013 187 118 94
0.168916 -0.530343 0.255881 188 117 91
-0.194818 -0.604021 0.385867 108 99 97
-0.191512 -0.612402 0.38657 107 98 96
-0.177933 -0.636828 0.387222 97 89 85
-0.158388 -0.62991 0.378129 87 78 74
-0.113538 -0.538144 0.338738 103 48 37
-0.100874 -0.528389 0.331647 118 66 49
-0.0854274 -0.524632 0.325109 117 60 47
-0.0765668 -0.524007 0.321794 136 74 59
-0.0588105 -0.535157 0.31845 170 100 82
-0.0576328 -0.607789 0.336722 179 82 78
-0.0491761 -0.931438 0.418094 107 96 93
0.123614 -0.624105 0.288454 78 21 22
0.124578 -0.587567 0.278776 62 7 5
0.131864 -0.518039 0.259186 167 99 81
0.140996 -0.516216 0.256639 185 111 90
0.147487 -0.510742 0.253803 193 119 96
0.155184 -0.514942 0.253176 195 123 100
0.167912 -0.528891 0.253941 185 114 88
0.18314 -0.537813 0.252972 184 115 92
-0.23621 -0.600591 0.399232 90 84 79
-0.234325 -0.601881 0.398758 91 83 79
-0.218099 -0.600412 0.391874 96 90 85
-0.0799027 -0.522336 0.3207 134 75 59
-0.0729322 -0.521917 0.318136 138 77 61
-0.0535587 -0.604622 0.332369 150 66 65
-0.0391715 -0.61219 0.329581 66 14 13
-0.0333504 -0.612543 0.327793 105 39 38
-0.0503894 -0.935115 0.415822 93 80 78
0.121151 -0.636617 0.290073 76 31 30
0.12506 -0.613543 0.283238 70 22 20
0.122645 -0.536832 0.264371 113 55 43
0.136047 -0.517552 0.256384 172 102 85
0.140358 -0.515662 0.254931 181 107 87
0.145876 -0.512429 0.252886 187 111 89
0.154517 -0.514396 0.251471 194 122 99
-0.236912 -0.596616 0.396189 90 84 79
-0.208665 -0.60075 0.385794 108 99 97
-0.204862 -0.612904 0.387069 104 95 94
-0.0881178 -0.519694 0.321127 113 59 43
-0.0589252 -0.532284 0.314016 170 98 81
-0.0571648 -0.581506 0.325636 161 81 71
-0.0497067 -0.602329 0.328356 78 29 25
-0.0407169 -0.606549 0.326477 101 40 38
-0.0334981 -0.610179 0.325061 137 54 57
-0.0317469 -0.611544 0.324843 147 58 61
0.122398 -0.546134 0.264949 104 49 36
0.126256 -0.525666 0.258948 121 67 49
0.127372 -0.523483 0.258145 123 68 52
0.128472 -0.521297 0.257346 126 72 54
0.168387 -0.52834 0.250149 183 113 84
-0.233849 -0.599719 0.393206 91 85 80
-0.231086 -0.61832 0.396187 95 86 82
-0.22281 -0.612585 0.39163 94 88 84
-0.209324 -0.601271 0.383785 103 96 94
-0.0799894 -0.51436 0.315122 132 73 54
-0.0718727 -0.51539 0.312521 144 80 66
-0.0616444 -0.520964 0.310334 167 92 77
-0.0391025 -0.605569 0.323553 131 56 52
-0.0372371 -0.606004 0.323059 151 60 61
-0.030151 -0.610523 0.321908 176 71 74
0.126975 -0.523871 0.256598 120 68 51
0.127856 -0.520724 0.255625 122 70 54
0.13503 -0.517371 0.253147 165 97 79
0.148119 -0.512493 0.249011 189 116 93
0.149621 -0.512132 0.248592 191 117 94
-0.0988497 -0.528726 0.323382 124 70 52
-0.0668026 -0.513725 0.308571 162 91 76
-0.0585836 -0.52751 0.309043 171 96 80
-0.0305713 -0.610035 0.31976 183 78 81
-0.0267283 -0.625536 0.32231 165 86 83
0.122035 -0.606263 0.275859 72 24 24
0.127009 -0.526172 0.255407 119 67 50
0.132884 -0.517091 0.251867 154 94 73
0.158491 -0.516264 0.245923 195 123 100
0.166686 -0.526312 0.2465 184 110 85
-0.115163 -0.532432 0.328227 108 57 47
-0.0984497 -0.526424 0.320823 118 66 47
-0.0887999 -0.513011 0.314309 115 65 50
-0.0725266 -0.509178 0.307709 159 91 75
-0.0652759 -0.512781 0.306044 166 91 75
-0.0561939 -0.598458 0.323122 106 45 41
-0.0461653 -0.596153 0.319299 156 72 68
-0.0443383 -0.59661 0.318815 169 78 77
-0.0408337 -0.598452 0.318121 176 82 84
0.14382 -0.512036 0.246487 178 104 81
-0.10082 -0.527043 0.319932 112 63 45
-0.0860367 -0.508563 0.310525 135 81 63
-0.0809953 -0.508532 0.308745 135 78 61
-0.0751751 -0.505683 0.306066 156 91 74
-0.0722123 -0.506791 0.30529 162 94 79
-0.0579752 -0.528772 0.305471 170 98 81
-0.0611823 -0.601639 0.323373 110 42 35
-0.0589572 -0.600276 0.322324 121 56 48
-0.0547265 -0.598458 0.320514 154 73 66
-0.0468749 -0.597538 0.317745 171 80 79
0.114517 -0.601989 0.272566 92 33 30
0.116361 -0.601782 0.272058 87 26 24
0.136936 -0.511812 0.246319 156 91 70
0.139672 -0.510211 0.245328 159 90 68
0.172444 -0.531377 0.242889 170 99 73
-0.0809072 -0.50707 0.306618 145 84 68
-0.0530826 -0.597494 0.317638 180 87 84
-0.0475865 -0.598918 0.316181 176 85 84
-0.0366959 -0.602515 0.313515 155 52 54
-0.032721 -0.601428 0.312005 171 68 71
0.114349 -0.604359 0.271095 92 31 29
0.115717 -0.60124 0.27004 85 24 22
0.117226 -0.599087 0.269172 82 20 18
0.119057 -0.598865 0.268668 78 17 15
0.136552 -0.512164 0.24481 150 86 62
0.142532 -0.510844 0.243149 169 97 76
-0.0843402 -0.506246 0.305877 136 77 63
-0.077035 -0.503998 0.302843 160 94 77
-0.0659394 -0.511088 0.300592 169 97 78
-0.0582716 -0.526709 0.301462 169 97 80
-0.0534492 -0.596972 0.315531 187 94 89
-0.0419881 -0.596893 0.31182 131 40 41
-0.0312807 -0.601294 0.309414 148 60 60
0.115271 -0.613523 0.270862 86 32 30
0.124068 -0.598574 0.265331 63 8 6
0.130028 -0.519784 0.246336 129 78 59
0.170071 -0.532576 0.240112 174 103 77
0.172582 -0.534942 0.240081 168 97 71
0.00730714 -0.173343 0.201516 142 85 70
-0.0570798 -0.593568 0.31386 189 96 91
-0.0479969 -0.595962 0.311447 153 69 68
0.116918 -0.603801 0.266211 79 20 17
0.125213 -0.528955 0.247771 109 57 43
0.136287 -0.508701 0.240774 144 82 59
0.139951 -0.504848 0.239102 164 94 75
0.00608175 -0.174871 0.202035 134 77 62
-0.0762127 -0.50432 0.299157 161 93 77
-0.0600393 -0.51709 0.296384 170 95 77
-0.0543571 -0.596849 0.311596 177 84 84
-0.0478535 -0.592566 0.30858 124 40 39
-0.0439099 -0.591559 0.307101 124 37 37
0.127274 -0.525855 0.244881 110 62 46
0.134178 -0.50839 0.23954 139 79 58
-0.116583 -0.530262 0.31682 90 53 43
-0.0901778 -0.505454 0.302482 135 77 58
-0.0851616 -0.505443 0.300738 149 86 68
-0.083399 -0.505118 0.300061 152 89 72
-0.0580842 -0.535303 0.29778 154 87 76
-0.056537 -0.595814 0.309987 157 71 68
0.126844 -0.602183 0.259317 62 12 9
0.123098 -0.538871 0.24689 102 50 36
0.127759 -0.523015 0.242449 110 65 49
0.136712 -0.502002 0.235976 155 90 69
0.143975 -0.500291 0.233964 165 98 75
0.14771 -0.502416 0.233561 155 89 66
0.165511 -0.52326 0.233892 170 101 76
-0.0783224 -0.503496 0.296255 162 94 79
-0.0637695 -0.574284 0.305812 152 85 73
-0.0521754 -0.590522 0.305404 120 41 36
-0.0430085 -0.591821 0.302751 173 75 77
-0.0400215 -0.596495 0.302777 178 75 78
0.124835 -0.557872 0.248614 99 44 33
0.135831 -0.500399 0.23423 153 91 69
0.146221 -0.498924 0.231562 156 92 68
-0.112791 -0.527924 0.311256 102 54 40
-0.078501 -0.502893 0.294476 164 96 80
-0.0755734 -0.504 0.293699 166 98 80
-0.0682206 -0.506662 0.291747 174 106 88
-0.0658679 -0.590265 0.307713 147 80 69
-0.0500221 -0.586607 0.301867 150 64 61
0.131146 -0.63113 0.260048 62 18 12
0.125639 -0.524913 0.239923 103 58 42
0.127831 -0.520481 0.23851 110 65 49
0.136651 -0.499417 0.232232 152 90 68
0.140979 -0.498398 0.231036 164 96 76
0.145295 -0.497325 0.229842 157 92 71
0.00222739 -0.17946 0.20329 114 64 47
0.00676636 -0.173442 0.200501 137 86 67
-0.11519 -0.528444 0.310331 99 52 34
-0.0895001 -0.505205 0.296966 148 82 66
-0.0611099 -0.535827 0.293382 158 89 76
-0.0546671 -0.588897 0.30177 151 72 67
-0.0453672 -0.589269 0.298886 184 88 88
-0.0439053 -0.591615 0.29889 181 80 82
-0.0388091 -0.594791 0.297922 181 78 81
0.124747 -0.530343 0.239498 100 52 39
0.149233 -0.496495 0.227191 153 88 64
0.154124 -0.497209 0.226235 162 95 75
-0.109589 -0.522093 0.30533 98 48 33
-0.0788505 -0.501663 0.290935 168 97 80
-0.075936 -0.502766 0.290159 168 100 84
-0.071813 -0.505302 0.289255 171 107 92
-0.067289 -0.575791 0.301258 153 85 71
-0.0685294 -0.58953 0.304308 149 83 71
0.125729 -0.522354 0.235991 104 56 40
0.139798 -0.491945 0.226871 159 94 72
0.163867 -0.509048 0.224696 141 81 60
-0.0845394 -0.503013 0.291406 156 86 68
-0.0668702 -0.515642 0.287833 170 99 84
0.125284 -0.529714 0.235793 100 53 37
0.125762 -0.52459 0.234711 101 56 41
0.126642 -0.5214 0.233899 104 61 44
0.135437 -0.494204 0.226724 151 89 66
0.145367 -0.491737 0.223988 159 94 70
0.14678 -0.491361 0.223598 154 89 68
0.154223 -0.495485 0.222687 159 97 73
0.158617 -0.499384 0.222426 160 95 71
-0.000179574 -0.181529 0.203703 104 54 39
-0.0715101 -0.507345 0.286111 170 106 89
-0.0705512 -0.509729 0.286227 172 108 93
-0.0675171 -0.557511 0.293977 155 87 74
-0.052678 -0.590897 0.295393 189 106 102
0.125361 -0.524886 0.23316 100 55 38
0.133393 -0.493848 0.225556 143 85 64
0.135973 -0.492227 0.22466 153 91 69
-0.0993306 -0.505108 0.293381 111 62 44
-0.0700626 -0.566318 0.29447 156 85 75
-0.0712662 -0.579116 0.297159 150 81 70
-0.0617512 -0.586941 0.295515 184 100 96
-0.0564106 -0.588394 0.294081 188 102 97
0.163154 -0.50147 0.21856 135 83 64
-0.0780217 -0.504838 0.284416 168 101 82
-0.0689952 -0.513194 0.282885 171 100 88
-0.0559067 -0.593016 0.292713 186 98 91
0.124063 -0.530593 0.231082 103 55 39
0.127616 -0.504626 0.225659 112 65 47
0.145953 -0.487976 0.218488 145 82 63
0.163912 -0.500349 0.216579 114 68 47
-0.00575487 -0.187139 0.20577 52 26 18
0.00243938 -0.176712 0.201136 116 66 49
-0.0822764 -0.501595 0.283584 165 95 78
-0.0811111 -0.503079 0.283445 168 98 78
-0.0726022 -0.507248 0.281333 169 105 88
-0.0691965 -0.512533 0.281113 171 100 88
-0.0677066 -0.584178 0.292886 185 94 91
-0.100562 -1.0142 0.37769 125 55 53
0.122502 -0.533097 0.230173 103 55 39
0.141956 -0.486114 0.217536 148 85 63
-0.0844712 -0.502216 0.282727 155 88 70
-0.0801042 -0.503898 0.281552 170 105 86
-0.0701617 -0.514676 0.280065 170 99 84
-0.0694175 -0.517999 0.280374 170 97 83
-0.0741304 -0.577647 0.291833 148 77 64
-0.0662554 -0.584054 0.29039 181 91 85
-0.057413 -0.586498 0.288006 170 90 83
0.126069 -0.508351 0.223428 107 60 42
0.133738 -0.490379 0.218611 148 90 68
0.14735 -0.480653 0.213861 157 95 70
0.148718 -0.480259 0.213486 162 98 72
-0.0863738 -0.501901 0.281617 159 92 71
-0.0701296 -0.519202 0.279061 170 94 81
-0.0709032 -0.541436 0.282917 168 90 75
0.118956 -0.553237 0.230903 100 45 34
0.128217 -0.49384 0.218925 124 75 55
0.14729 -0.481843 0.212545 155 93 68
0.156646 -0.487382 0.211309 165 98 73
-0.100461 -0.498544 0.284122 114 57 40
-0.0733325 -0.549252 0.283102 167 89 76
-0.128859 -0.963861 0.366809 186 101 95
0.132499 -0.488932 0.21557 138 85 62
0.14998 -0.48223 0.210467 168 102 76
0.164143 -0.492452 0.208858 132 77 55
-0.00445504 -0.183803 0.203575 78 32 18
-0.0730813 -0.521079 0.276823 158 88 73
-0.0779714 -0.572719 0.286341 154 79 68
-0.122689 -0.999366 0.366828 124 59 54
-0.120708 -1.00787 0.367551 118 57 52
0.118977 -0.549606 0.22672 100 48 33
0.122598 -0.519683 0.221163 101 56 41
0.125707 -0.505881 0.218266 108 61 45
0.126524 -0.496555 0.216625 115 68 50
0.1358 -0.486218 0.212832 147 87 66
-0.0782423 -0.564894 0.283291 156 83 71
-0.0742464 -0.578404 0.28405 186 89 83
-0.144907 -1.00059 0.370122 181 95 90
-0.12963 -0.994422 0.364446 144 79 72
0.117655 -0.554038 0.225936 95 46 35
0.123485 -0.511565 0.218054 108 61 45
0.133789 -0.485823 0.211714 140 85 63
0.140708 -0.484048 0.209827 143 82 59
0.143181 -0.482342 0.208999 143 82 59
0.144267 -0.481005 0.20855 143 82 59
0.150035 -0.480372 0.20713 172 105 82
-0.0900025 -0.493757 0.274909 156 91 74
-0.0778724 -0.511961 0.273558 161 100 84
-0.0727974 -0.578254 0.281592 163 85 77
-0.148842 -0.9983 0.367223 172 87 82
0.121591 -0.519185 0.218009 99 54 37
-0.0923052 -0.49005 0.273507 153 87 71
-0.0780485 -0.511255 0.271808 160 99 81
-0.0772347 -0.519813 0.272749 155 91 74
-0.155547 -0.976937 0.362477 185 93 88
-0.139394 -0.999532 0.360703 107 67 60
0.126125 -0.494003 0.211651 117 67 50
0.133929 -0.483981 0.208365 136 80 58
0.153733 -0.480495 0.203269 157 93 67
0.157742 -0.483414 0.20276 152 86 58
0.161803 -0.486292 0.202237 142 79 50
-0.104948 -0.488075 0.275798 112 60 43
-0.0945507 -0.486328 0.272115 150 87 69
-0.0794185 -0.509073 0.270249 161 100 84
-0.078777 -0.512415 0.270498 160 99 81
-0.0775537 -0.537622 0.273553 153 80 64
-0.0789287 -0.555677 0.276469 149 76 62
-0.0935949 -0.487129 0.270286 155 92 72
-0.0904894 -0.48738 0.269301 156 93 75
-0.0786957 -0.52214 0.270055 155 89 73
0.122099 -0.506312 0.211176 106 60 46
0.124879 -0.498603 0.209461 111 64 43
0.140091 -0.482587 0.203687 137 79 58
0.141982 -0.478959 0.202763 134 76 53
-0.00449215 -0.184414 0.20185 88 40 22
-0.105436 -0.483318 0.272092 122 63 47
-0.0944179 -0.483987 0.268543 155 92 72
0.118682 -0.521318 0.212381 98 55 40
0.124958 -0.500743 0.20815 111 64 45
0.128528 -0.490746 0.205985 119 67 48
0.131209 -0.483951 0.20446 121 68 47
0.133962 -0.483263 0.203713 128 75 54
0.140545 -0.480486 0.201797 133 75 53
0.154763 -0.478331 0.198212 148 84 56
0.15612 -0.477892 0.197844 144 82 55
0.168677 -0.48735 0.196174 137 83 60
-0.078166 -0.529274 0.267297 154 83 66
0.117175 -0.531852 0.212436 95 52 35
0.11828 -0.52152 0.210846 98 55 40
0.121544 -0.507684 0.208285 106 60 46
0.129966 -0.486405 0.203553 119 65 45
-0.10279 -0.478892 0.267479 146 80 64
-0.0956358 -0.481025 0.265387 157 92 75
-0.087725 -0.485411 0.263337 161 100 82
-0.0843074 -0.49412 0.263271 166 105 89
-0.0837916 -0.497459 0.263503 168 109 92
-0.0766047 -0.553866 0.268019 129 66 58
0.118078 -0.522694 0.209382 98 55 40
0.120321 -0.511093 0.2074 103 60 43
0.126379 -0.49758 0.204262 118 66 49
0.127096 -0.494349 0.203694 118 66 47
0.160828 -0.476448 0.193583 146 87 59
-0.00474199 -0.184522 0.201049 93 43 26
-0.108014 -0.478981 0.267613 129 68 50
-0.094694 -0.481796 0.26358 161 95 79
-0.083926 -0.496712 0.261821 169 110 93
0.118272 -0.525818 0.208043 97 54 39
0.131499 -0.484149 0.199877 121 70 48
0.14241 -0.476041 0.196329 125 72 49
0.164863 -0.476145 0.191123 148 89 63
-0.107336 -0.476445 0.265524 135 72 54
-0.0961434 -0.480463 0.262315 164 96 80
-0.0930819 -0.480717 0.261354 164 99 82
-0.0772484 -0.533754 0.262231 173 97 86
0.118997 -0.523762 0.205951 98 57 41
0.130006 -0.485626 0.198895 116 65 44
0.131135 -0.484318 0.198474 118 66 45
0.133106 -0.480726 0.197592 121 70 46
0.157128 -0.472529 0.191007 141 79 52
-0.104697 -0.476973 0.263138 148 80 65
-0.0849001 -0.507495 0.26002 154 93 75
-0.0837022 -0.514204 0.260363 158 95 77
0.124269 -0.500364 0.200398 108 61 45
0.13014 -0.487724 0.197577 118 66 47
0.13215 -0.484134 0.196698 120 67 46
0.150172 -0.470654 0.190951 133 75 51
0.165808 -0.47269 0.18754 146 87 59
-0.110874 -0.475484 0.26342 132 71 53
-0.102061 -0.477465 0.260757 159 91 75
-0.0935872 -0.480125 0.2583 167 101 86
-0.0880386 -0.486656 0.257195 170 109 93
-0.0850462 -0.50673 0.258313 154 95 78
-0.0832343 -0.516796 0.258786 160 99 83
-0.081909 -0.523514 0.259069 154 88 72
-0.0768789 -0.535587 0.258765 169 89 80
0.129772 -0.487882 0.19616 118 66 47
0.140773 -0.474606 0.192119 118 65 42
0.141247 -0.471345 0.191667 120 67 44
0.147878 -0.469327 0.189887 130 75 50
0.158429 -0.470043 0.187491 144 82 55
-0.00960192 -0.188444 0.20187 80 35 20
-0.110918 -0.474738 0.261786 139 76 61
-0.106889 -0.47666 0.260664 150 79 67
-0.0872511 -0.492566 0.255937 168 109 92
-0.0823661 -0.523684 0.257497 154 88 72
0.129403 -0.488034 0.194744 118 66 47
0.134487 -0.479513 0.192648 121 68 47
0.140134 -0.473796 0.190716 118 65 42
0.142225 -0.471099 0.189947 121 68 45
0.148918 -0.46483 0.187738 132 79 54
0.157415 -0.468305 0.186087 144 82 55
0.161366 -0.466906 0.185031 145 81 52
-0.0737705 -0.357058 0.237483 88 40 22
-0.0950991 -0.478009 0.25544 168 102 88
-0.0906642 -0.483064 0.254506 174 113 97
0.117769 -0.526396 0.199865 85 49 36
0.1229 -0.499861 0.195977 108 63 46
0.124108 -0.498571 0.195552 108 63 46
0.138999 -0.476241 0.189753 116 66 42
0.147574 -0.466342 0.186758 129 74 49
0.153783 -0.463232 0.184999 137 80 54
-0.113271 -0.471025 0.259079 129 71 52
-0.110617 -0.472324 0.258336 141 75 59
-0.108327 -0.474507 0.25779 151 81 66
-0.0910825 -0.483208 0.253075 174 111 96
-0.0885557 -0.489521 0.252849 170 111 95
-0.0756661 -0.532799 0.252816 162 84 74
0.12931 -0.485074 0.191448 118 66 47
0.147603 -0.463204 0.18502 131 78 55
0.160608 -0.462951 0.181936 145 84 57
-0.0835817 -0.512723 0.251725 163 104 88
-0.0755608 -0.524847 0.250323 167 94 82
0.133142 -0.478963 0.188458 116 65 46
0.144657 -0.464163 0.184374 125 72 49
0.149536 -0.46153 0.182982 130 75 50
-0.0147641 -0.197109 0.202935 75 34 18
-0.105138 -0.476654 0.253825 155 87 72
-0.0973444 -0.476916 0.25138 166 99 85
0.121186 -0.504492 0.192108 101 61 43
0.126079 -0.493142 0.189918 114 64 45
0.128576 -0.485336 0.188635 117 68 48
0.14241 -0.462785 0.183365 122 71 50
0.146294 -0.461552 0.182331 126 74 46
-0.113869 -0.466267 0.25425 127 71 49
-0.109943 -0.468199 0.253143 142 78 63
0.119142 -0.511097 0.191582 100 59 44
0.147269 -0.457025 0.180316 131 78 53
0.147904 -0.454702 0.179981 132 79 54
-0.0180487 -0.200909 0.203554 59 26 17
-0.120708 -0.466407 0.254909 96 47 29
-0.0965052 -0.481086 0.248319 164 99 82
0.117191 -0.518674 0.19106 77 47 37
0.124625 -0.49047 0.186998 113 66 48
0.130699 -0.479684 0.184661 114 64 47
0.136108 -0.473025 0.182823 112 63 43
-0.115591 -0.464944 0.251644 124 69 46
-0.0945337 -0.483272 0.246294 170 106 89
-0.0906646 -0.490159 0.245581 169 108 92
-0.0892898 -0.500215 0.245868 152 98 80
-0.0841119 -0.51997 0.245693 161 101 87
-0.0831729 -0.522387 0.245581 159 97 84
0.125415 -0.489277 0.185189 112 65 47
0.130081 -0.478827 0.183266 114 64 47
0.141373 -0.463117 0.179363 115 66 42
0.145646 -0.45439 0.177707 130 76 53
-0.106058 -0.475295 0.247786 152 89 70
0.133521 -0.471685 0.180445 111 62 42
0.137694 -0.46632 0.179054 112 60 41
0.151616 -0.452317 0.174737 140 86 59
0.166307 -0.460697 0.171787 146 85 56
-0.0777404 -0.345534 0.229638 89 42 23
-0.123735 -0.460228 0.250889 84 42 24
-0.0973998 -0.480486 0.243869 167 101 84
-0.0918294 -0.491305 0.242827 168 107 91
-0.0856388 -0.511585 0.242218 152 97 82
0.117789 -0.505381 0.185125 99 58 42
0.129942 -0.47577 0.180142 112 63 43
0.13687 -0.469682 0.178037 110 61 41
0.141382 -0.460997 0.176376 114 65 41
0.151869 -0.450074 0.173145 139 82 53
-0.130141 -0.462646 0.251529 75 37 22
-0.0981589 -0.481506 0.242603 168 102 86
0.116757 -0.509698 0.184074 86 52 38
0.14074 -0.46013 0.175065 115 66 44
0.149296 -0.447776 0.172251 138 85 59
0.150536 -0.447333 0.171925 137 82 55
0.157215 -0.450195 0.170484 150 88 61
-0.130524 -0.459379 0.249955 80 40 24
-0.124109 -0.456177 0.247774 89 45 26
-0.111995 -0.467913 0.24459 143 81 66
-0.0789131 -0.502925 0.236377 97 65 55
0.124371 -0.485441 0.179153 111 64 45
0.1394 -0.461571 0.174062 109 60 38
0.146185 -0.452001 0.171869 129 74 49
0.146799 -0.449675 0.171591 130 75 50
0.161694 -0.451633 0.168098 146 85 56
-0.116399 -0.46272 0.244181 133 74 55
-0.10161 -0.476241 0.240276 158 95 75
-0.0941506 -0.490092 0.238693 166 104 91
-0.0904292 -0.507437 0.23845 147 93 77
-0.21814 -1.03195 0.303948 155 89 73
0.123766 -0.484551 0.177756 110 62 46
0.138762 -0.460693 0.172757 105 56 36
0.141715 -0.456611 0.171818 120 74 49
0.148876 -0.44466 0.169454 134 77 50
0.152007 -0.445646 0.168743 141 84 55
0.159931 -0.447976 0.166944 145 84 55
-0.133883 -0.458104 0.247918 69 33 18
-0.0864824 -0.509125 0.235694 147 95 76
0.127402 -0.477425 0.174991 110 63 42
0.134901 -0.468087 0.17266 109 60 40
0.168986 -0.457193 0.1638 143 86 58
-0.110582 -0.469402 0.239649 146 85 69
-0.107384 -0.473074 0.238822 151 90 70
-0.0932434 -0.503684 0.235831 155 103 86
-0.0913831 -0.512845 0.23567 154 100 84
0.117481 -0.499321 0.177029 97 56 38
0.12979 -0.471581 0.172656 110 62 44
0.153462 -0.443922 0.165586 143 86 60
0.169917 -0.456733 0.162131 139 82 53
-0.128154 -0.451747 0.242894 91 44 24
-0.122285 -0.45271 0.241113 109 58 37
-0.0964655 -0.484537 0.234419 164 107 90
-0.0957728 -0.486959 0.234304 165 109 91
-0.0941387 -0.50039 0.234335 151 99 83
-0.0894215 -0.510629 0.233327 149 97 78
0.132067 -0.465711 0.170395 107 61 40
0.136147 -0.460331 0.169157 104 56 40
0.165352 -0.449896 0.161556 145 86 58
0.170473 -0.455336 0.160519 141 82 54
-0.131936 -0.452159 0.242596 80 37 20
-0.112518 -0.461302 0.236927 137 79 60
-0.107607 -0.468025 0.235656 149 86 68
-0.0985581 -0.480682 0.233352 168 109 92
0.127162 -0.475323 0.170559 106 59 43
0.131446 -0.464805 0.169091 108 58 41
-0.129735 -0.450281 0.240384 85 40 21
-0.122201 -0.451043 0.238095 112 61 37
-0.100317 -0.480163 0.232314 167 105 92
-0.095216 -0.487633 0.231016 162 108 92
-0.0945263 -0.503874 0.231315 143 91 75
-0.0940424 -0.507241 0.231276 153 98 83
0.157716 -0.443122 0.160437 146 89 60
0.164077 -0.444848 0.158929 141 82 54
-0.104634 -0.474188 0.231902 160 94 77
-0.0920645 -0.505018 0.228983 153 98 83
0.118053 -0.488831 0.170356 97 56 40
0.12222 -0.481665 0.169078 105 60 41
0.125582 -0.477714 0.168104 105 60 41
0.132526 -0.461257 0.165868 105 55 40
0.160189 -0.443115 0.158467 141 82 56
-0.0230161 -0.229797 0.200685 130 75 59
-0.13162 -0.446333 0.23794 80 35 20
-0.113351 -0.457201 0.232621 140 80 59
-0.112486 -0.45873 0.232393 139 79 56
-0.110334 -0.460873 0.231791 145 84 66
-0.109837 -0.463303 0.231694 146 85 67
-0.104864 -0.469966 0.230349 157 94 76
-0.104292 -0.472392 0.230231 160 94 77
-0.103703 -0.47482 0.230109 160 98 78
0.114886 -0.489506 0.169677 87 48 34
0.130123 -0.463977 0.165134 105 57 42
0.131154 -0.462638 0.164839 104 56 40
0.135191 -0.457252 0.163685 103 56 37
0.148011 -0.441317 0.160087 126 75 51
0.155636 -0.43947 0.158149 146 88 62
-0.125744 -0.446491 0.234704 103 54 34
-0.11333 -0.456334 0.231127 139 81 59
-0.108937 -0.463948 0.229945 148 87 69
-0.105055 -0.465743 0.228819 158 94 80
-0.102404 -0.474517 0.22819 166 103 86
-0.101796 -0.476942 0.228054 165 104 86
0.122378 -0.479457 0.166019 101 56 39
0.134845 -0.457285 0.162376 102 54 38
0.140658 -0.444898 0.160658 114 64 45
0.145242 -0.442236 0.159454 117 69 44
0.146135 -0.440853 0.159203 122 71 50
0.156516 -0.439021 0.156577 142 85 59
-0.105276 -0.469114 0.227438 157 94 76
0.119969 -0.483081 0.165225 98 55 40
0.162116 -0.439848 0.153849 140 81 53
0.176776 -0.454126 0.150416 124 74 50
0.180901 -0.456631 0.149432 98 61 49
-0.141436 -0.450515 0.236559 66 29 16
-0.116197 -0.450898 0.228995 134 77 58
-0.112834 -0.45701 0.228051 141 82 64
-0.11197 -0.458534 0.227809 145 84 68
-0.110699 -0.459147 0.227438 144 83 65
-0.0989868 -0.488194 0.224286 163 109 95
-0.0982894 -0.490618 0.224108 166 111 98
-0.0956656 -0.501253 0.22346 145 93 77
0.172456 -0.448286 0.150007 131 78 50
-0.136816 -0.444309 0.233667 75 34 18
-0.128262 -0.440119 0.231089 94 44 27
-0.127512 -0.44168 0.230872 101 51 34
-0.118137 -0.444528 0.22809 126 73 50
0.118514 -0.486378 0.162653 92 53 39
0.12037 -0.481814 0.162129 96 53 36
0.130013 -0.463704 0.159478 102 54 38
0.146905 -0.438144 0.154962 119 71 48
0.154111 -0.43536 0.153123 142 90 62
0.156018 -0.43674 0.152653 139 84 57
0.157578 -0.43718 0.152263 139 84 57
0.170189 -0.443711 0.149147 132 79 54
-0.118078 -0.443648 0.226646 126 72 52
-0.114039 -0.454613 0.225468 143 82 64
-0.111465 -0.459179 0.224719 147 86 68
-0.100429 -0.481521 0.221543 160 105 90
-0.0994537 -0.487296 0.221277 161 109 92
0.12486 -0.472318 0.15943 97 54 37
0.127826 -0.467357 0.15864 98 55 40
0.14778 -0.437705 0.153405 118 72 46
0.154977 -0.43489 0.151574 138 83 56
0.176379 -0.441844 0.146214 111 71 50
-0.121637 -0.44083 0.226282 118 66 45
-0.110089 -0.46222 0.222838 150 89 71
-0.106997 -0.465838 0.221929 155 94 78
-0.104218 -0.470347 0.221112 160 101 84
0.169194 -0.439514 0.146647 125 72 47
0.172799 -0.441158 0.145737 126 73 48
-0.11795 -0.441872 0.223778 130 76 55
-0.114383 -0.45372 0.22266 140 81 62
-0.111826 -0.45828 0.221887 145 84 66
0.121061 -0.477262 0.157502 92 51 35
0.128688 -0.462762 0.155563 96 53 36
0.132483 -0.456417 0.154601 98 51 33
0.140762 -0.438976 0.152532 109 59 42
0.154904 -0.429282 0.148961 136 81 56
0.157168 -0.431572 0.148374 130 75 48
-0.125334 -0.43466 0.224602 104 55 37
-0.110937 -0.458883 0.220156 149 90 74
-0.100668 -0.487301 0.216931 155 102 88
0.125186 -0.466765 0.155029 94 51 33
0.128073 -0.461795 0.154313 95 52 37
0.145795 -0.434892 0.149938 111 62 42
0.147167 -0.431173 0.149617 115 66 42
0.161129 -0.431904 0.146043 128 76 50
0.172965 -0.433094 0.143025 137 87 61
-0.11084 -0.461297 0.218628 151 93 76
-0.104816 -0.472756 0.216742 159 102 87
0.120555 -0.478219 0.154685 90 49 33
0.140098 -0.438964 0.150039 104 55 37
0.151199 -0.428372 0.147307 129 79 53
0.176235 -0.434668 0.140829 124 76 51
-0.129811 -0.430195 0.223198 96 47 29
-0.101065 -0.482062 0.214001 152 100 84
0.124221 -0.465775 0.152435 91 50 34
0.13673 -0.44211 0.149531 102 57 40
0.142498 -0.439027 0.148083 105 57 42
0.147355 -0.429758 0.146974 110 63 40
0.161324 -0.427171 0.143421 125 72 45
-0.132009 -0.427937 0.222503 91 42 24
-0.123403 -0.431755 0.219927 115 65 48
-0.11941 -0.441827 0.218555 132 78 60
-0.11334 -0.458233 0.21646 149 92 75
-0.109429 -0.463369 0.215231 155 96 77
-0.107622 -0.466378 0.214652 156 99 84
-0.103899 -0.472369 0.213464 158 106 90
-0.102095 -0.479622 0.212801 154 102 85
0.131255 -0.452146 0.149424 93 47 33
0.132634 -0.44753 0.149152 92 47 28
0.141847 -0.438065 0.146935 103 55 39
0.175155 -0.43373 0.138418 135 80 53
-0.122035 -0.437214 0.218016 127 75 58
-0.107472 -0.468772 0.213061 157 100 85
-0.101954 -0.49058 0.210962 155 108 90
0.119673 -0.479126 0.150474 82 46 31
0.123505 -0.465728 0.149769 88 50 33
0.125108 -0.461137 0.149453 89 48 32
0.16533 -0.428299 0.139738 132 77 50
0.167284 -0.429584 0.139202 129 74 47
0.16925 -0.430859 0.138662 132 77 50
-0.151557 -0.438408 0.225053 62 30 18
-0.135513 -0.427362 0.220774 84 36 21
-0.122222 -0.433881 0.216772 122 71 52
-0.119363 -0.443299 0.215679 132 78 60
-0.116569 -0.44697 0.214775 137 83 64
-0.108241 -0.469659 0.211756 156 99 84
0.123043 -0.47089 0.148325 87 49 32
0.123637 -0.467628 0.148256 86 47 31
0.127336 -0.460354 0.147475 89 45 33
0.142625 -0.434306 0.14417 99 52 32
0.143492 -0.432921 0.143981 98 51 33
0.158465 -0.422509 0.140367 125 72 47
0.167737 -0.428099 0.1378 139 84 57
-0.107861 -0.354538 0.213967 66 29 16
-0.115739 -0.450871 0.212987 145 88 73
0.139905 -0.43515 0.143538 97 50 29
0.151558 -0.426372 0.140759 114 68 43
0.156248 -0.421143 0.1397 124 74 50
0.165454 -0.426786 0.137115 128 73 46
-0.136219 -0.427288 0.218223 85 38 20
-0.121301 -0.433561 0.213758 123 74 54
-0.11402 -0.45628 0.210867 150 93 78
-0.103402 -0.482824 0.20692 153 104 86
0.120348 -0.47443 0.146019 89 53 38
0.140768 -0.434675 0.142006 98 51 31
0.164349 -0.424924 0.136157 127 72 45
-0.132315 -0.425163 0.215831 95 45 28
-0.127917 -0.425441 0.214577 108 58 41
-0.12262 -0.429583 0.212913 121 69 50
-0.1212 -0.432629 0.212388 125 76 58
-0.12019 -0.436561 0.211944 128 76 57
-0.119445 -0.438081 0.211672 130 75 59
-0.118364 -0.442014 0.211208 137 82 66
-0.104789 -0.481283 0.205824 150 98 82
-0.103433 -0.481844 0.205422 152 102 85
0.140436 -0.434631 0.140774 95 47 29
-0.134947 -0.423739 0.215272 86 39 21
-0.114771 -0.452853 0.208317 149 92 75
-0.1109 -0.461299 0.206864 153 97 80
-0.108995 -0.467635 0.206054 153 99 81
0.120301 -0.477231 0.142985 78 42 29
0.13154 -0.445949 0.14133 82 39 24
0.136511 -0.435876 0.140442 91 46 27
0.13771 -0.435449 0.140141 92 47 28
-0.119709 -0.437083 0.209009 128 76 59
-0.115122 -0.449475 0.207135 147 91 74
-0.113048 -0.454904 0.206297 151 94 79
0.12872 -0.446691 0.140689 81 37 25
0.134679 -0.435297 0.139634 87 44 26
0.148156 -0.420628 0.136736 104 57 38
0.149728 -0.417825 0.136451 112 66 39
0.160293 -0.420748 0.133505 122 72 46
0.169958 -0.423846 0.130793 121 70 46
-0.135279 -0.420346 0.212822 86 39 21
-0.125038 -0.426368 0.209658 116 66 49
-0.110041 -0.457519 0.203881 149 95 79
-0.108448 -0.468086 0.202895 158 103 87
-0.106406 -0.474409 0.202004 152 100 84
-0.102043 -0.475153 0.200759 152 102 87
0.122298 -0.465028 0.140117 79 40 26
0.122867 -0.461769 0.14013 77 41 24
0.127942 -0.449888 0.139374 78 39 25
0.143913 -0.424289 0.136406 94 50 28
-0.148673 -0.423796 0.214992 76 33 18
-0.118031 -0.438195 0.205707 135 83 68
0.118503 -0.474131 0.139209 73 39 26
0.121695 -0.463996 0.138906 78 39 23
0.134012 -0.435174 0.137177 84 42 24
0.140752 -0.427448 0.135792 92 46 32
0.146367 -0.42098 0.134642 98 51 33
0.147954 -0.418185 0.134371 102 55 34
0.15058 -0.418149 0.133669 114 68 45
0.161161 -0.417754 0.130856 115 64 41
0.16615 -0.419763 0.129409 114 64 37
0.172021 -0.423488 0.127632 121 71 44
-0.11686 -0.441141 0.20382 137 86 67
-0.113315 -0.449562 0.202346 147 93 77
-0.112492 -0.451061 0.202031 147 93 75
-0.11166 -0.452559 0.201713 148 94 78
-0.109053 -0.471272 0.199888 154 100 84
0.125258 -0.452438 0.137198 76 38 22
0.125732 -0.449182 0.137262 76 38 22
0.126715 -0.447839 0.137076 75 39 22
0.136653 -0.431947 0.135333 84 42 24
0.139571 -0.428761 0.134735 90 47 30
0.148415 -0.416719 0.133065 104 57 36
0.166967 -0.419144 0.12793 116 66 40
0.170469 -0.420722 0.126895 119 67 39
-0.140178 -0.418898 0.210216 85 38 22
-0.120942 -0.43351 0.204022 130 78 62
-0.112438 -0.450073 0.200647 147 93 75
0.12804 -0.444115 0.135584 76 38 22
0.166241 -0.418169 0.126892 112 62 33
0.168184 -0.419415 0.126289 111 60 32
-0.155333 -0.422221 0.212776 64 28 15
-0.152589 -0.420469 0.212146 70 28 17
-0.146035 -0.417644 0.210549 82 37 21
-0.141637 -0.418109 0.209319 85 38 22
-0.131275 -0.418642 0.206459 110 61 43
-0.115221 -0.445492 0.200285 144 89 73
-0.114033 -0.449398 0.1997 144 93 74
0.118923 -0.468339 0.135084 72 40 24
0.13181 -0.435366 0.133792 79 39 21
0.14551 -0.417518 0.131268 92 47 26
0.167454 -0.418437 0.125252 108 60 31
-0.145846 -0.416713 0.209212 82 37 23
-0.142051 -0.41561 0.208262 82 37 21
-0.137084 -0.417563 0.206777 93 43 26
-0.126456 -0.422715 0.203532 117 67 52
-0.116002 -0.446306 0.199027 145 90 75
-0.113571 -0.450806 0.198049 147 95 76
-0.105652 -0.475106 0.194179 142 97 80
0.118327 -0.467283 0.133875 73 41 27
0.130846 -0.437587 0.132573 77 36 20
0.137716 -0.429905 0.131246 84 42 24
0.139756 -0.428084 0.130819 84 42 24
0.148231 -0.415091 0.129431 102 54 36
0.15309 -0.414047 0.128181 109 60 38
-0.114326 -0.448306 0.197008 142 90 71
-0.109913 -0.465732 0.194515 154 100 84
0.123849 -0.457265 0.131676 72 38 22
0.139426 -0.427996 0.129612 83 40 23
0.139637 -0.424746 0.129797 84 42 24
0.159866 -0.41178 0.125232 104 53 27
0.161374 -0.412151 0.124792 99 48 22
-0.111072 -0.467464 0.193207 153 99 81
0.120117 -0.460214 0.131058 75 39 24
0.125964 -0.446059 0.130573 74 36 19
0.139309 -0.424654 0.128602 84 42 24
0.150984 -0.410215 0.126532 105 58 40
0.152093 -0.409718 0.126267 107 57 38
0.154681 -0.409621 0.125563 106 55 33
0.16632 -0.411671 0.122201 112 61 35
0.168964 -0.411438 0.121492 119 71 44
0.182929 -0.41401 0.117447 109 67 43
-0.111443 -0.467352 0.191824 150 98 82
0.129896 -0.433109 0.1292 76 35 19
0.134055 -0.429551 0.12835 78 37 22
0.13493 -0.428183 0.128223 81 38 23
0.139175 -0.421312 0.127622 83 40 23
0.153987 -0.408619 0.124586 103 54 32
0.158451 -0.409788 0.123257 104 53 29
0.160274 -0.407824 0.122916 107 57 30
0.162475 -0.406747 0.122396 115 65 39
0.165891 -0.408333 0.121321 112 61 35
0.179712 -0.411027 0.117278 114 66 39
-0.112607 -0.46907 0.190494 150 98 82
-0.111149 -0.472977 0.189768 143 91 77
0.128005 -0.436657 0.128095 73 34 22
