ply
format ascii 1.0
comment Created by Open3D
element vertex 2000
property double x
property double y
property double z
property uchar red
property uchar green
property uchar blue
end_header
1.2468 -0.0255431 0.501981 177 148 144
1.25 -0.0252756 0.500538 178 149 145
1.35995 -0.0900833 0.432209 195 173 169
1.13366 -0.0696066 0.48771 222 207 203
1.14154 -0.0717785 0.486992 174 158 157
1.1442 -0.0712436 0.485187 157 141 139
1.14285 -0.0656026 0.473361 3 0 0
1.1586 -0.0696885 0.471679 57 41 39
1.2036 -0.0956276 0.47881 201 181 176
1.20902 -0.094152 0.474854 196 174 170
1.22611 -0.0980043 0.472603 203 183 179
1.12241 -0.0779162 0.48642 197 179 176
1.08379 -0.0570797 0.473183 190 172 169
1.11929 -0.0815178 0.486733 194 174 167
1.12543 -0.0856377 0.488969 194 174 167
1.09589 -0.0773391 0.481567 155 135 133
1.12991 -0.0992095 0.492227 191 169 163
1.18124 -0.103715 0.475168 191 168 165
1.20025 -0.102755 0.4661 194 172 166
0.969775 0.0507569 0.382483 61 53 60
0.966307 0.0596934 0.373384 255 255 255
1.22014 -0.109895 0.460611 169 145 139
1.24063 -0.11342 0.456388 212 194 191
1.24517 -0.106925 0.447206 219 200 195
0.967784 0.050973 0.379157 53 45 52
0.978275 0.0549092 0.369374 248 239 251
0.962206 0.0638056 0.362625 255 254 255
0.968559 0.0637386 0.359629 247 237 254
0.985397 0.0511437 0.36647 250 238 251
1.00108 0.0377763 0.374814 237 223 225
1.19626 -0.113155 0.463081 182 158 148
1.20009 -0.113731 0.462132 182 158 150
1.33771 -0.124837 0.420734 184 162 156
0.959942 0.0612063 0.362946 94 88 99
0.969823 0.0622258 0.356953 247 237 254
0.975976 0.0592918 0.357448 247 237 254
1.19362 -0.113733 0.459338 176 153 142
1.20779 -0.114669 0.454456 173 154 144
1.29182 -0.125069 0.432462 187 166 157
1.29514 -0.124632 0.430714 185 163 155
0.965167 0.0462873 0.374012 46 38 45
0.963241 0.0664301 0.351397 246 236 253
0.973046 0.0609627 0.353052 248 239 255
1.04537 -0.000833383 0.390711 153 133 128
1.19804 -0.114793 0.45319 171 149 141
1.23954 -0.127153 0.449794 185 163 155
1.24052 -0.124314 0.446252 186 165 156
0.969682 0.0633538 0.348096 248 239 255
0.977602 0.057685 0.350853 248 239 255
1.01094 0.0378692 0.35798 255 246 255
1.03118 0.0192713 0.36991 233 223 233
1.2906 -0.12741 0.424226 178 157 146
1.30838 -0.126329 0.416249 192 170 162
0.955984 0.0624474 0.352022 202 192 207
0.96659 0.0621143 0.347249 247 237 254
0.971806 0.0605246 0.346565 248 239 255
1.03786 0.0203426 0.361517 245 233 239
1.23402 -0.12841 0.442321 181 161 154
1.30353 -0.125169 0.411274 185 163 155
0.957467 0.0639303 0.345865 248 239 255
0.980686 0.0571197 0.342452 249 240 255
1.0573 0.00777636 0.362704 208 192 193
1.06461 0.00148117 0.366459 126 106 106
0.952459 0.0625722 0.346165 107 98 111
0.958029 0.0668562 0.338586 248 239 255
0.964475 0.0631435 0.339663 248 239 255
0.969651 0.0615488 0.338973 248 239 255
0.975306 0.0592981 0.338807 248 239 255
0.995871 0.0510354 0.338398 249 240 255
1.00463 0.0479398 0.337801 250 241 255
1.00953 0.0472981 0.336266 250 241 255
1.01594 0.0446403 0.336302 250 241 255
1.20488 -0.12588 0.440795 171 155 144
1.25648 -0.137281 0.431684 176 159 149
1.26731 -0.13335 0.423113 171 155 144
1.28419 -0.135722 0.418915 179 163 152
0.953261 0.0618094 0.342952 255 255 255
0.973688 0.0590128 0.336195 248 239 255
0.982677 0.0549956 0.336407 249 240 255
1.00636 0.049002 0.332034 249 240 255
1.01272 0.0463244 0.332078 250 241 255
1.02014 0.0423197 0.333118 250 241 255
1.03829 0.030365 0.338086 253 244 255
1.06424 0.00913473 0.349785 241 233 242
1.18433 -0.104865 0.421479 171 155 144
1.1959 -0.114835 0.427314 171 155 144
0.949605 0.0650728 0.337448 253 244 255
0.985363 0.0546114 0.331855 250 241 255
0.992049 0.0510803 0.332612 250 241 255
1.00125 0.0503766 0.329114 252 242 255
1.00951 0.0480434 0.327874 250 241 255
1.0164 0.0447017 0.328393 253 241 255
1.02036 0.0423608 0.32915 252 242 255
1.03239 0.0354187 0.331297 253 241 255
1.07775 0.00189165 0.347559 228 215 224
1.16412 -0.080216 0.398553 168 154 143
1.17896 -0.094277 0.407277 171 155 144
1.27859 -0.133324 0.407614 171 160 146
0.949116 0.0664661 0.332545 255 248 255
0.956084 0.0649903 0.330768 248 239 255
0.964849 0.0607848 0.331161 252 240 255
0.969558 0.0598961 0.329875 249 240 255
0.995199 0.0500624 0.328538 252 240 255
1.00829 0.0470268 0.325796 252 242 255
1.03112 0.0343381 0.329174 254 242 255
1.03362 0.0341035 0.328305 254 242 255
1.03716 0.0325044 0.328447 253 241 255
1.04323 0.0307152 0.327672 254 242 255
1.26536 -0.14239 0.41696 179 163 150
1.26685 -0.140053 0.413915 176 159 149
1.28206 -0.136775 0.404379 171 160 148
0.958135 0.0622 0.329259 250 238 255
0.965597 0.0601137 0.32793 249 240 255
0.981129 0.0554782 0.325568 250 241 255
0.995442 0.0501242 0.32466 250 241 255
1.01837 0.0395882 0.325471 252 242 255
1.03081 0.0351045 0.324655 254 242 255
1.05109 0.0270058 0.324271 254 242 255
1.05416 0.0261562 0.323825 255 244 255
1.06046 0.0212113 0.326313 254 242 255
1.26811 -0.121833 0.389152 166 154 140
1.31496 -0.0449992 0.294025 111 109 105
0.948319 0.0656028 0.326788 252 242 255
0.949775 0.0665205 0.325072 248 239 255
0.95612 0.062716 0.326112 249 240 255
0.958881 0.0615356 0.326052 248 239 255
0.962092 0.0596578 0.326534 252 240 255
0.990879 0.0509143 0.322272 252 242 255
0.993752 0.0498569 0.322065 252 242 255
0.996634 0.0488097 0.321847 252 242 255
1.00194 0.0474445 0.32085 250 241 255
1.04911 0.0298695 0.318241 255 244 255
1.05484 0.0255834 0.320237 254 242 255
1.07322 0.014795 0.32356 255 245 255
1.21186 -0.101543 0.385991 179 165 152
1.22151 -0.108669 0.389358 178 164 150
1.24765 -0.114862 0.385011 160 148 136
1.26211 -0.119036 0.383444 161 149 137
1.26653 -0.119949 0.382598 160 151 140
1.21665 -0.0571474 0.338476 109 100 98
1.33568 -0.0493819 0.286165 123 124 121
0.952815 0.0653858 0.321307 249 240 255
0.965719 0.0609528 0.319827 250 241 255
0.979266 0.0560396 0.318629 250 241 255
0.989197 0.0506713 0.319684 252 240 255
0.996854 0.0489145 0.317978 253 241 255
1.02273 0.0374446 0.318251 254 242 255
1.03768 0.0328205 0.316394 255 244 255
1.04781 0.0287984 0.316109 254 242 255
1.0566 0.0236524 0.317617 255 244 255
1.12782 -0.0220736 0.334427 217 203 205
1.19738 -0.0812612 0.366186 169 157 145
1.22689 -0.106882 0.380223 170 159 147
0.879015 0.0905501 0.328269 10 13 8
0.946231 0.0669456 0.319376 249 240 255
0.954839 0.0626237 0.31979 251 239 255
0.964106 0.0607844 0.31726 251 239 255
0.968306 0.0606251 0.31541 252 240 255
0.980899 0.0540325 0.316422 252 240 255
0.99467 0.0493803 0.314876 250 241 255
1.00672 0.0445725 0.31436 253 241 255
1.04544 0.0291271 0.313006 255 244 255
1.05781 0.0224252 0.314499 255 244 255
1.0696 0.0198892 0.311963 255 245 255
1.08827 0.00933175 0.314778 255 244 255
1.10238 0.00176849 0.316514 255 253 255
1.16412 -0.0436019 0.336894 145 132 125
1.20778 -0.0782622 0.354038 159 147 135
1.22609 -0.0946577 0.363129 155 143 131
1.21934 -0.0595334 0.330483 101 92 88
0.941978 0.0680573 0.316841 255 247 255
0.952392 0.0639176 0.316126 253 242 255
0.967133 0.0597573 0.31339 252 240 255
0.982529 0.0520358 0.314196 253 241 255
0.993417 0.0516487 0.309484 254 242 255
1.00301 0.0471456 0.309742 254 242 255
1.00739 0.0440233 0.310982 254 242 255
1.0381 0.02986 0.311746 254 242 255
1.05235 0.0235812 0.31188 255 244 255
1.05738 0.0232929 0.30995 255 244 255
1.06154 0.0210875 0.310389 255 244 255
1.06715 0.0201742 0.308867 255 244 255
1.07135 0.0180107 0.309254 255 245 255
1.08407 0.011615 0.310285 255 245 255
1.11003 -0.000736581 0.311766 255 247 255
1.11676 -0.00545464 0.313706 255 255 255
1.1268 -0.0107494 0.31484 255 246 255
1.1835 -0.0514198 0.332294 145 132 127
1.23775 -0.0888946 0.3477 125 121 118
0.941855 0.0688899 0.312605 252 240 255
0.953103 0.0633237 0.312956 251 239 255
0.958135 0.0616714 0.312244 252 240 255
0.982279 0.052898 0.309865 253 242 255
1.04888 0.0253204 0.307833 254 242 255
1.05857 0.0221039 0.306829 255 244 255
1.09731 0.00831252 0.304012 255 246 255
1.10339 0.0042221 0.30555 255 246 255
1.10716 0.00288369 0.305295 255 246 255
1.12536 -0.00570941 0.306253 255 252 255
1.15938 -0.0279751 0.314364 203 193 197
0.940725 0.0680956 0.310616 254 243 255
0.945674 0.066363 0.309989 252 240 255
0.962024 0.0592163 0.309478 252 240 255
0.982954 0.0523593 0.306587 253 241 255
0.985305 0.0519904 0.305858 255 244 255
0.989534 0.0519916 0.303866 254 242 255
0.99189 0.0516486 0.303116 254 242 255
1.00293 0.0449942 0.304835 254 242 255
1.00582 0.0439832 0.304537 255 244 255
1.00921 0.0422743 0.304725 254 242 255
1.01606 0.0388926 0.305051 254 242 255
1.02888 0.0336853 0.304536 255 245 255
1.03342 0.0306547 0.305577 255 244 255
1.04953 0.0248341 0.304276 255 245 255
1.06644 0.0186256 0.303085 255 245 255
1.0774 0.0142264 0.302735 255 245 255
1.10921 0.00385221 0.299473 255 245 255
1.11299 0.00254274 0.299177 255 245 255
1.1156 0.00260976 0.298009 255 246 255
1.12382 -0.000615822 0.297763 255 247 255
1.14326 -0.0130924 0.302034 255 252 255
0.919191 0.0422338 0.345292 11 14 9
0.939174 0.0680376 0.308079 255 251 255
0.943258 0.0677433 0.306365 251 239 255
0.955373 0.0607474 0.307687 252 240 255
0.964567 0.0589521 0.305084 253 241 255
0.994483 0.0482957 0.301833 254 242 255
1.00986 0.041781 0.301344 255 244 255
1.025 0.0362538 0.300029 255 245 255
1.05265 0.0242234 0.299756 255 245 255
1.06038 0.0204731 0.300101 255 245 255
1.06289 0.0203634 0.299102 255 245 255
1.07323 0.0166218 0.298312 255 245 255
1.10943 0.00691728 0.292388 255 246 255
1.12079 0.00306699 0.2914 255 247 255
1.15352 -0.0178713 0.29835 255 255 255
0.93846 0.0665423 0.306638 255 255 255
0.952357 0.0596925 0.306848 252 240 255
0.964785 0.0591515 0.301358 252 240 255
0.967084 0.0587282 0.300684 253 242 255
0.976798 0.0531877 0.3017 253 241 255
0.987575 0.0495441 0.300302 254 242 255
0.993738 0.0467059 0.30029 255 244 255
1.00134 0.0450321 0.298436 255 244 255
1.07496 0.0148063 0.295558 255 245 255
1.07805 0.0140546 0.294949 255 245 255
1.08739 0.0118736 0.293051 255 246 255
1.09167 0.00978873 0.293262 255 245 255
1.09422 0.00979159 0.292155 255 246 255
1.09795 0.00842643 0.291901 255 246 255
1.11 0.00654005 0.288611 255 246 255
1.11755 0.00396451 0.287938 255 247 255
1.14588 -0.0123551 0.292012 255 246 255
1.15411 -0.0182525 0.294339 255 255 255
0.916017 0.0465128 0.335389 10 12 12
0.937326 0.0657834 0.304651 255 251 255
0.958063 0.0575013 0.302909 253 242 255
0.959468 0.0585032 0.301203 253 242 255
0.961312 0.0587861 0.300019 254 243 255
0.980252 0.0515901 0.298231 254 242 255
0.988701 0.0483431 0.297511 254 242 255
0.997233 0.0451876 0.296685 255 244 255
1.00148 0.0452856 0.294604 255 245 255
1.01011 0.0422807 0.293618 255 245 255
1.01986 0.0379478 0.293477 255 244 255
1.05855 0.0204278 0.29346 255 244 255
1.07273 0.0178905 0.289701 255 246 255
1.11432 0.00489117 0.284492 255 246 255
1.11991 0.00156202 0.285363 255 246 255
1.12372 0.000304165 0.284978 255 246 255
0.972536 0.0544447 0.295615 254 243 255
0.975779 0.0526005 0.295918 255 244 255
0.980422 0.0518406 0.294467 255 244 255
1.0021 0.0448435 0.291269 255 244 255
1.01464 0.0394406 0.290838 255 244 255
1.02046 0.0375225 0.290066 255 244 255
1.0338 0.0316869 0.289766 255 244 255
1.03783 0.0293717 0.290229 255 244 255
1.04028 0.0291986 0.289295 255 246 255
1.0438 0.0276189 0.289266 255 244 255
1.08738 0.0125087 0.284807 255 246 255
1.12669 -0.00276416 0.282755 255 246 255
0.935629 0.0667163 0.297949 255 244 255
0.937859 0.0661979 0.297362 252 240 255
0.947684 0.0627397 0.295988 253 242 255
0.949503 0.0629953 0.294836 253 242 255
0.98248 0.0492105 0.292703 254 242 255
0.985289 0.0481253 0.292448 254 242 255
0.99142 0.0452618 0.292395 254 242 255
1.00471 0.0415383 0.289855 255 244 255
1.03896 0.0282635 0.287197 255 246 255
1.04385 0.0279402 0.285305 255 245 255
1.0725 0.0158037 0.284364 255 246 255
1.07865 0.0143107 0.283105 255 245 255
1.0891 0.0107697 0.281967 255 247 255
1.10848 0.00614096 0.278055 255 246 255
1.13796 -0.0089416 0.279968 255 246 255
0.897218 0.0722613 0.308694 10 13 8
0.906634 0.0605613 0.315655 11 14 11
0.934329 0.0628396 0.299226 255 244 255
0.946094 0.0627392 0.293479 254 243 255
0.950594 0.0617867 0.292217 253 242 255
0.972872 0.0549958 0.288162 254 243 255
0.984955 0.0491431 0.288187 254 242 255
0.988248 0.0473434 0.288402 254 242 255
0.999094 0.0438807 0.286704 255 244 255
1.00869 0.0394056 0.286617 255 244 255
1.0708 0.0182724 0.279024 255 247 255
1.0877 0.00973856 0.279802 255 247 255
0.917333 0.0436825 0.323774 12 15 14
0.93353 0.0193784 0.339809 15 15 15
0.930958 0.0626636 0.297823 37 29 39
0.934328 0.0669916 0.291825 253 242 255
0.962526 0.0591176 0.285757 255 244 255
0.963874 0.0601677 0.284069 254 243 255
0.976726 0.0527309 0.285205 255 245 255
0.982768 0.0498091 0.285189 255 244 255
0.994016 0.0455501 0.28403 255 244 255
1.00305 0.0417399 0.283509 255 244 255
1.00692 0.0392849 0.284092 255 244 255
1.01132 0.0361202 0.285123 255 245 255
1.05975 0.0203558 0.278272 255 246 255
1.08572 0.00942281 0.27722 255 247 255
1.09446 0.00805688 0.274695 255 246 255
1.12128 -0.00184782 0.27249 255 246 255
1.12949 -0.00502667 0.271979 255 245 255
0.911259 0.044952 0.322256 10 13 8
0.930413 0.0643957 0.293135 207 195 210
0.93319 0.0663041 0.289857 253 242 255
0.937619 0.0652712 0.288667 253 242 255
0.959529 0.0580774 0.284952 254 243 255
0.980586 0.0504976 0.282202 255 244 255
1.00128 0.0416485 0.280996 255 245 255
1.01668 0.0352441 0.280003 255 245 255
1.03529 0.0282321 0.27818 255 246 255
1.03933 0.0259088 0.278567 255 246 255
1.0423 0.0250346 0.278052 255 246 255
1.05592 0.0195149 0.277165 255 246 255
1.08761 0.0105335 0.271609 255 247 255
1.1224 -0.00280317 0.269058 255 246 255
1.12497 -0.00266841 0.267828 255 247 255
1.13 -0.00528313 0.268123 255 247 255
0.918914 0.0300723 0.329629 11 14 13
0.926186 0.0235648 0.332293 12 15 14
0.934788 0.0675666 0.284625 253 242 255
0.950261 0.0609262 0.28345 254 243 255
0.960601 0.0569272 0.282282 255 244 255
0.962407 0.0572434 0.281097 255 244 255
0.96827 0.0574992 0.278011 255 244 255
0.972414 0.0541634 0.279245 255 244 255
0.980704 0.050849 0.278477 255 244 255
0.992868 0.0451083 0.27823 255 245 255
1.01829 0.0334431 0.277516 255 245 255
1.03693 0.0264609 0.275592 255 247 255
1.06972 0.014619 0.271996 255 246 255
1.07334 0.0131518 0.271765 255 246 255
1.08562 0.0102504 0.269049 255 247 255
1.09181 0.00887548 0.267618 255 246 255
1.12107 -0.000965099 0.264087 255 247 255
1.13049 -0.00551912 0.264269 255 247 255
1.18603 -0.0443716 0.276612 106 101 100
0.915066 0.0306969 0.327553 11 14 9
0.925912 0.0166249 0.335727 11 14 13
0.931035 0.0681743 0.282743 253 242 255
0.946419 0.0614491 0.281616 254 243 255
0.957602 0.0559082 0.281475 254 243 255
0.967066 0.0567844 0.276029 255 245 255
0.976708 0.0512042 0.276744 255 244 255
0.979475 0.0501038 0.276472 255 244 255
0.985037 0.0479333 0.275894 255 245 255
0.993941 0.0440211 0.275405 255 245 255
1.00244 0.0409391 0.274336 255 245 255
1.0058 0.0392027 0.274414 255 245 255
1.01204 0.0364958 0.274068 255 245 255
1.02176 0.0321608 0.273665 255 245 255
1.02946 0.0308322 0.271368 255 246 255
1.04503 0.0222415 0.272346 255 246 255
1.06248 0.0180248 0.268413 255 246 255
1.06664 0.0158174 0.268618 255 246 255
1.07024 0.0143387 0.268388 255 246 255
1.10222 0.00597298 0.262052 255 247 255
1.11148 0.00124446 0.262397 255 246 255
0.939475 -0.00579957 0.346971 14 14 14
0.92822 0.0601364 0.288776 74 68 79
0.929483 0.0682816 0.280276 252 240 255
0.933855 0.067242 0.279089 253 242 255
0.944382 0.0622702 0.278639 254 243 255
0.956412 0.0552101 0.279487 255 244 255
0.961813 0.0561563 0.275942 255 244 255
0.969053 0.0542021 0.274295 255 244 255
0.995008 0.0429489 0.272572 255 245 255
1.00973 0.0371556 0.271117 255 245 255
1.016 0.0344785 0.270714 255 245 255
1.02469 0.0316435 0.269343 255 246 255
1.02761 0.030721 0.268862 255 246 255
1.04989 0.0224261 0.266425 255 246 255
1.07133 0.0133643 0.26519 255 246 255
1.07801 0.0111702 0.264241 255 247 255
1.08971 0.00906821 0.260989 255 246 255
0.927482 0.0587296 0.287314 50 44 51
0.934474 0.066848 0.276028 255 241 255
0.953881 0.0567668 0.276025 255 244 255
0.956122 0.0563256 0.275345 255 244 255
0.962864 0.0550528 0.273258 255 244 255
0.970103 0.0531133 0.271581 255 245 255
1.00173 0.0398433 0.268979 255 245 255
1.00356 0.0403049 0.267684 255 245 255
1.01447 0.0371065 0.265565 255 246 255
1.03027 0.0275253 0.267167 255 246 255
1.05561 0.018462 0.263974 255 247 255
1.06331 0.0147061 0.26396 255 249 255
1.08771 0.00882355 0.25845 255 247 255
1.13737 -0.015338 0.25874 255 255 255
0.925445 0.0668184 0.277476 255 255 255
0.942953 0.0627449 0.272582 255 244 255
0.947807 0.0610569 0.271776 255 244 255
0.950467 0.0598509 0.271603 255 244 255
0.989526 0.045894 0.265788 255 246 255
1.01369 0.0355942 0.263966 255 246 255
1.02974 0.028714 0.262868 255 247 255
1.04202 0.0244519 0.26114 255 247 255
1.04553 0.022873 0.260988 255 247 255
1.05015 0.0198598 0.261646 255 247 255
1.07233 0.0128988 0.257976 255 247 255
1.07958 0.0100057 0.257368 255 247 255
1.09553 0.00587023 0.254031 255 247 255
1.10412 0.0017661 0.253961 255 247 255
1.11908 -0.00341898 0.252093 255 247 255
0.933313 -0.00774506 0.340997 10 12 12
0.925126 0.0646974 0.276546 255 255 255
0.938727 0.0641102 0.270276 254 243 255
0.959541 0.0552078 0.268341 255 243 255
0.967201 0.0524926 0.267139 255 243 255
0.981258 0.0495535 0.263082 255 245 255
0.989575 0.04635 0.262074 255 245 255
1.00383 0.0377908 0.263222 255 246 255
1.00616 0.0375299 0.262362 255 245 255
1.01709 0.0343743 0.26014 255 246 255
1.04417 0.0220352 0.258902 255 247 255
1.0583 0.0158261 0.258103 255 247 255
1.06733 0.0134796 0.256137 255 246 255
0.955201 0.0564906 0.266115 255 243 255
0.960573 0.0541399 0.265659 255 243 255
0.979047 0.0503626 0.260183 255 245 255
0.981312 0.0500237 0.259406 255 245 255
1.05282 0.0172344 0.255822 255 247 255
1.08416 0.00821373 0.249744 255 249 255
1.09824 0.00340668 0.247766 255 247 255
1.12058 -0.00441143 0.244867 255 247 255
0.937914 -0.0104813 0.333905 17 12 18
0.937642 0.0279611 0.298182 16 17 14
0.923658 0.0619857 0.273652 245 233 249
0.924201 0.0644921 0.271048 255 255 255
0.925133 0.066241 0.268953 255 242 255
0.933799 0.0641633 0.266519 255 243 255
0.936402 0.0629041 0.266382 255 244 255
0.937722 0.0639321 0.264772 255 244 255
0.942084 0.062973 0.263486 255 243 255
0.970094 0.0522761 0.25957 255 244 255
0.980553 0.0486035 0.257874 255 245 255
0.983309 0.0475231 0.257536 255 245 255
1.03103 0.025248 0.255196 255 247 255
1.04461 0.022346 0.25152 255 249 255
1.06357 0.0160436 0.24849 255 247 255
1.06886 0.0123865 0.249358 255 249 255
1.07361 0.00947276 0.249811 255 249 255
1.07853 0.00946279 0.247595 255 249 255
1.10117 0.00335276 0.242882 255 247 255
0.928205 -0.00711167 0.332216 10 13 8
0.941445 -0.0212894 0.338484 17 12 18
0.932641 0.0635831 0.264578 255 243 255
0.936127 0.0641105 0.262347 255 243 255
0.947467 0.0609972 0.259559 255 245 255
0.950558 0.0590343 0.259826 255 244 255
0.955876 0.0566556 0.259377 255 244 255
0.96077 0.0550718 0.25842 255 246 255
0.962994 0.0546715 0.257696 255 245 255
1.00128 0.0368304 0.255413 255 246 255
1.00643 0.0355703 0.254103 255 246 255
1.01108 0.0350933 0.252331 255 246 255
1.01445 0.0333857 0.252277 255 246 255
1.03099 0.0257812 0.251349 255 247 255
1.04675 0.0199697 0.249236 255 249 255
1.04804 0.0213312 0.247425 255 251 255
1.05044 0.0212385 0.246404 255 249 255
1.06574 0.01371 0.246092 255 249 255
1.08143 0.00933504 0.242851 255 249 255
1.10839 0.00132322 0.237842 255 247 255
1.11896 -0.00179529 0.2359 255 255 255
1.12773 -0.0026678 0.232801 117 113 112
0.942014 -0.0259766 0.33883 16 12 18
0.944913 -0.0273512 0.338588 17 14 19
0.952662 -0.0387413 0.345049 18 15 20
0.943158 0.0112146 0.304075 30 18 31
0.933225 0.0632739 0.261526 255 242 255
0.934535 0.0643051 0.259929 255 244 255
0.937131 0.0630507 0.259772 255 243 255
0.942772 0.0631541 0.256865 255 245 255
0.963066 0.0551743 0.254091 255 244 255
0.966226 0.0532733 0.254264 255 244 255
0.982578 0.0466235 0.252324 255 246 255
0.993657 0.0423979 0.250797 255 246 255
1.00693 0.0353599 0.250773 255 246 255
1.01262 0.0334056 0.249827 255 246 255
1.01495 0.0331883 0.24892 255 246 255
1.02332 0.0275925 0.249966 255 247 255
1.04427 0.0206438 0.246365 255 249 255
1.07279 0.0113534 0.241471 255 249 255
1.07639 0.00990446 0.241109 255 249 255
1.08059 0.00774787 0.241099 255 247 255
1.08973 0.00569784 0.238764 255 249 255
1.12496 -0.00522513 0.232575 104 97 97
1.13497 -0.013496 0.235343 120 113 113
0.918625 0.0633608 0.26581 176 167 179
0.928641 0.0655284 0.258767 255 243 255
0.937696 0.0627706 0.256714 255 245 255
0.944652 0.0605993 0.255205 255 243 255
0.946832 0.0601472 0.254529 255 243 255
0.968643 0.0500055 0.252903 255 246 255
0.981809 0.0452242 0.250779 255 246 255
1.01543 0.0330097 0.245566 255 246 255
1.05599 0.0179574 0.239908 255 249 255
1.05896 0.0171699 0.239231 255 249 255
1.06664 0.0134467 0.238965 255 249 255
1.07741 0.00906875 0.237873 255 249 255
1.0877 0.00554815 0.236271 255 250 255
1.09134 0.00416354 0.235826 255 249 255
1.11475 -0.00224269 0.230877 255 248 255
1.11663 -0.00137493 0.229291 255 255 255
1.1216 -0.00404337 0.229385 128 123 125
1.15504 -0.026185 0.23368 118 111 111
1.15763 -0.0258995 0.232295 117 110 110
0.948185 -0.0462603 0.346651 17 14 19
0.954885 -0.0457119 0.34267 21 15 24
0.951701 -0.0118735 0.313728 32 24 31
0.923681 0.0685968 0.255526 255 244 255
0.933935 0.0634777 0.254954 255 245 255
0.936524 0.0622205 0.254782 255 245 255
0.946533 0.0580506 0.253518 255 245 255
0.958881 0.0536179 0.251362 255 245 255
0.970115 0.0482621 0.250616 255 246 255
0.974597 0.0475441 0.249067 255 246 255
0.98507 0.0439462 0.247175 255 246 255
0.993379 0.0407893 0.245964 255 247 255
0.996671 0.0390058 0.245958 255 247 255
1.0498 0.0173212 0.239919 255 250 255
1.0611 0.0148656 0.236831 255 249 255
1.10397 -0.00139755 0.231376 255 247 255
1.11265 -0.00243967 0.228376 255 247 255
1.16837 -0.0246422 0.222694 115 106 104
1.16232 -0.009031 0.212096 118 110 106
0.945827 -0.0350871 0.334045 23 17 26
0.936208 0.0635097 0.250796 255 244 255
0.941839 0.0602572 0.250868 255 244 255
0.954545 0.0549833 0.249228 255 246 255
0.959871 0.0526338 0.248676 255 246 255
0.981056 0.0443959 0.245575 255 247 255
0.985568 0.0437634 0.243944 255 247 255
1.00609 0.0350705 0.241699 255 246 255
1.00839 0.0348396 0.240801 255 247 255
1.0107 0.0346181 0.239897 255 247 255
1.03342 0.0244164 0.238039 255 250 255
1.03742 0.0220572 0.238212 255 249 255
1.04034 0.0211959 0.237593 255 249 255
1.0473 0.0180316 0.237081 255 250 255
1.06451 0.0140098 0.232581 255 248 255
1.06692 0.0139909 0.231488 255 248 255
1.07407 0.0110689 0.23072 255 249 255
1.08009 0.00966001 0.229176 255 250 255
1.09701 0.00122524 0.228708 255 249 255
1.11551 -0.00231092 0.223388 255 251 255
0.916349 0.0702182 0.251936 255 244 255
0.94677 0.0557249 0.2494 255 244 255
0.981062 0.0449815 0.241933 255 247 255
1.01504 0.0320291 0.236851 255 247 255
1.02181 0.0286562 0.236557 255 249 255
1.03605 0.0213285 0.236156 255 249 255
1.06435 0.0146738 0.228679 255 249 255
1.07865 0.00884851 0.227072 255 248 255
1.08226 0.00743021 0.226628 255 248 255
1.10232 0.0014071 0.222613 255 247 255
1.12333 -0.0078469 0.220976 113 108 107
0.922363 0.0665635 0.249185 255 244 255
0.939468 0.0591967 0.247007 255 246 255
0.951667 0.0546451 0.244889 255 245 255
0.956965 0.0522727 0.244328 255 246 255
0.958701 0.0526393 0.243149 255 246 255
0.964042 0.0503234 0.242527 255 246 255
0.972123 0.0469253 0.241507 255 246 255
0.974352 0.0465778 0.240718 255 246 255
0.996339 0.0380524 0.237411 255 249 255
0.999126 0.0370352 0.236945 255 246 255
1.01371 0.0313625 0.234836 255 249 255
1.01708 0.0296614 0.234691 255 249 255
1.0307 0.0229919 0.233947 255 249 255
1.03413 0.0213588 0.23372 255 250 255
1.06772 0.0138827 0.224401 255 250 255
1.07187 0.0116887 0.224346 255 250 255
1.08989 0.00461604 0.222053 255 247 255
1.09353 0.00324806 0.221545 255 250 255
1.09658 0.00261973 0.220685 255 249 255
1.09842 0.00344976 0.219147 255 247 255
0.912278 0.0657018 0.252174 185 176 188
0.915771 0.0695022 0.247069 255 244 255
0.91787 0.0689587 0.246472 255 245 255
0.937408 0.0602365 0.244169 255 246 255
0.942155 0.0585328 0.243265 255 245 255
0.9614 0.0520767 0.239276 255 246 255
0.991764 0.0392282 0.235469 255 247 255
1.0001 0.0361575 0.234068 255 249 255
1.03276 0.0206568 0.23167 255 250 255
1.04148 0.0180561 0.229756 255 249 255
1.05321 0.0147579 0.227039 255 249 255
1.06572 0.0138579 0.221971 255 251 255
1.07343 0.010198 0.221481 255 250 255
1.07701 0.00875883 0.221036 255 251 255
0.954868 0.0538801 0.237956 255 246 255
0.961421 0.0526982 0.23572 255 246 255
0.979008 0.0436628 0.234788 255 247 255
0.984471 0.0415062 0.233957 255 247 255
0.989467 0.0401562 0.232674 255 249 255
1.00055 0.0360552 0.230787 255 249 255
1.00771 0.0317954 0.230951 255 249 255
1.02509 0.022525 0.230464 255 249 255
1.05249 0.0162027 0.222825 255 251 255
1.06076 0.0146054 0.220295 255 251 255
1.10095 0.00131906 0.212799 255 249 255
1.11013 -0.000409774 0.210045 206 198 207
0.910122 0.0681474 0.245398 244 232 248
0.9139 0.0678137 0.243746 255 245 255
0.935473 0.0584727 0.240778 255 246 255
0.954435 0.0552854 0.233994 255 247 255
0.977249 0.0438683 0.232411 255 247 255
0.987676 0.0403393 0.230294 255 249 255
0.995953 0.0372283 0.228893 255 247 255
0.999241 0.0354504 0.228797 255 249 255
1.02373 0.0218606 0.228426 255 249 255
1.03128 0.0206588 0.225828 255 251 255
1.03471 0.0190258 0.22556 255 249 255
1.04647 0.0185399 0.220398 255 250 255
1.05288 0.0161826 0.219341 255 248 255
1.08616 0.00749406 0.211046 255 250 255
0.909659 0.0627601 0.247384 80 74 81
0.914849 0.0668255 0.241249 255 245 255
0.951049 0.0551957 0.232803 255 247 255
0.963793 0.0501285 0.230738 255 247 255
0.978691 0.0422232 0.230036 255 247 255
1.00786 0.0295784 0.226405 255 250 255
1.02077 0.0234838 0.225264 255 247 255
1.03692 0.0196284 0.220746 255 250 255
1.04978 0.0177224 0.216234 255 250 255
1.07747 0.00654836 0.212456 255 250 255
1.07988 0.0065987 0.211295 255 250 255
1.0889 0.00461674 0.208736 255 249 255
0.910225 0.0625413 0.244407 224 215 227
0.909938 0.0667219 0.241017 255 253 255
0.912896 0.0679775 0.238434 255 245 255
0.915386 0.0666404 0.238287 255 246 255
0.917475 0.0661013 0.237672 255 246 255
0.930111 0.0595914 0.23672 255 247 255
0.932669 0.0583168 0.236496 255 247 255
0.945971 0.0547792 0.232758 255 247 255
0.958956 0.0523293 0.228321 255 247 255
0.961603 0.0511733 0.227971 255 247 255
0.981374 0.0418259 0.226004 255 249 255
0.989574 0.038645 0.224631 255 250 255
0.992832 0.036838 0.224541 255 249 255
0.996614 0.0342761 0.224823 255 249 255
1.00042 0.031729 0.225085 255 250 255
1.01163 0.0277933 0.222907 255 251 255
1.0321 0.0205941 0.219006 255 251 255
1.05592 0.0132112 0.213755 255 250 255
1.06476 0.0109308 0.211456 255 251 255
1.08322 0.00598036 0.206862 255 250 255
0.911755 0.0675648 0.236548 255 246 255
0.928505 0.0599339 0.234368 255 247 255
0.933612 0.0573825 0.233904 255 247 255
0.939136 0.057556 0.230964 255 247 255
0.941718 0.0563195 0.230692 255 247 255
0.946007 0.0554438 0.229263 255 247 255
0.96036 0.0506795 0.226042 255 249 255
0.966148 0.0476093 0.22571 255 249 255
0.9693 0.0457019 0.225726 255 247 255
0.984539 0.0406932 0.222349 255 249 255
1.01487 0.0268086 0.218995 255 250 255
1.02338 0.0240245 0.217173 255 250 255
1.03018 0.0207113 0.216616 255 250 255
1.04115 0.0180227 0.213561 255 251 255
1.05807 0.0139675 0.208829 255 251 255
1.06807 0.0102464 0.207134 255 250 255
1.09016 0.004033 0.201828 255 250 255
0.919838 0.0335972 0.257853 21 19 18
0.910293 0.056923 0.243355 158 147 159
0.90981 0.0687532 0.233754 255 246 255
0.923529 0.0631716 0.231355 255 247 255
0.930698 0.0601001 0.23025 255 247 255
0.937495 0.0578972 0.228626 255 247 255
0.951697 0.0529422 0.225565 255 249 255
0.954317 0.0517564 0.22523 255 249 255
0.959117 0.0501971 0.224115 255 249 255
0.961289 0.0498222 0.22334 255 249 255
0.968037 0.045199 0.223783 255 249 255
0.988705 0.0380502 0.219437 255 250 255
1.04153 0.01805 0.210129 255 252 255
1.05258 0.0155678 0.206869 255 250 255
1.05958 0.0125284 0.206001 255 250 255
1.06546 0.0110404 0.204416 255 251 255
1.07549 0.00440288 0.205027 255 250 255
1.08028 0.00451638 0.202684 255 251 255
0.909923 0.0549082 0.242349 126 115 126
0.907803 0.0665382 0.233835 255 252 255
0.914869 0.0667209 0.230043 255 247 255
0.938863 0.0562163 0.226444 255 249 255
0.953083 0.0512935 0.223309 255 249 255
0.973359 0.0436907 0.219396 255 251 255
0.978749 0.0415009 0.218509 255 251 255
0.984173 0.039354 0.217575 255 250 255
1.00376 0.0285507 0.216722 255 251 255
1.00883 0.0273612 0.21521 255 251 255
1.01058 0.0279339 0.213893 255 251 255
1.02687 0.0202326 0.21221 255 251 255
1.03835 0.016743 0.209488 255 251 255
1.08538 0.00478224 0.196724 255 251 255
1.09198 0.00278473 0.195218 255 250 255
0.960654 -0.098443 0.339013 11 8 13
0.95702 -0.0592577 0.30869 14 14 14
0.948513 -0.0365443 0.294471 23 23 23
0.929794 0.0069925 0.268475 28 28 28
0.908769 0.0544973 0.240424 108 100 110
0.915786 0.0658018 0.227539 255 247 255
0.922859 0.0626491 0.226487 255 247 255
0.9279 0.0600609 0.226023 255 249 255
0.933414 0.0567161 0.22594 255 247 255
0.937658 0.0557889 0.224538 255 247 255
0.952308 0.0500536 0.221798 255 247 255
0.960959 0.0485136 0.218706 255 251 255
0.96626 0.046228 0.217909 255 250 255
0.970626 0.0455482 0.216283 255 250 255
0.994825 0.0331097 0.214346 255 251 255
1.00087 0.0303146 0.213626 255 250 255
1.01256 0.0256415 0.21166 255 252 255
1.03639 0.0168819 0.207113 255 251 255
1.03816 0.0175524 0.205727 255 251 255
1.04337 0.0166449 0.203946 255 251 255
1.04513 0.017342 0.202545 255 251 255
1.08867 0.00427882 0.192233 255 250 255
0.96216 -0.0947909 0.331348 10 10 15
0.90839 0.0524908 0.239405 78 70 79
0.905201 0.0700346 0.226791 255 248 255
0.9101 0.0673133 0.226468 255 247 255
0.916698 0.0648961 0.225029 255 247 255
0.918771 0.064373 0.224388 255 246 255
0.931784 0.0571016 0.223615 255 250 255
0.940701 0.0544729 0.221203 255 249 255
0.956607 0.0500113 0.21677 255 249 255
0.96404 0.0473356 0.215195 255 250 255
1.00457 0.028566 0.210138 255 251 255
1.04251 0.0152688 0.202247 255 252 255
1.04372 0.0167246 0.200518 255 251 255
1.06583 0.00906716 0.195966 255 250 255
1.08778 0.00283627 0.190448 255 250 255
1.09138 0.00147406 0.189816 255 250 255
1.09856 0.00189664 0.186109 254 245 255
0.959804 -0.0880876 0.323314 10 10 15
0.915125 0.0653314 0.222721 255 250 255
0.922174 0.0621759 0.221634 255 249 255
0.933132 0.0554329 0.221439 255 250 255
0.939487 0.0540623 0.2193 255 249 255
0.944642 0.0516014 0.218653 255 249 255
0.957512 0.0491967 0.214076 255 250 255
0.970745 0.0435006 0.211982 255 250 255
0.979781 0.0386425 0.21134 255 251 255
0.981989 0.038351 0.210475 255 251 255
0.985201 0.0365056 0.210345 255 251 255
0.98964 0.0359718 0.208569 255 251 255
0.996656 0.031586 0.208577 255 251 255
1.01106 0.0258944 0.205994 255 252 255
1.01439 0.0241745 0.205719 255 251 255
1.02056 0.0215458 0.204776 255 250 255
1.0234 0.0206352 0.204113 255 252 255
1.04983 0.015224 0.195565 255 251 255
1.05679 0.0121665 0.194616 255 251 255
1.07615 0.00866059 0.188105 255 251 255
1.08807 0.00299949 0.186859 255 250 255
1.08984 0.00386264 0.185349 255 250 255
1.09222 0.00399484 0.184123 255 252 255
0.959501 -0.0912926 0.322265 10 10 15
0.955953 -0.0678685 0.30533 13 12 17
0.950987 -0.0522383 0.295396 14 13 18
0.935605 -0.0147891 0.27342 29 20 33
0.908208 0.0658066 0.223167 255 248 255
0.914787 0.0633699 0.221711 255 249 255
0.921839 0.060205 0.220602 255 250 255
0.934041 0.054574 0.218833 255 250 255
0.938273 0.0536629 0.217399 255 250 255
0.955324 0.0503543 0.211381 255 250 255
1.00032 0.0298453 0.205108 255 251 255
1.00361 0.0280781 0.204873 255 252 255
1.02147 0.0208452 0.201767 255 252 255
1.02322 0.0214795 0.200417 255 252 255
1.02605 0.0205842 0.199735 255 251 255
1.03514 0.0172052 0.197943 255 252 255
1.04381 0.0176994 0.193357 255 251 255
1.06584 0.0131392 0.186301 255 251 255
0.91028 0.0400018 0.239842 25 20 24
0.903828 0.0684579 0.220609 255 247 255
0.913215 0.0638294 0.21941 255 250 255
0.929001 0.057871 0.215995 255 250 255
0.950264 0.0499293 0.211417 255 250 255
0.956216 0.0495653 0.208692 255 251 255
0.961459 0.0472508 0.207866 255 249 255
0.964094 0.0461092 0.207436 255 250 255
0.990925 0.0352784 0.202501 255 251 255
1.00346 0.0289198 0.201248 255 252 255
1.02129 0.0217042 0.198084 255 252 255
1.03033 0.0182665 0.196325 255 252 255
1.04126 0.0186445 0.190713 255 251 255
1.06031 0.0117088 0.186853 255 251 255
1.06264 0.0117332 0.185712 255 251 255
1.08089 0.00378797 0.183061 255 251 255
1.08982 0.00189535 0.180256 255 250 255
0.943286 -0.0677808 0.304692 10 10 15
0.951277 -0.0805922 0.3106 10 10 15
0.922068 0.0119859 0.252873 25 20 24
0.907154 0.0662066 0.217954 255 248 255
0.929894 0.0570353 0.213413 255 249 255
0.933642 0.0569103 0.21159 255 249 255
0.936625 0.0548544 0.211673 255 249 255
0.987896 0.034277 0.201814 255 251 255
1.0054 0.0266633 0.199008 255 252 255
1.02272 0.020264 0.195402 255 252 255
1.02783 0.019257 0.19367 255 252 255
1.03012 0.0191548 0.192629 255 252 255
1.06468 0.00964886 0.183119 255 250 255
1.20051 -0.0917975 0.195348 14 5 17
0.901551 0.0678368 0.216899 255 251 255
0.917471 0.0607775 0.214134 255 251 255
0.94096 0.0512021 0.209498 255 251 255
0.945198 0.0503578 0.20799 255 250 255
0.983362 0.0356618 0.200056 255 251 255
1.01344 0.0217312 0.195775 255 252 255
1.02926 0.017845 0.190948 255 252 255
1.04127 0.0167079 0.185933 255 251 255
1.04815 0.0135777 0.18496 255 252 255
1.05797 0.00975586 0.183084 255 251 255
1.09153 0.000858718 0.173633 255 253 255
1.18619 -0.0889528 0.196004 46 29 37
1.20049 -0.0983499 0.196263 53 42 55
1.20578 -0.100807 0.195597 49 38 51
1.22119 -0.0859696 0.177265 0 0 0
0.943896 -0.0661932 0.295983 9 9 13
0.946083 -0.0659513 0.294642 10 10 15
0.942372 -0.0526093 0.286234 10 10 15
0.942496 -0.0431026 0.278787 13 12 17
0.93323 -0.0183272 0.26443 19 16 21
0.906586 0.0431749 0.230704 40 31 41
0.906084 0.0666631 0.21277 255 251 255
0.914239 0.0609784 0.212928 255 251 255
0.917938 0.0607511 0.211186 255 251 255
0.920419 0.0594331 0.21092 255 251 255
0.922062 0.0597437 0.209831 255 251 255
0.924984 0.0576342 0.20995 255 251 255
0.929576 0.0558701 0.208944 255 251 255
0.940495 0.0528225 0.205688 255 252 255
0.942602 0.0523996 0.204936 255 250 255
0.95199 0.0491917 0.202613 255 251 255
0.958136 0.0452474 0.202516 255 251 255
0.973997 0.038468 0.199686 255 251 255
0.983738 0.0357434 0.19687 255 251 255
0.989819 0.0357736 0.193802 255 251 255
0.998885 0.0282479 0.195007 255 251 255
1.00268 0.0256888 0.195063 255 251 255
1.01659 0.0209187 0.191781 255 252 255
1.02166 0.0198701 0.190067 255 252 255
1.06057 0.00997768 0.178472 255 251 255
1.06991 0.00709422 0.17611 255 251 255
1.07284 0.0064125 0.175204 255 251 255
1.07697 0.00423851 0.174838 255 251 255
1.18489 -0.0939855 0.196428 34 20 34
1.22515 -0.114869 0.192808 75 69 78
1.23483 -0.114623 0.188046 0 0 0
1.22792 -0.0997485 0.180298 0 0 0
0.946142 -0.0750439 0.29808 9 9 13
0.947271 -0.0671605 0.291409 10 10 15
0.899195 0.063752 0.215936 255 253 255
0.899273 0.067259 0.2132 255 252 255
0.904934 0.0663739 0.210922 255 251 255
0.914293 0.0617715 0.20958 255 252 255
0.918815 0.059929 0.208647 255 252 255
0.922938 0.0589322 0.207276 255 251 255
0.930454 0.05507 0.206351 255 251 255
0.946499 0.049614 0.202283 255 252 255
0.953328 0.0476415 0.200301 255 251 255
0.959725 0.0465509 0.197878 255 251 255
0.963303 0.0438092 0.198146 255 251 255
0.966419 0.0418792 0.198033 255 251 255
0.971228 0.0404439 0.196689 255 251 255
0.985114 0.03426 0.194379 255 252 255
0.993253 0.0311601 0.192641 255 251 255
1.01081 0.0237048 0.189504 255 253 255
1.02362 0.0176879 0.187678 255 252 255
1.03445 0.0180029 0.182096 255 251 255
1.05388 0.00707241 0.180744 255 251 255
1.06142 0.00943787 0.175291 255 251 255
1.06433 0.00872198 0.17441 255 252 255
1.06724 0.00801908 0.173517 255 251 255
1.09628 -0.00384306 0.168283 174 168 181
1.19027 -0.0996854 0.194114 88 76 94
1.19678 -0.103682 0.193952 105 93 111
1.23042 -0.123923 0.192828 45 39 50
0.926218 -0.112085 0.333519 3 3 3
0.927355 -0.108651 0.330271 5 5 5
0.940825 -0.0666346 0.290886 8 7 12
0.899363 0.0680472 0.209901 255 252 255
0.900977 0.0682952 0.208868 255 252 255
0.913121 0.0614756 0.207722 255 253 255
0.931764 0.0534729 0.204141 255 252 255
0.938038 0.0521372 0.201923 255 252 255
0.961544 0.0442313 0.19588 255 251 255
0.968955 0.0416463 0.194067 255 252 255
0.972584 0.0389447 0.194262 255 250 255
0.996695 0.0265497 0.191422 255 252 255
1.00443 0.0243698 0.189183 255 252 255
1.01779 0.0204361 0.185462 255 253 255
1.04896 0.00806027 0.179263 255 251 255
1.05648 0.00729494 0.176138 255 251 255
1.05706 0.00960852 0.174139 255 251 255
1.06867 0.00675019 0.170579 255 252 255
1.13471 -0.0433773 0.175521 9 3 23
1.19924 -0.102251 0.187706 56 47 61
0.91109 -0.0822296 0.315125 3 3 3
0.924858 -0.100111 0.321337 3 3 3
0.932581 -0.0670868 0.292101 7 7 7
0.932339 -0.0559135 0.283749 8 7 12
0.933755 -0.0540357 0.281573 9 9 13
0.935876 -0.0538012 0.280271 9 9 13
0.942677 -0.0590775 0.280672 10 10 15
0.899047 0.0696761 0.206203 255 252 255
0.927602 0.0552471 0.202215 255 252 255
0.944745 0.0509445 0.196615 255 252 255
0.951996 0.0481645 0.194985 255 252 255
0.954114 0.0477936 0.19418 255 252 255
0.95576 0.0482353 0.193009 255 252 255
0.960483 0.0467332 0.191726 255 251 255
0.968344 0.0433534 0.190255 255 252 255
0.973629 0.0411538 0.189217 255 252 255
0.976783 0.0392737 0.189023 255 251 255
0.985824 0.0345048 0.18801 255 252 255
0.99601 0.0282675 0.187523 255 252 255
1.00096 0.0270716 0.185924 255 252 255
1.01532 0.0215263 0.182859 255 252 255
1.01864 0.0198287 0.182457 255 252 255
1.02644 0.0149173 0.182212 255 253 255
1.08893 0.000154036 0.162357 255 255 255
1.10348 -0.0114833 0.163801 6 3 22
1.20973 -0.113784 0.187049 13 0 9
0.929934 -0.0488041 0.27626 9 9 13
0.941613 -0.0552628 0.274927 13 10 16
0.937024 -0.0401287 0.265984 14 11 17
0.896244 0.0656492 0.208084 255 253 255
0.900297 0.0680382 0.204164 255 253 255
0.904706 0.0661013 0.203306 255 253 255
0.931292 0.0560075 0.197021 255 253 255
0.951202 0.0470201 0.193462 255 252 255
0.959684 0.0455809 0.190192 255 253 255
0.983478 0.0356964 0.18542 255 251 255
0.991421 0.0296519 0.185872 255 252 255
0.993624 0.0294291 0.184925 255 252 255
1.00129 0.0272377 0.182681 255 253 255
1.0167 0.0201457 0.180173 255 253 255
1.03073 0.0157236 0.176424 255 252 255
1.03695 0.0132653 0.175134 255 251 255
1.04208 0.0124085 0.173217 255 251 255
1.07909 0.00381251 0.16127 255 251 255
1.20643 -0.116716 0.186696 8 0 3
0.940006 -0.0654528 0.279973 9 9 13
0.89463 0.0626923 0.208513 238 227 238
0.895489 0.0645804 0.206655 255 254 255
0.896769 0.0691958 0.202549 255 253 255
0.909994 0.0634108 0.199912 255 253 255
0.914042 0.0623703 0.19857 255 253 255
0.921845 0.0575945 0.198045 255 254 255
0.926386 0.0558221 0.196998 255 254 255
0.937179 0.0527681 0.193668 255 253 255
0.953696 0.0467578 0.189601 255 253 255
0.962171 0.0453736 0.186283 255 252 255
0.972002 0.0388148 0.186089 255 252 255
0.979978 0.0355726 0.184413 255 252 255
0.982148 0.0353121 0.183503 255 252 255
0.985337 0.0334667 0.183239 255 252 255
0.989562 0.0300426 0.183608 255 252 255
0.994471 0.0288045 0.182032 255 253 255
0.997193 0.0278046 0.181389 255 253 255
1.00045 0.0260246 0.18105 255 253 255
1.03041 0.0136838 0.175021 255 252 255
1.04178 0.0134293 0.169543 255 251 255
1.05437 0.00879383 0.166665 255 252 255
1.06356 0.00896932 0.161996 255 252 255
1.06876 0.00835893 0.159878 255 251 255
1.07286 0.00617275 0.159441 255 252 255
1.0793 0.00412778 0.157755 255 251 255
1.20741 -0.117175 0.182489 87 79 89
1.21272 -0.119634 0.181675 62 53 65
1.22595 -0.127422 0.180841 150 142 150
1.23156 -0.126276 0.177306 206 201 205
0.90294 -0.0664071 0.297076 2 2 2
0.915152 -0.0311427 0.264367 7 7 9
0.895241 0.0697989 0.200321 255 254 255
0.897223 0.0692232 0.199702 255 254 255
0.91818 0.0586398 0.196513 255 254 255
0.948215 0.0471875 0.189341 255 254 255
0.972349 0.0389691 0.182968 255 252 255
0.97599 0.0362772 0.183072 255 252 255
0.981321 0.0341389 0.181914 255 251 255
0.987195 0.0312471 0.181032 255 252 255
1.01453 0.0214808 0.174306 255 253 255
1.01947 0.0174249 0.174755 255 254 255
1.05345 0.0106174 0.162701 255 252 255
1.07306 0.00649599 0.155957 255 251 255
1.07718 0.00433298 0.155478 255 252 255
1.10788 -0.018213 0.156519 170 164 173
1.19046 -0.111297 0.182524 58 50 60
1.2041 -0.120088 0.182126 158 153 157
0.927345 -0.0484738 0.267377 9 9 9
0.895691 0.0698382 0.197483 255 255 255
0.898062 0.0684387 0.197257 255 255 255
0.910076 0.0615734 0.195959 255 255 255
0.916987 0.0583868 0.194666 255 254 255
0.919447 0.0570681 0.194342 255 255 255
0.923538 0.0561022 0.192912 255 255 255
0.925588 0.0556315 0.192186 255 254 255
0.941396 0.0501212 0.187988 255 254 255
0.94394 0.0489046 0.187556 255 254 255
0.949519 0.0456887 0.187008 255 255 255
0.955373 0.0454077 0.184196 255 254 255
0.962199 0.043584 0.18201 255 254 255
0.971529 0.0378194 0.181399 255 252 255
0.996665 0.0268043 0.17654 255 253 255
1.0259 0.0151068 0.170184 255 251 255
1.03831 0.0163279 0.163086 255 252 255
1.04911 0.0108764 0.161588 255 251 255
1.05478 0.0124968 0.157609 255 251 255
1.08089 0.00329669 0.151222 255 251 255
1.09042 -0.00243667 0.150592 100 90 93
1.09953 -0.0105443 0.151858 74 64 70
1.16634 -0.0851683 0.171889 113 107 111
1.1904 -0.10681 0.175399 100 93 97
1.18746 -0.0996414 0.171769 53 48 52
0.924773 -0.0359544 0.256336 12 9 15
0.892582 0.0702183 0.19629 255 255 255
0.896917 0.0682326 0.195441 255 255 255
0.898897 0.067667 0.194807 255 255 255
0.938522 0.0494349 0.187261 255 255 255
0.943143 0.0478021 0.18604 255 255 255
0.945693 0.0465915 0.185591 255 255 255
0.953622 0.0459169 0.18198 255 255 255
0.96187 0.0416495 0.180797 255 255 255
0.964964 0.0397099 0.180598 255 254 255
0.970215 0.0374838 0.179499 255 253 255
0.980316 0.0339668 0.176847 255 252 255
0.982985 0.0329136 0.176237 255 253 255
1.01503 0.0189273 0.169941 255 252 255
1.02447 0.0146652 0.168207 255 252 255
1.03912 0.0158467 0.160003 255 252 255
1.04251 0.0142775 0.159414 255 252 255
1.07234 0.00555513 0.150709 255 251 255
1.07815 0.00428127 0.148725 255 251 255
1.09428 -0.00659498 0.148407 53 43 47
1.14542 -0.0626375 0.162583 54 44 48
0.900896 -0.0670408 0.288405 2 2 2
0.904911 -0.0719702 0.289805 3 3 3
0.898332 0.0310259 0.218917 26 4 12
0.888572 0.0651454 0.199521 215 202 215
0.900522 0.0652453 0.193126 255 255 255
0.929001 0.0509095 0.188464 255 255 255
0.935203 0.0495891 0.186175 255 255 255
0.937277 0.0491658 0.185398 255 255 255
0.951875 0.0464414 0.179772 255 255 255
0.981643 0.0325666 0.174326 255 252 255
1.03429 0.0169919 0.158612 255 252 255
1.04441 0.0153745 0.154659 255 252 255
0.91032 -0.0285004 0.252319 8 8 8
0.900653 0.00470113 0.233728 9 9 9
0.88791 0.0677008 0.195487 255 248 255
0.929834 0.0502111 0.18585 255 255 255
0.948976 0.0457122 0.179069 255 255 255
0.951069 0.0453469 0.178242 255 255 255
0.967586 0.0368464 0.175708 255 255 255
0.983473 0.0303734 0.172098 255 254 255
0.98781 0.0299128 0.170198 255 253 255
0.991013 0.0280917 0.169839 255 254 255
1.00732 0.0222312 0.16563 255 253 255
1.01443 0.0179926 0.164982 255 252 255
1.02447 0.0190897 0.15912 255 252 255
1.0334 0.0157807 0.156914 255 252 255
1.03902 0.0141627 0.155206 255 252 255
1.04745 0.0149586 0.150409 255 251 255
0.907397 -0.0299478 0.251783 8 8 8
0.889179 0.0696855 0.190873 255 255 255
0.902573 0.0629269 0.188554 255 255 255
0.904565 0.0623862 0.187884 255 255 255
0.907375 0.0601866 0.187954 255 255 255
0.90938 0.0596629 0.187266 255 255 255
0.929782 0.0511796 0.182527 255 255 255
0.935508 0.0507129 0.179861 255 255 255
0.948168 0.0446265 0.177539 255 255 255
0.949792 0.0450784 0.176378 255 255 255
0.998361 0.0269737 0.163993 255 253 255
1.00866 0.0209169 0.162947 255 252 255
1.01308 0.0206613 0.16087 255 252 255
1.01971 0.0203513 0.157704 255 253 255
1.03419 0.0153266 0.153843 255 252 255
1.03756 0.0137346 0.153239 255 252 255
1.05054 0.0114416 0.148267 255 251 255
1.06254 0.00781909 0.144729 255 251 255
1.08214 0.00411585 0.137455 44 34 39
0.880024 0.0648068 0.196667 174 88 81
0.890762 0.0672582 0.189221 255 255 255
0.892724 0.0666752 0.188588 255 255 255
0.897443 0.0638564 0.18806 255 255 255
0.911025 0.0572837 0.185477 255 255 255
0.928112 0.0517815 0.180331 255 255 255
0.929718 0.0521671 0.179219 255 255 255
0.938381 0.0496546 0.176437 255 255 255
0.957162 0.0396679 0.173602 255 255 255
0.96774 0.0381008 0.169203 255 255 255
0.989423 0.028815 0.164447 255 254 255
0.99159 0.0286117 0.163473 255 254 255
0.996455 0.0274315 0.16179 255 253 255
1.06152 0.00976092 0.140847 255 252 255
1.07421 0.00560804 0.137303 255 253 255
0.894814 -0.0603519 0.273588 5 5 5
0.889605 0.00300593 0.232113 10 10 10
0.873542 0.0613404 0.200032 94 47 42
0.875154 0.0615254 0.199038 129 67 56
0.888425 0.0660143 0.188815 255 255 255
0.892732 0.0639967 0.187925 255 255 255
0.899049 0.0614516 0.186337 255 255 255
0.900637 0.0617379 0.185296 255 255 255
0.947239 0.0445743 0.172658 255 255 255
0.958448 0.0382489 0.171177 255 255 255
0.963158 0.0367917 0.169731 255 255 255
0.966421 0.0378218 0.167325 255 255 255
0.977417 0.0326599 0.165177 255 255 255
0.997771 0.0261208 0.159161 255 254 255
1.02128 0.0194292 0.151682 255 251 255
1.047 0.0113585 0.144084 255 251 255
1.04982 0.0106143 0.143154 255 251 255
1.05609 0.00838897 0.141491 255 252 255
1.06228 0.00940694 0.137665 255 251 255
0.902038 -0.0724476 0.274783 5 5 5
0.899863 -0.0603762 0.267592 6 6 6
0.874247 0.0649616 0.194616 181 95 88
0.885336 0.0664725 0.187635 255 255 255
0.895908 0.0618535 0.185185 255 255 255
0.91106 0.0555654 0.181472 255 255 255
0.915087 0.0545623 0.18003 255 255 255
0.921583 0.0522844 0.178165 255 255 255
0.927689 0.050917 0.175885 255 255 255
0.954567 0.0391485 0.169855 255 255 255
0.956194 0.0396334 0.168673 255 255 255
0.959252 0.037663 0.168425 255 255 255
0.971949 0.0358897 0.163026 255 255 255
0.980859 0.0310668 0.161691 255 254 255
1.00557 0.0213102 0.155562 255 253 255
1.01545 0.0223288 0.149788 255 252 255
1.02482 0.018137 0.147827 255 252 255
1.04493 0.0117287 0.141883 255 251 255
1.05567 0.00958184 0.137868 255 252 255
1.05674 0.0112087 0.136226 255 252 255
0.900061 -0.077306 0.275857 3 3 3
0.87209 0.0673833 0.191615 181 91 85
0.875599 0.0669299 0.19004 206 110 108
0.877535 0.0662892 0.189441 206 115 114
0.879474 0.0656561 0.188835 183 114 119
0.886898 0.0640443 0.185964 255 255 255
0.890052 0.0645501 0.183933 255 255 255
0.907044 0.0575905 0.179642 255 255 255
0.909452 0.0562333 0.17929 255 255 255
0.917913 0.0534094 0.176732 255 255 255
0.925286 0.0495026 0.175497 255 255 255
0.934359 0.0460951 0.173032 255 255 255
0.941002 0.0440514 0.170927 255 255 255
0.957467 0.038235 0.166243 255 255 255
0.96005 0.0370914 0.165668 255 255 255
0.961675 0.0376003 0.164473 255 255 255
0.981139 0.0313597 0.158558 255 255 255
0.98379 0.0303225 0.157882 255 255 255
0.992312 0.0264721 0.156063 255 253 255
0.997166 0.025311 0.154333 255 253 255
1.00204 0.0241927 0.152567 255 252 255
1.01075 0.0236842 0.148412 255 252 255
1.02282 0.0185691 0.145643 255 252 255
1.03504 0.0136754 0.142655 255 251 255
1.03841 0.0120936 0.141993 255 251 255
1.0423 0.0128993 0.139459 255 251 255
1.04453 0.0129238 0.138301 255 251 255
1.05299 0.010723 0.135454 255 251 255
1.05464 0.0115707 0.134043 255 252 255
1.06661 0.00809304 0.130274 255 250 255
1.07354 0.00528727 0.128624 255 255 255
0.858601 0.0695122 0.194968 103 48 35
0.860104 0.0740822 0.191045 145 72 58
0.862993 0.0708272 0.1917 150 74 61
0.881016 0.0632092 0.18718 224 197 208
0.896741 0.0621304 0.1795 255 255 255
0.917543 0.0515595 0.175592 255 255 255
0.919566 0.0510827 0.174842 255 255 255
0.924916 0.0476433 0.174333 255 255 255
0.926524 0.0480295 0.173221 255 255 255
0.930612 0.0471536 0.171652 255 255 255
0.933105 0.0458946 0.171185 255 255 255
0.934712 0.0463114 0.170056 255 255 255
0.954065 0.0383307 0.165251 255 255 255
0.956636 0.0371725 0.164681 255 255 255
0.967799 0.0378225 0.1584 255 255 255
0.998468 0.0240342 0.15168 255 251 255
1.02578 0.0181138 0.141515 255 252 255
1.04692 0.0133945 0.133791 255 252 255
1.0542 0.0128011 0.13046 255 252 255
1.05761 0.0113319 0.129688 255 251 255
1.06045 0.0106541 0.128689 255 252 255
1.08308 -2.00235e-05 0.124222 65 56 54
0.861463 0.0760341 0.186576 177 92 84
0.867463 0.0731481 0.185284 204 111 108
0.869708 0.071632 0.185096 205 112 109
0.871613 0.0709771 0.184512 207 111 111
0.893228 0.063414 0.178005 255 255 255
0.89754 0.0614465 0.177023 255 255 255
0.899507 0.0608982 0.176341 255 255 255
0.902281 0.0586677 0.176359 255 255 255
0.904666 0.0572918 0.176011 255 255 255
0.908647 0.0562544 0.174587 255 255 255
0.927323 0.0474051 0.170601 255 255 255
0.929364 0.0469687 0.169812 255 255 255
0.931851 0.045705 0.169342 255 255 255
0.956949 0.0374433 0.161629 255 255 255
0.959045 0.0371249 0.16074 255 255 255
0.960661 0.0376394 0.159548 255 255 255
0.962273 0.038161 0.158354 255 255 255
0.982587 0.0273254 0.154938 255 255 255
0.998708 0.0243862 0.148489 255 251 255
1.02929 0.0169057 0.137596 255 252 255
1.03427 0.0160859 0.135569 255 251 255
1.04824 0.0122817 0.130887 255 251 255
1.06176 0.00958379 0.125719 255 251 255
1.07151 0.00611539 0.123009 255 255 255
1.0762 0.00319554 0.122532 189 181 188
1.08274 -0.0020048 0.122606 58 48 49
0.866464 0.0126946 0.223846 6 6 6
0.863801 0.0754563 0.183301 203 110 107
0.882367 0.0662509 0.179448 255 255 255
0.896763 0.0604783 0.175578 255 255 255
0.91185 0.0542616 0.171662 255 255 255
0.922016 0.0481369 0.170323 255 255 255
0.935139 0.0438559 0.166202 255 255 255
0.943377 0.0422935 0.16288 255 255 255
0.947979 0.0407335 0.161483 255 255 255
0.968721 0.0346109 0.154614 255 255 255
0.990318 0.0254232 0.149364 255 251 255
0.994101 0.0258809 0.147087 255 251 255
1.00487 0.0220604 0.143988 255 251 255
1.00921 0.02183 0.141878 255 252 255
1.0152 0.0192357 0.140468 255 251 255
1.01958 0.0190917 0.138292 255 251 255
1.02507 0.0173958 0.136554 255 251 255
1.03664 0.0165355 0.131131 255 252 255
1.04336 0.013436 0.129687 255 251 255
1.05177 0.0112526 0.126775 255 252 255
1.05459 0.0105514 0.125782 255 252 255
1.06308 0.00852858 0.122735 255 252 255
1.07752 0.00217327 0.119464 45 33 37
0.853402 0.0788789 0.18427 173 91 80
0.858645 0.0776273 0.182259 194 106 99
0.874629 0.0660975 0.18126 188 117 118
0.907068 0.0542935 0.171647 255 255 255
0.909471 0.0529366 0.171259 255 255 255
0.928464 0.0470373 0.165026 255 255 255
0.932983 0.0453564 0.163731 255 255 255
0.941636 0.0429418 0.16073 255 255 255
0.949692 0.0385232 0.15937 255 255 255
0.955461 0.038351 0.156434 255 255 255
0.958025 0.0372061 0.155832 255 255 255
0.976713 0.0286818 0.151577 255 255 255
0.991599 0.0241586 0.146725 255 251 255
0.99323 0.0247978 0.145453 255 251 255
1.02525 0.0178324 0.13329 255 251 255
1.028 0.0170086 0.132395 255 251 255
1.03516 0.0161963 0.129206 255 251 255
1.05753 0.0103655 0.121411 255 251 255
1.06438 0.00748877 0.119737 255 251 255
0.848845 0.0616675 0.195707 103 52 42
0.851382 0.081427 0.181334 178 95 84
0.853221 0.0807131 0.180806 183 98 88
0.865381 0.0739976 0.17863 216 127 125
0.8801 0.0660813 0.175877 255 255 255
0.890521 0.0613998 0.173337 255 255 255
0.899926 0.0557589 0.171982 255 255 255
0.905462 0.055021 0.169497 255 255 255
0.912258 0.05181 0.167961 255 255 255
0.922731 0.048609 0.164461 255 255 255
0.925187 0.0473206 0.163993 255 255 255
0.935805 0.0443831 0.160258 255 255 255
0.94379 0.0398864 0.158948 255 255 255
0.949529 0.0396542 0.156056 255 255 255
0.96185 0.0347396 0.152734 255 255 255
0.972732 0.0295168 0.150383 255 255 255
0.975353 0.0284463 0.149697 255 255 255
0.977981 0.0273874 0.149 255 255 255
0.990207 0.0238984 0.14483 255 251 255
1.01831 0.0192156 0.133137 255 252 255
1.02049 0.0191614 0.132035 255 250 255
1.02485 0.0190828 0.12981 255 251 255
1.04479 0.0128275 0.123464 255 251 255
1.047 0.0128859 0.122278 255 251 255
1.05319 0.0106855 0.120482 255 251 255
1.07586 0.00557014 0.112036 66 57 55
0.8467 0.0739548 0.186418 141 75 63
0.850966 0.0796764 0.180369 177 94 83
0.852162 0.0806884 0.179059 183 98 90
0.857028 0.0803066 0.176667 212 126 123
0.862417 0.0746261 0.177444 221 135 134
0.875143 0.0672594 0.175351 244 226 239
0.879332 0.0651538 0.174458 255 255 255
0.883179 0.0639373 0.173173 255 255 255
0.901111 0.0542636 0.169806 255 255 255
0.902689 0.0545844 0.16875 255 255 255
0.917468 0.0493954 0.164194 255 255 255
0.919478 0.0489302 0.163421 255 255 255
0.921492 0.0484734 0.162641 255 255 255
0.923941 0.0471804 0.162169 255 255 255
0.927551 0.0471528 0.16026 255 255 255
0.944102 0.0401854 0.155949 255 255 255
0.950766 0.0383019 0.153624 255 255 255
0.96828 0.0312105 0.148915 255 255 255
0.971378 0.0292973 0.148509 255 255 255
0.996876 0.0238034 0.138595 255 249 255
0.999025 0.0236613 0.137556 255 250 255
1.02066 0.0196206 0.128798 255 251 255
1.03496 0.0147674 0.124425 255 250 255
1.03936 0.0148183 0.122099 255 250 255
1.05833 0.0106401 0.114886 255 250 255
1.0837 -0.000586146 0.108872 65 56 54
0.844402 0.0729423 0.185961 128 63 53
0.849593 0.0805262 0.178235 176 98 84
0.851425 0.079808 0.177701 181 100 93
0.85662 0.0785597 0.175684 211 125 120
0.858467 0.077869 0.175127 216 129 127
0.864558 0.0704648 0.1766 220 129 130
0.872324 0.0633144 0.177002 192 129 137
0.873534 0.0643959 0.17565 217 183 192
0.881216 0.0618994 0.173105 255 255 255
0.885081 0.0606964 0.171792 255 255 255
0.895592 0.0561124 0.169076 255 255 255
0.905449 0.0534421 0.165491 255 255 255
0.949459 0.0381308 0.151781 255 255 255
0.963856 0.0329419 0.147448 255 255 255
0.978483 0.0281311 0.142768 255 251 255
0.993326 0.0237107 0.137741 255 247 255
1.00298 0.0246552 0.132048 255 249 255
1.00997 0.0235525 0.129072 255 249 255
1.02571 0.0192426 0.123539 255 250 255
0.838702 0.0726075 0.186929 77 33 25
0.844306 0.0792487 0.179616 150 81 70
0.845207 0.0811147 0.17793 161 88 76
0.851433 0.0853165 0.17185 205 126 119
0.872059 0.06521 0.173506 214 178 188
0.881631 0.0620937 0.170314 255 255 255
0.899904 0.0552543 0.164813 255 255 255
0.901872 0.054725 0.164091 255 255 255
0.905817 0.0536904 0.162627 255 255 255
0.91019 0.0518359 0.161456 255 255 255
0.91585 0.047465 0.161198 255 255 255
0.935376 0.0410181 0.154832 255 255 255
0.940833 0.0377222 0.154009 255 255 255
0.947019 0.0366385 0.151392 255 255 255
0.963141 0.0349709 0.143857 255 255 255
0.983464 0.027294 0.137926 255 248 255
0.993011 0.0249542 0.134348 255 249 255
0.99409 0.0264357 0.13284 255 248 255
1.01068 0.0232176 0.126109 255 249 255
1.04615 0.0160506 0.111966 255 249 255
0.845919 0.0848767 0.172852 166 95 83
0.864578 0.0688724 0.17284 214 118 118
0.867492 0.0656096 0.173325 200 109 108
0.873546 0.062802 0.171816 236 218 231
0.875101 0.0630344 0.170825 255 255 255
0.888196 0.0596779 0.165856 255 255 255
0.900277 0.0555041 0.161969 255 255 255
0.901837 0.0558357 0.160918 255 255 255
0.904206 0.0544631 0.160508 255 255 255
0.908562 0.0526001 0.159337 255 255 255
0.910542 0.0521085 0.158581 255 255 255
0.939088 0.0384228 0.15188 255 255 255
0.944326 0.0390095 0.148705 255 255 255
0.945914 0.0395 0.147546 255 255 255
0.947967 0.0391588 0.146663 255 255 255
0.951607 0.0393395 0.144603 255 255 255
0.954621 0.0373525 0.144243 255 255 255
0.964862 0.0328619 0.141601 255 252 255
0.983168 0.0285395 0.134569 255 248 255
0.99321 0.0253979 0.131206 255 250 255
0.996927 0.022804 0.13086 255 248 255
1.00281 0.0232522 0.127459 255 248 255
1.00495 0.023149 0.126389 255 248 255
1.04347 0.0173248 0.109693 255 249 255
1.05 0.0175891 0.106091 255 247 255
1.05916 0.0115665 0.105032 255 249 255
1.06477 0.0103056 0.10287 207 195 208
1.07041 0.00910017 0.100663 68 54 54
0.837883 0.0735752 0.182079 106 51 42
0.851457 0.083777 0.16825 195 114 107
0.890902 0.0584873 0.162696 255 255 255
0.897523 0.0551142 0.161227 255 255 255
0.899083 0.0554386 0.16018 255 255 255
0.904154 0.0555949 0.157343 255 225 242
0.908496 0.053739 0.156161 176 106 107
0.941437 0.0383923 0.14803 255 255 255
0.96192 0.0321373 0.140957 255 253 255
0.966583 0.0307641 0.13932 255 251 255
0.975467 0.0289694 0.135692 255 247 255
0.983892 0.0281563 0.131705 255 248 255
0.986521 0.0271547 0.130927 255 249 255
0.994983 0.0234029 0.128755 255 249 255
1.00939 0.0234699 0.121054 255 249 255
1.02291 0.0192157 0.116525 255 249 255
1.03472 0.0208871 0.109238 255 249 255
1.04572 0.0179839 0.105225 255 246 255
0.842657 0.0839243 0.170691 153 86 75
0.843214 0.086684 0.168668 163 92 77
0.845529 0.0887237 0.166133 182 108 99
0.870087 0.0616514 0.169595 210 186 196
0.87284 0.062977 0.167273 255 255 255
0.880916 0.0633653 0.162641 255 255 255
0.886279 0.062469 0.160287 255 255 255
0.890893 0.0596075 0.159563 255 255 255
0.938098 0.0386406 0.147071 255 255 255
0.964249 0.0322706 0.136965 255 249 255
0.966824 0.031177 0.136262 255 248 255
0.999956 0.0228112 0.123713 255 247 255
1.02247 0.020559 0.113115 255 247 255
1.03929 0.0183443 0.105547 255 246 255
1.04145 0.0184131 0.104357 255 246 255
0.833991 0.0743935 0.179066 96 47 38
0.837052 0.0745951 0.177263 108 55 44
0.842176 0.0867324 0.166962 170 99 86
0.846905 0.0863065 0.164639 191 113 103
0.859262 0.0740892 0.165428 213 137 128
0.868271 0.0633794 0.16712 212 185 196
0.884362 0.0641774 0.157869 255 255 255
0.895864 0.0608397 0.15368 148 92 86
0.898919 0.0615107 0.15161 165 100 95
0.905962 0.0574164 0.150313 173 98 96
0.926926 0.0435193 0.147516 252 236 250
0.929825 0.0414058 0.147249 255 255 255
0.945622 0.0392804 0.140034 255 251 255
0.954137 0.0341078 0.138622 255 252 255
0.955722 0.0346463 0.137439 255 250 255
0.958751 0.0326772 0.137017 255 250 255
0.992695 0.0253226 0.123307 255 248 255
0.999585 0.0241296 0.12035 255 248 255
1.00438 0.0231156 0.118407 255 248 255
1.01559 0.021988 0.113105 255 246 255
1.03174 0.0203741 0.105485 255 246 255
0.833365 0.0681803 0.180912 83 42 28
0.83212 0.0770684 0.176155 97 48 40
0.838797 0.0847664 0.167782 153 86 75
0.840526 0.0885455 0.164522 172 101 91
0.845223 0.0881145 0.162215 193 115 105
0.861522 0.0736441 0.162151 164 104 106
0.863713 0.0721095 0.161893 207 180 192
0.867779 0.0699371 0.161001 255 255 255
0.882071 0.0705263 0.152853 129 98 106
0.885483 0.0664853 0.153463 109 70 71
0.888153 0.0641886 0.153412 140 90 87
0.903104 0.0608186 0.147345 175 102 97
0.90781 0.0581219 0.146436 199 120 126
0.92811 0.0421711 0.145155 255 255 255
0.949805 0.0359827 0.137195 255 251 255
0.952331 0.0348261 0.136535 255 251 255
0.956929 0.0333863 0.13493 255 250 255
0.972503 0.033023 0.126762 255 247 255
0.980279 0.0299265 0.12446 255 247 255
0.98917 0.0252884 0.122497 255 247 255
1.00028 0.0238302 0.117419 255 246 255
1.00294 0.0229162 0.116546 255 246 255
1.00506 0.0228295 0.115459 255 247 255
1.0281 0.0201068 0.104777 255 246 255
1.04944 0.0150937 0.0964119 255 246 255
1.05932 0.0140765 0.0917546 218 208 216
0.830538 0.0788831 0.173648 94 48 36
0.832046 0.0789791 0.172761 96 50 39
0.834768 0.0800704 0.170605 116 66 51
0.836878 0.0829457 0.167703 144 86 69
0.837168 0.0865911 0.165334 165 96 85
0.847734 0.0867552 0.159443 194 113 104
0.861353 0.0793515 0.156478 246 228 243
0.866885 0.0811435 0.15237 221 183 194
0.874929 0.0806896 0.148256 159 101 95
0.886175 0.0696959 0.148776 160 96 88
0.940974 0.0394248 0.137299 255 251 255
0.943004 0.039078 0.136409 255 251 255
0.955722 0.0363432 0.131177 255 248 255
0.964928 0.0335921 0.127861 255 247 255
0.967491 0.0325123 0.127128 255 246 255
0.979402 0.0289466 0.122848 255 246 255
1.01046 0.0248131 0.108617 255 246 255
1.03089 0.0199409 0.100575 254 245 255
0.828688 0.081598 0.170777 99 53 39
0.831392 0.0826772 0.168643 112 62 51
0.835547 0.0884328 0.162902 165 96 87
0.849591 0.0871811 0.15595 189 110 104
0.862198 0.0862062 0.149633 150 89 85
0.86865 0.0891851 0.144319 168 101 92
0.878929 0.0798434 0.144306 177 106 95
0.889873 0.0697962 0.144356 178 102 91
0.891757 0.0692599 0.14365 180 102 92
0.899474 0.0633789 0.142967 179 101 93
0.908154 0.0558694 0.142736 205 125 127
0.919137 0.0441721 0.143761 191 126 135
0.921562 0.0428774 0.143217 238 209 217
0.923996 0.041593 0.142662 254 236 251
0.925565 0.0420316 0.141546 255 255 255
0.928012 0.040766 0.140973 255 252 255
0.933608 0.0404426 0.138126 255 251 255
0.93719 0.040551 0.136115 255 250 255
0.940771 0.0406905 0.134088 255 249 255
0.944819 0.0400142 0.132296 255 249 255
0.948877 0.0393733 0.130478 255 248 255
0.968692 0.0313173 0.124556 255 246 255
0.979583 0.0294488 0.11978 255 247 255
0.994742 0.0275798 0.112706 255 247 255
0.997377 0.0266499 0.111838 255 247 255
0.99894 0.0273695 0.110565 255 246 255
1.0079 0.0262531 0.106396 255 246 255
1.01916 0.022076 0.102819 255 246 255
1.0294 0.0197207 0.0987101 255 247 255
1.04772 0.0187684 0.0894266 255 245 255
1.05718 0.0152624 0.0864266 191 181 191
0.8274 0.0825637 0.16868 104 55 44
0.829165 0.0817734 0.168179 110 60 47
0.830373 0.082759 0.166928 116 66 51
0.833344 0.0920586 0.159759 164 94 86
0.836529 0.091438 0.158378 184 107 99
0.839411 0.0917248 0.156624 193 112 103
0.845795 0.0906083 0.153783 171 93 83
0.849323 0.0892083 0.15268 132 68 60
0.853634 0.0897957 0.149967 124 60 50
0.862194 0.0911321 0.144482 171 97 91
0.863613 0.0913758 0.143561 175 99 91
0.871513 0.0871747 0.141734 185 109 98
0.877032 0.0816363 0.142005 189 114 103
0.894069 0.0652822 0.142406 193 112 103
0.904994 0.0563363 0.141752 195 114 109
0.91987 0.0436885 0.141143 238 209 219
0.921863 0.0432579 0.140312 255 242 255
0.930308 0.0407652 0.137189 255 249 255
0.934985 0.0421886 0.133799 255 249 255
0.945998 0.0387626 0.129838 255 248 255
0.951009 0.0364451 0.128487 255 245 255
0.96789 0.0334823 0.121074 254 245 255
0.978702 0.0284854 0.118166 255 246 255
0.990695 0.0283737 0.111733 255 246 255
1.04345 0.0192101 0.0886355 255 245 255
0.826389 0.0826556 0.166965 111 61 48
0.827596 0.0836367 0.165722 117 67 54
0.828515 0.0855098 0.164111 123 71 57
0.833174 0.094065 0.156503 172 103 90
0.839505 0.0928657 0.153728 193 112 103
0.841248 0.0921398 0.153198 188 107 98
0.845858 0.091767 0.150884 162 89 77
0.851219 0.0934115 0.146971 173 99 90
0.858984 0.0927419 0.143104 180 102 94
0.860395 0.092978 0.142191 184 105 98
0.864248 0.0945974 0.139125 186 108 100
0.866757 0.0922316 0.139143 186 110 99
0.8838 0.07096 0.142327 195 119 109
0.898704 0.0599296 0.14066 198 114 108
0.920598 0.0432186 0.13852 255 253 255
0.922589 0.042794 0.137682 255 250 255
0.92502 0.0415188 0.137104 255 249 255
0.936328 0.0439687 0.129494 255 247 255
0.938791 0.0427655 0.128858 255 247 255
0.940798 0.0424234 0.127964 255 247 255
0.945761 0.0400689 0.126642 255 247 255
0.949203 0.0372133 0.126443 252 245 255
0.955307 0.0363365 0.123632 253 246 255
0.957832 0.0352192 0.122913 253 246 255
0.962416 0.0338596 0.121216 252 246 255
0.977307 0.028363 0.116338 253 244 255
0.978873 0.0290128 0.115106 253 244 255
0.981466 0.0280071 0.114286 253 244 255
0.983544 0.0310045 0.111399 254 245 255
0.991362 0.0281098 0.108848 255 246 255
1.01031 0.0241918 0.100859 255 246 255
1.02663 0.0250119 0.0915315 255 244 255
1.04406 0.0191002 0.085554 255 246 255
0.828385 0.045906 0.185126 42 20 14
0.831866 0.0950731 0.154487 172 101 89
0.847001 0.0940135 0.146776 178 102 91
0.84941 0.0915581 0.146885 186 108 100
0.850161 0.0935225 0.145325 189 111 98
0.889497 0.0629212 0.141579 203 128 113
0.906971 0.0506534 0.139153 211 129 127
0.912975 0.0453872 0.138934 207 152 155
0.930401 0.0424694 0.131096 255 247 255
0.942893 0.0394838 0.126005 255 247 255
0.97852 0.0303891 0.11185 254 245 255
0.981099 0.0325499 0.109187 251 244 255
0.986806 0.0297657 0.107696 254 245 255
1.00037 0.0274791 0.101637 255 247 255
1.00246 0.0274081 0.100541 254 245 255
1.0051 0.0265298 0.0996141 254 245 255
0.839179 0.0923772 0.149881 184 108 97
0.842805 0.0946557 0.146567 185 107 97
0.848353 0.0916754 0.145235 193 112 103
0.851187 0.0920803 0.14344 194 116 108
0.855075 0.0936141 0.140414 190 109 102
0.859637 0.0934373 0.138007 187 109 101
0.865296 0.0906813 0.136487 189 114 103
0.894476 0.0566529 0.140113 207 129 119
0.915244 0.0453402 0.135246 255 251 255
0.916789 0.0457648 0.134153 255 250 255
0.923152 0.0436314 0.131895 255 248 255
0.933735 0.0438932 0.125942 252 245 255
0.943121 0.0399617 0.123068 252 245 255
0.948568 0.0367835 0.121918 255 245 255
0.950117 0.0373347 0.120752 252 246 255
0.952142 0.037045 0.11981 252 246 255
0.977122 0.030288 0.110038 254 245 255
0.985391 0.0296535 0.105883 253 244 255
1.00101 0.0272727 0.0987215 254 245 255
1.00255 0.0280276 0.097446 254 245 255
1.01214 0.0230028 0.0951014 254 245 255
1.01869 0.0286682 0.0882667 255 245 255
1.02193 0.0270794 0.0874158 255 246 255
1.02843 0.0239506 0.0856672 255 246 255
1.04407 0.0205135 0.0791199 254 245 255
0.821243 0.063857 0.173981 74 37 26
0.821195 0.0801426 0.164673 107 59 46
0.823096 0.0838817 0.161481 121 70 58
0.826109 0.0886376 0.157091 137 80 67
0.828433 0.0906459 0.154657 147 85 74
0.830139 0.0944568 0.151532 166 99 87
0.833575 0.0929474 0.150501 182 107 96
0.834696 0.0939814 0.14929 186 110 99
0.846969 0.0926884 0.143262 196 118 107
0.85891 0.092678 0.136688 196 120 112
0.867441 0.0866632 0.135433 194 119 105
0.878483 0.0717077 0.137915 202 129 115
0.909232 0.0479857 0.134574 255 241 255
0.919902 0.0440362 0.130967 255 248 255
0.932892 0.0430131 0.124413 253 246 255
0.937336 0.0414488 0.122867 252 245 255
0.944278 0.0387497 0.120598 253 247 255
0.96858 0.0356112 0.109055 253 244 255
0.984992 0.0310749 0.102648 254 245 255
0.994326 0.0289609 0.0987392 254 245 255
0.997934 0.0296143 0.0963895 254 245 255
1.01286 0.0317537 0.0869916 255 247 255
1.01437 0.0325664 0.0857031 255 247 255
1.02081 0.0293771 0.0839976 255 246 255
1.03325 0.0239939 0.0802626 254 245 255
0.820192 0.0802682 0.162961 109 64 49
0.821149 0.0821384 0.16137 117 66 56
0.825988 0.0906737 0.153851 135 77 65
0.832852 0.0922009 0.149192 183 110 98
0.838533 0.0928146 0.145706 193 118 104
0.841362 0.0931568 0.14395 198 122 109
0.842453 0.0942257 0.142741 195 120 107
0.843858 0.0944111 0.14186 194 118 107
0.854679 0.0932185 0.136564 203 127 119
0.874003 0.0758907 0.135733 199 129 112
0.885616 0.0601102 0.138279 209 141 127
0.906456 0.0476024 0.133884 255 237 248
0.911194 0.0449298 0.132788 255 247 255
0.912316 0.0462152 0.131441 255 247 255
0.916665 0.0444649 0.130037 255 246 255
0.925212 0.0449976 0.125027 255 247 255
0.932499 0.0412803 0.123121 252 245 255
0.960121 0.0379053 0.109829 252 246 255
0.961646 0.0385138 0.108646 254 245 255
0.976896 0.0322779 0.10379 253 244 255
0.982529 0.0326486 0.100482 254 244 255
0.984582 0.0325127 0.0994308 254 245 255
0.994423 0.0295895 0.0956763 253 243 255
1.01196 0.0308154 0.0853475 255 246 255
1.03057 0.025433 0.0781717 255 246 255
1.03653 0.023217 0.0761525 254 245 255
0.817463 0.0703326 0.167869 83 41 32
0.822385 0.089719 0.154248 120 67 53
0.828122 0.094765 0.148239 170 103 94
0.83467 0.092648 0.145808 189 114 103
0.837192 0.0938578 0.143734 195 120 107
0.847009 0.0951526 0.137579 198 125 115
0.849794 0.0955754 0.135802 209 135 124
0.857449 0.0911772 0.134043 206 130 119
0.862038 0.0872548 0.133711 206 130 117
0.864534 0.0848651 0.133675 204 129 116
0.867047 0.082485 0.133624 201 126 112
0.873238 0.0751086 0.134348 203 135 119
0.881423 0.0633773 0.136418 210 143 132
0.888627 0.0543472 0.137513 213 146 137
0.904809 0.0485031 0.131858 255 248 255
0.906339 0.0489014 0.13079 255 246 255
0.908281 0.0484349 0.129979 255 245 255
0.910226 0.0479765 0.129163 255 247 255
0.928321 0.0433686 0.121761 252 245 255
0.937778 0.0424509 0.117057 255 247 255
0.949658 0.0374838 0.11329 251 244 255
0.953202 0.0377811 0.111168 252 246 255
0.97959 0.0318861 0.0999212 254 245 255
0.987267 0.0321853 0.0955194 254 244 255
0.989854 0.0312471 0.0946196 254 245 255
0.991911 0.0311483 0.0935407 254 244 255
1.00222 0.0307998 0.0880539 254 245 255
1.00635 0.0307293 0.0858162 253 244 255
1.00786 0.0315243 0.0845388 255 246 255
1.01405 0.0315183 0.0811254 255 246 255
1.02257 0.0283772 0.0781976 255 246 255
1.04852 0.019736 0.0687441 232 223 237
0.816227 0.0768112 0.162714 96 52 40
0.816457 0.0813711 0.160048 105 59 47
0.82485 0.0928958 0.148986 156 97 83
0.827403 0.0940374 0.146938 180 111 100
0.836162 0.0940201 0.142099 198 125 113
0.839283 0.0934672 0.140679 201 127 116
0.848013 0.0937398 0.135695 209 138 128
0.859529 0.0871356 0.132998 211 138 126
0.895506 0.0475324 0.135131 200 137 131
0.898579 0.0482666 0.133022 255 236 244
0.913294 0.0462432 0.126006 255 247 255
0.924174 0.0454919 0.120403 252 245 255
0.952335 0.0369047 0.109602 251 244 255
0.958919 0.0384389 0.105106 251 244 255
0.963446 0.0371396 0.103325 252 246 255
1.03406 0.0221058 0.0726324 255 246 255
0.816341 0.0888781 0.15381 109 64 49
0.82101 0.0928487 0.149035 134 79 66
0.830621 0.0946238 0.142731 196 123 111
0.834828 0.0950872 0.140144 201 127 116
0.836843 0.0934635 0.139922 202 129 115
0.838247 0.0936363 0.139049 203 130 118
0.842444 0.0941899 0.136417 204 131 119
0.843839 0.0943862 0.135536 206 135 123
0.844903 0.0954806 0.134343 209 138 128
0.854577 0.089459 0.1323 212 141 128
0.87501 0.0655944 0.134132 210 141 132
0.889677 0.0504085 0.134374 186 140 140
0.895825 0.0479503 0.132321 255 255 255
0.901218 0.0473244 0.129676 255 246 255
0.904274 0.0481132 0.127546 255 246 255
0.910091 0.0467262 0.125085 255 245 255
0.923773 0.0437841 0.11912 253 246 255
0.926184 0.0425322 0.118474 252 245 255
0.928156 0.0421556 0.117588 252 245 255
0.932109 0.0414287 0.115796 253 246 255
0.933633 0.04194 0.114669 253 246 255
0.935613 0.0415974 0.11376 252 245 255
0.941569 0.0406225 0.110994 253 247 255
0.951465 0.0360353 0.108035 251 244 255
0.958048 0.0375686 0.103537 254 245 255
0.986993 0.0311016 0.0910458 253 243 255
0.997664 0.0330904 0.0840279 254 244 255
1.03463 0.0220682 0.0695932 255 246 255
1.04212 0.0208447 0.0661151 254 245 255
1.04303 0.0225825 0.0646509 255 248 255
1.04662 0.0236943 0.0620415 195 184 195
0.813227 0.0752497 0.16086 87 46 35
0.813722 0.0843974 0.155592 99 56 43
0.817799 0.0956328 0.147199 133 80 66
0.827913 0.0955637 0.141627 195 122 108
0.829312 0.0957058 0.140773 197 124 112
0.831006 0.0949558 0.140243 198 125 113
0.846227 0.0931851 0.132764 212 141 130
0.849681 0.0918347 0.131584 213 140 128
0.851415 0.0911699 0.130984 213 142 130
0.855242 0.0889706 0.13006 211 140 127
0.875686 0.0612672 0.133838 197 136 131
0.887326 0.0492572 0.133933 255 235 240
0.89574 0.0492641 0.129255 255 247 255
0.906902 0.0472326 0.124164 255 245 255
0.912301 0.0467614 0.121421 254 244 255
0.914244 0.0463292 0.120577 255 245 255
0.915762 0.0467768 0.119489 253 246 255
0.92205 0.0446851 0.117137 253 246 255
0.935818 0.0421397 0.110873 253 246 255
0.950676 0.0383191 0.104699 252 246 255
0.954191 0.0386521 0.102561 253 247 255
0.955702 0.0392555 0.101391 252 246 255
0.978919 0.0322616 0.0922973 253 244 255
0.980956 0.0321241 0.0912388 254 245 255
1.0175 0.0288436 0.072688 255 246 255
1.0367 0.0229667 0.0652107 254 245 255
1.04327 0.0259266 0.0599325 224 215 227
0.811925 0.0708383 0.161785 80 41 29
0.812241 0.0863839 0.153209 101 57 44
0.815148 0.0966394 0.146054 144 89 75
0.817953 0.0968346 0.144391 172 110 97
0.821851 0.0934474 0.144058 195 126 115
0.826076 0.0938219 0.14151 196 123 111
0.843129 0.0949499 0.131427 212 141 130
0.848279 0.092906 0.129669 213 142 130
0.861516 0.0780514 0.130343 209 135 124
0.876711 0.0560441 0.133795 203 157 159
0.87969 0.0527992 0.133893 253 225 232
0.887273 0.0505643 0.130883 255 250 255
0.894522 0.0493393 0.127512 255 247 255
0.898756 0.0474518 0.126176 255 245 255
0.903317 0.0486406 0.122994 255 246 255
0.905656 0.047295 0.12242 255 244 255
0.91062 0.047693 0.11944 253 243 255
0.914923 0.0459573 0.117983 252 245 255
0.916868 0.0455395 0.117125 252 245 255
0.92905 0.0423465 0.112066 252 245 255
0.932989 0.0416422 0.110252 253 247 255
0.937987 0.0423736 0.10707 252 246 255
0.94043 0.0411992 0.106344 253 247 255
0.948846 0.0391794 0.102745 253 247 255
0.951321 0.038058 0.101972 254 245 255
0.952834 0.0386537 0.100806 252 246 255
0.965855 0.035605 0.0951933 254 245 255
0.981047 0.0327908 0.0882397 254 244 255
0.985114 0.0325559 0.0860964 254 244 255
0.986085 0.0341173 0.0847082 254 244 255
0.992184 0.0338577 0.0814433 254 244 255
0.998295 0.0336857 0.0781238 253 243 255
1.02393 0.0264816 0.0677087 255 246 255
1.04139 0.029131 0.0565065 197 188 200
0.809323 0.0828278 0.154618 87 46 33
0.811707 0.0902685 0.149314 125 75 60
0.812125 0.0939648 0.147104 135 83 68
0.817237 0.0961407 0.143101 183 122 108
0.831456 0.0965633 0.134971 200 131 118
0.836535 0.0943768 0.133316 206 137 126
0.844113 0.0935575 0.129538 214 143 131
0.852018 0.0881829 0.128016 213 140 128
0.861103 0.0764208 0.129256 210 135 124
0.892912 0.0503085 0.125517 255 247 255
0.908525 0.0495146 0.117233 255 246 255
0.919486 0.044784 0.11365 252 245 255
0.924898 0.0444948 0.110783 252 245 255
0.943056 0.040623 0.102713 253 247 255
0.952495 0.0401204 0.0977044 253 247 255
0.954484 0.0398753 0.0967235 252 246 255
0.960463 0.0391949 0.0937438 254 245 255
0.963966 0.0364448 0.0932601 252 246 255
0.972522 0.0348779 0.089313 254 245 255
0.986682 0.0339836 0.081865 252 242 255
0.990201 0.0346444 0.0795386 253 243 255
0.991145 0.0362296 0.0781581 254 245 255
0.998323 0.0344178 0.0751097 255 245 255
1.00036 0.0343857 0.0739875 254 244 255
1.01076 0.0310911 0.0699271 254 244 255
1.01486 0.0311486 0.0675975 253 243 255
1.02333 0.0280774 0.0644996 255 245 255
1.02539 0.0281583 0.0632985 255 247 255
1.03217 0.0276609 0.0597605 254 244 255
1.03424 0.0277847 0.0585333 254 244 255
1.03778 0.0288601 0.0559679 241 234 248
0.808116 0.0894319 0.149668 109 64 49
0.81765 0.0964638 0.140643 186 122 111
0.824892 0.0961767 0.136767 194 125 112
0.84582 0.0941891 0.126164 213 142 130
0.859988 0.0765823 0.1276 202 131 121
0.877694 0.0521218 0.130694 255 253 255
0.890918 0.0521767 0.123281 255 247 255
0.894715 0.0511558 0.121701 255 246 255
0.896618 0.0506575 0.120902 255 246 255
0.89933 0.0484024 0.120583 255 246 255
0.911965 0.0469676 0.114279 253 246 255
0.924662 0.0459202 0.107728 253 246 255
0.934298 0.0410487 0.104921 253 246 255
0.936846 0.042994 0.102459 253 246 255
0.938811 0.0426821 0.101524 254 245 255
0.940308 0.0432399 0.100388 255 246 255
0.954126 0.0413621 0.0936388 255 246 255
0.958591 0.0400573 0.0918281 255 246 255
0.970094 0.0365576 0.0872339 255 246 255
0.993197 0.0369015 0.0740717 254 244 255
1.00351 0.0334796 0.0700945 253 243 255
1.02213 0.0304969 0.0612059 254 244 255
1.03035 0.030892 0.0563718 254 244 255
1.0395 0.0273136 0.0531247 228 220 230
0.806189 0.0877713 0.149529 105 62 47
0.808576 0.0897148 0.147183 131 81 66
0.811335 0.0953944 0.14267 166 109 96
0.814747 0.098398 0.139197 185 121 108
0.82942 0.0969964 0.131759 206 142 129
0.855728 0.080978 0.125487 205 134 123
0.863101 0.0698535 0.12721 222 185 189
0.867729 0.0620746 0.128709 242 216 223
0.887434 0.0536997 0.122089 255 248 255
0.900702 0.0501899 0.116504 255 244 255
0.910279 0.0479293 0.112325 255 245 255
0.911778 0.0483794 0.111248 253 246 255
0.920548 0.0481111 0.10647 253 246 255
0.925311 0.0456218 0.105106 255 247 255
0.927256 0.0452623 0.104204 255 247 255
0.952274 0.0422475 0.0917324 255 246 255
0.953757 0.0428647 0.0905731 255 246 255
0.956722 0.0409332 0.0899227 255 246 255
0.962675 0.0403124 0.0869 255 246 255
0.965171 0.0392772 0.086041 255 246 255
0.967163 0.0390995 0.0850128 255 245 255
0.971154 0.0387721 0.0829381 255 247 255
0.973671 0.0377812 0.082043 254 245 255
0.982752 0.035612 0.0780711 254 244 255
0.991748 0.0368777 0.0723308 253 243 255
0.994311 0.0359986 0.0713495 253 243 255
1.01073 0.0326554 0.0638464 253 243 255
1.02209 0.0313151 0.0581421 254 244 255
1.02355 0.0322106 0.056842 254 244 255
1.0256 0.0323083 0.0556355 254 244 255
1.03264 0.0285263 0.0536538 253 243 255
1.03795 0.0272144 0.0513457 249 240 255
0.811098 0.0258312 0.176853 33 15 12
0.80627 0.0531779 0.16535 58 30 21
0.812644 0.0976287 0.138738 186 122 109
0.824837 0.0949584 0.133328 205 140 130
0.836504 0.0944878 0.127061 214 145 132
0.837882 0.0946817 0.12619 215 146 133
0.847059 0.089437 0.123787 211 138 126
0.852198 0.0836143 0.12394 205 132 122
0.85531 0.0793701 0.124406 185 124 120
0.858796 0.0742398 0.125122 201 158 159
0.866581 0.062226 0.127013 248 224 232
0.86983 0.0580338 0.127374 255 254 255
0.873894 0.0559512 0.126182 255 248 255
0.875391 0.0562635 0.125181 255 249 255
0.877252 0.055689 0.124437 255 248 255
0.883235 0.053121 0.12242 255 248 255
0.892668 0.050489 0.118501 255 247 255
0.89496 0.0491002 0.117937 255 247 255
0.897263 0.0477212 0.117363 255 246 255
0.912434 0.048052 0.10867 255 247 255
0.943529 0.0424743 0.094076 255 246 255
0.955352 0.0409693 0.0881947 255 247 255
0.983331 0.0355088 0.0752446 253 244 255
0.803105 0.0624714 0.160078 66 33 26
0.800925 0.0780104 0.153313 77 40 30
0.806397 0.0910864 0.143553 157 100 87
0.818007 0.0955776 0.134774 205 144 130
0.834395 0.0936255 0.126625 212 144 131
0.850773 0.0847189 0.122042 208 137 129
0.891057 0.0515015 0.116544 255 247 255
0.896334 0.0508964 0.113889 255 246 255
0.91371 0.0499628 0.104588 255 247 255
0.927172 0.0473294 0.0983561 255 247 255
0.941238 0.0442608 0.0919985 255 247 255
0.967323 0.0405057 0.0791818 255 245 255
0.97181 0.0393566 0.0772344 254 244 255
0.988683 0.0401251 0.0672651 255 245 255
1.00404 0.0350222 0.0611867 254 244 255
1.01181 0.0326468 0.0580035 254 245 255
1.01327 0.0335111 0.056725 254 244 255
0.809819 0.096213 0.136987 196 132 120
0.811823 0.099141 0.13438 202 138 126
0.825583 0.0957396 0.128424 210 146 134
0.831378 0.0954968 0.125305 211 143 130
0.840443 0.0901245 0.122964 213 142 130
0.848618 0.08379 0.121608 210 137 125
0.864289 0.0625579 0.123632 255 233 245
0.869769 0.0607436 0.121479 255 247 255
0.874169 0.0577789 0.120518 255 247 255
0.892116 0.050239 0.114265 255 247 255
0.905664 0.050011 0.106743 255 247 255
0.912439 0.0500747 0.102886 255 247 255
0.916262 0.0492746 0.101135 255 245 255
0.92098 0.0467586 0.0997548 255 247 255
0.925417 0.0482958 0.0964597 255 247 255
0.936007 0.0449249 0.0921903 255 247 255
0.955075 0.0399925 0.0839077 255 247 255
0.979407 0.0372073 0.0715111 255 246 255
0.985786 0.039369 0.0667702 254 244 255
0.991772 0.0392038 0.0634456 254 244 255
0.997429 0.036665 0.0615272 254 244 255
1.01437 0.0327217 0.0538936 253 243 255
1.02772 0.0316673 0.0468104 252 242 255
0.888624 0.0517812 0.113128 255 247 255
0.891992 0.0516599 0.111288 255 246 255
0.893875 0.0511653 0.110475 255 247 255
0.897651 0.0502007 0.10883 255 247 255
0.899543 0.0497307 0.107999 255 247 255
0.911781 0.0524285 0.0997117 255 247 255
0.914548 0.0502701 0.0992373 255 247 255
0.92705 0.0494575 0.0925619 255 247 255
0.932279 0.0461946 0.0912482 255 247 255
0.940445 0.0409595 0.0892659 255 246 255
0.943408 0.0421369 0.086985 254 245 255
0.945364 0.0418736 0.086007 255 247 255
0.978504 0.0363952 0.0699147 255 246 255
0.987782 0.040098 0.0627317 255 245 255
0.99286 0.0383506 0.0607193 254 244 255
1.01343 0.0318817 0.0522442 254 244 255
1.01864 0.0303974 0.0500191 253 243 255
1.01951 0.0321095 0.0486438 253 243 255
1.02677 0.030817 0.0451415 253 243 255
1.0294 0.0301432 0.0439803 253 243 255
1.03466 0.0288371 0.0416263 242 233 248
