ply
format ascii 1.0
comment Created by Open3D
element vertex 2000
property double x
property double y
property double z
property uchar red
property uchar green
property uchar blue
end_header
0.0758473 -0.627337 0.422675 137 126 125
0.133552 -0.623851 0.409354 186 159 102
0.0688603 -0.627671 0.421755 217 209 212
0.0711153 -0.628514 0.421667 219 210 213
0.0772309 -0.626514 0.419267 219 210 213
0.166708 -0.625302 0.402021 190 162 106
0.203799 -0.625518 0.397077 141 118 66
0.213342 -0.625593 0.395977 93 71 24
0.0024237 -0.628601 0.436744 150 138 142
0.0428217 -0.628642 0.425856 215 208 213
0.0705146 -0.628654 0.419199 212 204 209
0.0767627 -0.627547 0.417228 212 204 209
0.061516 -0.629837 0.419214 212 204 209
0.0913242 -0.628668 0.411968 213 206 210
0.17012 -0.626467 0.39677 215 190 119
0.183738 -0.626094 0.394641 232 207 133
0.198851 -0.623043 0.391195 184 156 93
0.259155 -0.612154 0.37989 2 0 0
0.00136177 -0.628862 0.431774 210 202 207
0.00348007 -0.628189 0.430833 211 201 207
0.0141202 -0.629171 0.428339 211 203 208
0.0461858 -0.631686 0.421181 213 206 210
0.0503683 -0.63085 0.419733 213 206 210
0.0610348 -0.630855 0.417168 213 206 210
0.0739604 -0.631467 0.414487 215 205 210
0.222034 -0.623716 0.386114 87 67 21
-0.0269116 -0.628835 0.437497 207 199 207
0.0583125 -0.630978 0.415216 216 206 212
0.0733547 -0.631576 0.41202 216 206 212
0.0754873 -0.631497 0.411502 216 206 212
0.173531 -0.62756 0.391507 199 174 105
-0.00819783 -0.628994 0.429241 210 202 207
0.0130371 -0.629377 0.423394 213 206 210
0.0194529 -0.63076 0.42232 212 204 209
0.0534663 -0.631079 0.413777 214 207 212
0.074746 -0.63069 0.408634 217 207 213
0.215937 -0.624557 0.381915 95 73 26
-0.100151 -0.628506 0.456701 138 127 128
-0.0558837 -0.62826 0.441095 204 196 203
-0.0388277 -0.631676 0.437202 207 199 207
-0.0236613 -0.629718 0.431536 209 201 206
0.00827284 -0.629999 0.422356 213 206 210
0.0232066 -0.632027 0.419268 214 207 212
0.0424844 -0.633741 0.415116 214 207 212
0.0511286 -0.634775 0.41348 214 207 212
0.0550097 -0.631162 0.410806 217 209 212
0.0824857 -0.629464 0.403711 217 209 214
0.135925 -0.626435 0.3918 160 130 63
-0.0873314 -0.629779 0.449902 193 183 188
-0.0457194 -0.630563 0.436167 207 200 205
-0.0349932 -0.631645 0.433275 209 201 206
-0.0113544 -0.628897 0.424786 213 206 210
-0.00923401 -0.629164 0.424292 212 204 209
0.0482287 -0.633018 0.410703 218 211 213
0.0504527 -0.633944 0.4106 218 211 213
0.0734026 -0.629936 0.403329 218 208 214
0.0821669 -0.631346 0.402058 218 210 215
0.0842905 -0.631224 0.40154 221 211 216
0.0929443 -0.631548 0.399853 219 211 216
0.16958 -0.62929 0.385033 191 160 93
0.0877575 -0.630105 0.397666 220 213 217
0.0898734 -0.629956 0.397148 221 211 216
0.221085 -0.625532 0.373895 92 69 25
-0.0730328 -0.632175 0.440569 200 192 200
-0.0708956 -0.6327 0.440085 202 194 201
-0.04243 -0.631543 0.430198 211 203 210
-0.014457 -0.626938 0.419489 214 207 212
-0.00813182 -0.627733 0.418013 215 208 213
0.0108347 -0.627826 0.412714 217 209 214
0.019428 -0.632081 0.412377 217 209 214
0.0215529 -0.632215 0.411874 217 209 214
0.0553774 -0.631328 0.402941 218 210 215
0.103194 -0.635274 0.394257 123 114 110
-0.0687769 -0.629747 0.4353 205 197 202
0.0315012 -0.630964 0.406081 219 211 216
0.0845592 -0.631239 0.393693 220 213 217
0.0977657 -0.632994 0.391718 214 204 207
-0.104283 -0.627567 0.444043 206 199 203
-0.0538306 -0.627769 0.426783 212 204 211
-0.0112498 -0.626636 0.413183 215 208 213
0.0161818 -0.631092 0.407561 219 211 216
0.030943 -0.630986 0.403637 219 211 216
0.0565309 -0.633195 0.398332 221 214 219
0.0709925 -0.630091 0.393581 220 213 217
0.0901183 -0.629906 0.38933 222 215 220
0.164921 -0.630969 0.376123 221 197 123
-0.164953 -0.64316 0.471421 150 141 137
-0.0985132 -0.630454 0.440543 205 197 204
-0.018152 -0.629466 0.413884 215 208 213
-0.0096825 -0.628724 0.411079 217 209 214
0.020029 -0.635037 0.405724 220 213 217
0.0558411 -0.632293 0.395503 221 214 219
0.157595 -0.631485 0.374938 221 197 121
0.166613 -0.631439 0.373489 223 199 123
0.178387 -0.632498 0.372161 228 206 129
-0.0966652 -0.630264 0.437098 205 197 204
-0.0356513 -0.629618 0.416609 215 208 213
-0.0292711 -0.629747 0.41472 215 208 213
0.00671057 -0.633198 0.405884 220 213 217
0.0172469 -0.632165 0.402573 220 213 217
0.05324 -0.633227 0.393964 222 215 220
-0.0597257 -0.629653 0.421616 213 206 210
0.00193475 -0.631898 0.404031 221 214 219
0.0424742 -0.637763 0.396006 222 215 220
0.0444429 -0.635952 0.394723 222 215 220
0.056992 -0.634093 0.39089 221 211 216
0.0739325 -0.633574 0.386782 207 197 202
0.0942118 -0.627554 0.379796 224 220 221
0.0995503 -0.601841 0.367522 97 161 62
0.317909 -0.581395 0.332862 76 52 31
-0.0823935 -0.632677 0.427834 203 195 202
-0.0624983 -0.631 0.420475 214 207 212
-0.0366793 -0.630528 0.412107 218 210 215
0.0331205 -0.633869 0.394055 224 216 221
0.0418995 -0.637749 0.393556 222 215 220
0.0647489 -0.632963 0.386036 213 206 210
0.0858442 -0.631877 0.380899 200 193 196
0.0877917 -0.630803 0.38002 207 200 203
0.107283 -0.612051 0.367986 92 168 47
-0.0564338 -0.630555 0.4157 215 210 214
-0.0541483 -0.629182 0.414378 218 210 215
-0.0371632 -0.630512 0.409651 219 211 216
0.0414031 -0.638644 0.39149 224 216 221
-0.0718395 -0.629055 0.417459 214 207 212
-0.0698505 -0.630452 0.417397 214 209 213
-0.0440928 -0.631193 0.409484 219 211 216
0.0448393 -0.635883 0.3869 220 213 217
0.0722466 -0.634402 0.379875 183 173 179
0.150678 -0.63511 0.364841 229 206 134
0.163919 -0.634221 0.362303 233 211 139
0.168435 -0.63415 0.361559 232 210 136
-0.202788 -0.644312 0.470087 169 158 153
-0.096543 -0.630124 0.423658 210 202 207
-0.0856969 -0.631247 0.420404 207 199 207
-0.0835852 -0.631801 0.419921 209 201 206
-0.000159957 -0.631758 0.394286 225 217 222
0.00825744 -0.632478 0.392293 226 218 223
0.0166831 -0.633058 0.390291 226 218 223
0.0314415 -0.633738 0.386768 226 218 223
0.0401813 -0.637634 0.386232 224 216 221
0.0548485 -0.635791 0.381919 214 207 212
-0.0792771 -0.629265 0.414802 213 206 210
-0.0728512 -0.629907 0.412939 215 210 214
-0.0642231 -0.630028 0.410179 219 211 216
-0.0280975 -0.632065 0.399854 222 215 220
0.00354562 -0.633918 0.391632 226 218 223
0.0352994 -0.636566 0.384448 226 218 223
0.0820161 -0.63645 0.373528 165 159 159
0.149022 -0.634143 0.359667 233 210 143
-0.0542556 -0.633099 0.405692 220 213 217
-0.00329808 -0.632341 0.390317 226 218 223
0.0283336 -0.635377 0.383174 227 220 224
0.0581142 -0.63743 0.376772 212 202 208
0.0770282 -0.635722 0.371794 147 140 140
0.0833603 -0.635305 0.370249 155 150 149
0.177414 -0.633299 0.352243 242 220 160
0.180141 -0.634555 0.352323 244 222 161
-0.10445 -0.629996 0.418469 215 208 213
-0.0895428 -0.633295 0.414681 211 203 208
-0.0871429 -0.632059 0.413372 210 202 207
-0.0525275 -0.63254 0.402347 222 215 220
-0.0376457 -0.633363 0.398122 224 216 221
-0.0143575 -0.633889 0.391522 226 218 223
0.0278331 -0.636218 0.381121 228 221 226
0.0576294 -0.638275 0.374705 212 202 208
0.0723292 -0.6368 0.370759 169 160 161
0.193348 -0.634643 0.347893 231 211 152
-0.110599 -0.625357 0.416166 221 214 219
-0.106785 -0.628429 0.416047 217 209 214
-0.0767773 -0.632867 0.407659 216 211 215
-0.00222997 -0.634213 0.385732 227 220 224
0.0231046 -0.636884 0.380076 228 221 226
0.0655062 -0.637921 0.370235 197 187 193
0.146416 -0.632135 0.351811 191 176 158
-0.107016 -0.627484 0.413157 217 209 214
-0.0174176 -0.63159 0.386411 227 220 224
0.00144805 -0.633555 0.381946 227 220 224
0.0246661 -0.636865 0.377153 228 221 226
0.0393739 -0.636306 0.373252 226 218 223
0.0733584 -0.637416 0.365768 158 152 152
0.128248 -0.632339 0.352648 226 217 220
0.153071 -0.634414 0.34907 241 229 231
0.180045 -0.633854 0.344532 190 176 165
0.196394 -0.634223 0.342264 174 153 112
0.200944 -0.633853 0.341484 195 174 135
-0.079625 -0.631294 0.402819 217 212 216
-0.0475431 -0.632548 0.393159 225 217 222
0.166389 -0.636046 0.345002 238 228 234
0.17721 -0.634332 0.342651 240 231 234
-0.0673581 -0.633226 0.397056 224 216 221
-0.0502673 -0.63389 0.391981 226 218 223
-0.0355335 -0.636415 0.388529 226 218 223
-0.012178 -0.633936 0.380842 227 220 224
0.0425272 -0.637016 0.367775 225 217 222
0.111854 -0.632452 0.350871 215 210 214
0.126904 -0.632115 0.347879 216 213 218
0.191012 -0.636219 0.338775 232 223 226
-0.0701322 -0.634478 0.395871 222 215 220
-0.0616078 -0.635381 0.393526 225 217 222
0.00199816 -0.635204 0.374946 229 222 225
0.00409799 -0.63537 0.374446 229 222 227
0.0125301 -0.636883 0.372795 231 223 228
0.014636 -0.637006 0.372292 231 223 228
0.0167071 -0.636184 0.371437 231 223 228
0.0314329 -0.636739 0.367908 229 222 227
0.0356418 -0.636819 0.366896 228 221 226
0.1225 -0.634506 0.347146 144 174 189
0.175745 -0.634151 0.337843 242 232 235
0.207391 -0.631917 0.332389 120 109 104
0.212296 -0.632331 0.331869 116 101 93
-0.117308 -0.626347 0.406011 189 175 175
-0.115233 -0.627011 0.405534 204 191 198
-0.0873216 -0.630304 0.397313 215 208 213
-0.0490182 -0.633099 0.386251 227 220 224
-0.032236 -0.635866 0.382306 228 221 226
-0.0236019 -0.631457 0.378136 228 221 226
0.0267773 -0.638346 0.367206 229 222 227
0.0520893 -0.638515 0.361107 219 211 216
0.186433 -0.633926 0.333649 228 221 226
0.207336 -0.633621 0.33052 120 112 108
-0.115818 -0.627803 0.403472 203 193 197
-0.0713717 -0.63698 0.392117 225 217 222
-0.0263343 -0.634746 0.377674 228 221 226
0.212467 -0.630567 0.326265 100 91 85
-0.0802246 -0.63488 0.391628 222 215 220
-0.0501064 -0.63465 0.382146 227 220 224
-0.0480108 -0.635026 0.381653 228 221 226
-0.0184168 -0.63471 0.372928 229 222 227
-0.0100271 -0.634697 0.370588 229 222 227
0.00251802 -0.633944 0.366906 231 223 228
0.0722124 -0.639243 0.351852 139 137 133
0.15175 -0.636019 0.335061 173 203 216
0.162214 -0.633647 0.332452 181 206 220
0.194297 -0.633975 0.327557 159 183 193
0.196388 -0.633343 0.327031 157 174 184
0.206808 -0.630052 0.324402 74 76 76
0.209247 -0.630263 0.324137 70 75 73
-0.0890263 -0.632636 0.391132 217 209 214
-0.0316375 -0.636621 0.374918 228 221 226
-0.0147719 -0.636883 0.370233 229 222 227
0.00411046 -0.635793 0.364704 232 225 227
0.0146492 -0.63833 0.362872 231 223 228
0.164161 -0.634831 0.330101 180 205 219
-0.100691 -0.634216 0.393012 217 209 214
-0.0343255 -0.638001 0.37371 229 222 227
-0.00686219 -0.634729 0.36481 231 223 228
0.00148799 -0.6345 0.362478 231 223 228
0.0688919 -0.638991 0.347596 160 156 155
0.0847583 -0.63214 0.341686 118 124 115
0.139856 -0.637847 0.332902 165 196 211
0.143797 -0.636089 0.331583 171 200 215
0.17896 -0.633659 0.324872 181 206 218
-0.10319 -0.633468 0.391045 219 211 216
-0.0390673 -0.638106 0.372641 228 221 226
-0.0262337 -0.635233 0.36792 229 222 227
-0.0241436 -0.635502 0.367424 231 223 228
-0.0157746 -0.636494 0.365436 229 222 227
0.0283257 -0.639428 0.354886 229 222 227
0.118931 -0.635372 0.333497 158 192 208
0.163006 -0.635423 0.325616 181 206 220
0.206926 -0.629874 0.316988 70 79 81
-0.0585772 -0.636464 0.375387 227 220 224
-0.050269 -0.638956 0.373761 229 222 227
-0.0246322 -0.635293 0.365031 231 223 228
-0.022544 -0.635553 0.364535 231 223 228
-0.00999663 -0.636935 0.361548 231 223 228
0.000472659 -0.636905 0.358717 231 223 228
0.0234739 -0.637206 0.352871 232 224 229
0.0700398 -0.640342 0.34294 148 143 142
0.196114 -0.633948 0.31747 120 124 127
0.200281 -0.632644 0.316425 119 121 123
-0.121008 -0.629892 0.390774 196 182 184
-0.0914536 -0.636541 0.38322 217 209 214
-0.0400149 -0.637695 0.367821 228 221 226
-0.0271615 -0.633864 0.362799 231 223 228
-0.0250805 -0.634132 0.362305 229 222 227
0.00834011 -0.638199 0.354658 232 225 227
0.0166916 -0.637688 0.352326 232 224 229
0.0461063 -0.639073 0.345566 222 215 220
0.122427 -0.637095 0.328582 162 196 210
0.137776 -0.637274 0.325784 171 201 213
0.142467 -0.638304 0.325283 174 204 217
0.195351 -0.633781 0.315091 105 104 107
-0.0897753 -0.636885 0.380289 219 211 216
-0.0679365 -0.635282 0.37288 226 218 223
-0.0468389 -0.637389 0.367247 228 220 228
-0.0276435 -0.633631 0.36042 229 222 227
-0.00682285 -0.635922 0.355457 231 223 228
-0.000553163 -0.638334 0.354608 232 224 229
0.0267712 -0.640645 0.348374 232 224 229
0.0727543 -0.637724 0.336592 138 136 132
0.117147 -0.635665 0.326706 152 184 198
0.130335 -0.636368 0.324435 168 200 214
0.142022 -0.639025 0.323178 174 204 217
0.14831 -0.637712 0.321622 178 206 219
0.159605 -0.638122 0.319801 182 208 220
0.168568 -0.637906 0.318226 183 209 221
-0.126961 -0.632698 0.388707 204 191 188
-0.113475 -0.632115 0.383951 222 215 220
-0.0836255 -0.63639 0.375668 221 214 219
-0.0747456 -0.634628 0.372293 226 218 223
-0.0260485 -0.633655 0.357551 231 223 228
-0.0177891 -0.636528 0.356225 231 223 228
-0.0135582 -0.634133 0.354252 231 223 228
0.0177794 -0.639186 0.347708 233 225 230
0.0283189 -0.640443 0.345492 233 225 230
0.0406896 -0.637677 0.341544 231 223 228
0.0427794 -0.63766 0.341039 229 222 227
0.0490478 -0.63756 0.339523 228 221 226
0.0659992 -0.638811 0.336053 204 196 201
0.0822764 -0.634769 0.331126 120 127 115
0.134303 -0.637236 0.321579 169 201 215
0.154419 -0.637959 0.318216 181 206 220
-0.0904557 -0.635539 0.375069 219 211 216
-0.0435123 -0.636664 0.361122 229 222 227
-0.0371857 -0.636687 0.359302 229 222 227
0.017312 -0.640829 0.345955 233 225 230
0.0380345 -0.637423 0.339693 232 224 229
0.0698395 -0.640204 0.333252 199 194 196
0.0797289 -0.635637 0.329575 121 125 114
0.0818088 -0.635458 0.329068 120 127 113
0.145586 -0.640506 0.318179 177 207 219
0.169194 -0.636949 0.31297 183 209 221
0.182011 -0.634465 0.310103 201 209 215
-0.0822418 -0.635506 0.369987 225 217 222
-0.0691272 -0.63365 0.365322 227 220 224
-0.0524779 -0.636882 0.361379 228 221 226
-0.0398053 -0.63706 0.357742 229 222 227
-0.0312999 -0.635425 0.354778 231 223 228
-0.0271384 -0.635969 0.353786 231 223 228
0.0314019 -0.639979 0.339746 233 225 230
0.0417196 -0.638079 0.336627 233 225 230
0.0458077 -0.637069 0.335325 232 224 229
0.0521582 -0.637869 0.334101 229 222 227
0.104563 -0.635485 0.32196 155 196 207
0.138081 -0.639686 0.316863 172 202 215
-0.121237 -0.631369 0.378826 215 205 210
-0.0890463 -0.634668 0.369393 222 215 220
0.0287513 -0.639673 0.337892 233 225 230
0.0453208 -0.637739 0.33327 233 225 230
0.0474967 -0.638651 0.333052 231 223 228
0.0645597 -0.640862 0.329842 228 223 227
0.0746228 -0.637322 0.326467 223 218 220
0.17667 -0.636102 0.30666 186 210 220
-0.091687 -0.634817 0.367817 220 213 217
-0.0851562 -0.634506 0.365662 225 217 222
-0.0808633 -0.634559 0.364341 226 218 223
-0.0492994 -0.63801 0.355935 229 222 227
-0.0365157 -0.636183 0.351669 231 223 228
0.0262122 -0.641257 0.336627 233 225 230
0.0406606 -0.638459 0.332221 233 225 230
0.0511885 -0.639204 0.329978 232 224 229
0.0575638 -0.639929 0.328738 232 224 229
0.136443 -0.638233 0.311911 169 201 215
0.142956 -0.637891 0.310614 178 206 219
0.160739 -0.637812 0.307452 183 209 221
0.175614 -0.634937 0.304079 186 210 220
-0.118051 -0.633097 0.373348 224 216 221
-0.112013 -0.635889 0.372227 221 214 219
-0.0603649 -0.637743 0.356678 229 222 227
-0.0518399 -0.637371 0.354047 229 222 227
0.0130657 -0.639609 0.337003 232 224 229
0.0464322 -0.639013 0.328647 233 225 230
0.0613811 -0.641343 0.325927 230 225 229
0.0732624 -0.635778 0.321532 230 225 229
0.144596 -0.638111 0.307997 179 207 220
-0.118428 -0.632842 0.370925 224 216 221
-0.101974 -0.638581 0.367334 219 211 216
-0.0502106 -0.637432 0.351171 229 222 227
-0.018719 -0.636966 0.342158 232 224 229
1.73225e-05 -0.638597 0.337662 232 225 227
0.0770842 -0.637043 0.318727 229 224 226
0.0793099 -0.637818 0.318483 230 225 227
0.11749 -0.636906 0.31035 163 197 211
0.126024 -0.636419 0.308555 167 199 213
0.17028 -0.636469 0.300646 185 210 222
-0.123141 -0.632203 0.369826 217 207 213
-0.000498023 -0.638277 0.335313 232 224 229
0.0245605 -0.640327 0.329571 233 225 230
0.0349399 -0.63946 0.32677 233 225 230
0.0369535 -0.638494 0.32599 233 225 230
0.0723165 -0.637055 0.317414 230 225 229
0.0834648 -0.640931 0.316171 232 230 228
0.101319 -0.634014 0.310346 157 197 208
0.112253 -0.635365 0.308555 64 94 106
0.156481 -0.637499 0.300937 181 208 220
-0.130569 -0.633586 0.370241 205 192 190
-0.0155948 -0.638652 0.337053 232 224 229
0.0219258 -0.639952 0.327733 233 225 230
0.0447938 -0.639003 0.321915 233 225 230
0.0550993 -0.637707 0.319128 232 224 229
0.065978 -0.640987 0.317648 232 224 229
0.109117 -0.633462 0.306266 165 202 214
0.122142 -0.63428 0.30395 165 200 213
0.151596 -0.638187 0.299628 178 206 219
0.276965 -0.630039 0.278782 220 220 222
0.279963 -0.630769 0.278618 209 211 215
-0.113354 -0.63387 0.362215 222 215 220
-0.0790735 -0.635919 0.352059 227 220 224
-0.0348828 -0.638052 0.339784 231 223 228
-0.0181417 -0.637151 0.334912 232 224 229
-0.00983675 -0.637925 0.332916 232 224 229
0.00470603 -0.637992 0.329132 233 225 230
0.130662 -0.636206 0.300538 165 200 213
0.132975 -0.636745 0.300257 165 200 213
0.161837 -0.637224 0.295179 173 203 216
0.265118 -0.628495 0.277401 224 217 217
0.286701 -0.630083 0.2752 183 206 216
0.288765 -0.629037 0.274687 173 199 208
0.293369 -0.627777 0.273829 153 185 199
-0.0796246 -0.636535 0.349994 227 220 224
-0.0627727 -0.638081 0.345405 228 221 226
-0.0394376 -0.63618 0.338128 231 223 228
-0.00618152 -0.636951 0.329296 232 224 229
-0.00411058 -0.638065 0.32908 232 224 229
0.00418638 -0.637639 0.3268 232 224 229
0.0187975 -0.640166 0.32384 233 225 230
0.0519547 -0.638054 0.315256 232 224 229
0.0541341 -0.63893 0.315009 232 224 229
0.156387 -0.636076 0.293447 169 202 213
0.26265 -0.630088 0.275722 160 156 155
0.322187 -0.62703 0.268034 93 85 76
-0.126655 -0.630385 0.360679 198 184 187
-0.0632086 -0.637739 0.343036 228 221 226
-0.0525475 -0.636749 0.339649 229 222 227
-0.0233284 -0.637921 0.331805 232 224 229
-0.0128912 -0.636075 0.328461 232 224 229
-0.00876481 -0.637386 0.327746 232 224 229
-0.00669197 -0.637549 0.327247 232 224 229
0.0120138 -0.639595 0.323017 232 224 229
0.0224676 -0.640862 0.320771 233 225 230
0.0308115 -0.640952 0.318754 232 224 229
0.0371422 -0.641892 0.317501 233 225 230
0.045238 -0.638854 0.314707 233 225 230
0.0474071 -0.639757 0.31446 233 225 230
0.0557309 -0.639436 0.312442 232 224 229
0.0600045 -0.640186 0.311684 233 225 230
0.0880147 -0.643716 0.306545 125 128 127
0.114148 -0.635263 0.298784 158 194 209
0.163322 -0.638859 0.290646 167 201 214
0.165699 -0.63925 0.290342 167 201 214
0.170165 -0.639071 0.289524 167 201 214
0.218511 -0.631803 0.27986 54 50 58
0.31143 -0.633535 0.268339 77 67 57
-0.114479 -0.63293 0.355019 222 215 220
-0.0825199 -0.63539 0.345739 226 218 223
0.0592966 -0.638852 0.309121 232 224 229
0.1263 -0.634625 0.293906 160 197 212
0.175655 -0.637014 0.285667 164 200 213
0.190125 -0.632673 0.282115 163 197 211
0.255069 -0.627919 0.271352 36 36 38
0.30129 -0.6316 0.266547 125 138 145
-0.123269 -0.631035 0.354913 226 216 222
-0.100063 -0.634742 0.348555 219 211 216
-0.0897219 -0.637345 0.34608 225 217 222
-0.0555958 -0.636622 0.335739 229 222 227
-0.0472342 -0.637027 0.333461 229 222 227
0.000583302 -0.638323 0.320873 232 224 229
0.052681 -0.640702 0.308816 233 225 230
0.0844945 -0.642246 0.302173 147 144 148
0.143872 -0.637479 0.289048 164 200 215
0.19897 -0.633352 0.278529 163 197 213
0.207562 -0.631444 0.276691 177 194 202
0.248831 -0.626797 0.269526 136 136 138
0.279512 -0.632105 0.266853 34 38 41
-0.138619 -0.628771 0.356911 205 192 190
-0.135449 -0.63383 0.357219 205 192 190
-0.127938 -0.630324 0.353824 202 187 192
-0.0796166 -0.638428 0.340918 227 220 224
-0.0686371 -0.635853 0.336952 228 221 226
-0.0561309 -0.637198 0.333683 228 221 226
0.0335 -0.642695 0.311541 233 225 230
0.0727354 -0.638033 0.301231 233 225 232
0.102038 -0.63668 0.29464 154 192 209
0.147568 -0.637118 0.285935 164 200 215
0.17685 -0.637603 0.280908 160 197 212
0.205077 -0.632753 0.275061 163 197 213
0.254239 -0.629134 0.267001 116 116 118
0.297413 -0.632244 0.262266 114 125 130
0.304528 -0.635169 0.26212 83 85 87
-0.115785 -0.632822 0.34818 222 215 220
-0.0823813 -0.639485 0.33964 226 218 223
-0.0524356 -0.637506 0.330345 228 221 226
-0.0398705 -0.637471 0.326796 231 223 228
-0.0357909 -0.638988 0.326077 231 223 228
0.151533 -0.637655 0.283018 146 179 195
0.210815 -0.631149 0.271415 162 196 210
0.271059 -0.623856 0.261122 48 52 57
0.29444 -0.633087 0.260386 136 147 152
-0.127249 -0.633042 0.349503 221 211 216
-0.0383904 -0.63927 0.324517 231 223 228
-0.0196005 -0.638545 0.319212 231 223 228
0.00524419 -0.637446 0.312439 233 225 230
0.0324436 -0.642851 0.307153 233 225 230
0.0872515 -0.643497 0.294896 132 132 132
0.0890104 -0.641334 0.293952 84 84 84
0.108972 -0.634642 0.288065 155 194 208
0.123798 -0.634051 0.284974 164 200 215
0.150538 -0.636333 0.280527 147 181 196
0.173269 -0.637479 0.276792 161 198 213
0.192512 -0.633684 0.272611 159 195 210
0.199383 -0.633481 0.27145 159 195 210
0.205912 -0.632271 0.270114 161 195 210
0.234845 -0.632878 0.265888 201 213 223
0.261823 -0.622095 0.259547 52 55 61
-0.140589 -0.631393 0.351004 203 190 187
-0.104544 -0.637408 0.341062 219 211 216
-0.1023 -0.637017 0.340268 219 211 216
-0.0897141 -0.639173 0.336984 225 218 220
-0.0769772 -0.640061 0.333409 227 220 224
-0.0679603 -0.636029 0.329711 228 221 226
-0.0578345 -0.639828 0.32778 228 221 226
-0.0346523 -0.638436 0.320919 231 223 228
-0.00352513 -0.641396 0.313405 233 225 230
0.00680813 -0.638084 0.30989 233 225 230
0.0151792 -0.641282 0.30863 233 225 230
0.0235475 -0.642409 0.30686 233 225 230
0.1042 -0.634865 0.286791 154 192 209
0.120839 -0.633073 0.283 143 177 195
0.137158 -0.637812 0.281066 145 183 200
0.172517 -0.637105 0.274489 159 195 210
0.264796 -0.624345 0.257323 51 52 58
-0.142775 -0.621346 0.346806 142 130 123
-0.123851 -0.633573 0.34375 225 215 221
-0.113558 -0.636615 0.34127 221 214 217
-0.0665502 -0.637917 0.327435 228 221 226
-0.0582725 -0.639413 0.325438 229 222 227
-0.0434466 -0.637861 0.32086 231 223 228
-0.039313 -0.638434 0.319862 229 222 227
0.0104671 -0.639751 0.307084 233 225 230
0.0250308 -0.641026 0.30381 233 225 230
0.0458927 -0.641707 0.299009 233 225 230
0.054212 -0.641352 0.296993 233 225 230
0.0797217 -0.643331 0.291809 223 218 224
0.282677 -0.630254 0.253952 39 43 46
0.287118 -0.633549 0.254124 54 58 61
0.306934 -0.639893 0.25306 40 34 29
-0.103241 -0.637162 0.335823 219 212 214
-0.0759929 -0.641576 0.328754 227 220 224
-0.0736611 -0.640096 0.327698 228 221 226
-0.0545676 -0.639684 0.322102 229 222 227
-0.0419061 -0.638681 0.318305 229 222 227
0.0702194 -0.639795 0.290679 232 224 231
0.0952123 -0.638061 0.284862 152 190 207
0.210405 -0.630809 0.262048 150 186 203
0.220116 -0.631389 0.260673 154 191 206
0.246742 -0.631151 0.256666 161 193 207
0.302434 -0.638174 0.250778 80 88 92
-0.0615214 -0.641066 0.322074 228 221 226
-0.0112453 -0.63867 0.307735 232 224 229
0.0280808 -0.64014 0.298218 232 224 229
0.0385907 -0.641961 0.296157 232 224 229
0.0610923 -0.638031 0.289978 232 224 231
0.0631563 -0.637888 0.289478 233 225 232
0.0947447 -0.638581 0.282789 149 190 205
0.146136 -0.637092 0.272259 148 182 198
0.171489 -0.639664 0.268287 163 199 214
0.240534 -0.629882 0.254922 149 185 200
0.311784 -0.641323 0.247834 72 64 57
-0.12371 -0.636724 0.337307 225 215 221
-0.110544 -0.636547 0.333165 219 212 214
-0.091458 -0.638463 0.32783 225 218 220
-0.0241442 -0.638078 0.30868 231 223 228
-0.00555726 -0.640586 0.30442 232 224 229
-0.00141194 -0.640834 0.303417 232 224 229
0.00684726 -0.639286 0.30094 232 224 229
0.031795 -0.641599 0.295377 233 225 230
0.0525512 -0.640971 0.290349 232 224 229
0.0626775 -0.638397 0.287419 232 224 231
0.0760528 -0.644139 0.285847 235 229 236
0.108931 -0.637912 0.2774 155 194 208
0.141292 -0.637615 0.270985 163 202 216
0.155051 -0.639376 0.268841 161 198 213
0.201682 -0.635715 0.25992 160 197 212
0.222471 -0.634395 0.256314 160 193 209
0.24589 -0.632234 0.252311 156 192 207
0.25421 -0.63396 0.251489 150 186 201
0.286326 -0.63611 0.247535 172 174 175
0.291435 -0.635703 0.246776 115 138 153
0.304168 -0.639042 0.245844 46 42 39
-0.139843 -0.637303 0.340169 204 191 188
-0.0939126 -0.637532 0.325983 224 216 221
-0.0184387 -0.638197 0.304887 231 223 228
0.0022093 -0.639606 0.299887 232 224 229
0.022944 -0.64114 0.2951 233 225 230
0.0395311 -0.640978 0.291083 232 224 229
0.0559994 -0.6393 0.286859 232 224 231
0.0860038 -0.643535 0.281233 93 92 97
0.0913938 -0.637935 0.278754 150 190 209
0.133894 -0.636629 0.269864 144 180 197
0.156106 -0.63747 0.265891 163 199 214
0.174432 -0.638573 0.26286 161 200 214
0.197111 -0.637646 0.258777 160 197 212
0.205366 -0.634787 0.256779 160 197 212
0.224096 -0.634114 0.253655 160 193 209
0.25628 -0.634449 0.248924 156 192 207
-0.154338 -0.601421 0.334311 161 148 143
-0.132619 -0.633324 0.33456 199 185 190
-0.122781 -0.638363 0.33263 222 215 220
-0.0984127 -0.636077 0.324638 222 215 220
-0.067174 -0.64088 0.3166 228 221 226
-0.0376071 -0.638633 0.307818 229 222 227
-0.0355442 -0.638889 0.307318 232 224 229
-0.00862037 -0.638526 0.300103 232 224 229
0.0328838 -0.64257 0.29074 232 224 229
0.0795652 -0.646663 0.281048 123 117 124
0.118318 -0.637122 0.270742 147 183 201
0.159782 -0.636893 0.262783 161 198 213
0.169837 -0.640272 0.261734 163 199 214
0.204566 -0.634376 0.254492 158 194 209
0.23228 -0.632229 0.249644 157 193 208
0.256286 -0.635864 0.246849 154 191 206
0.262477 -0.632998 0.245358 151 189 203
0.312094 -0.640978 0.240325 66 57 53
-0.145841 -0.600193 0.328996 200 185 179
-0.0927901 -0.638064 0.32107 225 217 222
-0.0843889 -0.638988 0.318803 226 219 221
-0.0694263 -0.638104 0.314263 228 221 226
-0.0505751 -0.638369 0.309008 228 221 226
-0.0215272 -0.638984 0.301283 231 223 228
0.00742721 -0.641812 0.294492 231 223 228
0.0904543 -0.638912 0.274611 149 189 207
0.111462 -0.637744 0.269981 161 197 215
0.19072 -0.636319 0.254905 156 195 211
0.232252 -0.633641 0.247609 155 194 208
0.248356 -0.636478 0.245769 154 193 207
0.281079 -0.635275 0.240845 136 170 186
0.292712 -0.637097 0.239635 104 131 145
-0.160333 -0.597371 0.330886 134 126 124
-0.129433 -0.634663 0.329124 226 216 222
-0.0810793 -0.642269 0.316239 227 220 224
-0.0658386 -0.639344 0.311198 228 221 226
-0.0488744 -0.63722 0.305965 228 221 226
-0.0158248 -0.639022 0.297499 231 223 228
-0.00137538 -0.640952 0.294218 232 224 229
0.0110468 -0.641441 0.291206 231 223 228
0.0130884 -0.640517 0.290489 232 224 229
0.0193746 -0.642574 0.289411 232 224 229
0.0276222 -0.641619 0.28719 231 223 228
0.0360532 -0.643456 0.285593 231 223 228
0.0443699 -0.643205 0.283578 231 223 228
0.0899834 -0.639388 0.272538 149 189 207
0.0978689 -0.636319 0.270185 151 192 208
0.152128 -0.637578 0.259745 163 199 214
0.157101 -0.639359 0.259213 164 200 215
0.176276 -0.636025 0.255032 163 199 214
0.2002 -0.632397 0.250157 158 194 211
0.202966 -0.633521 0.249936 157 193 210
0.217515 -0.634487 0.247768 158 192 208
0.227698 -0.635814 0.246431 156 192 207
0.252916 -0.636931 0.242817 156 192 207
-0.126112 -0.637334 0.326312 222 215 220
-0.121785 -0.637619 0.325037 222 215 220
-0.0957825 -0.637577 0.317167 224 216 221
-0.0725595 -0.638658 0.310638 227 220 224
-0.0703778 -0.638091 0.309888 228 221 226
-0.00601607 -0.640211 0.292942 231 223 228
0.131823 -0.637608 0.261335 147 183 201
0.236719 -0.635631 0.242644 157 193 208
0.260443 -0.638154 0.239577 154 191 206
0.273757 -0.633969 0.236829 140 178 195
0.276282 -0.633822 0.236443 138 176 193
-0.113313 -0.636651 0.319885 219 212 214
-0.0836682 -0.638939 0.311578 225 218 220
-0.0687358 -0.637973 0.307081 228 221 226
-0.0625618 -0.639074 0.305578 227 220 224
-0.0458089 -0.638731 0.300858 229 222 227
-0.0354446 -0.639079 0.298123 231 223 228
0.0224362 -0.641572 0.283861 231 223 228
0.0286463 -0.641549 0.282356 232 224 229
0.0328521 -0.64247 0.281552 231 223 228
0.0452914 -0.642093 0.278539 228 222 229
0.0816775 -0.647147 0.271453 154 151 157
0.098804 -0.635969 0.265383 151 192 208
0.1072 -0.635636 0.26357 156 195 209
0.120147 -0.636317 0.26109 137 173 190
0.155626 -0.638407 0.254684 163 199 214
0.157403 -0.636917 0.254042 161 200 214
0.15975 -0.637313 0.253691 159 197 212
0.161515 -0.635808 0.253052 156 195 211
0.165619 -0.634665 0.252064 136 170 186
0.204136 -0.633742 0.245168 157 193 210
0.255413 -0.639664 0.238242 156 192 207
-0.149916 -0.594128 0.320124 197 183 176
-0.107329 -0.636868 0.315787 218 211 213
-0.102865 -0.636025 0.314274 220 213 215
-0.0967111 -0.637543 0.312771 224 216 221
-0.0884813 -0.639449 0.310761 225 218 220
-0.0548403 -0.640876 0.301505 228 221 226
-0.000833312 -0.640472 0.287111 231 223 228
0.0198683 -0.642011 0.2823 231 223 228
0.0744887 -0.645348 0.270342 235 229 238
0.145829 -0.637141 0.253977 140 178 195
0.150215 -0.637073 0.253132 162 201 215
0.192031 -0.634064 0.244983 159 195 212
0.239134 -0.633026 0.237075 154 191 206
0.26785 -0.635198 0.233167 149 185 202
-0.101363 -0.636985 0.311704 221 214 219
-0.0655733 -0.638644 0.30172 228 221 226
-0.0469354 -0.640592 0.296969 228 221 226
-0.034478 -0.64118 0.293729 229 222 227
0.0130663 -0.639433 0.281144 228 221 226
0.0482718 -0.640833 0.273027 226 220 226
0.0781766 -0.645358 0.267243 84 78 84
0.101781 -0.635255 0.2601 155 194 208
0.129241 -0.634171 0.254311 144 180 197
0.14716 -0.636129 0.25124 151 185 203
0.156211 -0.636873 0.249685 107 143 160
0.182052 -0.633464 0.244313 59 82 95
0.200841 -0.634467 0.241258 155 188 207
0.210883 -0.636093 0.239888 158 194 209
0.221921 -0.633973 0.237665 158 192 208
-0.112925 -0.638558 0.313145 218 211 213
-0.108808 -0.639654 0.312135 217 209 214
-0.106379 -0.638287 0.311134 218 211 213
-0.0978049 -0.638426 0.308627 222 215 220
-0.0894154 -0.639374 0.306371 225 217 222
-0.0059748 -0.641128 0.283998 228 221 226
0.0125969 -0.640842 0.279286 228 221 226
0.0187097 -0.638961 0.277398 228 221 226
0.035379 -0.64174 0.273966 226 220 224
0.0477847 -0.641264 0.270962 222 216 223
0.0537743 -0.638955 0.269108 221 215 222
0.0972185 -0.636316 0.259022 151 192 208
0.101316 -0.635685 0.258035 155 194 208
0.142332 -0.636611 0.24999 146 182 200
0.159576 -0.635256 0.24646 146 182 200
0.176867 -0.633312 0.242925 102 122 136
0.255734 -0.639236 0.230992 157 193 208
0.266072 -0.63436 0.228542 149 185 202
-0.126 -0.63644 0.314339 222 215 220
-0.0983516 -0.638855 0.306554 222 215 220
-0.0815678 -0.640609 0.302043 227 220 224
-0.0522015 -0.641832 0.294069 228 221 226
0.00591992 -0.64209 0.278925 228 221 226
0.0701472 -0.640999 0.263571 222 216 223
0.0747016 -0.643514 0.263068 152 147 153
0.0847492 -0.640379 0.260246 131 160 178
0.100469 -0.634167 0.255663 155 193 210
0.154452 -0.63489 0.245078 107 143 160
0.17985 -0.630587 0.239598 99 120 133
0.187627 -0.633278 0.238731 122 145 160
0.197544 -0.635143 0.237356 162 195 214
0.204051 -0.633876 0.236003 158 194 209
0.230837 -0.635178 0.231808 160 193 209
0.247716 -0.634385 0.22899 159 195 210
0.257366 -0.638732 0.228284 157 191 205
-0.136296 -0.63184 0.31427 191 177 180
-0.132233 -0.633119 0.313267 225 217 222
-0.11609 -0.638851 0.309484 219 211 216
-0.0992411 -0.641188 0.304951 222 215 220
-0.0381051 -0.642213 0.288041 228 221 226
-0.0339133 -0.641706 0.286823 227 220 224
-0.0152292 -0.640456 0.281687 227 220 224
0.0198189 -0.640784 0.272977 224 216 221
0.0506479 -0.638933 0.265315 212 206 212
0.0611596 -0.64018 0.263164 214 208 215
0.0673414 -0.639651 0.261671 219 213 219
0.076152 -0.642734 0.260323 94 88 95
0.0861749 -0.639557 0.257517 148 188 208
0.0882346 -0.639287 0.257021 147 187 207
0.097961 -0.634897 0.254095 155 193 210
0.124412 -0.630101 0.247737 147 183 201
0.164814 -0.634383 0.240782 173 209 226
0.252681 -0.63565 0.226103 158 193 206
0.285227 -0.638584 0.221714 115 149 165
-0.152031 -0.59431 0.309874 197 183 176
-0.150423 -0.595937 0.309665 197 183 176
-0.132791 -0.633532 0.311194 225 217 222
-0.0803052 -0.63993 0.296937 227 220 224
-0.0386259 -0.642621 0.285974 228 221 226
-0.00748958 -0.641389 0.277622 226 218 223
0.0461391 -0.640543 0.264422 212 204 211
0.0733191 -0.641406 0.258428 170 164 173
0.085538 -0.638988 0.255292 150 190 209
0.116314 -0.624978 0.246178 155 189 205
0.120551 -0.625139 0.245352 144 182 198
0.125872 -0.612865 0.241982 142 178 195
0.138804 -0.622069 0.24117 146 184 201
0.183687 -0.631981 0.234642 97 116 128
0.220534 -0.636636 0.22912 161 195 210
-0.122932 -0.636042 0.306356 221 214 219
-0.0786473 -0.639775 0.294141 227 220 224
-0.0579178 -0.642434 0.28887 227 220 224
-0.0265926 -0.641387 0.28028 227 220 224
0.00438121 -0.64134 0.272365 224 216 221
0.0250689 -0.642544 0.26753 218 210 215
0.0476203 -0.639847 0.261696 206 198 205
0.0520389 -0.64255 0.261188 203 195 202
0.101592 -0.626947 0.247381 156 195 211
0.104396 -0.620444 0.245589 97 133 151
0.126718 -0.594648 0.236327 149 185 202
0.179483 -0.634641 0.233607 63 85 100
0.227443 -0.637306 0.225771 161 195 210
0.265918 -0.634228 0.219123 153 190 205
0.275309 -0.637359 0.218215 135 173 192
0.295058 -0.639428 0.215625 74 87 92
-0.14556 -0.636688 0.311028 200 189 186
-0.142524 -0.633614 0.309545 202 192 188
-0.117347 -0.638165 0.302759 218 210 215
-0.0749371 -0.639992 0.290846 227 220 224
-0.0667026 -0.641476 0.288824 227 220 224
-0.0167343 -0.640663 0.275323 224 216 221
-0.0146962 -0.641789 0.275009 224 216 221
0.00179708 -0.639692 0.270446 222 215 220
0.022457 -0.641964 0.265794 217 209 214
0.102846 -0.605925 0.241106 129 163 181
0.103938 -0.6017 0.240114 151 185 203
0.105425 -0.599409 0.239393 156 191 209
0.157875 -0.639217 0.236155 163 198 216
0.173666 -0.632551 0.232035 140 165 182
0.180422 -0.632504 0.230795 107 128 142
-0.15957 -0.594195 0.305704 197 183 174
-0.125862 -0.635284 0.302473 221 214 219
-0.100732 -0.638952 0.295718 222 215 220
-0.0944065 -0.639428 0.293978 225 217 222
-0.048213 -0.639821 0.281193 226 218 223
-0.0276663 -0.643136 0.276346 224 216 221
-0.0172695 -0.642024 0.273451 224 216 221
0.0116068 -0.641311 0.266065 219 211 216
0.0508647 -0.641352 0.256734 197 189 196
0.178255 -0.634484 0.229267 110 135 151
0.19425 -0.634394 0.226369 162 196 212
0.203501 -0.63425 0.224717 162 196 212
0.237238 -0.634685 0.219081 161 195 208
-0.158219 -0.595279 0.303285 196 183 176
-0.124376 -0.636253 0.29989 220 213 217
-0.0988783 -0.637894 0.292701 222 215 220
-0.0487341 -0.640192 0.279135 227 220 224
0.0564562 -0.640312 0.253025 198 190 199
0.08659 -0.633137 0.245071 143 183 202
0.202327 -0.632777 0.2224 162 196 210
0.214392 -0.633529 0.220427 160 193 209
0.216818 -0.633645 0.22003 162 196 212
0.234736 -0.635962 0.217383 162 196 210
0.255012 -0.636707 0.214197 156 192 207
0.272587 -0.635938 0.211311 138 174 194
-0.133306 -0.635149 0.300068 221 214 219
-0.0994195 -0.63826 0.290631 224 216 221
-0.0245206 -0.643255 0.271018 222 215 220
0.0271666 -0.643002 0.258097 207 199 207
0.0313 -0.642911 0.257096 204 196 201
0.0354328 -0.642786 0.256095 200 192 200
0.0709116 -0.643308 0.248043 189 183 192
0.168531 -0.63587 0.226777 117 148 167
0.183808 -0.634185 0.223675 88 113 129
0.216369 -0.634022 0.217877 163 197 213
0.285747 -0.637174 0.207107 99 128 145
-0.106465 -0.639052 0.290506 220 213 217
-0.0643628 -0.640723 0.278934 226 218 223
-0.0562285 -0.642975 0.277099 226 218 223
-0.0540714 -0.642296 0.276402 225 217 222
-0.0435297 -0.640718 0.273314 225 217 222
-0.0353005 -0.64165 0.271296 224 216 221
-0.000216976 -0.640164 0.262061 215 208 213
0.0370067 -0.643065 0.253526 197 187 195
0.0533226 -0.640192 0.24925 186 180 187
0.0727745 -0.645406 0.24573 121 115 124
0.0927187 -0.55838 0.226967 146 153 167
0.101108 -0.547631 0.223469 128 126 136
0.108298 -0.533828 0.219764 123 122 131
0.123415 -0.543381 0.218331 152 170 185
0.258674 -0.63642 0.208886 156 192 207
-0.160803 -0.592799 0.297196 196 183 176
-0.142792 -0.634247 0.298165 182 169 166
-0.0981091 -0.637518 0.285569 224 216 221
-0.0732293 -0.640633 0.279087 226 218 223
-0.0234067 -0.642157 0.266033 221 214 219
-0.0192841 -0.642472 0.265025 220 213 217
0.0115883 -0.639803 0.25685 212 204 209
0.0260667 -0.641726 0.253662 203 195 202
0.0526307 -0.638565 0.246912 184 176 183
0.0722893 -0.645754 0.243641 122 116 123
0.0912939 -0.553813 0.224632 139 140 151
0.200974 -0.63387 0.215994 166 198 212
0.228859 -0.637914 0.211729 163 197 211
0.272839 -0.635158 0.204098 140 173 192
0.27929 -0.637461 0.203408 120 155 175
-0.165995 -0.594418 0.296905 158 148 142
-0.163204 -0.592391 0.295727 197 184 177
-0.145885 -0.635813 0.297036 201 190 187
-0.143348 -0.634591 0.296084 182 169 166
-0.0947242 -0.63975 0.282687 225 217 222
-0.0403836 -0.640901 0.268006 224 216 221
0.00702232 -0.642052 0.256104 212 204 209
0.0151295 -0.638188 0.253498 207 199 207
0.0563559 -0.639576 0.244 184 176 185
0.0626337 -0.640035 0.242646 191 183 190
0.0693265 -0.643364 0.241671 197 188 198
0.0819717 -0.563679 0.226281 136 141 155
0.0949961 -0.548264 0.221115 141 120 123
0.173927 -0.636937 0.219152 162 196 212
0.220267 -0.636223 0.210659 165 199 215
0.234986 -0.63655 0.208175 169 201 215
0.252339 -0.636403 0.205249 163 197 211
-0.111998 -0.638082 0.285088 217 209 214
-0.0976519 -0.641553 0.281516 225 217 222
-0.0935365 -0.642468 0.280493 225 217 222
-0.0783967 -0.640545 0.275966 226 218 223
-0.0305122 -0.640318 0.263087 221 214 219
-0.0161305 -0.641443 0.259567 219 211 216
-0.0119997 -0.640701 0.258403 218 210 215
-0.0058306 -0.640019 0.256742 214 207 212
-0.0017238 -0.641168 0.255896 213 206 210
0.0332561 -0.641185 0.2474 193 185 193
0.112221 -0.521116 0.211663 117 78 78
0.166288 -0.629056 0.217184 157 193 208
0.186072 -0.634211 0.214226 160 197 212
0.286484 -0.638444 0.197674 89 119 134
-0.164565 -0.593935 0.292069 202 189 182
-0.106217 -0.638981 0.281284 221 214 219
-0.083175 -0.641048 0.275101 226 218 223
-0.0581314 -0.642355 0.268453 225 217 222
-0.0539192 -0.641961 0.267264 224 216 221
-0.0268302 -0.639028 0.259702 220 213 217
0.00804021 -0.640754 0.251188 206 199 203
0.0327639 -0.641503 0.245339 192 184 191
0.0390155 -0.642242 0.243978 186 178 186
0.0532278 -0.639392 0.240246 178 170 177
0.0596101 -0.640864 0.239011 183 174 184
0.100571 -0.545476 0.215841 109 64 61
0.10891 -0.523135 0.210869 113 55 45
0.177106 -0.636299 0.213945 153 189 209
0.179802 -0.637523 0.213611 159 197 214
0.184235 -0.637108 0.212723 161 198 213
0.210926 -0.633804 0.207392 142 176 194
0.226696 -0.637119 0.205069 140 173 192
0.257596 -0.634169 0.199424 149 181 198
-0.142734 -0.635278 0.28911 188 174 174
-0.12553 -0.636374 0.2842 219 211 216
-0.0987324 -0.642192 0.277352 224 216 221
-0.0923929 -0.642585 0.275626 225 217 222
0.0239844 -0.641037 0.245138 194 184 189
0.0849339 -0.609124 0.226512 128 137 152
0.089559 -0.56302 0.218831 126 76 75
0.103552 -0.530714 0.211277 111 53 46
0.13861 -0.552361 0.207381 155 188 207
0.15318 -0.585453 0.209192 151 187 204
0.274009 -0.63728 0.194797 128 166 185
0.283021 -0.639354 0.193601 103 134 151
-0.165929 -0.59545 0.288392 202 189 182
-0.140762 -0.634335 0.286105 205 196 199
-0.138491 -0.63402 0.285391 224 216 221
-0.109345 -0.639099 0.277643 219 211 216
-0.0635153 -0.64431 0.265671 224 216 223
-0.0403932 -0.64239 0.259253 221 214 219
-0.029896 -0.63946 0.256103 218 210 215
0.0214792 -0.642361 0.243709 187 176 184
0.0843594 -0.632539 0.227856 126 162 182
0.099215 -0.551196 0.213238 110 52 44
0.104955 -0.524403 0.208336 114 56 48
0.132202 -0.5336 0.20419 70 86 101
0.236035 -0.633354 0.198356 138 174 194
-0.124805 -0.638508 0.279726 218 210 215
-0.0825735 -0.641389 0.268194 226 218 223
-0.0679337 -0.641993 0.264281 225 217 224
-0.0575432 -0.642582 0.26157 222 215 220
-0.047 -0.640988 0.258551 221 214 219
0.018922 -0.642678 0.242146 180 170 175
0.0250515 -0.641589 0.240521 181 173 180
0.0907059 -0.56419 0.214935 112 46 43
0.0979792 -0.555684 0.212244 113 55 47
0.0992655 -0.553385 0.211663 109 49 42
0.111566 -0.518791 0.204494 118 56 47
0.117356 -0.515173 0.202859 110 53 38
0.138017 -0.536123 0.201588 142 170 190
0.163278 -0.594054 0.204317 174 211 226
0.220524 -0.632494 0.19869 143 179 196
0.235579 -0.633663 0.196182 146 179 197
-0.144394 -0.636178 0.282855 183 170 167
-0.110426 -0.639686 0.273488 220 213 217
-0.0705144 -0.641941 0.262721 225 217 224
-0.0537617 -0.641471 0.258168 222 215 220
-0.00423509 -0.639701 0.245194 196 186 192
0.0471756 -0.640868 0.232994 169 161 168
0.0962755 -0.558222 0.211059 96 39 29
0.100592 -0.553264 0.209503 107 46 42
0.112524 -0.517638 0.202419 115 56 44
0.114863 -0.513913 0.20147 113 55 43
0.116867 -0.509217 0.200468 111 54 42
0.131435 -0.517384 0.19866 151 173 193
0.171216 -0.606279 0.202274 170 206 221
0.191615 -0.638331 0.202442 141 174 193
0.220067 -0.632791 0.196537 150 184 202
0.254584 -0.638226 0.19114 141 174 195
0.255769 -0.635443 0.19061 139 172 192
0.272169 -0.637349 0.188065 133 169 189
-0.162228 -0.593084 0.280531 197 184 177
-0.149787 -0.637985 0.282385 199 188 185
-0.060541 -0.641868 0.257784 224 216 223
-0.0500864 -0.641297 0.254936 220 213 217
-0.0252366 -0.639827 0.248293 211 203 208
0.0301729 -0.640983 0.234788 172 165 170
0.0383862 -0.640636 0.232803 174 166 173
0.0529543 -0.641683 0.229553 162 154 159
0.086658 -0.630831 0.220572 143 161 177
0.111624 -0.515933 0.200658 114 55 43
0.19115 -0.638617 0.200297 139 172 190
0.210679 -0.634527 0.196177 149 183 201
0.215142 -0.633823 0.19528 149 183 201
0.230967 -0.636959 0.192802 142 177 197
0.24579 -0.636908 0.190186 149 183 201
-0.170862 -0.598572 0.28167 156 145 142
-0.147788 -0.637031 0.279387 191 178 174
-0.120095 -0.640063 0.271744 215 208 213
-0.113552 -0.639727 0.269844 219 209 215
-0.0838719 -0.640275 0.261646 225 217 222
-0.0672195 -0.641197 0.257246 224 216 223
-0.0589061 -0.64145 0.255057 222 214 222
-0.0525648 -0.640318 0.253233 220 213 217
-0.0483847 -0.639847 0.252073 220 213 217
-0.0277915 -0.639934 0.246744 211 203 208
-0.00932358 -0.639089 0.241963 195 185 193
0.0275114 -0.639332 0.233001 164 153 161
0.0337197 -0.640101 0.231625 169 159 165
0.0378957 -0.640902 0.230743 169 161 168
0.0784085 -0.634203 0.220639 108 135 151
0.0824667 -0.633647 0.219671 112 144 160
0.0856416 -0.616065 0.216773 115 102 111
0.101293 -0.552383 0.205517 97 39 32
0.106218 -0.543097 0.203353 106 46 39
0.107655 -0.541733 0.20289 111 48 42
0.137054 -0.515781 0.193902 137 160 175
0.192395 -0.637228 0.197632 141 174 195
0.193748 -0.634619 0.197072 154 192 209
0.229699 -0.635412 0.190558 143 177 195
0.28278 -0.63982 0.18186 96 125 143
-0.171391 -0.598824 0.279703 153 143 139
-0.150374 -0.636635 0.277813 198 187 184
-0.116339 -0.640434 0.268452 215 208 213
-0.0990373 -0.639515 0.263488 225 217 222
-0.0510336 -0.640839 0.250668 220 213 217
0.0127154 -0.640809 0.234541 153 143 149
0.0332285 -0.640359 0.229569 164 154 159
0.0998444 -0.555888 0.204378 94 36 28
0.109941 -0.545411 0.201032 109 49 40
0.148096 -0.538507 0.19263 158 192 208
0.188514 -0.634467 0.195798 148 186 205
0.195326 -0.634144 0.194469 163 198 216
0.233739 -0.634811 0.187479 150 184 202
0.261879 -0.635984 0.182658 130 165 185
0.279299 -0.639436 0.180043 104 135 154
0.282313 -0.640105 0.179604 98 126 146
-0.145833 -0.634411 0.273953 184 171 171
-0.131155 -0.636805 0.269983 218 210 215
-0.129122 -0.637385 0.269467 218 210 215
-0.110344 -0.640294 0.264482 220 213 217
-0.0954809 -0.64066 0.260389 225 217 222
-0.0934335 -0.641093 0.259876 225 217 222
-0.0913844 -0.641518 0.259362 225 217 222
-0.0557434 -0.641543 0.249766 220 212 219
-0.0495005 -0.641342 0.2481 219 211 216
-0.0225904 -0.638913 0.240873 204 194 200
0.00196018 -0.640969 0.234983 174 162 168
0.0182941 -0.639024 0.230772 147 138 141
0.034647 -0.638532 0.226814 158 147 155
0.0388897 -0.64031 0.226026 158 148 153
0.0933335 -0.561418 0.204526 72 17 18
0.0981473 -0.558413 0.203155 81 28 21
0.110557 -0.498954 0.1938 111 51 39
0.123423 -0.487818 0.189996 131 116 123
0.141468 -0.520791 0.190129 150 174 191
0.188716 -0.630248 0.193053 118 151 169
0.247731 -0.639499 0.183179 137 171 189
-0.149184 -0.636855 0.272928 184 171 167
-0.14158 -0.633075 0.270308 222 215 220
-0.135758 -0.635867 0.268937 217 212 216
-0.110882 -0.64054 0.262402 220 213 217
-0.102686 -0.642468 0.260335 224 216 221
-0.0666204 -0.641292 0.250392 221 213 221
-0.0292689 -0.639691 0.240458 207 197 202
-0.0087944 -0.640913 0.235432 186 173 182
0.019845 -0.639232 0.228227 140 131 134
0.027908 -0.637033 0.226045 143 136 141
0.0340878 -0.637779 0.224666 144 137 142
0.0445509 -0.640177 0.222486 139 129 135
0.0610151 -0.622785 0.216707 158 152 159
0.0773682 -0.587576 0.209045 121 142 158
0.0845248 -0.565206 0.204958 96 52 55
0.0862897 -0.564895 0.204541 85 30 30
0.0880536 -0.564577 0.204124 78 22 20
0.181404 -0.611717 0.190277 111 147 167
0.2489 -0.637889 0.18049 140 173 194
0.287426 -0.641942 0.174182 81 94 101
0.313545 -0.603355 0.166294 78 80 79
-0.124094 -0.63956 0.263752 215 208 213
-0.117962 -0.641174 0.262196 217 209 214
-0.00929737 -0.641145 0.233378 180 170 175
0.00504891 -0.640509 0.229764 150 138 142
0.0173056 -0.639496 0.226673 131 121 125
0.0730053 -0.57526 0.20668 114 131 148
0.101715 -0.561973 0.199021 77 23 18
0.108772 -0.553206 0.196602 81 27 23
0.115001 -0.47908 0.18754 106 52 36
0.133211 -0.499453 0.186046 143 137 148
0.18765 -0.618033 0.187569 167 204 219
-0.164086 -0.597082 0.268756 198 185 181
-0.122593 -0.640336 0.261148 215 208 213
-0.0803615 -0.642641 0.249753 222 215 220
-0.0200497 -0.640863 0.233836 190 177 184
0.103433 -0.555564 0.196104 73 21 18
0.105825 -0.492204 0.189146 109 49 40
0.215164 -0.636387 0.181926 159 195 214
-0.11454 -0.640725 0.256676 218 210 215
-0.112297 -0.640259 0.256005 219 211 216
-0.102059 -0.642643 0.253414 222 215 220
-0.0933449 -0.641471 0.250911 224 216 221
-0.0849919 -0.642105 0.248709 224 216 223
-0.078696 -0.642244 0.247027 221 213 221
-0.0534313 -0.640033 0.24011 210 200 208
0.0225989 -0.642796 0.221354 114 107 107
0.0245018 -0.639755 0.220587 117 110 110
0.0367022 -0.638242 0.217537 124 116 119
0.0555205 -0.589775 0.208222 142 135 139
0.067114 -0.555203 0.202098 99 97 107
0.1013 -0.556134 0.194745 64 16 14
0.104294 -0.553414 0.193843 65 17 15
0.11426 -0.474191 0.184084 113 56 39
0.159333 -0.549718 0.182332 172 200 213
0.214695 -0.636614 0.179764 159 195 212
-0.132065 -0.639493 0.259214 217 209 214
-0.116915 -0.639458 0.254963 215 207 215
-0.0896175 -0.641527 0.247666 222 215 220
-0.0478095 -0.640972 0.23653 201 191 196
-0.045762 -0.641199 0.236022 200 190 195
0.0199577 -0.641063 0.219613 113 106 106
0.0321287 -0.638654 0.216473 117 109 112
0.0425067 -0.640063 0.214169 117 112 116
0.055271 -0.625025 0.209734 135 128 132
0.0551846 -0.606996 0.207992 138 128 134
0.0886988 -0.577102 0.197594 61 16 15
0.0925061 -0.568254 0.195919 45 4 4
0.0974044 -0.56523 0.194575 47 9 4
0.102991 -0.502393 0.187456 105 44 38
0.102943 -0.496209 0.186887 106 46 39
0.11708 -0.474394 0.181988 127 69 50
0.169714 -0.568316 0.180092 174 199 211
0.203208 -0.639038 0.179902 167 198 215
0.247441 -0.639744 0.171661 157 193 210
-0.151666 -0.637019 0.262302 190 177 174
-0.141772 -0.632888 0.259107 219 211 216
-0.100542 -0.640586 0.248312 222 215 220
-0.0257074 -0.642217 0.228783 182 173 176
0.0215134 -0.641212 0.217059 112 103 104
0.120224 -0.475511 0.179905 141 75 59
0.200574 -0.63365 0.177686 162 187 202
0.210575 -0.635092 0.175882 176 199 211
0.228411 -0.637378 0.172689 173 205 219
-0.113702 -0.639898 0.249624 218 210 215
-0.0990273 -0.641221 0.24572 222 215 220
-0.0780809 -0.642222 0.240169 215 208 213
0.00457495 -0.639569 0.218817 112 103 104
0.0127511 -0.639557 0.216827 108 102 102
0.0250686 -0.640283 0.213931 109 100 100
0.0374269 -0.640709 0.211039 111 103 106
0.0542135 -0.624411 0.205662 129 122 125
0.104709 -0.524761 0.185712 64 15 9
0.103491 -0.48374 0.182457 108 48 39
0.182416 -0.593504 0.175729 237 236 244
0.216996 -0.634632 0.172354 192 213 227
0.268613 -0.638201 0.163038 125 163 182
-0.171982 -0.594948 0.260284 200 190 184
-0.16418 -0.596878 0.258158 197 186 181
-0.152492 -0.636452 0.257965 185 172 170
-0.149673 -0.634245 0.256983 169 156 153
-0.131187 -0.638729 0.252136 214 207 212
-0.101243 -0.639015 0.243901 222 215 220
-0.0743704 -0.642107 0.236948 217 209 214
-0.072067 -0.640466 0.236199 217 207 213
-0.0329352 -0.643129 0.226283 127 120 120
-0.0246298 -0.641731 0.224061 111 102 103
0.00816609 -0.639761 0.215772 108 102 102
0.0265674 -0.639395 0.211309 101 97 96
0.0665643 -0.540567 0.193587 117 59 51
0.109449 -0.468502 0.178423 117 61 43
0.126767 -0.482853 0.176058 154 82 63
-0.156422 -0.640725 0.257154 190 177 174
-0.108256 -0.639769 0.243644 225 217 222
-0.0600927 -0.640459 0.230844 101 91 92
-0.0518209 -0.640494 0.228698 96 87 88
-0.0188944 -0.639272 0.220221 111 104 104
0.0302259 -0.640391 0.208337 97 93 92
0.032274 -0.640292 0.207843 101 91 92
0.0383388 -0.63895 0.206301 101 95 95
0.0423391 -0.637683 0.205258 104 95 96
0.094911 -0.561971 0.187258 46 5 5
0.104613 -0.47934 0.178732 111 51 39
0.119706 -0.472587 0.175124 158 88 71
0.207109 -0.636483 0.16988 77 77 75
0.234776 -0.638888 0.164727 62 62 58
0.243041 -0.640609 0.163285 52 56 55
-0.153581 -0.636802 0.253786 185 174 171
-0.138115 -0.636379 0.249401 214 207 212
-0.0584613 -0.639904 0.228171 112 105 105
-0.0482433 -0.641122 0.225623 113 104 105
-0.00908482 -0.630888 0.214939 106 99 99
-0.00305518 -0.633031 0.21362 108 98 99
0.0336226 -0.637362 0.20511 97 88 89
0.0722757 -0.538811 0.188604 120 54 42
0.106582 -0.544004 0.181518 46 6 1
0.105166 -0.471917 0.176518 112 53 38
0.132312 -0.49153 0.172376 159 84 68
0.260953 -0.641922 0.157694 86 81 71
0.281225 -0.640412 0.153863 49 48 42
-0.122165 -0.64003 0.243003 112 103 104
-0.0736241 -0.640966 0.230011 111 107 106
-0.0652083 -0.640219 0.22775 109 105 104
-0.0527543 -0.639826 0.224488 111 104 104
-0.0342347 -0.63965 0.219738 106 102 98
-0.0196821 -0.63262 0.215554 107 100 100
-0.00353958 -0.619224 0.210559 102 98 95
0.01833 -0.625129 0.20568 102 93 91
0.0526567 -0.609983 0.196469 74 60 58
0.0562752 -0.549273 0.191195 121 65 61
0.227325 -0.630089 0.161013 60 59 52
0.253264 -0.637847 0.156553 26 24 22
-0.165298 -0.594686 0.249901 197 184 179
-0.105202 -0.638245 0.236027 129 119 120
-0.0675265 -0.638099 0.226005 108 104 101
-0.0506009 -0.633267 0.221281 106 99 99
-0.0178804 -0.622899 0.212268 98 89 90
-0.00978386 -0.609247 0.209302 80 71 67
0.0558708 -0.549397 0.18948 118 60 57
0.0779247 -0.546069 0.18428 103 39 29
0.117772 -0.470075 0.170734 164 92 73
0.126216 -0.480936 0.169696 168 96 77
0.234443 -0.620189 0.156806 88 89 86
-0.169533 -0.593414 0.248943 197 186 183
-0.133638 -0.63857 0.241587 123 114 112
-0.0505654 -0.627453 0.218725 100 95 97
-0.0120758 -0.603331 0.207421 152 143 141
0.0552039 -0.547532 0.187696 113 57 53
0.0755426 -0.535368 0.182317 115 51 40
0.112238 -0.613639 0.179202 47 7 3
0.0993518 -0.506721 0.175306 31 0 0
0.100748 -0.476334 0.173134 107 49 41
0.117444 -0.470175 0.169277 164 92 73
0.151183 -0.522936 0.165507 152 91 73
0.225345 -0.606714 0.155603 95 93 91
-0.17925 -0.601627 0.250086 146 137 138
-0.148084 -0.633586 0.24306 159 150 150
-0.139766 -0.635049 0.240835 125 116 115
-0.129874 -0.638853 0.238332 118 109 110
-0.125359 -0.637997 0.237045 117 108 109
-0.0978392 -0.627117 0.228956 104 95 96
-0.0244962 -0.615868 0.209258 183 175 171
-0.00302051 -0.604688 0.203241 44 42 27
0.045082 -0.606942 0.191862 113 100 96
0.0460061 -0.596828 0.191027 107 94 90
0.051095 -0.591312 0.189506 112 100 92
0.0543683 -0.557762 0.186703 109 53 47
0.057506 -0.519052 0.183634 101 48 37
0.097748 -0.489584 0.172995 76 22 15
0.100144 -0.475465 0.171671 106 48 40
0.101881 -0.470813 0.171036 111 51 39
0.104405 -0.469031 0.170403 116 54 41
0.106617 -0.466274 0.169782 121 62 46
0.20762 -0.593808 0.156241 97 91 84
0.248462 -0.610953 0.149205 27 28 21
-0.144332 -0.633982 0.239812 134 126 124
-0.0867846 -0.619394 0.22342 55 47 43
-0.0848236 -0.619758 0.222922 48 40 36
-0.0330635 -0.620436 0.20959 42 52 30
0.0193421 -0.602584 0.195661 122 114 105
0.028889 -0.634174 0.195201 19 17 15
0.0491069 -0.594595 0.188172 107 94 90
0.0571289 -0.519148 0.182034 100 47 35
0.115494 -0.63242 0.175326 54 11 7
0.115729 -0.624165 0.174822 51 10 10
0.127761 -0.479267 0.164554 171 99 82
-0.146878 -0.63349 0.238266 145 136 137
-0.0190597 -0.599448 0.202853 138 137 126
0.0346856 -0.636935 0.191819 12 10 6
0.0506417 -0.595503 0.185868 89 79 71
0.0622977 -0.513358 0.178863 108 51 38
0.0749327 -0.529471 0.176856 126 61 42
0.0966673 -0.59453 0.175369 75 23 22
0.107274 -0.626033 0.174637 63 15 15
0.113206 -0.633961 0.173735 59 13 13
0.108443 -0.464624 0.166305 136 73 53
0.113508 -0.466146 0.165316 160 92 74
0.121955 -0.472793 0.163875 176 104 85
0.127092 -0.478408 0.163078 176 104 87
-0.143382 -0.634809 0.235141 107 98 96
-0.0657514 -0.604101 0.212932 219 213 206
-0.0583502 -0.607132 0.211167 139 140 121
-0.052602 -0.60784 0.209724 177 175 159
-0.0138152 -0.597783 0.199455 37 70 22
0.0259974 -0.636486 0.191699 23 21 19
0.0562308 -0.51833 0.178817 98 45 31
0.0671235 -0.515631 0.176211 127 64 44
0.0991154 -0.59914 0.173033 72 24 22
0.0989406 -0.469532 0.167046 108 50 40
0.106441 -0.464174 0.165208 135 72 54
0.00640202 -0.596137 0.192419 81 80 69
0.04326 -0.629427 0.185127 87 77 71
0.0648462 -0.513997 0.174974 122 59 41
0.0704227 -0.518114 0.173895 130 67 50
0.0969427 -0.469032 0.165943 106 46 37
0.101684 -0.464543 0.16474 119 58 40
0.196547 -0.577589 0.149496 213 209 206
-0.144189 -0.634041 0.230887 57 46 41
-0.0710481 -0.607659 0.210354 90 99 71
-0.0419595 -0.608226 0.20292 16 48 6
0.0353947 -0.639089 0.185249 30 24 22
0.153526 -0.52601 0.154538 162 97 78
0.229807 -0.578383 0.140858 212 208 204
-0.0596794 -0.606394 0.205314 13 52 7
-0.0577674 -0.606637 0.204833 0 35 0
-0.0341888 -0.599978 0.1986 13 42 7
-0.00388977 -0.591292 0.190756 0 4 0
0.0071723 -0.587278 0.18791 133 133 121
0.233033 -0.576587 0.138111 213 209 206
-0.0914811 -0.585071 0.210838 199 187 180
-0.0748438 -0.600287 0.206975 171 164 150
-0.0633782 -0.600999 0.204036 0 25 0
-0.0539118 -0.602203 0.201651 0 26 0
-0.0459763 -0.599048 0.199528 6 48 0
-0.0421274 -0.598416 0.198533 6 48 0
0.00851863 -0.585316 0.18556 137 134 124
0.0774108 -0.509636 0.166978 92 43 35
0.0899123 -0.487341 0.163505 82 44 37
0.090157 -0.475934 0.163105 88 44 34
0.148587 -0.514901 0.151713 164 99 80
0.186797 -0.57815 0.145451 214 210 207
0.233973 -0.574819 0.135826 212 208 204
-0.17157 -0.593101 0.230728 194 185 181
-0.115579 -0.587867 0.215324 149 134 125
-0.113518 -0.587363 0.21476 169 155 146
-0.0879407 -0.583899 0.207896 198 186 179
-0.0864566 -0.586219 0.207571 199 187 180
-0.0827883 -0.586907 0.206632 199 187 180
-0.065493 -0.598814 0.202487 20 67 3
-0.0196868 -0.592017 0.190719 74 135 39
-0.0158103 -0.586168 0.189588 74 132 44
0.0463599 -0.640332 0.176181 78 68 60
0.0791321 -0.504147 0.164781 63 32 27
0.0896497 -0.507941 0.162535 58 35 27
0.130703 -0.480988 0.152956 172 102 83
0.145785 -0.508397 0.150419 164 99 78
-0.0942427 -0.584803 0.207597 198 186 179
-0.0740499 -0.601691 0.20274 109 113 89
-0.0356561 -0.601154 0.192951 89 134 57
0.0603745 -0.57837 0.169202 107 59 48
0.0606264 -0.509595 0.167477 108 49 37
0.0798879 -0.501907 0.162921 54 29 24
0.0878676 -0.494962 0.160977 67 34 27
0.0877442 -0.487792 0.160842 72 32 25
0.103614 -0.461625 0.156784 141 76 57
0.120063 -0.469872 0.153415 182 110 91
0.127914 -0.478734 0.15192 177 105 86
0.192446 -0.573334 0.140162 214 210 207
0.250507 -0.57687 0.128443 212 208 204
0.25866 -0.569921 0.126739 213 209 206
0.273238 -0.573973 0.12393 215 211 208
0.283124 -0.573685 0.122004 214 210 207
-0.0926981 -0.584244 0.205202 199 187 180
-0.0885178 -0.582029 0.204065 198 186 179
0.061149 -0.633714 0.168224 52 44 37
0.101914 -0.462081 0.155676 137 74 55
0.194597 -0.57443 0.137727 215 211 208
0.198617 -0.573742 0.136883 213 209 206
0.211943 -0.574178 0.134139 214 210 207
-0.115392 -0.589439 0.209281 171 156 149
-0.00621936 -0.601545 0.18163 42 67 26
0.00553905 -0.623522 0.179139 1 5 0
0.030201 -0.636588 0.173424 33 31 27
0.0725848 -0.484972 0.161054 118 57 39
0.100489 -0.463484 0.154521 134 71 51
0.104331 -0.461258 0.153652 149 84 65
0.115466 -0.462844 0.151256 180 107 89
0.125249 -0.473145 0.149278 177 106 84
0.13951 -0.494459 0.146481 172 104 84
0.197392 -0.571948 0.13511 214 210 207
0.258264 -0.57088 0.122682 213 209 206
-0.056529 -0.623518 0.192436 147 148 127
-0.0523826 -0.621958 0.191367 123 123 107
-0.0485242 -0.62335 0.190411 98 98 85
-0.0426636 -0.624881 0.188956 47 47 35
-0.0267708 -0.625955 0.185002 6 5 0
-0.00287127 -0.625596 0.179111 3 1 0
0.0031714 -0.631574 0.177716 10 12 4
0.00925814 -0.633478 0.176263 9 10 3
0.0276162 -0.635743 0.171873 32 30 26
0.062779 -0.482758 0.161707 111 52 35
0.0714562 -0.481074 0.159708 118 59 40
0.0753533 -0.485359 0.158872 105 53 36
0.116831 -0.463333 0.149465 181 109 90
0.197743 -0.573811 0.133044 214 210 207
-0.100237 -0.616701 0.201486 209 199 193
-0.0729422 -0.622491 0.194489 49 68 34
-0.04546 -0.628718 0.187576 34 38 32
0.0353926 -0.63722 0.167875 30 28 24
0.039387 -0.635902 0.166914 28 27 21
0.043452 -0.635549 0.165947 30 28 22
0.0594186 -0.545062 0.161435 108 61 47
0.0937766 -0.46321 0.153024 119 60 41
0.0954189 -0.463779 0.152663 123 65 44
0.189267 -0.575174 0.132827 216 212 211
0.19444 -0.57728 0.131737 216 212 211
0.197697 -0.57475 0.131044 215 211 208
0.278971 -0.574145 0.114353 215 211 208
-0.107986 -0.6029 0.201352 57 53 48
-0.106175 -0.613526 0.200913 50 46 41
-0.0903288 -0.626846 0.196851 29 30 25
-0.0564389 -0.632724 0.188227 81 82 77
-0.0219919 -0.632256 0.179618 23 24 19
-0.017935 -0.631397 0.178612 23 24 21
0.0204922 -0.635099 0.169271 29 30 23
0.0552546 -0.635299 0.161003 37 33 28
0.0763235 -0.478883 0.155507 108 58 41
0.23221 -0.577772 0.121782 215 211 208
0.271489 -0.575002 0.113741 215 211 208
-0.120471 -0.620601 0.202542 39 37 33
-0.0961893 -0.633995 0.196218 45 43 39
-0.0940039 -0.633384 0.195655 45 43 39
-0.0923212 -0.63572 0.195221 45 46 41
-0.0774347 -0.633106 0.191404 87 88 81
-0.069372 -0.634247 0.189351 72 73 66
-0.0405205 -0.630226 0.182079 44 45 38
-0.0364459 -0.629516 0.181062 38 39 34
-0.00434272 -0.632638 0.173141 21 19 18
0.0365944 -0.639078 0.163268 26 25 18
0.0548737 -0.636299 0.158935 27 21 14
0.0590073 -0.535922 0.15794 109 66 51
0.0619715 -0.475635 0.15726 108 46 31
0.0765703 -0.474659 0.153918 119 65 47
0.079627 -0.474975 0.153223 86 35 25
0.0889746 -0.464371 0.151127 107 48 32
0.0972444 -0.462028 0.149282 138 75 56
0.11615 -0.464311 0.145098 180 108 87
0.155916 -0.528219 0.136205 163 103 80
-0.147968 -0.635085 0.207559 56 52 46
-0.105314 -0.635358 0.196395 59 60 55
-0.101271 -0.636168 0.195346 44 45 42
-0.07391 -0.633691 0.188345 55 55 53
-0.0128845 -0.63155 0.173097 21 19 18
0.0421501 -0.637559 0.159781 23 17 13
0.0541669 -0.634309 0.156947 32 26 19
0.0600126 -0.631585 0.15558 36 31 21
0.0593204 -0.540866 0.15609 106 63 48
0.106205 -0.458087 0.145829 169 99 79
0.214184 -0.575257 0.121475 215 211 210
0.227191 -0.578784 0.118688 216 212 211
-0.153878 -0.638687 0.206872 47 41 36
-0.133841 -0.637043 0.201615 51 52 49
-0.0643192 -0.635005 0.183745 35 36 31
-0.0254888 -0.632166 0.174062 12 10 8
-0.0113792 -0.632573 0.170584 8 9 6
-0.00533522 -0.634625 0.169089 7 6 2
-0.00330967 -0.633626 0.168602 6 5 1
0.033215 -0.634235 0.159773 36 31 23
0.0561588 -0.499829 0.155379 102 57 40
0.0651861 -0.472844 0.153507 116 55 39
0.0780763 -0.471069 0.150565 107 48 32
0.12028 -0.464711 0.141165 184 113 91
0.221338 -0.577047 0.117887 215 211 210
0.27328 -0.571897 0.107087 216 212 209
-0.171359 -0.629053 0.209411 137 127 121
-0.0506435 -0.636495 0.178129 6 7 0
-0.0486142 -0.636678 0.177619 8 9 4
-0.0340361 -0.631735 0.174043 15 16 9
-0.00380053 -0.631607 0.1666 14 13 9
0.0141638 -0.626251 0.162296 24 21 15
0.028187 -0.626519 0.158916 34 28 23
0.103109 -0.459902 0.143542 161 94 73
0.20213 -0.57501 0.119993 216 212 209
0.204756 -0.575986 0.11941 216 212 209
0.214955 -0.578845 0.117166 217 213 212
0.238642 -0.575638 0.112175 216 212 211
-0.175025 -0.612075 0.208499 120 112 106
-0.169085 -0.634177 0.206506 131 123 116
-0.136661 -0.635498 0.197962 59 57 53
-0.0928329 -0.638978 0.186591 23 21 17
-0.0448975 -0.634997 0.174555 6 7 2
-0.0322961 -0.62783 0.171532 17 15 9
-0.0042776 -0.624581 0.164689 14 13 9
0.00354101 -0.614507 0.162938 14 13 7
0.0093408 -0.612368 0.161563 19 15 12
0.0171887 -0.61407 0.159638 20 13 11
0.0569619 -0.480303 0.152282 97 47 32
0.113564 -0.460487 0.139709 182 112 90
0.125765 -0.468774 0.13684 175 105 83
0.138234 -0.489581 0.133679 169 104 83
0.223557 -0.578775 0.113259 235 230 230
0.237253 -0.578371 0.110335 252 245 243
0.275712 -0.573278 0.102328 193 184 180
0.278567 -0.573826 0.101717 184 176 172
-0.172299 -0.615304 0.205559 169 161 155
-0.160076 -0.639289 0.201797 52 44 37
-0.152884 -0.637289 0.199955 31 27 22
-0.104243 -0.640989 0.187276 16 14 10
-0.0996214 -0.638821 0.186138 14 13 9
-0.0783601 -0.636281 0.180779 12 13 6
-0.0577302 -0.635835 0.17559 10 8 4
-0.0240907 -0.611187 0.167705 27 27 16
0.00104824 -0.606506 0.161634 48 41 32
0.0238582 -0.601637 0.156208 122 112 106
0.0456593 -0.589717 0.151229 102 87 79
0.118626 -0.462771 0.137031 184 113 91
0.192386 -0.574582 0.11808 178 169 165
-0.169835 -0.633147 0.202284 103 93 85
-0.0533167 -0.627239 0.172528 39 38 29
0.00234022 -0.59244 0.159615 173 156 149
0.0353431 -0.583646 0.151861 104 92 82
0.0481777 -0.582297 0.148835 100 83 75
0.060044 -0.573658 0.146234 98 79 72
0.0638234 -0.472757 0.147793 122 57 40
0.0782081 -0.464472 0.144665 122 62 39
0.0908648 -0.462168 0.14182 132 70 48
0.102907 -0.457485 0.139203 164 97 74
0.116272 -0.461352 0.136089 183 111 90
0.195575 -0.572921 0.115409 148 142 137
0.211938 -0.575137 0.11176 201 197 194
-0.11718 -0.608684 0.187114 35 34 28
-0.111551 -0.620201 0.185336 31 27 24
-0.0637687 -0.626129 0.173049 49 46 33
-0.0487523 -0.615603 0.169587 47 45 30
-0.0402819 -0.607251 0.16771 41 41 27
-0.0196785 -0.569265 0.163665 172 155 147
-0.00738223 -0.585466 0.160202 175 161 152
0.0090144 -0.579211 0.15638 157 142 133
0.0382205 -0.579271 0.149348 104 92 82
0.0454933 -0.578492 0.147635 100 83 75
0.059103 -0.521164 0.146019 103 57 46
0.0836333 -0.464008 0.141943 115 54 36
0.0847769 -0.462677 0.141719 121 58 40
0.132704 -0.477343 0.130404 168 103 80
0.146742 -0.506004 0.12637 163 100 78
0.156398 -0.526763 0.123563 161 101 78
0.194739 -0.571959 0.11361 231 227 226
0.200563 -0.570386 0.112375 231 227 226
-0.16309 -0.629261 0.196219 62 51 43
-0.146002 -0.630212 0.191746 71 65 60
-0.11104 -0.596815 0.18385 65 56 41
-0.0878698 -0.609554 0.17753 168 157 142
-0.0581032 -0.606637 0.170129 39 37 24
-0.0562924 -0.607836 0.169638 39 37 24
-0.0541692 -0.606042 0.169164 39 37 24
-0.0379143 -0.594361 0.16549 23 21 8
-0.0321229 -0.591711 0.16414 31 28 18
-0.0130929 -0.573372 0.160033 184 167 159
-0.0113525 -0.576393 0.159511 180 163 156
-0.00956202 -0.577408 0.15904 182 165 157
0.0469757 -0.579218 0.14533 100 83 75
0.0609732 -0.573288 0.142198 99 80 73
0.0585089 -0.498894 0.145175 100 50 35
0.0786988 -0.463083 0.141628 128 65 45
0.106022 -0.45512 0.135625 172 105 82
0.110995 -0.456573 0.134446 178 109 87
0.154591 -0.522995 0.122305 161 101 78
0.199717 -0.569422 0.110585 213 209 206
0.214262 -0.572349 0.107263 215 211 210
-0.168888 -0.611681 0.196204 79 71 62
-0.13995 -0.621593 0.188322 46 38 32
-0.0777648 -0.591959 0.17355 197 184 177
-0.0741906 -0.593505 0.172593 199 187 180
-0.0537219 -0.597025 0.167336 112 107 95
-0.0478985 -0.595564 0.165937 123 116 104
-0.0285414 -0.585849 0.161487 138 126 112
-0.0243229 -0.574023 0.160869 189 172 164
0.000873485 -0.580283 0.154472 170 153 145
0.0063346 -0.580153 0.153148 163 148 139
0.00815493 -0.580095 0.152708 162 145 137
0.0245321 -0.579239 0.148777 127 115 105
0.0336211 -0.578506 0.146618 107 95 88
0.0372538 -0.578161 0.145759 104 91 84
0.0578276 -0.580689 0.140763 98 81 73
0.0600379 -0.482295 0.143806 109 50 36
0.0608123 -0.478092 0.143777 112 53 34
0.0626209 -0.471649 0.143587 124 61 44
0.0747469 -0.459818 0.141188 138 72 53
0.0781426 -0.462065 0.140315 131 69 47
0.0838715 -0.461621 0.139003 125 65 44
0.0999896 -0.455889 0.135506 157 93 69
0.122732 -0.46484 0.129983 178 107 83
0.124456 -0.46525 0.129577 173 106 81
-0.164686 -0.603704 0.193316 91 81 71
-0.123848 -0.588685 0.1834 199 187 180
-0.101862 -0.585577 0.177913 197 185 175
-0.0838061 -0.57984 0.17357 197 185 175
-0.0788352 -0.583697 0.17216 198 186 176
-0.0768557 -0.582993 0.17169 197 185 175
-0.0536703 -0.591982 0.165521 178 162 151
-0.0246245 -0.570959 0.15916 189 175 166
0.044173 -0.578308 0.14217 101 84 78
0.062426 -0.563712 0.138411 100 76 69
0.0628207 -0.542427 0.139175 106 63 50
0.0778085 -0.462012 0.138919 135 72 52
0.0791835 -0.461668 0.138613 132 70 50
0.0807857 -0.462287 0.138214 127 67 44
0.082162 -0.461931 0.137909 127 64 44
0.0920204 -0.460241 0.135694 143 79 57
0.0974734 -0.453398 0.134721 156 91 70
0.111689 -0.455998 0.131352 178 109 87
0.117998 -0.461119 0.129695 178 109 87
0.125172 -0.463729 0.127952 171 104 79
-0.164224 -0.588115 0.19182 200 190 182
-0.129326 -0.585226 0.182954 195 183 173
-0.119839 -0.578396 0.180835 195 183 173
-0.0969032 -0.577421 0.175042 196 184 174
-0.0803115 -0.578393 0.170808 197 185 175
-0.00184252 -0.57717 0.151411 173 157 147
0.00178623 -0.578105 0.150485 170 153 143
0.0162886 -0.577553 0.146987 148 131 123
0.0344772 -0.577198 0.142615 109 96 89
0.0381891 -0.577833 0.141696 104 92 82
0.0581238 -0.575332 0.137042 95 78 71
0.0625608 -0.567587 0.13633 99 75 67
0.0815961 -0.460905 0.136608 135 72 52
0.0963425 -0.455673 0.133421 154 89 66
0.131362 -0.472841 0.124593 166 101 77
0.189603 -0.568844 0.106862 215 211 208
-0.174357 -0.592031 0.19221 150 141 137
-0.106771 -0.577399 0.175599 194 181 174
-0.0773007 -0.579869 0.168041 197 185 175
-0.0622667 -0.577895 0.164372 196 184 174
-0.0588849 -0.580302 0.163413 196 184 172
-0.03494 -0.578344 0.157563 193 178 170
-0.00228329 -0.577088 0.149604 175 158 148
0.0140721 -0.578562 0.145555 149 132 122
0.0213363 -0.578139 0.143816 136 121 112
0.0304103 -0.577444 0.141659 119 105 96
0.0489608 -0.57947 0.137107 97 80 70
0.0637169 -0.52074 0.136427 104 51 37
0.0617131 -0.480581 0.138849 118 58 44
0.0631823 -0.47217 0.13891 130 68 53
0.0688636 -0.46384 0.137976 139 73 57
0.0755473 -0.461258 0.136531 141 78 58
0.107401 -0.453984 0.12948 174 107 86
0.188774 -0.567844 0.105101 220 215 215
0.222803 -0.570134 0.0972965 230 226 225
0.225987 -0.567351 0.0967277 229 225 224
-0.0974134 -0.575286 0.171396 196 184 174
-0.0902265 -0.576663 0.169512 196 183 176
-0.0390799 -0.579021 0.156625 194 179 171
-0.00814075 -0.57604 0.149171 181 162 152
0.0263411 -0.577653 0.140706 131 116 110
0.0633686 -0.475038 0.137204 129 67 52
0.203278 -0.567387 0.0998272 226 221 220
0.21562 -0.570144 0.0968741 229 225 224
-0.1063 -0.579558 0.171458 196 183 176
-0.0978626 -0.575189 0.169579 197 185 175
-0.0958743 -0.574563 0.169113 196 184 174
-0.0322054 -0.578356 0.153036 193 178 170
-0.0172982 -0.565883 0.150069 186 169 161
-0.0121526 -0.573938 0.148356 183 166 156
-0.0013555 -0.576871 0.145552 175 158 148
0.0113412 -0.577464 0.142428 162 145 135
0.0185458 -0.576074 0.140757 149 132 124
0.0405902 -0.578166 0.135316 110 96 87
0.0587457 -0.575777 0.131095 99 82 74
0.0622296 -0.574225 0.130349 102 83 71
0.0673051 -0.559233 0.129985 105 59 47
0.0634874 -0.48603 0.135031 120 63 46
0.0870512 -0.451719 0.131421 145 80 58
0.0969471 -0.450806 0.129158 156 91 70
0.103159 -0.451912 0.127646 166 101 79
0.106737 -0.453841 0.126702 174 107 86
0.115371 -0.45709 0.124509 178 109 85
0.125859 -0.464785 0.121633 169 103 80
0.207243 -0.567347 0.0969107 222 220 218
-0.174797 -0.588896 0.186339 133 125 121
-0.142518 -0.576422 0.178863 188 179 168
-0.140161 -0.575037 0.178349 190 180 170
-0.136302 -0.575117 0.177363 192 180 171
-0.108129 -0.577104 0.17011 195 183 173
-0.0799807 -0.576331 0.163091 197 184 177
-0.0706813 -0.575682 0.160808 196 184 174
1.33415e-05 -0.576731 0.143308 174 160 149
0.00908697 -0.577439 0.141055 166 150 140
0.0418721 -0.576862 0.133154 109 94 86
0.0649768 -0.471358 0.133998 131 70 54
0.0706171 -0.462987 0.133168 138 72 55
0.0715875 -0.460719 0.133076 137 74 57
0.0731679 -0.461366 0.132662 140 74 58
0.0834149 -0.45566 0.13059 147 80 59
0.106404 -0.453761 0.125313 172 105 82
0.114718 -0.45607 0.123232 178 107 83
0.193977 -0.567837 0.0979079 220 215 215
0.201969 -0.566274 0.0961687 224 222 220
0.207197 -0.568138 0.0948507 230 226 225
0.210241 -0.569947 0.0940381 231 227 226
-0.155244 -0.577707 0.180042 186 176 168
-0.129577 -0.576996 0.173577 194 181 172
-0.121143 -0.574023 0.17164 195 182 175
-0.0957451 -0.578618 0.164953 195 183 173
-0.0659893 -0.578258 0.157549 197 184 177
-0.0568183 -0.578302 0.155269 197 183 174
-0.0272936 -0.571402 0.14842 190 176 167
-0.016566 -0.571688 0.145768 186 172 161
-0.00223486 -0.577653 0.141878 178 162 151
0.00867095 -0.578324 0.139176 170 153 143
0.0468726 -0.57609 0.13007 102 88 77
0.0486851 -0.575855 0.129649 100 86 74
0.0503838 -0.574624 0.12932 98 84 73
0.0541182 -0.575107 0.128391 98 84 73
0.0677976 -0.534509 0.127731 110 55 42
0.0655396 -0.476158 0.132042 131 69 56
0.093076 -0.449569 0.127248 155 90 71
0.10742 -0.453208 0.12364 173 106 83
0.156946 -0.522218 0.107525 145 95 78
0.192487 -0.570367 0.0960757 223 221 219
-0.144938 -0.574688 0.175655 189 176 169
-0.0960029 -0.577516 0.163144 197 183 174
-0.0884191 -0.576871 0.161293 196 184 174
-0.0844712 -0.575516 0.160401 196 184 174
-0.0772712 -0.576653 0.158529 196 184 174
-0.070052 -0.577673 0.156663 197 185 175
-0.0611247 -0.579774 0.154303 196 184 174
-0.0572638 -0.578182 0.153455 197 183 174
-0.0478238 -0.575055 0.151333 195 181 172
-0.0237973 -0.563429 0.146206 189 175 166
0.0172699 -0.576734 0.135265 154 140 131
0.0464317 -0.57597 0.128257 105 91 80
0.0553639 -0.573736 0.126258 100 86 74
0.0591043 -0.574174 0.125329 102 85 78
0.0607764 -0.572902 0.125014 104 87 77
0.0645229 -0.573294 0.124087 106 89 79
0.0661304 -0.498188 0.128855 118 62 45
0.0813952 -0.455852 0.128134 148 83 64
0.0889975 -0.451646 0.126623 144 82 59
0.117793 -0.453437 0.119716 172 105 82
0.123155 -0.459857 0.11801 170 101 76
-0.171045 -0.579758 0.17992 190 179 172
-0.165464 -0.575369 0.178829 184 172 165
-0.153754 -0.576134 0.175809 184 174 166
-0.128172 -0.575293 0.169421 192 180 171
-0.105454 -0.575569 0.163703 196 182 173
-0.101858 -0.576319 0.162749 197 183 174
-0.0942672 -0.575767 0.160893 196 184 174
-0.0832864 -0.576669 0.15809 196 184 174
-0.0813196 -0.575972 0.157651 196 184 174
-0.0762189 -0.578767 0.15618 196 184 174
-0.068416 -0.575802 0.154458 197 185 175
-0.0067376 -0.576458 0.139216 183 166 156
0.0131685 -0.575822 0.134405 162 145 135
0.0461979 -0.577822 0.126251 107 93 81
0.0515418 -0.576105 0.125085 100 86 72
0.0658876 -0.57286 0.121865 110 91 79
0.0739531 -0.462699 0.127946 140 74 60
0.079934 -0.457084 0.12693 147 81 65
0.0905609 -0.44788 0.125077 152 89 70
0.107798 -0.451606 0.120724 173 106 81
0.113796 -0.451543 0.119313 173 106 81
0.118808 -0.452824 0.118038 171 104 79
0.196608 -0.566702 0.0913476 238 234 235
0.247235 -0.568016 0.0794787 234 229 228
-0.149722 -0.574275 0.172958 184 174 166
-0.130416 -0.57468 0.168075 192 180 171
-0.128882 -0.576124 0.167578 192 180 171
-0.0855346 -0.576239 0.156745 197 185 175
-0.078477 -0.578365 0.154829 197 185 175
-0.0468145 -0.573947 0.147332 196 182 173
0.040198 -0.577359 0.125801 118 104 95
0.0689828 -0.518514 0.123364 115 58 43
0.0745705 -0.460318 0.126496 141 77 62
0.095532 -0.446125 0.122591 161 94 73
0.120482 -0.454063 0.116062 168 99 74
0.196543 -0.567468 0.0892899 236 234 232
0.21551 -0.570281 0.084622 234 229 228
-0.135959 -0.572099 0.167716 187 177 169
-0.12473 -0.573045 0.16483 191 179 170
-0.111505 -0.57314 0.161521 194 181 172
-0.0675025 -0.575754 0.15038 196 184 174
-0.0640252 -0.57718 0.149405 197 185 175
-0.0454582 -0.573946 0.145083 195 181 172
-0.0165225 -0.571195 0.138193 189 172 164
-0.0130056 -0.574209 0.137088 186 172 161
0.0433921 -0.576783 0.123139 116 101 93
0.0452095 -0.576555 0.122717 112 98 87
0.0694924 -0.514154 0.121885 114 60 44
0.0711099 -0.466063 0.125384 135 71 56
0.106227 -0.44857 0.118406 174 108 82
0.113125 -0.451332 0.11654 172 105 80
0.17966 -0.558534 0.091995 236 234 232
0.217285 -0.570094 0.0821672 235 230 230
-0.084454 -0.575258 0.152687 196 183 176
-0.0478834 -0.575646 0.14362 197 183 174
-0.042469 -0.576043 0.142254 195 181 172
-0.0256104 -0.564886 0.139054 191 174 164
-0.0169293 -0.570051 0.136488 189 172 164
0.000998057 -0.576851 0.131525 178 162 151
0.0448676 -0.577395 0.120794 115 100 92
0.0626229 -0.571759 0.116968 112 95 85
0.0665171 -0.573102 0.115912 118 99 89
0.0909036 -0.447158 0.120737 156 91 70
0.0977994 -0.445997 0.119184 165 98 75
0.11051 -0.4489 0.115897 175 106 81
0.13871 -0.483469 0.106213 157 95 70
0.195625 -0.567166 0.0854958 236 231 233
0.200819 -0.569067 0.0841001 236 234 232
0.208286 -0.570917 0.0821708 237 233 232
0.234889 -0.564731 0.0764143 234 229 230
-0.160955 -0.573774 0.169898 178 168 160
-0.159166 -0.57437 0.169398 179 169 161
-0.141548 -0.574609 0.164983 184 171 167
-0.137408 -0.573713 0.164032 185 172 168
-0.135619 -0.574214 0.163542 185 173 166
-0.11799 -0.572563 0.159305 190 178 168
-0.114184 -0.572427 0.158372 191 179 170
-0.103231 -0.573779 0.155534 192 180 171
-0.0848982 -0.575102 0.150877 196 184 174
-0.0832666 -0.576374 0.15036 196 184 174
-0.0760427 -0.577454 0.148479 196 183 176
-0.0225106 -0.564828 0.136421 192 175 167
0.0150646 -0.576026 0.126235 161 147 136
0.0314417 -0.575704 0.122271 139 125 116
0.0370496 -0.577115 0.120781 130 116 105
0.0406879 -0.576696 0.119933 124 110 101
0.0698411 -0.573273 0.11316 116 95 84
0.0703913 -0.472952 0.121944 127 66 52
0.0895058 -0.448402 0.119522 149 86 66
0.0987927 -0.445441 0.117553 167 100 77
0.104964 -0.446456 0.115981 175 109 83
0.109866 -0.447844 0.114681 173 104 80
-0.129148 -0.576942 0.159722 187 174 167
-0.0742304 -0.574579 0.146359 196 184 174
-0.0689693 -0.576274 0.144904 196 184 174
-0.0670294 -0.575506 0.144497 196 184 174
-0.0324445 -0.575326 0.136007 191 179 170
0.0109669 -0.575079 0.125397 168 151 139
0.0310722 -0.576532 0.120355 142 127 116
0.0531946 -0.576807 0.114942 109 95 84
0.0638253 -0.573097 0.112702 116 100 89
0.0745925 -0.459507 0.120648 139 76 61
0.0771155 -0.457839 0.120192 145 78 64
0.106562 -0.447744 0.114025 175 106 81
0.126564 -0.461248 0.10795 161 94 71
0.197292 -0.567789 0.0809953 240 235 234
0.202103 -0.568761 0.0797513 240 235 234
-0.165433 -0.572219 0.167205 173 163 155
-0.11864 -0.571258 0.15571 188 175 168
-0.0967463 -0.573868 0.150049 194 181 172
-0.0929677 -0.573543 0.149149 194 181 172
-0.0727272 -0.573664 0.144148 196 184 174
-0.0566402 -0.576507 0.139914 197 183 174
-0.0547231 -0.575685 0.139522 197 183 174
-0.0438789 -0.576547 0.136774 195 181 172
-0.00395259 -0.575459 0.127087 183 166 156
0.00328733 -0.575242 0.125336 177 160 150
0.0123689 -0.5758 0.123061 166 150 138
0.0196198 -0.575319 0.121335 158 142 131
0.0213798 -0.574188 0.121015 156 139 129
0.0413369 -0.573175 0.116241 125 111 100
0.0869255 -0.451817 0.116923 154 87 66
0.0917694 -0.448284 0.116093 160 94 75
0.210111 -0.567697 0.0758882 237 233 232
-0.132377 -0.578043 0.156474 185 170 161
-0.0808279 -0.575429 0.144037 195 183 173
-0.0627519 -0.577755 0.139357 197 185 175
-0.0153016 -0.577377 0.12775 189 172 162
-0.00983653 -0.576362 0.126513 183 169 160
0.00644604 -0.573917 0.122772 171 155 144
0.0246138 -0.574704 0.118248 154 137 127
0.0358005 -0.577589 0.115222 136 121 112
0.0466273 -0.575256 0.112813 121 106 97
0.0665552 -0.572109 0.108268 123 107 96
0.0683612 -0.571779 0.10786 125 108 100
0.0718122 -0.570119 0.107186 125 106 96
0.0732878 -0.567814 0.10706 126 100 93
0.0746065 -0.515975 0.111976 111 55 38
0.0770948 -0.460465 0.11698 143 77 63
0.102347 -0.445594 0.112345 170 106 82
0.109574 -0.445097 0.110641 170 101 78
-0.168452 -0.572173 0.164 170 160 152
-0.109026 -0.574282 0.149151 190 178 168
-0.0139496 -0.578186 0.1254 187 171 161
0.0132642 -0.574334 0.119137 165 149 136
0.0461836 -0.57507 0.111003 123 108 100
0.0661121 -0.571923 0.106461 123 106 98
0.0731696 -0.569583 0.104982 132 108 100
0.0773341 -0.532334 0.107879 111 55 40
0.0736446 -0.466207 0.115731 136 73 55
0.0767538 -0.460322 0.11559 143 77 63
0.106285 -0.444988 0.109998 173 104 80
0.107915 -0.445444 0.109553 172 103 81
0.124526 -0.453799 0.104625 160 93 70
0.207942 -0.56464 0.0726401 236 232 231
-0.167119 -0.572595 0.161646 171 159 152
-0.0941026 -0.572007 0.143792 194 179 171
-0.0797498 -0.57433 0.140017 195 183 173
-0.065451 -0.577175 0.1362 196 184 174
-0.0635122 -0.576386 0.13581 196 184 174
-0.0618258 -0.577567 0.135268 197 183 174
-0.0434787 -0.5771 0.13082 195 181 172
-0.0070922 -0.575933 0.122026 183 166 156
-0.00165093 -0.575803 0.120707 182 165 155
0.0311173 -0.575619 0.112696 144 128 117
0.0746982 -0.465706 0.114016 136 73 55
0.0791665 -0.459446 0.113606 146 78 62
0.0825832 -0.455437 0.113207 156 86 68
0.114152 -0.447041 0.106395 165 98 73
0.241124 -0.567484 0.0621762 237 233 232
0.245695 -0.567102 0.0611003 236 232 231
-0.11373 -0.574081 0.146432 188 174 165
-0.0675698 -0.575779 0.134935 197 183 174
-0.0364496 -0.57432 0.127475 194 179 171
-0.0234563 -0.566783 0.125144 188 174 165
-0.0183483 -0.573807 0.123096 187 171 161
0.0306026 -0.574429 0.11102 148 131 121
0.050741 -0.573905 0.106137 120 108 98
0.0724441 -0.570166 0.101232 137 118 108
0.0997366 -0.444676 0.108734 169 103 80
-0.162652 -0.57399 0.156431 169 159 149
-0.131051 -0.572898 0.14885 181 168 161
-0.11215 -0.573293 0.144188 187 172 164
-0.10254 -0.572216 0.141967 189 177 167
-0.0791496 -0.576148 0.135787 195 183 173
-0.0698173 -0.575358 0.133597 196 184 174
-0.0678751 -0.574584 0.133213 196 184 174
-0.0660717 -0.57479 0.132747 196 182 173
-0.00795466 -0.573539 0.118655 185 169 158
0.0155603 -0.573495 0.112889 163 148 139
0.0578016 -0.574529 0.102387 120 108 101
0.0614363 -0.573918 0.101565 125 108 98
0.0718424 -0.568983 0.0995834 139 120 110
0.0829294 -0.558566 0.098076 107 50 37
0.083183 -0.541297 0.100039 109 52 39
0.0777223 -0.475632 0.109083 136 73 55
0.0805356 -0.461638 0.110031 148 81 63
0.102339 -0.444542 0.106658 173 106 83
0.112839 -0.444873 0.104028 159 92 67
0.181715 -0.561697 0.0733425 243 239 238
0.194108 -0.565701 0.0698119 240 235 234
0.198505 -0.565774 0.0687166 237 233 232
0.202119 -0.564017 0.0680289 235 230 230
0.210392 -0.567544 0.0655712 236 231 233
-0.169803 -0.575727 0.155973 166 157 146
-0.164893 -0.573173 0.155089 169 157 147
-0.136856 -0.571253 0.148505 180 167 160
-0.110575 -0.572489 0.141954 187 172 166
-0.106989 -0.573235 0.14099 188 174 165
-0.104982 -0.572622 0.140575 189 175 166
-0.101394 -0.573323 0.139615 190 176 167
-0.0914692 -0.570049 0.137591 190 176 167
-0.0846667 -0.57317 0.135552 189 175 166
0.0314572 -0.572829 0.107133 149 134 125
0.0407729 -0.574728 0.10461 138 125 118
0.0537171 -0.574895 0.101401 123 108 100
0.0856441 -0.453788 0.108217 159 91 73
0.104949 -0.444376 0.104578 172 103 81
0.112502 -0.444711 0.102666 159 92 69
0.243316 -0.56471 0.0556624 238 231 229
-0.163227 -0.572597 0.152773 169 157 149
-0.151247 -0.572205 0.14992 171 161 153
-0.100039 -0.57344 0.137327 188 175 168
-0.0980436 -0.572795 0.136922 189 176 169
-0.0904888 -0.572088 0.135171 194 181 174
-0.0869016 -0.572669 0.134224 196 183 176
-0.0704153 -0.572948 0.130168 204 191 186
-0.0576918 -0.573295 0.127017 217 202 196
-0.0541965 -0.5746 0.125999 211 199 189
-0.0414556 -0.574485 0.122897 149 137 128
-0.0251242 -0.574091 0.118946 192 177 168
-0.0196651 -0.573166 0.117724 187 172 164
0.0680989 -0.574121 0.0959963 129 113 102
0.0806363 -0.570567 0.0933415 121 88 78
0.0873338 -0.556911 0.093396 108 51 38
0.122779 -0.44453 0.0986629 150 87 65
-0.0986825 -0.573542 0.13504 203 190 183
-0.085372 -0.571737 0.132036 153 140 133
-0.0767038 -0.574989 0.129504 133 118 114
-0.0274221 -0.574817 0.117486 196 182 173
-0.0257056 -0.576838 0.116803 190 176 167
0.00155287 -0.57156 0.110796 178 161 153
0.00336885 -0.572472 0.110231 173 158 150
0.0362468 -0.574722 0.101839 129 117 112
0.0709779 -0.57124 0.0936999 135 116 107
0.0724696 -0.568933 0.093629 139 120 110
0.0831909 -0.464179 0.104527 151 83 65
0.110186 -0.443946 0.100409 164 95 73
0.126484 -0.446902 0.0959508 151 91 66
0.130634 -0.453638 0.0940436 146 90 71
0.193346 -0.561456 0.0644409 231 227 226
-0.134611 -0.571516 0.142058 162 149 144
-0.113915 -0.572384 0.13694 141 129 121
-0.101327 -0.574923 0.133551 148 135 130
-0.0732358 -0.573247 0.12695 200 188 181
-0.0241952 -0.573656 0.114916 188 174 165
-0.00428944 -0.570528 0.110448 180 163 156
0.0119564 -0.571729 0.106289 171 155 144
0.0156456 -0.573453 0.105149 154 140 131
0.0191742 -0.571192 0.104581 123 108 102
0.0524933 -0.575182 0.0958105 128 113 106
0.0849388 -0.466461 0.102265 153 85 67
0.239579 -0.564164 0.050372 240 235 232
-0.0829948 -0.573755 0.127314 200 188 181
-0.0757777 -0.574743 0.125425 187 172 166
-0.0591236 -0.573575 0.121533 133 118 112
-0.0316191 -0.569287 0.115405 109 94 88
-0.0173113 -0.570485 0.111733 187 170 163
0.0133565 -0.572352 0.103929 154 140 131
0.0205882 -0.571785 0.102222 160 147 140
0.172962 -0.53452 0.0692292 248 241 241
-0.110981 -0.571676 0.132431 191 179 172
-0.0958197 -0.570518 0.128935 170 158 151
-0.0250731 -0.573162 0.111336 187 172 164
0.00929834 -0.572341 0.102999 170 153 143
0.025306 -0.573732 0.0969008 145 128 123
