ply
format ascii 1.0
comment Created by Open3D
element vertex 2000
property double x
property double y
property double z
property uchar red
property uchar green
property uchar blue
end_header
0.0550392 -0.628153 0.429034 98 86 88
0.0763248 -0.626983 0.423365 115 105 108
0.199924 -0.622722 0.399379 83 62 22
0.0821034 -0.626889 0.419313 224 216 221
0.090635 -0.626421 0.417202 218 210 215
0.000449218 -0.627037 0.437773 174 164 168
0.00902417 -0.628821 0.4362 205 195 201
0.0240414 -0.630039 0.432624 231 221 227
0.0539287 -0.629365 0.424506 217 207 213
0.0899958 -0.626573 0.414737 215 208 213
0.107299 -0.637016 0.416372 144 133 134
-0.0171975 -0.626754 0.440205 218 209 219
-0.0108005 -0.628542 0.439158 227 219 226
-0.00437094 -0.628469 0.437193 227 219 226
0.0213219 -0.630038 0.430645 214 207 212
0.0535193 -0.631302 0.422885 215 208 213
0.0661639 -0.629448 0.418895 215 208 213
0.214972 -0.625051 0.390605 109 85 34
0.217098 -0.624392 0.390044 98 74 27
0.0931347 -0.627451 0.409172 218 210 215
0.209243 -0.624814 0.388518 158 128 74
0.221679 -0.625824 0.387509 94 72 25
-0.0398145 -0.627894 0.44246 211 203 208
-0.0204191 -0.6276 0.436165 211 203 210
0.0265501 -0.629806 0.423701 217 209 214
0.0627981 -0.629726 0.414477 219 211 216
0.073207 -0.627675 0.411034 218 210 215
0.0753333 -0.627599 0.410511 219 209 215
-0.0619908 -0.627068 0.446712 211 203 210
-0.0359995 -0.627924 0.438507 211 203 210
0.0579199 -0.629867 0.413054 221 211 216
0.0790992 -0.628424 0.407417 219 209 215
-0.0846529 -0.627915 0.452319 204 194 202
-0.0738201 -0.629879 0.449416 197 189 196
0.00623955 -0.629436 0.423767 218 210 215
0.0638216 -0.630795 0.409439 221 211 216
0.101468 -0.636105 0.403648 197 181 184
0.10453 -0.640417 0.405078 163 147 145
-0.0241247 -0.627596 0.429196 213 205 212
-0.0177205 -0.627644 0.427259 215 208 213
0.00567052 -0.62862 0.420861 219 211 216
0.0184004 -0.628776 0.41739 221 211 216
0.0459774 -0.62907 0.41031 223 213 219
0.0481028 -0.6291 0.409794 221 214 219
0.0731996 -0.626055 0.402356 222 212 217
-0.0770469 -0.630465 0.445297 198 190 197
-0.0749046 -0.631013 0.444808 200 192 200
-0.0637615 -0.630081 0.44053 207 199 207
-0.061428 -0.6288 0.439132 209 200 208
0.0308208 -0.633214 0.413529 220 213 217
0.0497231 -0.630096 0.407232 221 214 219
0.0950075 -0.632123 0.397823 222 215 220
-0.0731273 -0.630779 0.441332 204 196 203
-0.0252769 -0.630448 0.42554 217 209 214
0.00669194 -0.628951 0.415423 220 213 217
0.038795 -0.633595 0.408992 221 214 219
0.0490352 -0.629242 0.404376 222 215 220
0.0512508 -0.630165 0.404263 221 214 219
0.0638789 -0.629145 0.400753 221 214 219
0.0765931 -0.628717 0.397629 221 214 219
-0.098407 -0.632343 0.448278 205 195 201
-0.0916642 -0.632468 0.445898 202 194 201
-0.0803946 -0.631882 0.441633 200 192 200
-0.0449109 -0.627192 0.427523 215 208 213
-0.0428593 -0.628493 0.427468 214 207 212
-0.00445571 -0.631545 0.417173 219 211 216
0.0527748 -0.630212 0.401298 221 214 219
0.0759686 -0.62876 0.395192 224 214 220
0.0845801 -0.629209 0.39349 225 215 221
0.0909296 -0.62877 0.391917 225 217 222
-0.10462 -0.626999 0.445355 211 203 208
-0.094274 -0.631954 0.443843 205 197 204
-0.0782261 -0.628989 0.436819 205 197 204
-0.0716065 -0.628821 0.434459 209 200 208
-0.0608606 -0.63042 0.431561 213 206 210
-0.0198492 -0.628795 0.417795 218 210 215
0.0120012 -0.631397 0.409813 221 214 219
0.0270038 -0.634178 0.407049 222 215 220
0.064892 -0.630081 0.395747 225 215 221
0.067133 -0.630936 0.395617 224 214 220
0.212631 -0.625968 0.367612 111 87 36
-0.107362 -0.627297 0.443759 210 202 207
-0.0968751 -0.63142 0.441791 207 199 207
-0.0786972 -0.62906 0.434305 204 196 203
-0.0635763 -0.630894 0.429989 213 205 212
-0.0396225 -0.629376 0.42151 217 209 214
-0.0332546 -0.630481 0.420019 218 210 215
-0.0289598 -0.63027 0.418596 219 211 216
-0.0139999 -0.628781 0.413408 220 213 217
0.000845539 -0.632298 0.410714 221 214 219
0.0178564 -0.632799 0.406232 224 216 221
0.019986 -0.632936 0.405721 222 215 220
0.0286188 -0.635222 0.404473 225 215 221
0.0308755 -0.637143 0.404759 224 216 221
0.0642798 -0.630102 0.393311 226 216 222
0.0922573 -0.6314 0.387659 227 220 224
0.0971903 -0.634691 0.388098 224 214 218
0.212218 -0.626934 0.365487 115 90 34
-0.0790388 -0.62823 0.431355 206 198 205
-0.0747974 -0.629305 0.430378 210 202 209
-0.0124133 -0.629068 0.41045 220 213 217
0.0193008 -0.630207 0.402059 225 217 222
0.0323764 -0.636333 0.401376 225 217 222
0.0365882 -0.635558 0.399945 226 218 223
0.0491382 -0.633018 0.395664 226 219 221
0.0554145 -0.632086 0.393722 226 218 223
0.0828321 -0.630189 0.386575 227 220 224
0.0937327 -0.631242 0.3847 229 222 227
-0.10825 -0.627447 0.4387 206 199 203
-0.0512723 -0.628316 0.419454 219 211 216
-0.0427428 -0.629043 0.417054 220 213 217
-0.0385709 -0.630709 0.416484 219 211 216
-0.0257097 -0.63006 0.412237 221 214 219
-0.0172102 -0.63035 0.409822 222 215 220
-0.0150726 -0.629717 0.408908 222 215 220
-0.0108166 -0.628421 0.407084 224 216 221
0.00399153 -0.631816 0.404373 225 217 222
0.00609652 -0.63109 0.403463 225 217 222
0.075862 -0.630546 0.385714 203 193 199
-0.107092 -0.630805 0.437025 215 208 213
-0.0820828 -0.627758 0.426842 206 198 205
-0.0628993 -0.631486 0.421998 218 210 215
-0.0432404 -0.629052 0.414584 220 213 217
0.0161695 -0.632811 0.398873 226 218 223
0.0203733 -0.632156 0.397458 227 219 226
0.0224929 -0.632274 0.396948 227 220 224
0.0670353 -0.632725 0.386116 214 207 212
0.0938753 -0.627392 0.377873 224 222 222
-0.0939801 -0.630227 0.429384 209 200 208
-0.0870414 -0.628436 0.426185 207 199 207
-0.074209 -0.630817 0.422821 213 205 212
-0.0697388 -0.630041 0.420984 217 209 214
-0.058944 -0.630624 0.417674 219 211 216
-0.0288934 -0.63064 0.408226 224 216 221
-0.0225119 -0.630667 0.406319 224 216 221
0.0241406 -0.634202 0.394774 228 221 226
0.0516859 -0.633905 0.387693 220 213 217
0.0579467 -0.632916 0.385763 217 207 213
0.0916341 -0.6303 0.377067 217 213 214
-0.109924 -0.629343 0.432015 213 206 210
-0.085524 -0.62991 0.42363 210 202 209
-0.0679852 -0.629639 0.417583 219 211 216
-0.0573099 -0.631069 0.4147 222 215 220
-0.0380213 -0.631977 0.408989 222 215 220
-0.0337299 -0.631774 0.407582 224 216 221
-0.00187185 -0.631357 0.398043 227 220 224
0.0257453 -0.635194 0.392204 229 222 227
0.0742635 -0.632315 0.379184 179 169 172
-0.017188 -0.630548 0.399516 226 218 223
0.0145886 -0.635483 0.392706 229 222 227
0.0443838 -0.636588 0.385498 225 217 222
0.05896 -0.63372 0.380763 212 204 209
0.0901868 -0.629301 0.371894 210 206 205
-0.0844611 -0.631359 0.418572 213 205 212
-0.0712646 -0.630918 0.41395 220 212 219
-0.0370244 -0.634099 0.40437 225 217 222
-0.0305597 -0.633291 0.402065 226 218 223
0.0437091 -0.635611 0.382693 225 217 222
0.0563428 -0.634629 0.379222 218 210 215
0.0877693 -0.631259 0.370713 187 183 180
-0.111229 -0.629377 0.424468 228 221 226
-0.0609604 -0.631448 0.408185 224 216 221
-0.0479564 -0.630351 0.403594 226 218 223
-0.0332858 -0.634743 0.400904 226 218 223
0.0911696 -0.629918 0.366924 201 199 193
-0.107265 -0.629787 0.420566 218 210 217
-0.0963781 -0.631117 0.417288 215 209 216
-0.0792853 -0.63473 0.412938 220 212 219
-0.0635448 -0.630944 0.406212 224 216 221
-0.0294613 -0.633499 0.396657 228 221 226
0.00445932 -0.635591 0.387804 231 223 228
0.0278122 -0.63699 0.382175 231 223 228
0.0405646 -0.637305 0.379081 228 221 226
0.0427709 -0.638255 0.378925 227 220 224
-0.0257047 -0.633118 0.39282 229 222 227
0.0123618 -0.635211 0.38296 232 224 229
0.0294768 -0.638839 0.379957 232 222 228
0.0421005 -0.637241 0.376137 227 220 224
0.0610941 -0.636109 0.371121 210 202 207
-0.108128 -0.62972 0.415568 221 213 221
-0.0562448 -0.634404 0.4001 228 221 226
-0.0284085 -0.634572 0.39165 231 221 227
0.0331565 -0.638868 0.376493 233 223 229
0.0733086 -0.636413 0.365933 164 157 159
0.0798043 -0.636959 0.364707 143 138 138
0.124592 -0.6339 0.354328 226 218 223
-0.0610478 -0.63437 0.399026 227 220 224
-0.056725 -0.634321 0.397638 228 221 226
-0.0289166 -0.634475 0.389208 231 221 227
0.0112564 -0.635005 0.378113 233 225 230
0.0176296 -0.636316 0.376945 233 225 230
0.0305701 -0.640571 0.375292 232 224 229
0.0432055 -0.638914 0.371481 227 220 224
0.0453313 -0.638918 0.370963 226 218 223
0.0685792 -0.637449 0.364904 185 178 182
0.0831016 -0.634693 0.360588 128 129 124
0.0868402 -0.631569 0.358554 118 122 114
0.134423 -0.632065 0.349295 230 220 226
0.150944 -0.635665 0.347736 236 226 231
0.184386 -0.633536 0.341489 240 231 234
0.190703 -0.631773 0.339879 242 232 235
0.200839 -0.627764 0.336915 219 207 209
-0.104781 -0.630873 0.409612 221 213 221
-0.0919725 -0.633559 0.406265 217 209 216
-0.0358015 -0.63433 0.388653 231 223 228
-0.0272309 -0.632817 0.385517 229 222 227
-0.0230572 -0.63432 0.384889 231 223 228
-0.0187852 -0.633007 0.383138 232 224 229
0.0236026 -0.640233 0.37441 233 225 230
0.0634893 -0.635639 0.362861 202 192 198
0.112287 -0.633364 0.351531 232 229 233
0.118588 -0.632482 0.34996 219 216 222
0.169766 -0.633114 0.341127 245 233 239
-0.092113 -0.631666 0.402987 218 210 217
-0.0853748 -0.630608 0.400324 220 212 219
-0.0811763 -0.631669 0.399341 222 215 220
-0.059982 -0.635529 0.393996 228 221 226
-0.0407041 -0.636301 0.388348 229 222 227
-0.0385274 -0.635725 0.387469 229 222 227
-0.0192999 -0.632881 0.380717 232 224 229
0.0017539 -0.635992 0.376032 233 225 230
0.00592792 -0.633524 0.373941 233 225 230
0.00805032 -0.634609 0.373792 233 225 230
0.0272883 -0.640265 0.370951 233 225 230
0.0836291 -0.632415 0.354632 122 125 117
0.146879 -0.634068 0.342862 155 177 192
0.148983 -0.633639 0.342332 196 199 209
0.204873 -0.6299 0.332158 141 133 131
0.206965 -0.629231 0.331623 122 113 111
0.209776 -0.630337 0.331633 118 109 108
-0.11001 -0.630343 0.406025 224 216 223
-0.0817602 -0.632474 0.397272 222 214 222
-0.060358 -0.634496 0.391158 228 221 226
-0.0219427 -0.633408 0.379167 232 224 229
0.0435551 -0.638532 0.363718 228 221 226
0.126509 -0.634637 0.344318 159 191 205
0.135155 -0.634117 0.342514 163 192 207
0.140103 -0.636107 0.342352 166 196 211
0.14432 -0.635293 0.341294 167 197 212
0.150368 -0.633086 0.339414 175 202 216
0.180018 -0.633861 0.334803 187 195 203
0.189403 -0.634248 0.333501 219 227 236
0.201653 -0.629583 0.33002 180 177 180
0.212175 -0.632252 0.329498 115 109 109
-0.0887919 -0.632575 0.397067 220 212 219
-0.0798445 -0.631048 0.393548 225 217 224
-0.0757773 -0.632966 0.392946 226 218 225
-0.0331369 -0.63552 0.380719 232 224 229
-0.0140716 -0.635204 0.3751 233 225 230
0.0617723 -0.636146 0.356006 203 195 200
0.0701967 -0.635761 0.353938 157 152 152
0.126047 -0.635427 0.342232 159 191 205
0.152557 -0.635272 0.337366 180 205 217
0.155209 -0.636651 0.337411 181 206 220
0.166036 -0.635143 0.335038 183 209 221
0.181684 -0.634097 0.332148 183 209 221
0.195281 -0.63321 0.329765 150 173 188
-0.117505 -0.629976 0.403326 196 186 190
-0.11503 -0.628842 0.402046 228 220 228
-0.0892326 -0.632452 0.394606 219 211 218
-0.0656087 -0.634272 0.387637 228 221 226
-0.050603 -0.634423 0.383031 232 224 229
-0.0336887 -0.636299 0.378655 233 225 230
-0.0146106 -0.63598 0.373041 233 225 230
0.0106407 -0.635362 0.365912 235 225 230
0.0254717 -0.63794 0.363023 236 226 231
0.0403403 -0.639153 0.359759 229 222 227
0.0820336 -0.633822 0.348137 122 125 117
0.0841291 -0.633652 0.34762 122 125 117
0.136586 -0.636233 0.338097 165 194 210
0.147626 -0.636024 0.336034 174 201 217
0.151837 -0.635139 0.334976 177 205 218
0.174311 -0.634745 0.331074 185 210 222
0.176414 -0.634197 0.330542 185 210 222
0.190968 -0.636152 0.328971 173 198 210
0.196949 -0.633376 0.327099 152 175 190
-0.115442 -0.628725 0.399576 232 224 231
-0.100792 -0.633102 0.396148 221 214 219
-0.0808707 -0.631691 0.389036 225 217 224
-0.0680601 -0.632751 0.385318 228 221 226
-0.0659638 -0.633203 0.384822 229 222 227
-0.0575632 -0.634923 0.382832 231 223 228
-0.0490602 -0.635576 0.380466 232 224 229
-0.0428075 -0.637597 0.379325 231 223 228
-0.0341339 -0.635206 0.37587 233 225 230
-0.0172571 -0.636507 0.371486 233 225 230
0.00592733 -0.636788 0.365215 234 226 231
0.029125 -0.637887 0.359597 233 225 230
0.0354568 -0.638004 0.358058 232 224 229
0.052342 -0.637932 0.353939 221 214 219
0.0796008 -0.635685 0.346903 123 127 119
0.0871935 -0.630298 0.343294 96 110 89
0.120468 -0.635789 0.338516 156 190 204
0.126999 -0.635704 0.337236 161 193 209
0.147172 -0.636802 0.333929 173 203 218
0.149015 -0.635441 0.333119 179 207 220
0.167251 -0.636204 0.330274 186 211 225
0.185013 -0.634515 0.326834 180 205 219
0.194413 -0.634797 0.325498 162 184 199
0.211901 -0.631278 0.321751 71 70 66
-0.10576 -0.633574 0.395434 222 215 220
-0.0926596 -0.63436 0.391326 220 212 219
-0.0623345 -0.634843 0.381761 231 223 228
-0.0495408 -0.635409 0.378036 232 224 229
-0.0114709 -0.637959 0.367903 234 226 231
-0.0051317 -0.636696 0.365692 234 226 231
-0.000925305 -0.636122 0.364336 234 226 231
0.00540058 -0.637544 0.363153 234 226 231
0.0243388 -0.63758 0.358226 234 226 231
0.114957 -0.633449 0.33631 147 185 193
0.142495 -0.638421 0.332879 176 205 220
-0.090994 -0.634761 0.388372 220 212 219
-0.018339 -0.638015 0.367357 234 226 231
-0.00355811 -0.63669 0.362784 234 226 231
0.0196879 -0.640058 0.357843 235 228 233
0.044829 -0.637641 0.35071 226 218 223
0.0640097 -0.639017 0.346696 190 183 185
0.07863 -0.637188 0.342764 125 129 121
0.174779 -0.635604 0.323913 185 210 222
0.186886 -0.637284 0.322563 178 201 214
-0.111157 -0.63385 0.392242 225 217 222
-0.0805118 -0.634465 0.382331 226 218 225
-0.0525073 -0.633733 0.373334 232 224 229
-0.0273129 -0.637709 0.367312 235 225 230
-0.0252441 -0.638922 0.367151 235 225 230
-0.012547 -0.639451 0.363766 234 226 231
0.0211965 -0.638991 0.354607 235 228 233
0.0232586 -0.63812 0.353772 234 226 231
0.042137 -0.637447 0.348843 228 221 226
0.0591785 -0.638987 0.345348 205 197 202
0.0779993 -0.636983 0.340391 125 129 121
0.0838345 -0.633648 0.337948 121 128 116
0.0856043 -0.631578 0.33684 115 127 107
0.118854 -0.637112 0.331966 86 115 130
0.130051 -0.638177 0.330188 169 201 215
0.136855 -0.638888 0.329163 173 205 219
0.143435 -0.638583 0.327856 179 207 220
0.150023 -0.638196 0.326545 183 208 223
0.183372 -0.635906 0.320188 184 205 218
-0.109475 -0.634315 0.389282 225 217 222
-0.0488768 -0.635213 0.370274 232 224 229
-0.036165 -0.635381 0.366572 235 225 230
-0.0172628 -0.637847 0.362036 236 226 231
0.0100808 -0.637331 0.354445 235 228 233
0.0415517 -0.637227 0.346466 228 221 226
0.0436522 -0.637214 0.345954 228 221 226
0.0564642 -0.638845 0.343485 213 206 210
0.0692272 -0.639215 0.340688 160 153 153
0.111461 -0.635967 0.330598 155 190 201
0.115441 -0.63442 0.329279 87 115 128
0.117745 -0.635038 0.329039 123 154 171
0.126792 -0.636479 0.327786 169 203 217
0.135907 -0.637765 0.326513 173 205 219
0.140363 -0.637885 0.325733 177 207 219
0.175685 -0.635633 0.318881 185 210 222
0.180194 -0.63541 0.318079 185 208 221
-0.0514453 -0.634632 0.368362 232 224 231
-0.00304687 -0.638111 0.355758 237 227 233
0.00951187 -0.636156 0.351739 235 228 233
0.0347421 -0.637932 0.345939 233 225 230
0.0516513 -0.63874 0.342141 225 217 222
0.084806 -0.633957 0.33302 128 137 123
0.114975 -0.63514 0.327201 30 59 67
0.121685 -0.636033 0.326192 169 203 217
-0.116765 -0.632967 0.386211 227 220 224
-0.114865 -0.63452 0.386086 226 218 223
-0.112956 -0.636065 0.38596 225 217 222
-0.10839 -0.635485 0.384233 225 217 222
-0.104189 -0.636692 0.38324 222 215 220
-0.064962 -0.636667 0.370688 232 224 229
-0.0628623 -0.637091 0.370187 231 223 228
-0.0415886 -0.638046 0.364131 233 225 230
-0.0246199 -0.637594 0.359088 236 226 231
-0.00357701 -0.638821 0.353693 234 226 231
0.0302069 -0.641437 0.345826 236 229 234
0.0405414 -0.638653 0.342337 234 226 233
0.0427261 -0.63959 0.342128 234 226 233
0.0571426 -0.636408 0.337633 224 216 221
0.0700906 -0.638627 0.33543 188 183 185
0.0820857 -0.633904 0.331186 123 129 118
0.145239 -0.636193 0.319426 182 209 223
0.147334 -0.635749 0.318903 181 206 220
-0.110899 -0.634674 0.382272 225 217 222
-0.0524728 -0.635112 0.363894 233 225 232
-0.0503821 -0.635481 0.363394 233 225 230
-0.0483687 -0.63678 0.363232 233 225 230
-0.0442447 -0.638416 0.362563 233 225 230
-0.00620324 -0.637451 0.351493 235 228 233
0.0106173 -0.639577 0.347742 235 228 233
0.0127226 -0.639686 0.347232 236 229 234
0.0296339 -0.641191 0.343443 235 228 233
0.0316202 -0.63932 0.34232 235 228 233
0.0816048 -0.6346 0.329125 120 127 115
0.142685 -0.637338 0.317846 181 208 222
0.144524 -0.635971 0.317067 182 209 223
0.166554 -0.634841 0.31285 186 211 225
-0.109217 -0.635082 0.379324 225 217 222
-0.0832647 -0.637144 0.371578 227 220 224
-0.0362025 -0.637578 0.357478 233 225 230
-0.0339972 -0.635992 0.356317 233 225 230
-0.0277202 -0.636837 0.354807 234 226 231
-0.00884042 -0.638904 0.350255 237 227 233
-0.00673885 -0.63909 0.349747 237 227 233
-0.00253374 -0.639437 0.348731 235 228 233
0.100794 -0.638031 0.323795 156 199 202
0.102703 -0.636821 0.323008 160 199 209
0.117329 -0.634724 0.31939 162 196 210
0.174766 -0.634279 0.308889 190 213 225
-0.0926864 -0.638536 0.372537 225 217 222
-0.0577663 -0.635727 0.360766 234 226 231
-0.0514922 -0.636861 0.359262 232 224 229
-0.0494788 -0.638162 0.359092 233 225 230
-0.0240339 -0.637093 0.351414 236 226 231
-0.0198173 -0.63663 0.350086 237 227 233
-0.00516413 -0.639002 0.346858 237 227 233
0.00323998 -0.639625 0.344824 236 229 234
0.047626 -0.64253 0.334649 236 228 236
0.0663846 -0.63988 0.329434 230 225 229
0.083036 -0.63768 0.325033 157 160 152
0.119166 -0.636014 0.317053 169 201 215
0.123566 -0.636258 0.316275 170 202 217
0.156712 -0.63643 0.310227 186 211 225
-0.11022 -0.635552 0.374785 226 218 223
-0.108308 -0.637076 0.374639 224 216 221
-0.0820448 -0.637159 0.366223 228 220 228
-0.0519622 -0.636598 0.356865 233 225 230
-0.049871 -0.636958 0.356363 233 225 230
-0.0350305 -0.636404 0.351871 236 226 231
-0.0245354 -0.636819 0.349034 236 226 231
-0.00988317 -0.638362 0.345496 237 227 233
-0.00778697 -0.638547 0.344989 235 228 230
-0.00569012 -0.638725 0.344482 238 228 234
0.0471209 -0.643207 0.332566 235 228 233
0.0553666 -0.641055 0.329934 234 226 233
0.0716631 -0.636343 0.324708 231 226 230
0.105942 -0.637624 0.317812 163 202 214
0.118483 -0.635748 0.314713 170 202 217
0.125191 -0.636574 0.313669 173 205 217
0.136607 -0.638385 0.312073 174 204 219
0.162822 -0.636525 0.30679 186 211 225
0.171176 -0.634375 0.304707 188 211 224
-0.0763242 -0.639267 0.362634 229 221 229
-0.0718805 -0.638309 0.360962 231 223 228
-0.00411889 -0.637652 0.341299 238 228 234
0.0148212 -0.641641 0.337617 236 229 234
0.0295145 -0.64108 0.333739 236 228 236
0.0315562 -0.640146 0.332938 238 228 236
0.0442449 -0.641049 0.330147 235 228 233
0.046349 -0.641009 0.329633 235 227 235
0.0485454 -0.641917 0.3294 234 226 233
0.0609564 -0.639538 0.325756 233 225 230
0.0753518 -0.636694 0.321618 230 225 227
0.107366 -0.637053 0.314955 176 208 222
0.142178 -0.636846 0.308168 182 209 223
0.144787 -0.638275 0.30813 183 210 224
0.166554 -0.636144 0.303632 187 212 226
-0.108945 -0.635665 0.369409 225 217 222
-0.102501 -0.636499 0.367571 222 214 222
-0.0957399 -0.635395 0.365055 221 214 219
-0.0742972 -0.636651 0.358722 231 223 228
-0.0109326 -0.638728 0.341061 235 228 233
-0.00883819 -0.638914 0.340554 238 228 234
-0.00464733 -0.639259 0.339539 236 229 234
0.00372826 -0.638892 0.337208 237 227 233
0.00793859 -0.640088 0.336486 235 228 233
0.0184384 -0.640542 0.333935 238 228 234
0.0372055 -0.6389 0.328764 238 228 236
0.054264 -0.641422 0.325499 234 226 233
0.0604611 -0.640193 0.323682 233 225 230
0.08368 -0.639479 0.318287 227 231 218
0.157164 -0.637028 0.303135 186 211 223
0.172061 -0.634235 0.299731 191 212 225
-0.0984046 -0.635503 0.363471 221 214 219
-0.087812 -0.637223 0.36064 227 220 224
-0.0728947 -0.63869 0.35647 232 224 229
0.00947034 -0.638929 0.333326 238 228 234
0.0157509 -0.639201 0.331799 238 228 234
0.0387194 -0.638574 0.325909 235 227 235
0.083041 -0.639173 0.315947 222 225 217
0.114988 -0.638055 0.308972 160 192 206
0.118734 -0.635486 0.307454 168 202 215
0.138664 -0.636718 0.30401 177 207 219
0.173695 -0.634325 0.297099 194 211 223
-0.118859 -0.636348 0.367898 227 220 224
-0.116576 -0.63606 0.367059 227 220 224
-0.100899 -0.634667 0.361553 222 215 220
-0.0944928 -0.635376 0.359726 224 216 221
-0.0924101 -0.635905 0.359227 225 217 222
-0.088239 -0.636936 0.358227 227 220 224
-0.0862949 -0.638373 0.358053 227 220 224
-0.0779093 -0.640301 0.35604 231 223 228
-0.0645274 -0.636339 0.350777 233 225 232
-0.0624431 -0.636743 0.350276 233 225 232
-0.0455697 -0.637763 0.345626 233 225 230
-0.0413237 -0.637455 0.34431 234 226 231
0.0152346 -0.639836 0.329733 237 227 233
0.0194251 -0.639974 0.328714 238 228 234
0.0319375 -0.639222 0.325374 238 228 234
0.0506708 -0.637991 0.320509 233 225 232
0.0694476 -0.637023 0.315913 234 226 231
0.0803109 -0.63905 0.314126 236 231 235
0.082403 -0.638856 0.313613 231 229 227
0.116184 -0.636467 0.305885 164 200 213
0.144722 -0.636977 0.300591 181 208 222
0.29818 -0.628686 0.275809 146 171 187
-0.1128 -0.637015 0.363628 226 218 223
-0.0805797 -0.64047 0.354454 229 221 229
-0.0650857 -0.63697 0.348707 233 225 230
-0.0608125 -0.636824 0.347389 233 225 232
-0.0567361 -0.638532 0.346696 234 226 233
-0.052553 -0.639261 0.345687 233 225 232
-0.0145637 -0.637577 0.334485 237 227 233
3.51316e-05 -0.636835 0.330368 235 228 233
0.0334568 -0.638892 0.322524 235 228 233
0.0501731 -0.638616 0.318444 235 227 235
0.0777313 -0.639864 0.312562 233 227 231
0.126123 -0.635299 0.301234 170 202 217
0.16863 -0.636739 0.293898 176 203 217
0.176961 -0.634453 0.291832 167 194 208
-0.0235379 -0.6402 0.335324 237 227 233
0.0161911 -0.638273 0.324257 238 228 234
0.0183165 -0.639298 0.324024 238 228 234
0.0351798 -0.641426 0.320484 236 229 234
0.0623266 -0.639624 0.313567 235 227 235
0.0644181 -0.639499 0.313055 234 226 233
0.0748675 -0.638745 0.310496 235 228 233
0.102331 -0.637683 0.304322 157 196 210
0.170265 -0.636812 0.29126 167 199 213
0.18099 -0.634813 0.288888 166 196 211
0.18755 -0.633873 0.287546 134 161 179
0.293811 -0.628545 0.271367 192 193 197
-0.11835 -0.637962 0.360761 227 220 224
-0.0641155 -0.63861 0.344057 233 225 230
-0.0619238 -0.638058 0.343247 233 225 230
-0.0557532 -0.640138 0.342038 233 225 230
-0.0281311 -0.63746 0.333393 237 227 233
-0.0239652 -0.637942 0.332384 237 227 233
0.00317332 -0.639274 0.325517 237 227 233
0.0136521 -0.640729 0.323249 236 226 231
0.0368435 -0.642985 0.31816 235 228 233
0.0828873 -0.639553 0.306617 192 192 190
-0.0731381 -0.638493 0.344301 232 224 229
-0.00569803 -0.638362 0.325205 237 227 233
-0.00152944 -0.638653 0.324192 236 226 231
0.00681367 -0.639134 0.322164 237 227 233
0.0131351 -0.641329 0.321179 236 226 231
0.05902 -0.639026 0.309431 231 223 230
0.0780718 -0.639592 0.305321 230 225 229
0.0973828 -0.640404 0.301415 156 195 211
0.118043 -0.636339 0.296062 163 199 214
-0.0994588 -0.637933 0.349803 221 214 219
-0.0931982 -0.63952 0.348293 227 220 224
-0.0888656 -0.639596 0.346974 228 221 226
-0.0778708 -0.638204 0.343228 231 223 228
-0.0608459 -0.638695 0.338295 233 225 230
-0.0166374 -0.638072 0.325673 236 226 231
4.09187e-05 -0.640338 0.321893 236 226 231
0.0125886 -0.640957 0.31884 235 225 230
0.0946332 -0.640306 0.29961 154 186 198
0.102801 -0.638244 0.297333 157 196 210
0.11507 -0.635378 0.294047 161 198 213
0.121507 -0.635257 0.292737 184 216 233
0.135147 -0.637609 0.290747 140 173 192
0.190705 -0.635354 0.280325 160 193 211
0.193123 -0.635617 0.280001 162 196 212
-0.115161 -0.637306 0.35217 225 217 222
-0.0317726 -0.63802 0.327426 236 226 231
0.0183529 -0.641733 0.31524 233 223 229
0.0204902 -0.642745 0.314988 232 224 229
0.126088 -0.629945 0.28807 168 200 214
0.128851 -0.632393 0.288198 167 198 215
0.209616 -0.631547 0.273952 161 193 209
0.300197 -0.635828 0.26261 115 121 128
0.303278 -0.636432 0.262387 99 100 104
-0.104956 -0.638942 0.346934 221 214 219
-0.102696 -0.638563 0.346123 221 214 219
-0.0554107 -0.638102 0.331761 236 226 231
-0.00518135 -0.639289 0.31824 235 225 230
0.0241244 -0.642422 0.311634 229 222 227
0.0262199 -0.642444 0.311123 228 221 226
0.0532539 -0.64001 0.303996 218 210 215
0.0552343 -0.638946 0.303247 218 210 215
0.113921 -0.63558 0.289673 168 202 217
0.134569 -0.631716 0.284604 164 191 207
0.139701 -0.634623 0.284404 165 199 215
0.146167 -0.63418 0.28308 163 199 214
0.150573 -0.634153 0.282262 144 178 196
0.173641 -0.636243 0.278709 153 189 207
-0.125858 -0.631632 0.349235 229 222 227
-0.111783 -0.637798 0.34635 224 216 221
-0.0285899 -0.637732 0.321741 236 226 231
-0.0119393 -0.638412 0.317432 233 223 229
-0.00778829 -0.639702 0.316683 233 223 229
0.00472294 -0.640474 0.313637 231 221 227
0.0131022 -0.641784 0.311858 228 221 226
0.0504741 -0.638729 0.301959 214 207 212
0.0628295 -0.637097 0.29868 207 200 205
0.174641 -0.634364 0.275706 154 190 208
0.203878 -0.632336 0.270345 154 187 205
0.206305 -0.632533 0.270009 154 190 208
0.218508 -0.633352 0.268313 162 194 210
-0.0906915 -0.639082 0.337714 228 221 226
-0.0797198 -0.637664 0.334024 231 223 228
-0.0543354 -0.638619 0.326834 235 225 230
0.00212708 -0.641888 0.312332 229 222 227
0.0500743 -0.640249 0.300126 209 201 206
0.0645375 -0.638474 0.296337 200 193 198
0.0801172 -0.643995 0.294327 164 158 165
0.0925334 -0.641632 0.291033 137 167 182
0.103513 -0.632256 0.286289 156 178 196
0.107623 -0.631627 0.285283 151 162 177
0.167968 -0.636673 0.275116 161 195 210
0.195151 -0.635695 0.270244 161 194 212
0.217688 -0.633018 0.265995 157 191 209
-0.119178 -0.637125 0.343669 226 218 223
-0.117301 -0.638665 0.343466 225 217 222
-0.0822163 -0.636813 0.332164 231 223 228
-0.0613206 -0.640006 0.326834 233 225 230
-0.0421748 -0.638198 0.320914 235 225 230
-0.0338097 -0.638333 0.318627 235 225 230
0.00161546 -0.643402 0.310509 227 220 224
0.00784187 -0.640794 0.308233 226 218 223
0.0494804 -0.639826 0.297825 205 197 202
0.0992988 -0.635314 0.28565 156 188 205
0.140639 -0.628756 0.275784 149 170 183
0.158327 -0.636613 0.274488 159 195 210
0.165137 -0.636857 0.273325 158 194 211
0.167513 -0.637231 0.272996 158 194 211
0.171665 -0.636077 0.271979 160 197 212
0.251516 -0.633506 0.258733 177 188 193
0.296529 -0.634836 0.25302 106 124 136
-0.119558 -0.636741 0.341273 226 218 223
-0.102221 -0.637595 0.336062 221 214 219
-0.0784955 -0.637302 0.328798 231 223 228
-0.0553366 -0.638749 0.322418 234 226 231
-0.0426437 -0.637774 0.318582 235 225 230
0.0156031 -0.639664 0.303648 221 213 221
0.0197633 -0.63975 0.302634 219 211 216
0.159944 -0.636623 0.271868 159 195 212
0.214358 -0.633998 0.262038 141 174 193
0.242753 -0.632293 0.257332 160 193 209
-0.121796 -0.6348 0.33909 226 218 223
-0.0580566 -0.639888 0.321121 235 225 230
-0.0516389 -0.638989 0.319068 233 225 230
0.05463 -0.639623 0.291938 189 179 185
0.0940335 -0.635975 0.282317 147 183 201
0.163928 -0.637003 0.268914 158 194 211
0.17459 -0.635041 0.266553 159 195 210
0.178082 -0.631955 0.265209 158 194 211
0.183174 -0.633495 0.2647 158 194 211
0.200676 -0.630885 0.261159 157 193 210
0.21354 -0.633631 0.259732 162 195 214
0.227477 -0.632532 0.257308 161 194 212
-0.121959 -0.633461 0.336417 226 218 223
-0.116372 -0.638081 0.335778 225 217 222
-0.0988729 -0.637831 0.330306 225 217 222
-0.0966353 -0.637401 0.329519 226 218 223
-0.0858224 -0.636999 0.326161 229 222 227
-0.0585061 -0.639451 0.31878 233 223 229
-0.0478665 -0.638221 0.315463 232 222 228
-0.035243 -0.637021 0.311663 232 222 228
0.0166244 -0.639783 0.298777 218 210 215
0.0207809 -0.639851 0.297764 214 207 212
0.0229073 -0.640845 0.297486 213 206 210
0.0750554 -0.639572 0.285004 199 191 198
0.101189 -0.611637 0.272597 114 59 50
0.194742 -0.635358 0.260852 158 192 210
-0.101512 -0.637824 0.328725 224 216 221
-0.0972013 -0.637918 0.327436 226 218 223
-0.0951295 -0.638425 0.32693 227 220 224
-0.0150514 -0.639661 0.304551 226 218 223
-0.0108581 -0.637074 0.302817 227 220 224
-0.00672443 -0.637363 0.301808 225 217 222
0.0979896 -0.608579 0.270337 114 53 49
0.112444 -0.584148 0.261594 118 62 54
0.151688 -0.622688 0.263169 156 190 206
0.187066 -0.635114 0.259763 157 193 210
0.197728 -0.632646 0.257403 157 193 210
0.221681 -0.633405 0.253705 161 195 210
0.223354 -0.631692 0.253061 158 194 209
-0.112989 -0.638403 0.330004 222 215 220
-0.110916 -0.638974 0.329497 222 215 220
-0.0384389 -0.638735 0.308298 231 223 228
-0.0300491 -0.637789 0.305784 228 221 226
-0.00103122 -0.639203 0.298471 222 215 220
0.0176441 -0.639855 0.293915 212 204 209
0.0240229 -0.642841 0.293059 210 200 206
0.100857 -0.605551 0.266861 110 54 46
0.161673 -0.635737 0.26207 157 193 210
0.25261 -0.63263 0.246495 157 193 210
0.255111 -0.632588 0.246122 157 193 208
0.2873 -0.634635 0.24205 122 153 170
0.297908 -0.639173 0.241577 93 116 129
-0.107153 -0.639647 0.326109 221 214 219
-0.0811432 -0.63892 0.318142 229 222 227
-0.0641934 -0.639281 0.313311 231 223 228
-0.049569 -0.640691 0.309509 232 222 228
0.000533714 -0.640773 0.29613 220 213 217
0.00889574 -0.643063 0.294548 217 209 214
0.010957 -0.642153 0.293816 215 208 213
0.0130411 -0.642208 0.293308 214 207 212
0.0503676 -0.639802 0.283745 172 162 167
0.0711031 -0.638355 0.27869 176 166 172
0.11035 -0.605305 0.262712 131 75 69
0.176276 -0.634013 0.256756 159 195 212
0.279203 -0.635713 0.240972 141 180 196
-0.113944 -0.638457 0.325537 222 215 220
-0.0778145 -0.642185 0.315561 229 222 227
-0.064631 -0.638805 0.310984 231 223 228
-0.0564357 -0.641175 0.309205 231 221 227
-0.0332838 -0.640466 0.302645 228 221 226
-0.0270094 -0.640175 0.300887 227 220 224
-0.0249342 -0.640384 0.30038 228 221 226
-0.0207812 -0.640777 0.299366 225 217 222
0.00837969 -0.643547 0.292472 217 209 214
0.0145798 -0.641764 0.290508 211 203 208
0.0290347 -0.639903 0.286532 200 190 195
0.043726 -0.641526 0.2834 179 169 174
0.0876606 -0.639974 0.273145 107 125 139
0.0919513 -0.628525 0.269623 120 112 129
0.105504 -0.613529 0.263397 97 43 38
0.110527 -0.599642 0.259248 123 67 60
0.113441 -0.535658 0.244358 112 58 42
0.128228 -0.549329 0.244592 136 95 95
0.133644 -0.561184 0.246202 145 110 113
0.192251 -0.63555 0.252005 157 193 210
0.245892 -0.631914 0.242624 159 195 210
0.259685 -0.634399 0.241092 154 191 206
0.288982 -0.635492 0.237176 116 147 166
0.296053 -0.638515 0.23682 94 119 133
-0.112253 -0.638566 0.322664 221 214 219
-0.078238 -0.641707 0.313216 229 222 227
-0.0505666 -0.640687 0.305114 229 222 227
-0.0275816 -0.641621 0.299051 227 220 224
-0.0254228 -0.639886 0.298081 228 218 223
-0.0212758 -0.640278 0.297067 225 217 222
0.0348261 -0.641262 0.283152 188 178 184
0.0724752 -0.641063 0.27442 172 161 169
0.0903027 -0.634107 0.268975 127 149 169
0.111265 -0.529374 0.241546 120 61 47
0.115675 -0.526307 0.240033 144 76 60
0.262202 -0.635718 0.238616 154 192 209
0.282482 -0.634655 0.235504 131 167 185
0.295126 -0.63817 0.23445 94 119 133
-0.123146 -0.636113 0.323108 225 217 222
-0.0721758 -0.640528 0.308853 229 222 227
-0.0155516 -0.640293 0.293256 225 217 222
0.032178 -0.640788 0.281386 189 179 185
0.0387116 -0.644557 0.280663 181 171 177
0.046799 -0.641319 0.27804 167 157 163
0.0529307 -0.640024 0.276328 157 147 152
0.0612226 -0.63948 0.274309 157 147 152
0.0696392 -0.639774 0.272477 164 153 161
0.123828 -0.531674 0.237819 143 73 58
0.135534 -0.55823 0.241276 138 99 98
0.215856 -0.633056 0.242898 159 195 212
0.249985 -0.632871 0.237499 160 197 212
0.264281 -0.636128 0.236013 155 193 210
0.282511 -0.636036 0.233372 128 166 185
0.294682 -0.638682 0.232187 97 122 137
-0.134218 -0.634373 0.323817 207 195 201
-0.115267 -0.637993 0.31872 221 214 219
-0.104739 -0.639797 0.315916 221 214 219
-0.0830815 -0.638904 0.309314 229 222 227
-0.078944 -0.639763 0.308298 229 222 227
-0.0682243 -0.638873 0.305027 231 223 228
-0.0600474 -0.641277 0.303235 229 222 227
-0.0558928 -0.641946 0.302217 228 221 226
-0.0389712 -0.640398 0.297218 228 221 226
-0.0264361 -0.639834 0.293724 226 218 223
-0.0244028 -0.641008 0.293439 225 217 222
-0.0202211 -0.640408 0.292203 225 217 222
-0.0119097 -0.64008 0.289958 221 214 219
0.00470921 -0.64292 0.286324 214 207 212
0.0443076 -0.642842 0.276665 165 155 160
0.0545101 -0.640356 0.273753 153 143 149
0.157193 -0.610023 0.246064 149 176 194
0.217467 -0.632741 0.240252 160 196 214
-0.130463 -0.635176 0.320445 226 218 223
-0.0858486 -0.639872 0.307988 228 221 226
-0.0814267 -0.63883 0.306482 229 222 227
-0.0457955 -0.64101 0.296899 228 221 226
-0.0373691 -0.640125 0.294416 226 218 223
-0.024891 -0.640481 0.291151 226 216 222
-0.0124301 -0.640526 0.287893 220 213 217
-0.0103697 -0.641644 0.287599 220 213 217
-0.00829275 -0.641776 0.287091 220 213 217
-0.00413727 -0.642015 0.286075 218 210 215
0.0416403 -0.642393 0.274904 165 155 160
0.0560902 -0.640672 0.271176 153 143 149
0.0946732 -0.632677 0.260961 117 130 146
0.103753 -0.539966 0.239731 110 53 42
0.105233 -0.518419 0.234984 116 59 44
0.108184 -0.516729 0.234061 136 71 52
0.181583 -0.631981 0.24391 74 97 112
0.187353 -0.635332 0.243564 29 52 67
-0.107388 -0.637316 0.311485 219 211 216
-0.0996445 -0.642247 0.310191 226 218 223
-0.0674756 -0.642068 0.300837 229 222 227
-0.0357702 -0.639834 0.29162 227 220 224
-0.0295137 -0.639536 0.289881 225 217 222
-0.0129336 -0.639987 0.285617 220 213 217
-0.010864 -0.640127 0.285111 219 211 216
-0.00880331 -0.641237 0.284813 219 211 216
0.0306664 -0.642129 0.275175 172 160 166
0.0411392 -0.642833 0.272828 162 152 158
0.0514439 -0.641365 0.270114 150 140 145
0.0725965 -0.642676 0.265585 172 162 167
0.102769 -0.517205 0.23345 113 55 43
0.106793 -0.513251 0.231863 139 71 53
0.115532 -0.514174 0.230368 168 90 75
0.124598 -0.527154 0.231253 161 87 71
0.198244 -0.6351 0.239319 150 185 205
0.250714 -0.633366 0.230438 161 198 213
0.299484 -0.6414 0.224744 62 68 72
-0.104362 -0.641663 0.309116 222 215 220
-0.100379 -0.643641 0.308334 224 216 221
-0.0804618 -0.640131 0.301814 228 221 226
-0.0783923 -0.640548 0.301305 228 221 226
-0.0763214 -0.640956 0.300795 228 221 226
-0.0363593 -0.641238 0.289769 226 218 223
0.0197222 -0.641641 0.275447 166 151 158
0.0259491 -0.641629 0.273928 162 149 156
0.0531272 -0.642651 0.26771 150 138 144
0.0879105 -0.636331 0.258657 104 129 146
0.0918496 -0.634801 0.2575 114 138 155
0.0991984 -0.618726 0.252703 98 77 84
0.104436 -0.586741 0.245202 87 33 29
0.10367 -0.574817 0.242975 104 50 43
0.1228 -0.522756 0.228915 165 88 75
0.182724 -0.632214 0.239188 60 78 93
0.199851 -0.634821 0.236684 139 170 191
0.236187 -0.635645 0.230801 161 198 213
0.250266 -0.633823 0.228246 163 199 214
-0.100599 -0.642161 0.30575 225 217 222
-0.0829384 -0.63917 0.30001 228 221 226
-0.0600416 -0.642399 0.294173 228 221 226
-0.030665 -0.642339 0.28617 224 216 221
-0.0118872 -0.639996 0.28078 218 208 214
0.0961799 -0.616538 0.250724 102 72 77
0.104459 -0.598099 0.245372 79 30 26
0.132926 -0.539749 0.22847 159 89 74
0.218873 -0.636505 0.231459 162 196 212
0.25525 -0.63507 0.225352 162 196 212
0.270803 -0.63537 0.223034 147 185 204
-0.134813 -0.636278 0.312575 232 224 229
-0.117708 -0.638291 0.307749 221 214 219
-0.081423 -0.64001 0.297421 228 221 226
-0.0563322 -0.642496 0.290851 227 220 224
-0.0332164 -0.641558 0.284398 224 216 221
-0.0290238 -0.641006 0.283176 222 215 220
-0.0248428 -0.640419 0.281957 220 213 217
-0.020674 -0.639797 0.280742 219 209 215
-0.0186352 -0.640942 0.280436 218 210 215
-0.0062125 -0.64372 0.27778 209 199 205
0.0187465 -0.643456 0.271488 153 141 146
0.0333132 -0.643309 0.267936 153 143 147
0.0477802 -0.641763 0.264221 149 137 141
0.0535848 -0.637473 0.262036 148 136 140
0.0907205 -0.634657 0.25322 111 125 138
0.109407 -0.509273 0.225361 161 87 69
0.111245 -0.509838 0.225111 165 90 72
0.113089 -0.510395 0.224861 167 92 77
0.138041 -0.545749 0.226768 157 93 78
0.171971 -0.611186 0.232691 96 102 111
0.198233 -0.633825 0.232183 139 170 189
0.200287 -0.633096 0.231693 140 173 192
0.254364 -0.634615 0.22306 164 198 212
0.2653 -0.636061 0.221622 157 191 209
0.270354 -0.635816 0.220811 149 185 202
-0.131275 -0.637957 0.309453 226 218 223
-0.110015 -0.640916 0.303605 220 213 217
-0.0989635 -0.63966 0.30011 226 218 223
-0.0819722 -0.640418 0.295339 228 221 226
-0.0523626 -0.639626 0.286903 227 220 224
-0.0420994 -0.641985 0.284567 225 215 221
-0.0316714 -0.64218 0.281816 224 216 221
-0.00465155 -0.645213 0.275383 202 192 198
0.00363025 -0.640644 0.272411 191 178 185
0.0305401 -0.640812 0.265843 150 138 144
0.0411339 -0.643442 0.263831 149 136 143
0.0432145 -0.643352 0.263325 149 137 141
0.0525728 -0.632969 0.259157 147 134 139
0.088359 -0.636315 0.251802 102 122 138
0.0943257 -0.612464 0.246011 81 30 31
0.105136 -0.50747 0.224135 150 80 63
0.112461 -0.509754 0.22313 167 93 75
0.145601 -0.553059 0.224805 145 94 84
0.212316 -0.63527 0.227714 164 198 214
0.219262 -0.634713 0.226439 168 202 215
0.241448 -0.63519 0.222869 165 200 213
0.261882 -0.635709 0.219728 158 194 209
0.278441 -0.637558 0.217513 132 170 189
0.281459 -0.638257 0.217177 124 159 182
-0.123382 -0.639843 0.305058 222 215 220
-0.11884 -0.639105 0.303559 220 213 217
-0.0763119 -0.642039 0.291721 229 222 227
-0.0614585 -0.641678 0.287499 227 220 224
-0.0280927 -0.643965 0.278919 219 211 216
-0.0259717 -0.643177 0.278213 218 210 215
-0.02175 -0.641574 0.276807 214 207 212
-0.00932329 -0.643424 0.273947 207 197 202
0.050043 -0.633487 0.257611 146 136 140
0.0952644 -0.609614 0.243139 70 20 21
0.100514 -0.605726 0.241317 58 11 8
0.097263 -0.517587 0.225829 110 53 42
0.11981 -0.513164 0.220603 167 93 75
0.122554 -0.51653 0.220684 168 94 76
0.139461 -0.541641 0.22199 160 94 77
0.142403 -0.544907 0.222025 147 92 79
0.208685 -0.633689 0.22576 161 197 215
0.228228 -0.634544 0.222598 164 200 215
0.240579 -0.634704 0.220596 164 200 213
0.263053 -0.63425 0.21695 155 193 210
0.271525 -0.635654 0.215874 145 183 202
0.277523 -0.637107 0.215198 132 169 191
-0.117545 -0.641017 0.301179 220 213 217
-0.0849909 -0.639818 0.291467 227 220 224
-0.0514524 -0.641677 0.282456 225 217 222
-0.026456 -0.642584 0.275945 217 207 213
-0.00153027 -0.642253 0.269473 191 181 187
0.00261707 -0.642407 0.268458 185 172 179
0.00676571 -0.642526 0.267444 173 161 167
0.0254439 -0.642642 0.262885 149 137 141
0.0336098 -0.640506 0.260533 149 137 141
0.0475108 -0.633989 0.256063 144 134 139
0.0960977 -0.536273 0.227653 107 56 44
0.103657 -0.505191 0.220596 150 80 61
0.110394 -0.50558 0.219342 167 93 75
0.120747 -0.512081 0.218491 168 94 76
0.21103 -0.635161 0.223309 163 199 214
0.227376 -0.634036 0.220342 163 199 214
0.243026 -0.636015 0.218087 164 200 213
-0.0666794 -0.641764 0.284362 227 220 224
-0.0646094 -0.64211 0.283851 227 220 224
-0.0497481 -0.640389 0.279474 224 216 221
-0.0206915 -0.641522 0.271972 210 200 206
-0.014481 -0.641968 0.270448 205 195 201
0.00837257 -0.64492 0.265209 167 155 159
0.0228618 -0.643041 0.261317 149 137 141
0.0372456 -0.640747 0.257459 148 136 140
0.0393136 -0.640667 0.256956 146 136 140
0.0548522 -0.596195 0.245384 121 65 63
0.0605427 -0.595694 0.244005 112 61 56
0.0835872 -0.642899 0.247285 91 114 126
0.0938755 -0.61844 0.24073 83 55 58
0.212257 -0.633844 0.220581 165 199 215
0.218411 -0.631434 0.219128 164 200 215
0.237191 -0.635504 0.216633 165 199 215
0.288249 -0.639788 0.209229 101 130 150
-0.124657 -0.639103 0.298292 222 215 220
-0.114141 -0.64098 0.295494 219 211 216
-0.109628 -0.640138 0.294023 220 213 217
-0.107565 -0.640659 0.293508 220 213 217
-0.101189 -0.641211 0.291748 225 217 222
-0.0525217 -0.642427 0.278303 224 216 221
-0.0398104 -0.640096 0.274476 220 213 217
-0.037872 -0.64229 0.274345 219 211 216
-0.0356834 -0.640554 0.27346 219 209 215
-0.0336186 -0.64077 0.272952 215 208 213
-0.000491123 -0.642096 0.26465 183 170 177
0.00366535 -0.643217 0.263806 173 161 167
0.00574124 -0.643272 0.263299 167 155 159
0.00785903 -0.64529 0.263128 164 152 156
0.0222604 -0.641439 0.258919 149 137 141
0.0305384 -0.641305 0.256902 147 134 139
0.0388146 -0.641035 0.254887 145 133 137
0.0526133 -0.597667 0.244089 121 65 63
0.0659184 -0.596442 0.240866 102 57 52
0.0898597 -0.633358 0.242005 97 91 102
0.0926837 -0.625928 0.240114 89 72 82
0.118018 -0.506 0.214525 170 95 75
0.120737 -0.509372 0.214566 171 97 76
0.198 -0.635092 0.221001 142 174 193
0.202831 -0.635465 0.220203 169 201 215
0.217956 -0.631818 0.216979 165 199 215
0.228523 -0.633966 0.215521 163 199 214
0.231385 -0.634926 0.215191 165 199 215
0.237144 -0.636803 0.214524 165 199 215
0.257854 -0.63288 0.210531 161 195 210
-0.0739662 -0.641409 0.281736 227 220 224
-0.0653535 -0.639923 0.279095 225 217 222
-0.061125 -0.639611 0.27788 225 217 222
-0.0196338 -0.641424 0.267147 207 197 202
0.0239259 -0.64375 0.256659 148 136 140
0.030036 -0.641664 0.254832 147 134 139
0.0519376 -0.596031 0.241897 119 62 61
0.0987906 -0.49774 0.215242 152 82 65
0.10513 -0.497233 0.213897 163 91 72
0.109255 -0.500288 0.213587 170 95 77
0.115826 -0.505749 0.2132 171 96 78
0.189621 -0.63927 0.220898 173 204 221
0.21583 -0.633927 0.215389 170 202 217
0.217884 -0.633113 0.214906 169 203 217
-0.104186 -0.640479 0.287864 224 216 221
-0.0914669 -0.641384 0.284364 226 218 223
-0.0638287 -0.640612 0.276511 224 216 221
-0.0242883 -0.641453 0.266095 209 199 205
-0.0180587 -0.640939 0.264399 203 193 199
-0.0159708 -0.640094 0.263721 201 189 195
-0.00153015 -0.639848 0.260016 182 167 174
0.00468546 -0.642012 0.258825 164 152 156
0.00677436 -0.643045 0.25848 161 146 151
0.0528124 -0.591282 0.23885 111 57 52
0.215371 -0.634293 0.213233 172 203 218
0.238707 -0.63757 0.209728 169 201 217
0.247023 -0.639338 0.208602 166 197 214
0.265363 -0.635117 0.204989 153 189 209
-0.102855 -0.642284 0.285462 224 216 221
-0.0772499 -0.642701 0.278278 226 218 225
-0.0621947 -0.640307 0.273738 224 216 221
-0.0454416 -0.639678 0.269111 219 209 215
-0.0227417 -0.641961 0.263518 205 195 201
0.0229124 -0.644446 0.252503 145 136 137
0.0289706 -0.64137 0.250544 145 133 137
0.0666522 -0.585212 0.232709 107 56 46
0.0693869 -0.590883 0.233015 104 55 44
0.0911602 -0.638016 0.235816 98 109 123
0.0976893 -0.627954 0.2328 107 119 131
0.212101 -0.633609 0.211417 168 204 222
0.240317 -0.637026 0.207053 134 167 186
-0.12421 -0.638246 0.288735 221 214 219
-0.0965276 -0.640196 0.281017 225 217 222
-0.0817896 -0.641281 0.277028 226 218 225
-0.0669643 -0.640956 0.272873 225 217 222
-0.0627294 -0.640643 0.271665 222 215 220
-0.054382 -0.640888 0.26944 221 214 219
-0.0500851 -0.639487 0.268062 220 213 217
-0.0357192 -0.64216 0.264672 215 205 210
-0.0314289 -0.639615 0.263143 211 201 207
0.00571711 -0.641747 0.254026 156 144 148
0.0223577 -0.643793 0.250278 145 133 137
0.0494108 -0.604017 0.237575 113 59 54
0.0514684 -0.587956 0.234564 104 53 45
0.0581604 -0.567431 0.229806 107 53 39
0.0982603 -0.494299 0.209843 158 88 71
0.139985 -0.536541 0.208069 167 100 79
0.160893 -0.581136 0.210769 155 90 71
0.192021 -0.637983 0.213399 163 198 218
0.229146 -0.635478 0.206422 174 206 220
0.261482 -0.63507 0.200931 153 184 201
-0.130917 -0.636811 0.288188 224 216 221
-0.123141 -0.641061 0.286535 220 213 217
-0.0867567 -0.64273 0.276353 226 218 223
-0.0341198 -0.641709 0.261922 212 202 208
-0.00513014 -0.641753 0.254489 182 167 174
-0.00306336 -0.641834 0.253982 174 162 168
0.0197743 -0.64414 0.248707 145 133 137
0.0383856 -0.642659 0.244025 142 129 136
0.0499099 -0.5953 0.234036 110 59 51
0.0528521 -0.572167 0.229804 102 49 40
0.0971181 -0.630556 0.228935 118 138 156
0.0980047 -0.624363 0.227806 147 151 163
0.092579 -0.498818 0.210033 139 76 59
0.108569 -0.498039 0.20669 169 97 80
0.113008 -0.502008 0.206399 171 99 82
0.121796 -0.508859 0.205688 171 99 80
0.12485 -0.51316 0.205726 171 101 82
0.142543 -0.540071 0.206258 164 99 82
0.157886 -0.573891 0.208256 162 98 83
0.197039 -0.634264 0.209664 159 195 212
0.286618 -0.639226 0.195086 93 120 138
-0.119368 -0.64155 0.283191 218 210 215
-0.0958949 -0.643239 0.276707 225 217 224
-0.0871522 -0.642081 0.274076 226 218 225
-0.0724103 -0.642856 0.270103 225 217 222
-0.0639078 -0.642266 0.267692 222 215 220
-0.0511415 -0.640129 0.263929 222 212 217
0.0233722 -0.643418 0.245479 144 132 136
0.0498827 -0.599536 0.232632 111 62 56
0.0608828 -0.567606 0.225358 108 56 42
0.0672697 -0.573859 0.224862 104 54 41
0.0881084 -0.618129 0.226849 103 123 137
0.0878724 -0.501 0.209668 127 66 50
0.154567 -0.565685 0.205731 163 102 86
0.196223 -0.633659 0.207461 159 195 212
0.203811 -0.635123 0.206278 147 183 201
0.212392 -0.6329 0.204426 144 179 199
0.234398 -0.633509 0.20064 152 188 207
0.243066 -0.636223 0.199514 184 216 231
0.252606 -0.635132 0.197753 163 195 210
0.26604 -0.636415 0.195686 141 174 193
0.285678 -0.638696 0.192791 94 121 139
-0.121778 -0.640352 0.28141 218 210 215
-0.106586 -0.640206 0.277009 222 215 220
-0.0495262 -0.639722 0.261185 219 211 216
-0.00408798 -0.641468 0.249699 174 162 168
0.00830415 -0.641774 0.246667 149 137 141
0.0248887 -0.642699 0.242766 143 131 135
0.0501318 -0.588813 0.228954 107 56 46
0.0543541 -0.562518 0.224166 105 52 40
0.0679856 -0.557957 0.220449 104 51 37
0.0872946 -0.500261 0.208022 129 68 50
0.092449 -0.495078 0.206219 144 81 64
0.108296 -0.494272 0.202898 169 97 78
0.200571 -0.634346 0.204491 151 186 206
0.229418 -0.634694 0.199366 151 186 206
0.231879 -0.634726 0.19894 155 188 207
0.24302 -0.637459 0.197365 139 175 195
-0.138006 -0.633062 0.282854 225 217 222
-0.131003 -0.640259 0.28178 221 214 219
-0.124609 -0.641051 0.280024 219 211 216
0.0161362 -0.644089 0.242844 146 131 136
0.0575937 -0.563399 0.221652 107 55 40
0.0616122 -0.553946 0.219417 104 51 37
0.0833998 -0.506271 0.208015 116 54 41
0.0918632 -0.494332 0.2046 145 82 65
0.100615 -0.49124 0.202387 160 92 74
0.119554 -0.505763 0.200577 170 99 77
0.141807 -0.536531 0.200377 165 102 84
0.170131 -0.601812 0.203637 144 86 69
0.216709 -0.634674 0.19933 158 194 209
0.239237 -0.63598 0.195515 151 186 206
0.256242 -0.634724 0.192442 149 182 203
0.273153 -0.637509 0.189955 133 169 191
-0.133389 -0.639004 0.280002 222 215 220
-0.112382 -0.642685 0.274419 221 214 219
-0.105445 -0.640333 0.272126 224 216 221
-0.103388 -0.640816 0.271608 226 216 222
-0.069406 -0.64055 0.262144 224 216 221
-0.0674639 -0.641864 0.261797 222 215 220
-0.0548784 -0.641736 0.258393 222 212 217
-0.0528154 -0.642012 0.257881 221 211 216
-0.0236832 -0.641031 0.25013 203 193 199
-0.0195602 -0.641318 0.249114 198 188 194
-0.00717097 -0.640987 0.245933 183 171 175
0.00108625 -0.642249 0.244047 165 153 157
0.00522001 -0.642334 0.243035 156 143 150
0.0279651 -0.642198 0.237488 141 129 133
0.0340981 -0.640994 0.235861 136 124 128
0.0383015 -0.641799 0.234978 137 125 129
0.081351 -0.522006 0.20889 92 39 27
0.0878881 -0.499413 0.204472 135 72 52
0.0912786 -0.493579 0.202987 145 82 65
0.0955333 -0.491578 0.201844 149 86 64
0.196172 -0.631977 0.200472 168 204 222
0.206525 -0.634502 0.198879 147 183 203
0.248717 -0.636159 0.191583 149 184 204
0.258723 -0.635837 0.189832 136 169 190
0.266716 -0.636361 0.188545 131 167 187
0.26924 -0.636212 0.188104 148 181 202
0.274761 -0.636764 0.187249 124 159 182
-0.134181 -0.640247 0.278091 222 215 220
-0.128006 -0.642021 0.276524 220 213 217
-0.0699398 -0.640834 0.26007 222 215 220
0.000568046 -0.641539 0.241846 165 153 157
0.00471067 -0.642616 0.240966 156 142 147
0.0150515 -0.642681 0.23844 143 131 135
0.017158 -0.64366 0.238059 143 131 135
0.021257 -0.642618 0.236927 141 129 133
0.106439 -0.492043 0.198062 168 98 78
0.121051 -0.502439 0.196475 168 98 76
0.205324 -0.632938 0.19664 152 188 207
0.212208 -0.632397 0.195311 151 186 206
0.268318 -0.635629 0.185853 143 178 198
-0.124008 -0.641524 0.273002 219 211 216
-0.119678 -0.641665 0.271777 218 210 215
-0.0684142 -0.641444 0.25748 222 215 220
-0.0560324 -0.643279 0.254395 221 214 219
-0.028887 -0.642254 0.247155 207 197 202
0.051852 -0.604523 0.222548 105 57 46
0.0546856 -0.565297 0.216843 108 57 47
0.0589842 -0.521739 0.210277 107 50 37
0.0727051 -0.5248 0.207637 112 69 56
0.0823857 -0.49979 0.202382 120 62 43
0.0980817 -0.492234 0.198158 148 88 65
0.100814 -0.490526 0.197387 157 92 71
0.102041 -0.489183 0.196971 159 92 69
0.117106 -0.496422 0.194839 168 98 76
0.187054 -0.629114 0.197349 174 205 222
0.192151 -0.630482 0.196548 166 202 217
0.196928 -0.630868 0.195697 160 193 211
0.234541 -0.635062 0.189322 147 183 205
-0.14048 -0.635143 0.274701 224 216 221
-0.0942217 -0.641024 0.262236 226 218 223
-0.0335348 -0.642164 0.246104 210 200 206
-0.0169804 -0.642392 0.241896 197 184 191
0.0119399 -0.642231 0.234683 142 130 134
0.0202473 -0.643157 0.232783 136 124 128
0.0305952 -0.642885 0.230267 131 119 123
0.0367277 -0.641629 0.228654 129 115 120
0.0691475 -0.516433 0.205639 123 68 52
0.072681 -0.517885 0.205045 108 64 51
0.0740895 -0.516641 0.204585 106 64 56
0.121582 -0.501439 0.192894 165 98 75
0.189991 -0.632422 0.194942 129 165 182
0.218565 -0.633249 0.189711 155 188 209
0.221393 -0.634243 0.189307 151 184 205
0.243975 -0.635278 0.185373 146 182 202
0.266474 -0.634433 0.18137 143 178 198
0.276564 -0.633743 0.179582 106 139 160
-0.0882765 -0.6406 0.258277 226 218 223
-0.0403776 -0.643801 0.24584 215 205 210
-0.0278157 -0.641951 0.24237 207 195 201
0.0463664 -0.639294 0.223889 122 110 114
0.0583365 -0.512088 0.205806 114 55 39
0.0860239 -0.498273 0.198138 133 72 54
0.0888312 -0.49665 0.197355 137 76 56
0.108395 -0.491823 0.192758 165 96 74
0.113452 -0.492474 0.191815 168 101 78
0.118513 -0.498277 0.191469 166 99 76
0.200789 -0.631749 0.190578 144 181 201
0.213989 -0.635186 0.188494 150 185 205
0.226613 -0.636459 0.186316 156 189 210
0.244347 -0.637366 0.183223 147 183 203
-0.145912 -0.63534 0.271739 181 169 173
-0.130016 -0.642134 0.267907 220 213 217
-0.118658 -0.640099 0.264438 218 210 215
-0.102002 -0.643105 0.260102 225 217 222
-0.0910279 -0.641413 0.256869 226 218 223
-0.0888149 -0.64085 0.256196 225 217 222
-0.0470259 -0.642389 0.245165 217 207 213
-0.0325109 -0.642851 0.24145 209 197 203
-0.0138402 -0.641132 0.236495 190 177 184
-0.00972029 -0.641317 0.235482 184 171 178
0.0129628 -0.641738 0.22993 138 124 126
0.0171275 -0.642698 0.229032 132 118 120
0.0496867 -0.636268 0.220555 119 105 105
0.0528029 -0.546997 0.209423 105 55 44
0.0828401 -0.50006 0.197379 125 64 46
0.0843649 -0.499749 0.197018 129 68 46
0.0902218 -0.497472 0.195521 137 76 56
0.105052 -0.492818 0.191924 157 92 71
0.106279 -0.491455 0.191522 161 94 71
0.107772 -0.491048 0.191173 161 96 73
0.195527 -0.631663 0.189317 148 181 202
0.247581 -0.634812 0.180074 142 177 197
0.260064 -0.634356 0.177826 130 165 185
-0.137832 -0.63618 0.267207 222 215 220
-0.119208 -0.640343 0.262343 218 210 215
-0.110789 -0.641431 0.260093 222 215 220
-0.0915675 -0.641655 0.254784 226 218 223
-0.0893531 -0.641092 0.254113 226 218 225
-0.0830339 -0.6413 0.252411 226 218 223
-0.0558905 -0.6426 0.245279 219 211 216
-0.0391589 -0.641531 0.240782 210 200 206
-0.0370375 -0.640739 0.240143 209 197 203
0.0124277 -0.640983 0.227757 131 120 121
0.045376 -0.63978 0.219762 105 96 97
0.0527585 -0.524097 0.205035 107 52 41
0.0557325 -0.510689 0.202861 114 55 41
0.0765678 -0.5024 0.197341 115 56 40
0.0866095 -0.497341 0.194633 132 74 52
0.0878975 -0.496041 0.194218 136 75 57
0.0976819 -0.490678 0.191585 145 85 60
0.1004 -0.48896 0.190837 153 91 67
0.169814 -0.593169 0.188034 136 86 71
0.199493 -0.631322 0.186283 105 138 161
0.229389 -0.63429 0.181008 123 151 174
0.238427 -0.63795 0.179726 103 134 155
-0.136586 -0.637975 0.264761 220 213 217
-0.134776 -0.639529 0.264405 222 215 220
-0.107218 -0.642642 0.256952 225 215 221
-0.100852 -0.64307 0.255232 225 217 222
-0.0943282 -0.642442 0.253366 226 218 225
-0.0790383 -0.639341 0.248865 224 216 221
0.0201213 -0.640119 0.223587 108 96 98
0.0345865 -0.640617 0.220185 98 89 90
0.0366459 -0.640512 0.219686 98 86 88
0.052479 -0.633428 0.215214 108 90 91
0.0695216 -0.500713 0.197047 126 67 50
0.0710475 -0.500454 0.196685 125 66 47
0.0784604 -0.498084 0.194823 124 68 48
0.0797701 -0.496811 0.194406 126 68 46
0.0995365 -0.4872 0.189225 155 92 70
0.110908 -0.493439 0.18754 162 97 76
0.116578 -0.495956 0.186651 163 99 75
0.218217 -0.637968 0.181153 181 219 236
0.235471 -0.63821 0.177985 130 164 184
0.244995 -0.637185 0.176155 82 115 135
-0.116195 -0.64185 0.257103 219 211 216
-0.0632391 -0.643189 0.242802 221 211 216
-0.0589062 -0.641794 0.24151 213 206 210
-0.0506622 -0.642843 0.239454 208 198 203
0.027848 -0.640108 0.219527 101 91 92
0.0422406 -0.639377 0.216044 99 87 89
0.0573687 -0.505693 0.19862 125 65 53
0.0882434 -0.494099 0.19069 136 78 59
0.105912 -0.488678 0.186459 160 95 71
0.111493 -0.49126 0.185574 162 97 76
0.124104 -0.499989 0.183889 160 95 71
0.142399 -0.533991 0.183565 156 96 75
0.253642 -0.635322 0.172114 168 206 225
0.258204 -0.634209 0.171198 166 202 221
0.261599 -0.635876 0.17074 149 177 197
-0.141033 -0.634338 0.261126 221 214 219
-0.135648 -0.639017 0.26004 220 213 217
-0.105692 -0.640646 0.251792 224 216 221
-0.0995273 -0.642015 0.250228 226 218 225
-0.0889077 -0.64217 0.247341 226 218 223
-0.0699554 -0.642476 0.242271 219 211 216
-0.026191 -0.641425 0.230773 191 176 186
0.000599277 -0.640588 0.223982 150 136 139
0.00266786 -0.641613 0.223577 143 131 135
0.00471351 -0.640639 0.222976 140 126 128
0.0417446 -0.63959 0.213981 99 87 89
0.0585459 -0.505642 0.196695 126 67 52
0.0919173 -0.491285 0.188019 137 77 54
0.191262 -0.638786 0.181834 183 210 226
0.19504 -0.636348 0.180875 184 212 225
0.195685 -0.631844 0.180338 180 210 225
0.200481 -0.632171 0.179442 170 204 220
0.246535 -0.637598 0.171292 155 193 210
0.263637 -0.635969 0.168062 141 179 200
-0.110722 -0.641842 0.251037 222 215 220
-0.0976672 -0.640711 0.247337 226 218 223
-0.0850263 -0.641201 0.243947 224 216 221
-0.0787183 -0.641327 0.242261 221 214 219
-0.0767955 -0.642661 0.241873 220 213 217
-0.0683055 -0.642016 0.239547 212 202 208
-0.0328801 -0.641163 0.230234 195 183 189
-0.00196787 -0.639759 0.222328 156 144 146
0.0186151 -0.640758 0.2174 108 96 98
0.0564859 -0.505021 0.195445 126 66 54
0.0673711 -0.495297 0.192092 128 69 53
0.074689 -0.492976 0.190268 133 73 52
0.0952521 -0.481279 0.184782 147 88 62
0.113204 -0.488787 0.181759 162 98 74
0.162121 -0.577013 0.179851 155 96 77
0.173627 -0.603711 0.179943 159 105 86
0.216404 -0.637723 0.174623 174 205 222
0.224154 -0.638825 0.173249 167 199 213
0.239828 -0.640687 0.170476 188 215 231
0.272554 -0.639258 0.164406 117 152 175
-0.142132 -0.634748 0.256952 221 214 219
-0.138071 -0.635958 0.255905 220 213 217
-0.136275 -0.63751 0.255533 220 213 217
-0.0813047 -0.641165 0.2407 221 214 219
-0.0793876 -0.642507 0.240309 218 210 215
-0.0751351 -0.64222 0.239146 214 207 212
-0.0458038 -0.641189 0.231343 212 199 206
-0.027221 -0.641827 0.22664 197 184 191
-0.0230287 -0.640108 0.225418 184 169 177
-0.0045263 -0.638912 0.220681 116 105 106
0.00368812 -0.640043 0.218762 124 113 112
0.0119649 -0.642037 0.216926 123 112 113
0.0243407 -0.641787 0.213917 101 92 90
0.036563 -0.639247 0.210773 99 87 89
0.0386163 -0.639126 0.210277 100 88 90
0.0573593 -0.502984 0.193412 126 67 52
0.0599509 -0.499587 0.19252 127 65 54
0.0932082 -0.480817 0.183602 142 84 61
0.110516 -0.486496 0.1805 160 95 71
0.215166 -0.636082 0.172445 202 220 235
0.218374 -0.638004 0.171989 199 220 233
0.220827 -0.638065 0.171527 190 212 227
0.223284 -0.638115 0.171064 184 206 222
0.225351 -0.637233 0.170601 189 209 223
0.280173 -0.639738 0.160733 94 112 124
-0.149278 -0.634966 0.256746 162 148 148
-0.124549 -0.64109 0.250281 215 208 213
-0.118176 -0.641703 0.248561 219 209 215
-0.116121 -0.642212 0.248035 220 213 217
-0.0822643 -0.6443 0.238994 221 214 219
-0.0756653 -0.64241 0.237065 217 209 214
-0.0630695 -0.642318 0.233724 225 213 215
0.0381972 -0.640308 0.208286 101 89 91
0.0521899 -0.525887 0.194947 112 57 44
0.0623007 -0.497296 0.190166 125 64 48
0.0899602 -0.481662 0.182795 144 84 61
0.0928676 -0.480952 0.182119 145 85 62
0.103823 -0.481167 0.179841 159 94 70
0.202778 -0.630277 0.172112 159 156 159
0.217129 -0.636357 0.169817 254 255 255
0.240529 -0.639247 0.165605 255 255 255
0.27321 -0.637714 0.159483 131 156 170
-0.141199 -0.635732 0.25225 219 211 216
-0.126925 -0.639765 0.248568 217 209 214
-0.120565 -0.640401 0.246852 218 210 215
-0.109524 -0.639011 0.243692 232 224 229
-0.078254 -0.642248 0.235503 179 168 167
-0.0468433 -0.641557 0.227206 110 101 100
-0.0428717 -0.643963 0.226385 110 101 100
-0.0239394 -0.637491 0.221015 109 100 100
-0.00755943 -0.635238 0.216728 104 95 94
-0.00552062 -0.634296 0.216143 105 96 95
0.00265441 -0.638417 0.214479 103 92 91
0.043696 -0.638085 0.204608 101 89 93
0.0475071 -0.634788 0.203438 108 96 98
0.0495437 -0.634618 0.202949 112 100 102
0.0556731 -0.507422 0.190881 123 64 50
0.0580099 -0.502055 0.189906 126 67 52
0.0632858 -0.496206 0.188237 126 65 49
0.0978051 -0.477661 0.179247 156 96 73
0.145085 -0.537482 0.174239 151 93 72
0.173205 -0.600756 0.173473 157 107 90
0.207484 -0.631642 0.16906 78 74 68
0.26766 -0.638282 0.158194 50 69 76
0.272726 -0.637913 0.157245 22 30 32
-0.12747 -0.63994 0.246472 229 219 224
-0.125203 -0.639517 0.24581 225 215 221
-0.0996405 -0.64048 0.23887 122 112 115
-0.0576368 -0.640528 0.227704 112 103 102
-0.0492509 -0.639523 0.225447 111 102 101
-0.0244099 -0.636665 0.218875 107 97 98
-0.0100004 -0.627373 0.214519 102 93 91
0.0020759 -0.631608 0.211881 100 91 89
0.0143086 -0.634552 0.209138 121 110 109
0.0203193 -0.632424 0.207516 109 100 98
0.0484628 -0.628826 0.200564 89 75 77
0.0539639 -0.532899 0.191636 114 64 49
0.0553031 -0.507551 0.189318 121 64 49
0.0576452 -0.502183 0.188363 125 65 51
0.060227 -0.498774 0.187512 123 65 48
0.0669146 -0.492632 0.185534 131 69 56
0.0796577 -0.479996 0.181751 136 78 59
0.0823273 -0.47839 0.181049 137 79 60
0.0912022 -0.477328 0.179065 146 86 61
0.10115 -0.479897 0.177159 160 95 71
0.201103 -0.628779 0.167861 12 10 10
-0.0601058 -0.639437 0.226048 112 104 100
-0.0267832 -0.632716 0.216984 104 95 96
-0.0205482 -0.628097 0.215061 104 95 96
-0.0121797 -0.608526 0.211471 101 91 92
0.0302716 -0.637174 0.203337 99 87 89
0.0456816 -0.626171 0.198862 88 72 73
0.0550187 -0.543922 0.190468 112 64 51
0.0550531 -0.519752 0.188637 118 63 50
0.0700984 -0.487045 0.182813 136 73 55
0.0715715 -0.48677 0.182467 138 72 57
0.0937386 -0.476719 0.176932 148 89 63
0.098832 -0.47848 0.175981 159 97 73
0.10543 -0.479756 0.174687 160 95 73
0.131476 -0.505155 0.171108 159 96 77
0.234132 -0.628872 0.159229 56 55 51
-0.141546 -0.639711 0.245853 116 106 109
-0.13265 -0.639153 0.243335 125 116 117
-0.130378 -0.638748 0.242677 123 114 114
-0.123808 -0.638438 0.24084 122 112 115
-0.104256 -0.636991 0.235394 132 123 124
-0.0642689 -0.635082 0.224611 110 101 100
-0.0558445 -0.633179 0.22228 109 100 98
-0.043609 -0.63353 0.219151 107 98 96
-0.0167263 -0.616485 0.211113 95 91 88
0.0144954 -0.610892 0.203036 18 4 2
0.0298999 -0.63932 0.2014 63 51 51
0.0708394 -0.484919 0.180923 140 74 60
0.0744209 -0.480147 0.1798 143 78 61
0.0982297 -0.477626 0.174492 158 96 71
0.109143 -0.477636 0.172202 158 96 73
0.146928 -0.535797 0.168282 153 95 73
-0.146926 -0.633238 0.244675 162 150 152
-0.143384 -0.636379 0.243884 138 127 128
-0.126388 -0.638055 0.239278 122 112 115
-0.12413 -0.637618 0.238628 120 111 114
-0.117179 -0.635277 0.236569 120 111 114
-0.0972805 -0.630615 0.230864 133 124 125
-0.0476685 -0.627305 0.21759 105 96 97
-0.0415876 -0.626914 0.216005 95 84 83
0.0334384 -0.638253 0.198298 11 2 1
0.0572365 -0.553863 0.187023 112 69 54
0.0578889 -0.511424 0.184023 118 64 48
0.0640088 -0.491256 0.181296 123 64 50
0.069025 -0.485297 0.179781 136 73 55
0.1005 -0.475979 0.172353 160 95 73
0.101934 -0.475577 0.172025 160 95 73
0.109954 -0.476349 0.170391 159 94 72
-0.143677 -0.635561 0.241663 136 125 124
-0.0726393 -0.628243 0.221981 105 96 97
-0.0617183 -0.621789 0.218717 108 99 97
0.0614891 -0.496775 0.180617 118 58 44
0.0786558 -0.47523 0.175465 144 81 62
0.0914741 -0.472189 0.172503 151 91 66
0.0945665 -0.472416 0.171855 153 93 70
0.111053 -0.476007 0.168586 157 94 72
0.113083 -0.47747 0.168248 156 91 72
0.125644 -0.491267 0.166449 157 92 71
0.1575 -0.557474 0.163728 147 93 73
-0.147491 -0.631595 0.240254 158 146 148
-0.127457 -0.629086 0.234571 119 110 113
-0.117507 -0.622428 0.231469 115 105 106
-0.0300084 -0.6172 0.20819 0 0 0
-0.021645 -0.603724 0.205278 174 169 157
-0.0196677 -0.601828 0.204669 182 175 164
0.0468189 -0.597366 0.188337 108 93 87
0.0758704 -0.477889 0.174699 147 82 63
0.0889837 -0.469732 0.171374 151 91 68
0.0920525 -0.469977 0.170727 150 89 66
0.103565 -0.473025 0.168443 155 93 68
0.105552 -0.474526 0.168106 156 94 69
0.114785 -0.479017 0.166415 153 88 66
0.124661 -0.489466 0.164929 157 92 73
0.153754 -0.548163 0.162088 146 92 74
-0.148031 -0.631718 0.238177 167 156 157
-0.142481 -0.635455 0.236833 127 119 117
-0.13423 -0.628528 0.234194 125 116 117
-0.115889 -0.61284 0.228346 126 114 114
0.00643684 -0.595499 0.195843 44 44 28
0.044246 -0.615727 0.187945 102 89 84
0.0676095 -0.48361 0.175302 135 72 54
0.0701453 -0.481097 0.1746 140 74 58
0.0712052 -0.478853 0.174243 142 77 60
0.080392 -0.47282 0.171892 143 82 62
0.0881618 -0.467877 0.169939 152 92 69
0.0962087 -0.469897 0.168312 158 95 75
0.099568 -0.471039 0.167654 160 95 73
0.151021 -0.541668 0.160458 154 96 74
-0.144538 -0.63305 0.235042 141 133 129
-0.0348547 -0.616137 0.205154 18 61 8
-0.0225573 -0.602943 0.201376 77 115 54
-0.0129276 -0.599361 0.198793 61 101 37
-0.00154167 -0.599595 0.195999 6 28 0
0.0335004 -0.638628 0.189579 29 23 18
0.0394888 -0.636225 0.188036 35 27 23
0.0788503 -0.474194 0.170777 145 82 65
0.0798339 -0.471924 0.170448 143 82 62
0.0989637 -0.470156 0.166214 159 94 70
-0.0861421 -0.587263 0.214952 201 192 181
-0.0190543 -0.598237 0.198237 0 33 0
-0.00578313 -0.594649 0.19478 0 25 0
0.0330032 -0.638732 0.187522 32 24 20
0.0630416 -0.614851 0.179352 124 110 101
0.0633592 -0.550224 0.176243 111 61 48
0.0646876 -0.48823 0.173053 125 64 48
0.0832819 -0.469062 0.168044 145 84 64
0.0928416 -0.465601 0.16581 153 93 70
0.0944962 -0.466188 0.165478 156 96 73
0.0983605 -0.469266 0.164782 157 94 72
0.104552 -0.469547 0.16347 153 91 71
0.150575 -0.537478 0.15669 149 91 72
-0.0311421 -0.602659 0.199436 14 52 3
-0.0118493 -0.592611 0.194184 7 38 0
-0.0062349 -0.592738 0.192805 1 30 0
0.0596091 -0.623362 0.178426 110 100 92
0.0669704 -0.590137 0.175298 105 59 47
0.0654513 -0.567118 0.174661 126 83 70
0.0738882 -0.475258 0.168868 144 80 66
0.0958248 -0.466834 0.163713 159 96 77
0.0974912 -0.467406 0.163377 157 94 72
0.106199 -0.471105 0.161656 153 88 66
0.141901 -0.519295 0.155985 154 94 73
-0.0589118 -0.606075 0.20459 8 48 0
-0.0489427 -0.603221 0.201925 13 51 2
-0.0351148 -0.597477 0.198191 4 45 0
-0.0331668 -0.596623 0.197666 0 40 0
-0.0291874 -0.592896 0.196518 0 38 0
-0.0122576 -0.589693 0.192175 0 13 0
0.0636853 -0.495518 0.170406 110 55 40
0.067676 -0.483623 0.169049 134 70 53
0.0826125 -0.469189 0.165179 144 83 63
0.101637 -0.467215 0.160966 152 90 68
0.118235 -0.475609 0.157721 144 82 59
-0.0708927 -0.604546 0.205565 2 19 0
-0.0414746 -0.600061 0.197871 2 45 0
-0.0126227 -0.584769 0.190108 94 156 55
-0.00524916 -0.582922 0.188226 72 131 34
0.00943236 -0.582865 0.184644 173 163 157
0.0653877 -0.537804 0.16987 106 58 45
0.0711224 -0.479885 0.166588 139 76 59
0.0810936 -0.470552 0.164052 144 81 62
-0.0746364 -0.600064 0.204337 160 154 138
-0.0533196 -0.598963 0.198816 103 156 79
-0.0321043 -0.594899 0.193318 91 159 47
0.00172837 -0.591012 0.184825 56 96 32
0.00368311 -0.596998 0.184539 18 33 0
0.00921991 -0.591922 0.183033 172 164 155
0.0434945 -0.640155 0.176366 140 129 125
0.0675242 -0.486679 0.166058 129 70 54
0.0812041 -0.47255 0.162573 141 81 62
0.0926519 -0.464487 0.159819 151 91 68
0.105457 -0.46701 0.15711 148 83 62
0.106859 -0.466575 0.156796 147 82 59
0.108258 -0.466135 0.156484 145 80 56
0.129112 -0.490759 0.152697 149 86 64
0.140044 -0.512313 0.15095 147 92 70
-0.11327 -0.586219 0.212098 181 168 161
-0.110996 -0.584729 0.211453 204 191 184
-0.074976 -0.599133 0.202357 159 152 136
-0.0556872 -0.5988 0.197386 81 157 38
-0.0520955 -0.601221 0.196537 85 153 39
-0.044402 -0.601004 0.194578 83 134 42
-0.0270272 -0.597309 0.19011 97 130 67
-0.0251388 -0.597413 0.189642 101 125 71
-0.00985964 -0.585976 0.185541 78 143 39
-0.00246384 -0.590067 0.18384 79 140 42
0.00334489 -0.60605 0.182865 55 73 31
0.0305141 -0.639122 0.177234 101 95 91
0.0892863 -0.464311 0.159058 145 84 64
0.136366 -0.502937 0.149802 147 88 69
0.148558 -0.527187 0.147756 144 90 67
-0.0742608 -0.604425 0.200254 112 122 89
0.0216121 -0.635611 0.177104 41 34 32
0.070851 -0.483942 0.162102 132 73 56
0.0719222 -0.481684 0.161811 134 75 59
0.0875633 -0.464713 0.157954 140 80 57
0.114881 -0.464877 0.152006 141 78 56
0.0211158 -0.635656 0.175061 50 46 43
0.0644833 -0.63689 0.164827 74 65 61
0.0886217 -0.464379 0.15622 140 80 57
-0.0635361 -0.621284 0.19364 105 172 67
-0.0259702 -0.628594 0.184294 39 36 30
-0.0078448 -0.62515 0.179766 6 5 0
0.000193711 -0.632184 0.177909 45 41 36
0.00425722 -0.633152 0.176935 41 42 35
0.00628551 -0.633123 0.176441 19 20 13
0.0164271 -0.632858 0.173983 44 42 38
0.0267938 -0.636381 0.171547 40 37 31
0.0388037 -0.632548 0.168626 37 31 29
0.0637385 -0.634943 0.162797 46 38 34
0.0777498 -0.605573 0.159123 96 54 43
0.0800647 -0.473663 0.156759 136 78 59
0.0982657 -0.462654 0.152575 140 80 57
0.101314 -0.462785 0.151908 139 79 56
0.102983 -0.463319 0.151549 139 79 56
-0.0664883 -0.625024 0.192312 0 15 0
-0.059035 -0.630973 0.190481 24 23 14
-0.0466014 -0.628225 0.187309 14 13 7
-0.034731 -0.632154 0.184378 71 70 66
-0.0184847 -0.630948 0.18033 53 51 47
0.0768574 -0.538653 0.156592 114 62 47
0.0865635 -0.46479 0.153697 137 76 56
0.0888474 -0.46212 0.153165 137 76 56
0.0929892 -0.460981 0.152235 141 81 60
0.0957438 -0.460193 0.151619 140 80 57
0.107896 -0.460632 0.148954 138 77 50
0.112027 -0.45926 0.148044 138 76 54
0.126852 -0.475198 0.144947 141 83 62
-0.0250349 -0.630733 0.179803 33 31 27
0.00124542 -0.634218 0.173371 28 27 23
0.0339713 -0.635899 0.165497 33 30 24
0.0500899 -0.632455 0.16165 38 29 25
0.0522245 -0.633231 0.161153 38 29 25
0.0564023 -0.633763 0.160174 39 31 27
0.0834236 -0.471697 0.152942 130 72 51
0.0942997 -0.461567 0.150464 136 78 59
0.0987119 -0.461317 0.149485 137 76 56
0.10941 -0.456885 0.147117 138 76 54
0.116452 -0.459744 0.145592 141 78 56
0.118795 -0.462089 0.145091 143 80 58
-0.128701 -0.622334 0.204151 31 29 27
-0.0703572 -0.63173 0.189044 60 64 56
-0.0683394 -0.631998 0.188531 53 57 47
-0.0134399 -0.63214 0.174801 37 35 33
0.000739957 -0.633229 0.171335 25 24 17
0.017012 -0.633837 0.167393 33 31 27
0.0353714 -0.633763 0.162992 34 28 23
0.0474719 -0.631681 0.160113 32 24 20
0.0720324 -0.630603 0.15435 27 14 9
0.0853948 -0.569428 0.151128 115 65 50
0.0784664 -0.492276 0.152574 121 69 50
0.11212 -0.456918 0.145045 138 76 54
0.126268 -0.470933 0.141948 139 83 64
0.145963 -0.51146 0.137623 136 92 77
-0.126846 -0.630147 0.20148 52 53 48
-0.0726209 -0.629474 0.18746 61 61 57
-0.0502813 -0.630065 0.181809 48 49 42
-0.00381464 -0.633247 0.170293 21 20 16
0.00227292 -0.633212 0.168809 14 13 9
0.0368361 -0.632609 0.160487 24 15 11
0.0686943 -0.624967 0.152984 39 26 21
0.116845 -0.458323 0.14252 142 80 55
-0.100565 -0.633005 0.192441 39 38 31
-0.0944964 -0.634142 0.190871 41 42 35
-0.0469992 -0.633411 0.17882 38 40 32
-0.0409173 -0.633895 0.177298 33 34 27
-0.0306131 -0.631541 0.174745 13 8 5
0.0319439 -0.627928 0.159527 39 31 27
0.0433759 -0.619933 0.156844 37 29 22
0.0530628 -0.616882 0.154569 38 29 25
0.0568881 -0.615409 0.153675 38 27 24
0.0875001 -0.585129 0.146724 93 45 32
0.0823187 -0.47789 0.148591 121 69 50
0.0988013 -0.454742 0.14505 129 71 50
0.10782 -0.454993 0.143046 133 73 50
0.117562 -0.456885 0.140883 141 81 60
-0.151312 -0.637223 0.203445 47 44 38
-0.0557957 -0.634627 0.178854 5 3 0
-0.0167028 -0.62208 0.169245 17 15 11
0.0838047 -0.492838 0.146549 118 66 47
0.0829618 -0.475584 0.146925 119 65 47
0.0925077 -0.454433 0.145 122 65 48
0.116586 -0.454991 0.139635 137 77 54
0.118598 -0.456381 0.139174 143 82 62
0.120293 -0.456819 0.138795 141 83 62
-0.14065 -0.636207 0.198426 56 55 51
-0.125493 -0.63596 0.194475 77 78 73
-0.1239 -0.638394 0.194026 76 76 72
-0.108803 -0.637642 0.19013 34 33 27
0.0854013 -0.501587 0.144451 114 62 43
0.0835161 -0.479457 0.145205 118 66 47
0.0884812 -0.46271 0.144326 129 71 50
0.0891134 -0.459433 0.144232 127 70 51
0.104915 -0.452565 0.140788 132 74 52
-0.13711 -0.637261 0.195261 73 71 67
-0.132566 -0.636369 0.194095 75 75 70
-0.12034 -0.639311 0.190869 1 2 0
-0.0148534 -0.586086 0.165185 108 92 79
0.113613 -0.452612 0.137384 129 68 46
0.0884488 -0.459387 0.141431 128 72 52
0.0910034 -0.452449 0.14101 118 62 43
0.123734 -0.456153 0.133573 135 84 62
0.0906934 -0.515335 0.137938 114 67 51
0.122052 -0.452377 0.132563 136 80 60
0.133755 -0.471296 0.129411 125 78 57
0.0903494 -0.452382 0.138258 120 63 46
0.116052 -0.444918 0.132673 132 73 54
0.0349776 -0.582034 0.145398 156 141 132
0.0900218 -0.45234 0.136883 117 62 47
0.0961982 -0.448407 0.135608 116 62 43
0.0982979 -0.445657 0.135226 125 72 47
0.103586 -0.443919 0.134085 132 73 54
0.109476 -0.443982 0.132748 128 70 51
0.11343 -0.442549 0.131906 128 70 51
0.118709 -0.444811 0.130634 131 75 55
-0.000529824 -0.575881 0.152254 185 168 160
0.0286027 -0.576472 0.145185 161 147 138
0.0344519 -0.580974 0.143614 156 141 130
0.0416031 -0.578244 0.142005 150 134 123
0.088344 -0.46405 0.13536 119 65 47
0.0918611 -0.449581 0.135115 116 62 43
0.0990129 -0.444231 0.133686 129 73 51
-0.058132 -0.583117 0.164234 201 186 178
-0.0393608 -0.579783 0.159706 197 183 172
-0.037394 -0.577912 0.159297 196 182 171
0.0154252 -0.577248 0.146404 172 156 145
0.0392435 -0.577374 0.140669 150 134 123
0.0464269 -0.575556 0.139028 143 127 116
0.0683285 -0.573362 0.13392 129 113 102
0.0933986 -0.445848 0.133478 114 60 42
0.102758 -0.438634 0.131644 132 74 52
0.10889 -0.439641 0.1302 128 70 51
0.120366 -0.442754 0.127454 128 77 53
0.0260252 -0.578457 0.141862 161 147 136
0.0680393 -0.574269 0.13202 134 117 107
0.0914709 -0.450429 0.132277 116 62 43
0.118683 -0.438965 0.126578 124 74 48
0.132337 -0.45485 0.122706 111 70 52
0.101433 -0.556826 0.123101 152 121 113
0.0897569 -0.47351 0.130051 113 61 44
0.0922206 -0.449004 0.130727 114 62 43
0.108603 -0.436227 0.127602 125 70 48
0.116051 -0.436609 0.125875 124 71 48
-0.142989 -0.573949 0.180248 192 180 171
-0.12395 -0.57512 0.175328 199 187 178
-0.120585 -0.577004 0.17437 199 187 178
-0.103005 -0.574886 0.170035 198 186 179
-0.0993996 -0.57563 0.169085 199 187 178
-0.062671 -0.578467 0.159729 199 184 175
-0.0516428 -0.578632 0.15698 196 182 171
-0.0479079 -0.577963 0.15609 197 183 172
-0.0200328 -0.564492 0.149941 192 177 166
-0.00593487 -0.577593 0.14579 186 170 159
0.00863422 -0.577243 0.142263 180 161 151
0.0360919 -0.577303 0.135627 155 138 128
0.0890239 -0.460128 0.129416 114 64 47
0.0924224 -0.450849 0.129133 113 61 42
0.0968724 -0.441134 0.128635 120 66 48
0.0993249 -0.435096 0.128401 134 77 58
0.106367 -0.434744 0.126792 129 73 51
-0.137782 -0.574476 0.176916 196 184 174
-0.126458 -0.575518 0.173977 198 186 179
-0.109727 -0.577518 0.169626 197 185 175
-0.0996528 -0.574548 0.167261 198 186 176
0.0408388 -0.573639 0.132763 150 136 124
0.0466912 -0.576954 0.131167 147 130 122
0.0486247 -0.577712 0.13066 145 129 119
0.0607231 -0.570939 0.128159 136 120 109
0.12493 -0.43799 0.120912 121 75 52
-0.139202 -0.570963 0.175526 195 183 173
-0.126915 -0.575409 0.172131 198 186 179
-0.108156 -0.576833 0.167309 199 187 178
-0.0983031 -0.574799 0.16496 197 185 175
-0.0927048 -0.574852 0.163553 200 186 174
-0.057883 -0.576883 0.154749 200 185 176
-0.0561787 -0.578066 0.154253 199 184 173
-0.0542535 -0.577254 0.153827 199 184 173
-0.0524375 -0.577428 0.153366 199 184 173
-0.0506207 -0.577594 0.152906 197 183 172
-0.0174182 -0.566357 0.145428 193 177 164
0.0531837 -0.572904 0.127923 143 127 116
0.0928139 -0.454521 0.125903 112 63 45
0.0936419 -0.452196 0.125855 111 62 44
0.099683 -0.433563 0.12562 134 81 58
0.11632 -0.431655 0.121875 123 69 46
-0.119433 -0.574208 0.168358 196 184 174
-0.110859 -0.578267 0.165931 197 185 175
-0.106588 -0.576131 0.165001 197 185 175
-0.0528846 -0.577312 0.151546 199 184 173
-0.0231415 -0.565127 0.145024 193 179 167
-0.00181397 -0.574198 0.139213 184 167 157
0.0108864 -0.574763 0.136086 179 160 150
0.0941237 -0.449782 0.124442 111 59 42
0.0983752 -0.434863 0.124446 130 76 55
0.113111 -0.43164 0.121221 122 66 44
-0.151095 -0.574701 0.174345 188 179 168
-0.146911 -0.573906 0.173343 190 180 170
-0.125774 -0.574667 0.167961 195 183 173
-0.0660246 -0.575816 0.152963 199 184 175
-0.0253003 -0.563955 0.143751 194 180 169
0.106404 -0.429733 0.121529 127 71 49
0.113737 -0.430124 0.119784 120 67 46
0.129158 -0.435532 0.115799 122 77 58
-0.103462 -0.57468 0.160413 196 184 174
-0.0982432 -0.576742 0.158958 197 183 172
-0.0759593 -0.577449 0.153365 201 186 178
-0.0117617 -0.575033 0.137739 187 171 161
0.00635569 -0.573674 0.133421 181 162 152
0.019119 -0.574976 0.130224 168 154 143
0.0209871 -0.575843 0.129707 167 153 142
0.0228627 -0.576702 0.129188 166 150 140
0.0247457 -0.577553 0.128669 164 149 140
0.0939634 -0.456694 0.121053 107 60 44
0.0968541 -0.441234 0.121529 109 59 42
0.113421 -0.43003 0.118471 121 68 47
-0.154115 -0.57481 0.171126 187 174 167
-0.124633 -0.573887 0.163807 192 180 171
-0.113357 -0.57454 0.160939 195 183 171
-0.101904 -0.57393 0.158133 196 184 172
-0.0968826 -0.576949 0.156647 196 184 172
-0.0823387 -0.579455 0.15284 200 185 176
-0.0616041 -0.577171 0.147889 200 185 176
-0.0450442 -0.576684 0.143845 196 182 171
-0.0244401 -0.564745 0.139718 192 177 166
-0.0139946 -0.573894 0.136448 189 172 162
-0.0122033 -0.574896 0.135932 189 172 160
-0.00131576 -0.575763 0.133207 183 166 156
0.011314 -0.57229 0.130402 173 159 148
0.0279555 -0.577105 0.125987 160 146 135
0.0297118 -0.575947 0.125652 161 144 134
0.0532345 -0.572139 0.120265 143 127 116
0.062415 -0.571711 0.118088 139 122 112
0.0996792 -0.57004 0.109289 182 163 154
0.0960489 -0.444411 0.120044 108 58 41
0.100291 -0.434647 0.119811 133 80 57
0.101579 -0.434199 0.119541 133 80 57
0.109903 -0.429049 0.117982 123 69 46
0.116229 -0.426563 0.116688 122 71 48
-0.15097 -0.575797 0.168268 185 173 166
-0.121242 -0.573667 0.161018 194 181 172
-0.117407 -0.57356 0.160072 194 181 172
-0.0695843 -0.578145 0.147835 200 185 179
-0.0658119 -0.577601 0.146948 200 185 179
-0.0472134 -0.575408 0.142547 196 182 171
-0.0285783 -0.567477 0.138623 195 181 170
-0.0213258 -0.564691 0.137075 190 177 163
0.0546043 -0.571727 0.118042 142 125 115
0.0640671 -0.573228 0.115636 137 121 110
0.0945969 -0.461251 0.117556 105 57 44
0.102245 -0.4327 0.118105 132 79 56
0.106085 -0.431312 0.117309 127 74 51
0.127273 -0.429172 0.112474 128 79 57
-0.152627 -0.573171 0.16692 183 171 163
-0.132493 -0.577977 0.161483 190 178 168
-0.106397 -0.57289 0.155441 194 181 172
-0.102594 -0.572653 0.154518 194 182 170
-0.097393 -0.574688 0.153054 195 183 171
-0.0810939 -0.577462 0.148783 199 184 175
-0.0365628 -0.572979 0.138209 195 181 172
-0.021758 -0.564542 0.135308 190 177 163
-0.0183677 -0.569583 0.134044 188 174 163
0.0251807 -0.575972 0.122879 164 150 138
0.0342119 -0.574117 0.120847 158 144 133
0.039661 -0.573512 0.119578 154 137 127
0.101926 -0.43259 0.116792 132 79 56
0.118318 -0.422034 0.113813 127 76 50
0.122243 -0.424655 0.112652 130 79 56
-0.0853428 -0.57772 0.147854 196 184 172
-0.0795661 -0.576586 0.146532 199 184 173
-0.0703403 -0.576842 0.144236 199 184 173
-0.0647586 -0.576508 0.142892 199 184 175
-0.0629425 -0.576712 0.142427 199 184 175
-0.0574884 -0.577279 0.141035 199 184 175
-0.0537428 -0.576627 0.140173 197 183 174
-0.0480063 -0.574102 0.138992 195 183 171
-0.0351315 -0.571917 0.136031 193 179 167
-0.0204161 -0.564419 0.133105 188 174 163
0.041035 -0.573136 0.117348 152 136 126
0.0539648 -0.573387 0.114191 143 126 118
0.057855 -0.574796 0.113122 139 125 116
0.0989105 -0.437592 0.11566 114 64 45
0.102889 -0.432018 0.115215 128 75 52
0.129176 -0.427822 0.109322 122 76 55
-0.13495 -0.576193 0.15829 187 172 166
-0.0686965 -0.574922 0.142066 197 183 174
-0.0540813 -0.575468 0.138424 197 183 172
0.026118 -0.575487 0.118822 166 150 140
0.0424084 -0.572745 0.115121 151 137 126
0.0515881 -0.572503 0.112915 145 129 121
0.0552159 -0.571959 0.112086 142 125 117
0.111928 -0.556428 0.0998427 146 119 108
0.0955717 -0.451976 0.113681 100 55 36
0.099596 -0.436081 0.114221 115 66 46
0.121782 -0.421134 0.110319 133 80 55
-0.151588 -0.577592 0.160281 181 169 159
-0.102339 -0.573487 0.148538 193 179 167
-0.0727575 -0.57429 0.141185 196 184 172
-0.0673301 -0.574965 0.139786 197 183 174
-0.0379557 -0.573475 0.132731 194 179 171
-0.0161158 -0.570114 0.127718 188 174 163
0.0402443 -0.573783 0.113613 152 136 126
0.0476225 -0.573829 0.111814 148 131 121
0.100569 -0.435504 0.11263 117 68 48
0.101566 -0.434109 0.112527 126 74 53
0.10481 -0.430842 0.112068 122 71 48
0.107047 -0.428959 0.111715 121 68 47
0.109871 -0.424712 0.111455 118 64 44
-0.100983 -0.573656 0.146238 193 178 170
-0.097179 -0.573359 0.145334 191 179 170
-0.0694452 -0.573577 0.138506 197 183 174
-0.0454465 -0.570867 0.132904 194 179 171
-0.0436481 -0.570988 0.132451 194 179 171
-0.0327826 -0.570565 0.129835 193 179 167
0.0105775 -0.574201 0.118867 173 157 147
0.0232954 -0.573305 0.115857 169 152 142
0.0251716 -0.574139 0.115314 165 148 140
0.0434387 -0.573146 0.110964 150 135 126
0.0975671 -0.445654 0.110899 102 55 34
0.101541 -0.434916 0.111041 120 68 49
0.105456 -0.429305 0.11067 120 69 47
0.129239 -0.422669 0.105603 126 74 53
-0.150095 -0.575852 0.1561 180 167 158
-0.13784 -0.574183 0.15327 182 167 161
-0.111088 -0.574554 0.146668 189 175 166
-0.101427 -0.573466 0.144416 190 176 167
-0.0994243 -0.572832 0.143993 190 176 167
-0.0923954 -0.575116 0.142026 192 180 171
-0.0874792 -0.578967 0.140411 194 179 171
-0.0460641 -0.572664 0.130943 194 179 171
-0.0116459 -0.572722 0.122521 183 169 160
0.00650057 -0.574202 0.11793 176 159 149
0.0429963 -0.572957 0.109155 148 131 121
0.0468416 -0.574444 0.108059 144 129 121
0.118526 -0.418533 0.10725 129 73 51
0.120994 -0.417468 0.106765 131 78 55
-0.13261 -0.574472 0.149982 183 169 160
-0.106109 -0.575484 0.143386 187 172 164
-0.102076 -0.574245 0.142537 188 174 165
-0.0982634 -0.57395 0.141637 189 174 168
-0.096071 -0.572321 0.141281 190 176 167
-0.0928402 -0.574918 0.140203 190 176 167
-0.0861012 -0.579055 0.138097 193 179 167
-0.0616511 -0.577173 0.132326 194 179 171
-0.0577781 -0.575549 0.131559 194 179 171
-0.0012131 -0.574298 0.117871 177 160 152
0.00422474 -0.573096 0.116675 172 156 145
0.00782881 -0.571929 0.115923 169 152 144
0.0278591 -0.572426 0.110974 162 145 137
0.0370118 -0.572445 0.108736 157 140 132
0.0810714 -0.569131 0.0983413 152 136 124
0.110423 -0.52169 0.0964297 82 39 24
-0.113784 -0.573759 0.143494 185 170 161
-0.0397917 -0.573699 0.125433 185 170 161
-0.038052 -0.574784 0.124884 185 170 161
0.00195855 -0.571977 0.115427 180 165 157
0.0147061 -0.573273 0.112161 169 155 146
0.0165655 -0.574136 0.111607 168 154 145
0.0237301 -0.57157 0.11015 166 151 145
0.103128 -0.567561 0.091179 182 163 152
0.103835 -0.431221 0.106655 115 66 44
0.119647 -0.415361 0.1046 128 75 54
-0.164046 -0.571232 0.154058 169 157 147
-0.141548 -0.574979 0.148144 178 163 154
-0.121917 -0.573846 0.143502 180 167 158
-0.00933086 -0.571078 0.116367 182 168 159
0.014265 -0.573062 0.110359 168 154 145
0.0362118 -0.573018 0.104991 130 115 109
0.0560631 -0.569251 0.100574 141 124 116
0.0578707 -0.568954 0.100166 138 124 115
0.102135 -0.435746 0.105129 107 57 38
0.107966 -0.423087 0.105197 115 64 43
0.118108 -0.415746 0.103572 127 71 49
0.130943 -0.418559 0.100078 129 78 55
0.132959 -0.419773 0.0994375 128 79 55
-0.118277 -0.572521 0.140813 173 160 153
-0.112191 -0.570799 0.139546 179 164 158
-0.108163 -0.569606 0.138714 178 166 157
-0.0758602 -0.576042 0.130066 192 180 173
0.109564 -0.509669 0.0927959 74 31 16
0.105455 -0.424828 0.104224 113 61 42
0.117795 -0.415593 0.102306 124 71 48
0.124655 -0.414696 0.100719 130 76 53
0.131477 -0.41692 0.0987577 123 73 49
-0.118482 -0.571324 0.139053 182 170 160
-0.0211151 -0.572663 0.115196 185 170 161
-0.00840009 -0.570605 0.112349 180 165 157
0.000641576 -0.571325 0.110044 174 159 153
0.00246473 -0.572241 0.109481 172 157 149
0.0533715 -0.569097 0.0973858 140 125 119
0.100422 -0.44619 0.101378 98 50 37
0.104148 -0.430274 0.102471 108 59 39
0.105118 -0.428866 0.102409 109 60 40
0.112559 -0.417512 0.102 120 67 46
0.119066 -0.415815 0.100598 125 72 49
0.123114 -0.415092 0.0996835 134 81 58
0.134805 -0.418263 0.0963745 122 82 64
-0.0106738 -0.572389 0.110744 179 164 156
-0.00884869 -0.571365 0.110432 178 163 154
0.0257158 -0.572325 0.101831 149 134 127
0.0312425 -0.572751 0.100417 147 132 126
0.104243 -0.475661 0.0951053 95 50 35
0.105445 -0.426359 0.101251 107 57 38
-0.0657381 -0.572684 0.122192 133 118 116
-0.0274793 -0.573104 0.11282 175 160 154
-0.0219538 -0.5712 0.111728 181 166 160
-0.00931104 -0.573109 0.108378 175 160 154
0.0143941 -0.573997 0.102446 156 140 136
0.0291154 -0.574678 0.0987347 153 138 132
0.0102731 -0.573009 0.101648 165 150 144
0.0282926 -0.575158 0.0949571 159 144 136
0.0429374 -0.573386 0.091594 151 136 130
