^C:\USERS\USER\DOCUMENTS\GITHUB\RMUNITY\HOLOLENS2-RESEARCHMODE-UNITY\HL2UNITYPLUGIN\HL2RESEARCHMODE.IDL
C:\USERS\USER\DOCUMENTS\GITHUB\RMUNITY\HOLOLENS2-RESEARCHMODE-UNITY\HL2UNITYPLUGIN\ARM64\RELEASE\HL2UNITYPLUGIN.VCXPROJ.MIDLRT.RSP
C:\WINDOWS\GLOBALIZATION\SORTING\SORTDEFAULT.NLS
C:\PROGRAM FILES\MICROSOFT VISUAL STUDIO\2022\COMMUNITY\VC\TOOLS\MSVC\14.36.32532\BIN\HOSTX86\ARM64\1033\CLUI.DLL
C:\WINDOWS\SYSTEM32\TZRES.DLL
C:\PROGRAM FILES (X86)\WINDOWS KITS\10\INCLUDE\10.0.18362.0\WINRT\MIDLBASE.IDL
C:\PROGRAM FILES (X86)\WINDOWS KITS\10\INCLUDE\10.0.18362.0\WINRT\WINRTBASE.IDL
C:\PROGRAM FILES (X86)\WINDOWS KITS\10\REFERENCES\10.0.18362.0\WINDOWS.AI.MACHINELEARNING.MACHINELEARNINGCONTRACT\2.0.0.0\WINDOWS.AI.MACHINELEARNING.MACHINELEARNINGCONTRACT.WINMD
C:\PROGRAM FILES (X86)\WINDOWS KITS\10\REFERENCES\10.0.18362.0\WINDOWS.AI.MACHINELEARNING.PREVIEW.MACHINELEARNINGPREVIEWCONTRACT\2.0.0.0\WINDOWS.AI.MACHINELEARNING.PREVIEW.MACHINELEARNINGPREVIEWCONTRACT.WINMD
C:\PROGRAM FILES (X86)\WINDOWS KITS\10\REFERENCES\10.0.18362.0\WINDOWS.APPLICATIONMODEL.CALLS.BACKGROUND.CALLSBACKGROUNDCONTRACT\2.0.0.0\WINDOWS.APPLICATIONMODEL.CALLS.BACKGROUND.CALLSBACKGROUNDCONTRACT.WINMD
C:\PROGRAM FILES (X86)\WINDOWS KITS\10\REFERENCES\10.0.18362.0\WINDOWS.APPLICATIONMODEL.CALLS.CALLSPHONECONTRACT\5.0.0.0\WINDOWS.APPLICATIONMODEL.CALLS.CALLSPHONECONTRACT.WINMD
C:\PROGRAM FILES (X86)\WINDOWS KITS\10\REFERENCES\10.0.18362.0\WINDOWS.APPLICATIONMODEL.CALLS.CALLSVOIPCONTRACT\4.0.0.0\WINDOWS.APPLICATIONMODEL.CALLS.CALLSVOIPCONTRACT.WINMD
C:\PROGRAM FILES (X86)\WINDOWS KITS\10\REFERENCES\10.0.18362.0\WINDOWS.APPLICATIONMODEL.COMMUNICATIONBLOCKING.COMMUNICATIONBLOCKINGCONTRACT\2.0.0.0\WINDOWS.APPLICATIONMODEL.COMMUNICATIONBLOCKING.COMMUNICATIONBLOCKINGCONTRACT.WINMD
C:\PROGRAM FILES (X86)\WINDOWS KITS\10\REFERENCES\10.0.18362.0\WINDOWS.APPLICATIONMODEL.SOCIALINFO.SOCIALINFOCONTRACT\2.0.0.0\WINDOWS.APPLICATIONMODEL.SOCIALINFO.SOCIALINFOCONTRACT.WINMD
C:\PROGRAM FILES (X86)\WINDOWS KITS\10\REFERENCES\10.0.18362.0\WINDOWS.APPLICATIONMODEL.STARTUPTASKCONTRACT\3.0.0.0\WINDOWS.APPLICATIONMODEL.STARTUPTASKCONTRACT.WINMD
C:\PROGRAM FILES (X86)\WINDOWS KITS\10\REFERENCES\10.0.18362.0\WINDOWS.DEVICES.CUSTOM.CUSTOMDEVICECONTRACT\1.0.0.0\WINDOWS.DEVICES.CUSTOM.CUSTOMDEVICECONTRACT.WINMD
C:\PROGRAM FILES (X86)\WINDOWS KITS\10\REFERENCES\10.0.18362.0\WINDOWS.DEVICES.DEVICESLOWLEVELCONTRACT\3.0.0.0\WINDOWS.DEVICES.DEVICESLOWLEVELCONTRACT.WINMD
C:\PROGRAM FILES (X86)\WINDOWS KITS\10\REFERENCES\10.0.18362.0\WINDOWS.DEVICES.PRINTERS.PRINTERSCONTRACT\1.0.0.0\WINDOWS.DEVICES.PRINTERS.PRINTERSCONTRACT.WINMD
C:\PROGRAM FILES (X86)\WINDOWS KITS\10\REFERENCES\10.0.18362.0\WINDOWS.DEVICES.SMARTCARDS.SMARTCARDBACKGROUNDTRIGGERCONTRACT\3.0.0.0\WINDOWS.DEVICES.SMARTCARDS.SMARTCARDBACKGROUNDTRIGGERCONTRACT.WINMD
C:\PROGRAM FILES (X86)\WINDOWS KITS\10\REFERENCES\10.0.18362.0\WINDOWS.DEVICES.SMARTCARDS.SMARTCARDEMULATORCONTRACT\6.0.0.0\WINDOWS.DEVICES.SMARTCARDS.SMARTCARDEMULATORCONTRACT.WINMD
C:\PROGRAM FILES (X86)\WINDOWS KITS\10\REFERENCES\10.0.18362.0\WINDOWS.FOUNDATION.FOUNDATIONCONTRACT\3.0.0.0\WINDOWS.FOUNDATION.FOUNDATIONCONTRACT.WINMD
C:\PROGRAM FILES (X86)\WINDOWS KITS\10\REFERENCES\10.0.18362.0\WINDOWS.FOUNDATION.UNIVERSALAPICONTRACT\8.0.0.0\WINDOWS.FOUNDATION.UNIVERSALAPICONTRACT.WINMD
C:\PROGRAM FILES (X86)\WINDOWS KITS\10\REFERENCES\10.0.18362.0\WINDOWS.GAMING.XBOXLIVE.STORAGEAPICONTRACT\1.0.0.0\WINDOWS.GAMING.XBOXLIVE.STORAGEAPICONTRACT.WINMD
C:\PROGRAM FILES (X86)\WINDOWS KITS\10\REFERENCES\10.0.18362.0\WINDOWS.GRAPHICS.PRINTING3D.PRINTING3DCONTRACT\4.0.0.0\WINDOWS.GRAPHICS.PRINTING3D.PRINTING3DCONTRACT.WINMD
C:\PROGRAM FILES (X86)\WINDOWS KITS\10\REFERENCES\10.0.18362.0\WINDOWS.NETWORKING.CONNECTIVITY.WWANCONTRACT\2.0.0.0\WINDOWS.NETWORKING.CONNECTIVITY.WWANCONTRACT.WINMD
C:\PROGRAM FILES (X86)\WINDOWS KITS\10\REFERENCES\10.0.18362.0\WINDOWS.NETWORKING.SOCKETS.CONTROLCHANNELTRIGGERCONTRACT\3.0.0.0\WINDOWS.NETWORKING.SOCKETS.CONTROLCHANNELTRIGGERCONTRACT.WINMD
C:\PROGRAM FILES (X86)\WINDOWS KITS\10\REFERENCES\10.0.18362.0\WINDOWS.SERVICES.MAPS.GUIDANCECONTRACT\3.0.0.0\WINDOWS.SERVICES.MAPS.GUIDANCECONTRACT.WINMD
C:\PROGRAM FILES (X86)\WINDOWS KITS\10\REFERENCES\10.0.18362.0\WINDOWS.SERVICES.MAPS.LOCALSEARCHCONTRACT\4.0.0.0\WINDOWS.SERVICES.MAPS.LOCALSEARCHCONTRACT.WINMD
C:\PROGRAM FILES (X86)\WINDOWS KITS\10\REFERENCES\10.0.18362.0\WINDOWS.SERVICES.STORE.STORECONTRACT\4.0.0.0\WINDOWS.SERVICES.STORE.STORECONTRACT.WINMD
C:\PROGRAM FILES (X86)\WINDOWS KITS\10\REFERENCES\10.0.18362.0\WINDOWS.SERVICES.TARGETEDCONTENT.TARGETEDCONTENTCONTRACT\1.0.0.0\WINDOWS.SERVICES.TARGETEDCONTENT.TARGETEDCONTENTCONTRACT.WINMD
C:\PROGRAM FILES (X86)\WINDOWS KITS\10\REFERENCES\10.0.18362.0\WINDOWS.SYSTEM.PROFILE.PROFILEHARDWARETOKENCONTRACT\1.0.0.0\WINDOWS.SYSTEM.PROFILE.PROFILEHARDWARETOKENCONTRACT.WINMD
C:\PROGRAM FILES (X86)\WINDOWS KITS\10\REFERENCES\10.0.18362.0\WINDOWS.SYSTEM.PROFILE.PROFILESHAREDMODECONTRACT\2.0.0.0\WINDOWS.SYSTEM.PROFILE.PROFILESHAREDMODECONTRACT.WINMD
C:\PROGRAM FILES (X86)\WINDOWS KITS\10\REFERENCES\10.0.18362.0\WINDOWS.SYSTEM.PROFILE.SYSTEMMANUFACTURERS.SYSTEMMANUFACTURERSCONTRACT\3.0.0.0\WINDOWS.SYSTEM.PROFILE.SYSTEMMANUFACTURERS.SYSTEMMANUFACTURERSCONTRACT.WINMD
C:\PROGRAM FILES (X86)\WINDOWS KITS\10\REFERENCES\10.0.18362.0\WINDOWS.SYSTEM.SYSTEMMANAGEMENTCONTRACT\6.0.0.0\WINDOWS.SYSTEM.SYSTEMMANAGEMENTCONTRACT.WINMD
C:\PROGRAM FILES (X86)\WINDOWS KITS\10\REFERENCES\10.0.18362.0\WINDOWS.UI.VIEWMANAGEMENT.VIEWMANAGEMENTVIEWSCALINGCONTRACT\1.0.0.0\WINDOWS.UI.VIEWMANAGEMENT.VIEWMANAGEMENTVIEWSCALINGCONTRACT.WINMD
C:\PROGRAM FILES (X86)\WINDOWS KITS\10\REFERENCES\10.0.18362.0\WINDOWS.UI.XAML.CORE.DIRECT.XAMLDIRECTCONTRACT\2.0.0.0\WINDOWS.UI.XAML.CORE.DIRECT.XAMLDIRECTCONTRACT.WINMD
