ply
format ascii 1.0
comment Generated by Floating Hands
element vertex 2060
property double x
property double y
property double z
property uchar red
property uchar green
property uchar blue
end_header
0.03240126 0.03163493 0.4970426 0 0 0
0.02651905 0.0318793 0.4860617 0 0 0
0.03072314 0.03107343 0.487988 0 0 0
0.03773917 0.03004365 0.4877716 0 0 0
0.04226357 0.02877228 0.495544 0 0 0
0.1204076 0.0223753 0.4774198 0 0 0
0.02362995 0.03135286 0.479982 0 0 0
0.03327671 0.02969993 0.4818185 0 0 0
0.03611135 0.02903466 0.4847153 0 0 0
0.1068866 0.02132525 0.4825752 0 0 0
0.1130907 0.02244741 0.465786 0 0 0
0.1144242 0.02239048 0.4654505 0 0 0
0.1173354 0.0221763 0.4657278 0 0 0
0.1269372 0.0212649 0.4692901 0 0 0
0.1076064 0.02066824 0.4730725 0 0 0
0.1083038 0.02092943 0.4698493 0 0 0
0.1236103 0.02114693 0.4576699 0 0 0
0.1302435 0.02046118 0.4609066 0 0 0
0.02877897 0.02835697 0.4717044 0 0 0
0.03151634 0.02757502 0.4756269 0 0 0
0.03429505 0.02688817 0.4785325 0 0 0
0.03862463 0.02562326 0.4853371 0 0 0
0.04458244 0.02406774 0.4930008 0 0 0
0.1104382 0.01957705 0.4671292 0 0 0
0.0151794 0.0291403 0.4715745 0 0 0
0.01781406 0.02850136 0.4736049 0 0 0
0.02333423 0.0285503 0.4636686 0 0 0
0.02466421 0.02852873 0.4616701 0 0 0
0.1091896 0.01873033 0.4621488 0 0 0
0.1153029 0.01868761 0.4585635 0 0 0
0.1166135 0.01863884 0.4582187 0 0 0
0.1202774 0.01862744 0.4561979 0 0 0
0.1213149 0.01870884 0.4548783 0 0 0
0.137417 0.01819259 0.4520571 0 0 0
0.1393301 0.01794354 0.4535165 0 0 0
0.007018307 0.02925958 0.4702092 0 0 0
0.009842393 0.02904964 0.4673238 0 0 0
0.03233652 0.02616089 0.4593993 0 0 0
0.09044481 0.01842719 0.4660102 0 0 0
0.1434458 0.01639325 0.4529877 205 205 205
0.1480035 0.01514651 0.4619096 205 205 205
1.471813E-05 0.02894122 0.4717255 0 0 0
0.005697188 0.02839431 0.4670334 0 0 0
0.006966978 0.02805658 0.4680832 0 0 0
0.009679484 0.0276696 0.4671862 0 0 0
0.01233649 0.02719806 0.4672635 0 0 0
0.03077153 0.02615681 0.4483585 0 0 0
0.03470726 0.02484928 0.4551958 0 0 0
0.0402262 0.02302962 0.4648982 0 0 0
0.04852201 0.01879876 0.4942575 0 0 0
0.08970329 0.01905473 0.4477856 0 0 0
0.1131624 0.01747492 0.4454301 0 0 0
0.1249116 0.01641349 0.4483144 205 205 205
0.1385537 0.01638895 0.4429396 205 205 205
-0.003597957 0.0272325 0.4803442 0 0 0
0.02439119 0.0266739 0.4403742 0 0 0
0.03058716 0.02528178 0.4442427 0 0 0
0.03967921 0.02289097 0.4538271 0 0 0
0.08452284 0.01625402 0.4647104 205 205 205
0.09030012 0.01800743 0.4444588 0 0 0
0.1081096 0.0175257 0.4363203 0 0 0
0.1262235 0.0155119 0.4435916 205 205 205
0.1297013 0.01558906 0.4414768 205 205 205
0.1448214 0.01449745 0.4447652 205 205 205
0.001602126 0.02668542 0.4635711 0 0 0
0.01922553 0.02577156 0.4442147 0 0 0
0.0254778 0.02520081 0.4402213 0 0 0
0.03042462 0.02421305 0.4421124 0 0 0
0.03416513 0.02354662 0.4429852 0 0 0
0.08098637 0.01465981 0.4691434 205 205 205
0.08892805 0.01676013 0.4445519 0 0 0
0.09018736 0.01667435 0.4443019 0 0 0
0.09356603 0.01669682 0.4415821 0 0 0
0.09749511 0.01707574 0.4356484 0 0 0
0.1113852 0.01684432 0.429119 0 0 0
0.118471 0.01496757 0.440515 205 205 205
0.1244397 0.01378633 0.4470356 205 205 205
0.1254314 0.0138969 0.4457065 205 205 205
0.1283551 0.01424382 0.441705 205 205 205
0.002750512 0.02507298 0.4634894 0 0 0
0.01515837 0.02456901 0.4489919 0 0 0
0.02046855 0.02505863 0.4371198 0 0 0
0.03785231 0.02136062 0.4456507 0 0 0
0.0431101 0.02006139 0.4503242 0 0 0
0.04438468 0.01989249 0.4502407 0 0 0
0.07758708 0.01400498 0.4654795 205 205 205
0.08460198 0.01512071 0.4502282 205 205 205
0.08664045 0.0153361 0.4468272 205 205 205
0.09325801 0.01550928 0.4404498 205 205 205
0.1162351 0.01474331 0.4327206 205 205 205
-0.002681885 0.02472793 0.4630282 0 0 0
2.702449E-05 0.02432087 0.462199 0 0 0
0.005155145 0.0231081 0.464448 0 0 0
0.01087656 0.02314771 0.4557022 0 0 0
0.01381936 0.02370707 0.44683 0 0 0
0.04419389 0.01869552 0.4490906 0 0 0
0.04551934 0.01840196 0.4499927 0 0 0
0.07703467 0.01301086 0.4623636 205 205 205
0.07807375 0.0131679 0.4601943 205 205 205
0.08223373 0.01369472 0.4524714 205 205 205
0.08319864 0.01386973 0.4502903 205 205 205
0.09084006 0.01420834 0.4417742 205 205 205
0.1025332 0.01539112 0.4249164 205 205 205
0.1037227 0.01534039 0.4246173 205 205 205
0.1096551 0.01512036 0.4230575 205 205 205
0.1110981 0.01493926 0.4236878 205 205 205
0.13629 0.01175341 0.4366357 205 205 205
0.1384407 0.01190248 0.4348513 205 205 205
0.1555486 0.009588218 0.4465061 205 205 205
0.1582707 0.009040191 0.4496981 205 205 205
-0.008446958 0.02235459 0.4794121 0 0 0
0.005113834 0.02196795 0.4623017 0 0 0
0.006548202 0.02195109 0.4603719 0 0 0
0.01386743 0.02299236 0.4417119 0 0 0
0.02383874 0.02193629 0.4368056 0 0 0
0.02628006 0.02142511 0.4377669 0 0 0
0.03503005 0.01924226 0.4444572 0 0 0
0.04282671 0.01741573 0.4500006 0 0 0
0.04532497 0.01721012 0.4488379 0 0 0
0.0492705 0.01645868 0.4505227 205 205 205
0.05211852 0.01561017 0.4542563 205 205 205
0.08013054 0.01198346 0.4566513 205 205 205
0.09674995 0.01345507 0.4332206 205 205 205
0.1401516 0.01086846 0.4319428 205 205 205
0.1514986 0.008720382 0.4435893 205 205 205
0.1629725 0.006792155 0.454002 205 205 205
-0.001543583 0.02197911 0.460804 0 0 0
0.006562131 0.02095342 0.4572311 0 0 0
0.01770157 0.02217539 0.4326791 0 0 0
0.01888186 0.02184833 0.43368 0 0 0
0.02736109 0.0199672 0.4375844 0 0 0
0.02983882 0.01920431 0.4405006 0 0 0
0.05472642 0.01368117 0.4558149 205 205 205
0.07728839 0.007019563 0.4859443 205 205 205
0.07666743 0.009051707 0.4710284 205 205 205
0.09356807 0.01192476 0.4367639 205 205 205
0.09562483 0.01207951 0.4342886 205 205 205
0.101596 0.01260844 0.4267973 205 205 205
0.1035198 0.01280574 0.4242796 205 205 205
0.110903 0.01239668 0.4233471 205 205 205
0.1127441 0.01263247 0.4207784 205 205 205
0.1173834 0.01193943 0.4235498 205 205 205
0.1280455 0.009403417 0.4368269 205 205 205
0.1314586 0.009523632 0.4346928 205 205 205
0.1339242 0.009514142 0.4338765 205 205 205
0.1360632 0.009666783 0.4321077 205 205 205
0.003665608 0.01986185 0.4589319 0 0 0
0.008375667 0.02083939 0.4452167 0 0 0
0.009893978 0.02122346 0.4403026 0 0 0
0.01127667 0.0213703 0.4373652 0 0 0
0.01631212 0.02101308 0.4334971 0 0 0
0.01755297 0.02093245 0.4325186 0 0 0
0.01994445 0.02039839 0.4335228 0 0 0
0.02235208 0.01987037 0.4345092 0 0 0
0.02844636 0.01837989 0.4383832 0 0 0
0.03348573 0.0168345 0.4441728 0 0 0
0.03860605 0.01570751 0.4469118 205 205 205
0.05885428 0.0113069 0.459175 205 205 205
0.06054817 0.01058425 0.4629704 205 205 205
0.08249255 0.009028059 0.455836 205 205 205
0.08573734 0.009327788 0.4512341 205 205 205
0.09975341 0.01098606 0.43009 205 205 205
0.1036532 0.01138517 0.4250626 205 205 205
0.1285922 0.008363119 0.4343614 205 205 205
0.1301281 0.008196034 0.4349056 205 205 205
0.14242 0.008221371 0.4306903 205 205 205
0.1547649 0.006168058 0.4408267 205 205 205
0.1676619 0.003041351 0.4580304 205 205 205
-0.01143551 0.01900835 0.4756947 0 0 0
0.002336767 0.01901283 0.4567139 0 0 0
0.005450015 0.01951696 0.4489112 0 0 0
0.01495094 0.01997733 0.4333143 0 0 0
0.02100777 0.01895082 0.4333557 0 0 0
0.0283093 0.01670387 0.4411845 0 0 0
0.03590129 0.01489863 0.4458707 205 205 205
0.04248454 0.01317171 0.4514542 205 205 205
0.04505551 0.01283123 0.451279 205 205 205
0.08063286 0.005689952 0.470967 205 205 205
0.08139851 0.006187382 0.4668344 205 205 205
0.09457754 0.009243367 0.43613 205 205 205
0.1101866 0.01017733 0.4210815 205 205 205
0.1117513 0.0105891 0.4175677 205 205 205
0.120182 0.009641249 0.4202223 205 205 205
0.1222355 0.009143631 0.4226868 205 205 205
0.135558 0.007165197 0.4307916 205 205 205
0.1454635 0.006601427 0.4314485 205 205 205
-0.0127663 0.01812658 0.4734178 0 0 0
-0.005894787 0.01884072 0.4590287 0 0 0
-0.0004265306 0.01817998 0.4563965 0 0 0
0.01367335 0.01921001 0.4311419 0 0 0
0.02083907 0.01756889 0.4341746 0 0 0
0.02569207 0.01636709 0.4370975 205 205 205
0.06282743 0.007684285 0.4612913 205 205 205
0.08538498 0.003133954 0.474942 205 205 205
0.09466506 0.007779891 0.4369057 205 205 205
0.09569986 0.007869803 0.4356661 205 205 205
0.09693623 0.007801023 0.435388 205 205 205
0.09853715 0.008317723 0.4309682 205 205 205
0.1007493 0.008360159 0.4294272 205 205 205
0.104399 0.008963039 0.4234323 205 205 205
0.127819 0.006677492 0.4279396 205 205 205
0.1384659 0.00618735 0.4274572 205 205 205
0.1393425 0.006362696 0.4260972 205 205 205
0.1405485 0.006376096 0.4256621 205 205 205
0.1563763 0.003787224 0.4375948 205 205 205
-0.01720651 0.01572763 0.4857932 205 205 205
0.001316381 0.01763632 0.4483737 0 0 0
0.002804144 0.01778446 0.4454718 0 0 0
0.008650458 0.01870848 0.4318292 0 0 0
0.01116481 0.01853906 0.4299232 0 0 0
0.01472536 0.0177641 0.430989 0 0 0
0.0194964 0.01666193 0.4330087 0 0 0
0.03442669 0.01189534 0.4495149 205 205 205
0.04362046 0.009899124 0.4539534 205 205 205
0.05546239 0.00813439 0.4549315 205 205 205
0.05815988 0.007679889 0.4556417 205 205 205
0.06610037 0.00492682 0.4676335 205 205 205
0.1054849 0.00765416 0.4229328 205 205 205
0.1124536 0.008231984 0.4159108 205 205 205
0.1444173 0.004951235 0.4250506 205 205 205
0.1604175 0.00236088 0.4367853 205 205 205
-0.01585555 0.01591289 0.4727845 205 205 205
-0.007251063 0.01681507 0.4555978 205 205 205
-0.004289767 0.01681298 0.4518331 205 205 205
0.001614509 0.01713928 0.4422595 0 0 0
0.003081762 0.01730281 0.4393578 0 0 0
0.01461293 0.01667072 0.4298207 0 0 0
0.02293413 0.01423846 0.4367673 205 205 205
0.02661741 0.01321032 0.4396766 205 205 205
0.03824377 0.009425217 0.4530858 205 205 205
0.05932512 0.006182936 0.4552943 205 205 205
0.0635597 0.00527477 0.4577766 205 205 205
0.07062694 0.0004945144 0.4837285 205 205 205
0.1009759 0.00545715 0.4309549 205 205 205
0.1070102 0.006820012 0.4192476 205 205 205
0.1091081 0.006915314 0.4176552 205 205 205
0.1388237 0.003911967 0.4247614 205 205 205
0.1474461 0.003342643 0.4257679 205 205 205
-0.01544628 0.01516633 0.4676599 205 205 205
-0.01175698 0.01577288 0.4590337 205 205 205
-0.01012393 0.01589312 0.456187 205 205 205
0.0005308619 0.01665401 0.4380555 0 0 0
0.02646129 0.01163728 0.441462 205 205 205
0.04762699 0.005605521 0.4601603 205 205 205
0.05918193 0.004833719 0.455086 205 205 205
0.1059712 0.005437937 0.4203162 205 205 205
0.1157474 0.005673396 0.4144929 205 205 205
0.11691 0.005652532 0.4141428 205 205 205
0.1195096 0.006131467 0.4102489 205 205 205
0.1371935 0.00277084 0.4240525 205 205 205
0.145934 0.002724734 0.421881 205 205 205
0.1567446 0.0006123945 0.4313833 205 205 205
0.1623576 -0.0001290816 0.4344043 205 205 205
-0.01746684 0.01355519 0.4712618 205 205 205
-0.002274097 0.01560428 0.4396919 205 205 205
-0.0006919532 0.01591809 0.4358217 205 205 205
0.003428643 0.01605547 0.4300964 205 205 205
0.008301029 0.01529438 0.4293046 205 205 205
0.01543579 0.01370618 0.4314413 205 205 205
0.02631119 0.01051374 0.4402762 205 205 205
0.0393748 -0.0005778512 0.4980632 205 205 205
0.04805264 0.002611778 0.4697954 205 205 205
0.1030384 9.978962E-05 0.4461833 205 205 205
0.1061097 0.004007741 0.4210644 205 205 205
0.1100739 0.004392599 0.4169266 205 205 205
0.1112465 0.004360391 0.4165961 205 205 205
0.1159259 0.004254234 0.4152326 205 205 205
0.1252279 0.004150946 0.4123053 205 205 205
0.1270084 0.003788269 0.4137866 205 205 205
0.1523517 7.900038E-05 0.4275777 205 205 205
0.1562806 -0.000562039 0.430247 205 205 205
0.1578874 -0.0006992148 0.4306576 205 205 205
0.1611168 -0.0009654213 0.4314567 205 205 205
0.1780387 -0.007463234 0.4638353 205 205 205
-0.009824836 0.0140747 0.4498778 205 205 205
0.01764367 0.01174672 0.4332398 205 205 205
0.02247684 0.01046541 0.4361849 205 205 205
0.03159543 0.002363423 0.4774314 205 205 205
0.05775777 0.001944821 0.4567617 205 205 205
0.06786592 -0.002374012 0.4753874 205 205 205
0.1098225 -0.008075282 0.4827234 205 205 205
0.1038344 0.00179891 0.4275087 205 205 205
0.1190217 0.003861353 0.4089014 205 205 205
0.1355393 0.001652466 0.4157892 205 205 205
0.1377231 0.001114886 0.4181371 205 205 205
0.1439765 0.001035817 0.4168581 205 205 205
0.1550705 -0.001361499 0.4272873 205 205 205
0.156667 -0.00150275 0.4277015 205 205 205
-0.01455388 0.01274231 0.4552362 205 205 205
-0.01127722 0.01304158 0.4495659 205 205 205
0.0008702507 0.01436739 0.4276151 205 205 205
0.01745853 0.01034649 0.4340257 205 205 205
0.02109126 0.009411803 0.4359923 205 205 205
0.0247564 0.008166171 0.4398918 205 205 205
0.1301609 0.002054635 0.4080618 205 205 205
0.1359452 0.0007745394 0.4133007 205 205 205
0.1381308 0.0002278082 0.4156409 205 205 205
0.1466029 -0.0003742998 0.4166374 205 205 205
0.1508046 -0.001240554 0.4202597 205 205 205
-0.0162829 0.0114142 0.4568638 205 205 205
-0.01088461 0.01247158 0.4444413 205 205 205
-0.005978291 0.01331457 0.4339195 205 205 205
0.00079337 0.01330363 0.4264313 205 205 205
0.009088685 0.01155927 0.4277661 205 205 205
0.02335314 0.007095883 0.4397007 205 205 205
0.05738712 -0.003280974 0.4711555 205 205 205
0.05876329 -0.003438784 0.4710076 205 205 205
0.1065972 -0.005199662 0.4506052 205 205 205
0.1176759 0.001433408 0.4088332 205 205 205
0.1193764 0.001791645 0.4062407 205 205 205
0.1353169 0.0004902717 0.4080485 205 205 205
0.1582146 -0.003087356 0.4212016 205 205 205
-0.02311677 0.008051299 0.4758469 205 205 205
-0.01357553 0.01173027 0.4440072 205 205 205
-0.005836433 0.01253199 0.4307638 205 205 205
-0.0006472128 0.01217328 0.4271449 205 205 205
0.004138159 0.01124011 0.4273877 205 205 205
0.006599134 0.01094608 0.4264977 205 205 205
0.02315929 0.005320495 0.4424406 205 205 205
0.02561704 0.002707073 0.4552037 205 205 205
0.1075489 -0.006431481 0.4490832 205 205 205
0.1064013 -0.002511696 0.4281166 205 205 205
0.1066454 -0.001779344 0.4239958 205 205 205
0.1149567 -0.00031726 0.4124861 205 205 205
0.1155566 5.28752E-05 0.4102574 205 205 205
0.1175742 0.0002142941 0.4086129 205 205 205
0.1192766 0.0005804573 0.4060217 205 205 205
0.1229934 0.0003646347 0.4058478 205 205 205
0.1249535 0.000557963 0.4041592 205 205 205
0.1294717 0.0005803985 0.4025967 205 205 205
0.1393603 -0.001075165 0.4083775 205 205 205
0.1430886 -0.001802104 0.4111529 205 205 205
-0.01289495 0.01151716 0.4369245 205 205 205
0.001745118 0.01080952 0.4250987 205 205 205
0.009918171 0.008739618 0.4283663 205 205 205
0.1074893 -0.002888146 0.4224943 205 205 205
0.1093806 -0.002567985 0.4199484 205 205 205
0.1118879 -0.001869783 0.41517 205 205 205
0.1279234 -0.0004383789 0.4018444 205 205 205
0.1335322 -0.0003705445 0.3998272 205 205 205
0.1375159 -0.001323072 0.4035691 205 205 205
0.1434346 -0.002632272 0.4086452 205 205 205
0.151077 -0.003436151 0.4108647 205 205 205
-0.006839281 0.01112682 0.4253426 205 205 205
0.00389084 0.008977398 0.4259805 205 205 205
0.007414044 0.00813173 0.4270983 205 205 205
0.01306827 0.005670663 0.4351084 205 205 205
0.02149431 0.002089104 0.4469265 205 205 205
0.1081201 -0.00572313 0.430167 205 205 205
0.1147441 -0.002775594 0.412028 205 205 205
0.1162172 -0.002204709 0.4085132 205 205 205
0.1313021 -0.0009828081 0.397254 205 205 205
0.1415378 -0.002868104 0.4038548 205 205 205
-0.008082516 0.01033445 0.4240539 205 205 205
0.003729722 0.0077688 0.4257621 205 205 205
0.008395117 0.006522707 0.4278973 205 205 205
0.009544227 0.006128282 0.4289121 205 205 205
0.0165403 0.003424913 0.436878 205 205 205
0.110605 -0.005312217 0.4200861 205 205 205
0.1186752 -0.002838831 0.4044039 205 205 205
0.1289845 -0.002203278 0.3978264 205 205 205
0.1334246 -0.002135075 0.3962039 205 205 205
0.1348805 -0.002319259 0.3967023 205 205 205
-0.005769718 0.008805568 0.4230334 205 205 205
-0.000849988 0.008180875 0.4213764 205 205 205
0.01624565 0.001446385 0.4405757 205 205 205
0.1186007 -0.01874406 0.4773956 205 205 205
0.111521 -0.007407185 0.4236127 205 205 205
0.1145269 -0.005229129 0.411551 205 205 205
0.1188656 -0.004252429 0.4050992 205 205 205
0.1211451 -0.004267534 0.4043656 205 205 205
0.1322213 -0.003344926 0.3963798 205 205 205
0.1439878 -0.005466481 0.4033839 205 205 205
0.1454959 -0.005639012 0.403834 205 205 205
0.1485287 -0.005976358 0.4047133 205 205 205
0.1550192 -0.006146256 0.404106 205 205 205
8.013929E-05 0.006581591 0.422198 205 205 205
0.003556675 0.005709784 0.4233484 205 205 205
0.01474907 2.705912E-05 0.4422934 205 205 205
0.1123543 -0.008493427 0.4220771 205 205 205
0.1134246 -0.007479214 0.4166889 205 205 205
0.1226986 -0.00504836 0.4015203 205 205 205
0.1511046 -0.007337754 0.4044132 205 205 205
0.168492 -0.01181826 0.4213726 205 205 205
-0.02647484 0.002760659 0.4612119 205 205 205
-0.01569372 0.00829057 0.4227415 205 205 205
-0.003631522 0.006104612 0.4217609 205 205 205
-0.002354214 0.006041451 0.4208548 205 205 205
0.1138008 -0.0110653 0.427462 205 205 205
0.11607 -0.007278407 0.4084828 205 205 205
0.1169396 -0.007075145 0.4071937 205 205 205
0.1178007 -0.006869555 0.4059029 205 205 205
0.138998 -0.006466136 0.3974266 205 205 205
0.1494722 -0.007711404 0.4005667 205 205 205
-0.03048974 -0.0009596539 0.4763697 205 205 205
-0.008293219 0.006255128 0.4192367 205 205 205
0.0009382368 0.00396399 0.421794 205 205 205
0.01391388 -0.005014704 0.4545407 205 205 205
0.1196875 -0.007872689 0.4039938 205 205 205
0.1216635 -0.007660016 0.4023255 205 205 205
0.1244327 -0.007212481 0.3993406 205 205 205
0.1437269 -0.008448355 0.3994603 205 205 205
0.1486247 -0.009206305 0.4016767 205 205 205
0.1570241 -0.009766298 0.4023381 205 205 205
0.1625728 -0.011398 0.4084149 205 205 205
-0.01721909 0.006174178 0.4221514 205 205 205
-0.006112149 0.004581552 0.4191759 205 205 205
0.002040917 0.002729082 0.4206313 205 205 205
0.005519356 0.001855586 0.421751 205 205 205
0.006641036 0.00144049 0.4227687 205 205 205
0.1144146 -0.01233525 0.4205962 205 205 205
0.1142657 -0.01122969 0.4155652 205 205 205
0.1152458 -0.01014115 0.4101903 205 205 205
0.1178714 -0.009508015 0.4063241 205 205 205
0.1187295 -0.009292239 0.4050318 205 205 205
0.1292685 -0.007899589 0.3952887 205 205 205
0.1391955 -0.008381275 0.3946708 205 205 205
-0.03325177 -0.004478055 0.4814706 205 205 205
-0.007340884 0.003835529 0.4178737 205 205 205
0.0006955605 0.001776152 0.4203326 205 205 205
0.004243449 0.00108506 0.420485 205 205 205
0.007483543 -0.0005637173 0.4254925 205 205 205
0.01058631 -0.003201328 0.4353585 205 205 205
0.1145126 -0.01180108 0.4121438 205 205 205
0.116298 -0.01137857 0.4095712 205 205 205
0.1168924 -0.01093334 0.4073518 205 205 205
0.1174709 -0.01048564 0.4051328 205 205 205
0.1242225 -0.009589736 0.3988281 205 205 205
0.1409377 -0.009995139 0.3957765 205 205 205
0.1446554 -0.01010437 0.3953277 205 205 205
0.1469091 -0.01074664 0.3975583 205 205 205
0.1548943 -0.01185494 0.4005187 205 205 205
0.1560303 -0.01179469 0.4000232 205 205 205
-0.01452026 0.004186378 0.417033 205 205 205
0.0006169791 0.0007873048 0.4191075 205 205 205
0.001795775 0.0005550708 0.4191622 205 205 205
0.00631569 -0.0009477627 0.4222715 205 205 205
0.1185073 -0.0116989 0.4045044 205 205 205
0.1202015 -0.01124444 0.4019177 205 205 205
0.1224755 -0.01124935 0.4011692 205 205 205
0.1257212 -0.01029458 0.3959548 205 205 205
0.1323923 -0.01020032 0.3935495 205 205 205
0.1501767 -0.01180736 0.3958766 205 205 205
0.1609781 -0.01375617 0.4017636 205 205 205
-0.01745136 0.002983932 0.4194693 205 205 205
0.007281649 -0.002566902 0.4230263 205 205 205
0.01189465 -0.01005831 0.453429 205 205 205
0.1231909 -0.01220339 0.3995994 205 205 205
0.1252936 -0.01123395 0.3947722 205 205 205
0.1305013 -0.0109228 0.3918738 205 205 205
0.1433303 -0.01179147 0.3920999 205 205 205
0.147069 -0.01264589 0.3947605 205 205 205
-0.004323944 -0.0004151401 0.4173651 205 205 205
0.01126745 -0.0134761 0.4629065 205 205 205
0.1188383 -0.01362441 0.4017435 205 205 205
0.1286225 -0.01162634 0.390188 205 205 205
0.148085 -0.01379594 0.3940153 205 205 205
0.1530103 -0.0145902 0.3961335 205 205 205
0.1579051 -0.01457399 0.3950322 205 205 205
-0.01750909 0.001018242 0.4170161 205 205 205
-0.01372941 0.00062021 0.4154147 205 205 205
-0.01256408 0.000362414 0.4155192 205 205 205
-0.01023131 -0.0001468316 0.4157156 205 205 205
-0.003217804 -0.001623061 0.4162026 205 205 205
0.1187823 -0.0220757 0.4318705 205 205 205
0.1215304 -0.01433357 0.3985086 205 205 205
0.1261917 -0.01356687 0.3938385 205 205 205
0.135755 -0.01389238 0.3923837 205 205 205
0.1423791 -0.01367169 0.3897589 205 205 205
0.1442347 -0.01411555 0.3910934 205 205 205
0.1483698 -0.01523856 0.3946228 205 205 205
0.1562772 -0.01561493 0.3943674 205 205 205
0.1604636 -0.0158896 0.3946036 205 205 205
-0.03559335 -0.009149469 0.4708999 205 205 205
-0.01376634 -0.0003408169 0.4141833 205 205 205
-0.01144165 -0.000853617 0.4143869 205 205 205
-0.008063974 -0.001811314 0.4156328 205 205 205
-0.005618495 -0.002098264 0.4148218 205 205 205
-0.002117343 -0.002819258 0.4150319 205 205 205
0.007801915 -0.007017039 0.4251801 205 205 205
0.008840144 -0.00788809 0.4281286 205 205 205
0.12134 -0.02587401 0.440865 205 205 205
0.1165969 -0.01722218 0.4068939 205 205 205
0.1171856 -0.01673566 0.4046822 205 205 205
0.1265401 -0.01422458 0.3913434 205 205 205
0.1367582 -0.01503721 0.3916749 205 205 205
-0.01785454 -0.001315281 0.4164885 205 205 205
-0.01640039 -0.001177273 0.4146679 205 205 205
-0.01509812 -0.001237024 0.4138109 205 205 205
-0.01148473 -0.001805092 0.4131515 205 205 205
0.003334063 -0.005789177 0.4179487 205 205 205
0.1187413 -0.016438 0.3977662 205 205 205
0.1308406 -0.01531096 0.3894575 205 205 205
0.1388657 -0.01614195 0.3905221 205 205 205
0.1451348 -0.01643108 0.3900649 205 205 205
0.1485061 -0.01708297 0.3917969 205 205 205
0.1576056 -0.01821794 0.3941575 205 205 205
-0.01140041 -0.002538077 0.4109436 205 205 205
-0.008055388 -0.003498826 0.4121833 205 205 205
-0.002256777 -0.004708002 0.4125494 205 205 205
0.1173296 -0.02268915 0.4181345 205 205 205
0.1213945 -0.01710067 0.3945267 205 205 205
0.1225133 -0.01709678 0.3941481 205 205 205
0.1266485 -0.01680118 0.3916857 205 205 205
0.1303914 -0.01621248 0.3882675 205 205 205
0.1347313 -0.01690295 0.3897275 205 205 205
0.1387598 -0.01731468 0.3902321 205 205 205
0.1394979 -0.01701999 0.3888982 205 205 205
0.1405976 -0.01697932 0.3884563 205 205 205
0.1446497 -0.01735479 0.3888844 205 205 205
0.1465197 -0.01781559 0.3901981 205 205 205
0.1590386 -0.01961269 0.3942245 205 205 205
-0.0192236 -0.003164861 0.4148545 205 205 205
-0.0177634 -0.003015945 0.4130415 205 205 205
-0.01053935 -0.004147749 0.4117346 205 205 205
-0.005904866 -0.005138374 0.4120685 205 205 205
-0.00348318 -0.005401838 0.4112397 205 205 205
-0.001260878 -0.006094666 0.412335 205 205 205
0.008839533 -0.01471396 0.4399272 205 205 205
0.008932119 -0.02020177 0.4623029 205 205 205
0.1225012 -0.03018059 0.440421 205 205 205
0.1183022 -0.02498363 0.4215238 205 205 205
0.1212802 -0.01826658 0.394235 205 205 205
0.1295227 -0.01764868 0.3892883 205 205 205
0.1368272 -0.01800182 0.3885809 205 205 205
0.1528241 -0.02006365 0.3924084 205 205 205
-0.0435211 -0.01887641 0.492344 205 205 205
-0.03106326 -0.008236723 0.4397645 205 205 205
-0.02118246 -0.004894909 0.4183119 205 205 205
-0.00258922 -0.007008192 0.4119955 205 205 205
0.0007267793 -0.008162192 0.4141038 205 205 205
0.00585012 -0.01182137 0.4249814 205 205 205
0.1177288 -0.02467737 0.4152913 205 205 205
0.1200436 -0.01943286 0.3943135 205 205 205
0.120549 -0.0189011 0.3921112 205 205 205
0.1227727 -0.01889069 0.391355 205 205 205
0.1301731 -0.01851762 0.3876843 205 205 205
0.1338107 -0.01870143 0.3873422 205 205 205
0.1473476 -0.01928005 0.3860143 205 205 205
0.1577031 -0.02211065 0.3941156 205 205 205
-0.04247788 -0.01887381 0.485261 205 205 205
-0.02421029 -0.006146149 0.4206505 205 205 205
-0.02285915 -0.006215239 0.4198225 205 205 205
-0.01825673 -0.005532413 0.4134473 205 205 205
-0.0131934 -0.005928576 0.4109845 205 205 205
-0.009599136 -0.006468008 0.4102972 205 205 205
-0.00613133 -0.007208149 0.4105389 205 205 205
-0.004974174 -0.007450556 0.410611 205 205 205
-0.0004304304 -0.008627513 0.4118271 205 205 205
0.1295269 -0.04011082 0.4646977 205 205 205
0.1185035 -0.02032687 0.3934685 205 205 205
0.1373483 -0.02002111 0.3866569 205 205 205
0.1380783 -0.01971477 0.3853302 205 205 205
0.149519 -0.02118832 0.3878789 205 205 205
-0.01336443 -0.00707099 0.4106986 205 205 205
-0.002923815 -0.009302796 0.4114234 205 205 205
0.006911657 -0.01873003 0.440908 205 205 205
0.06222248 -0.03725708 0.4784581 205 205 205
0.1225419 -0.02119976 0.3907531 205 205 205
0.1236529 -0.02119088 0.3903691 205 205 205
0.1258708 -0.02116624 0.3895895 205 205 205
0.1346872 -0.02097579 0.3863168 205 205 205
-0.02337814 -0.008787247 0.4201939 205 205 205
0.005550607 -0.03067384 0.4822421 205 205 205
0.04976275 -0.02888414 0.4474545 205 205 205
0.05145722 -0.02578929 0.4346701 205 205 205
0.07023185 -0.0298065 0.4399461 205 205 205
0.1177356 -0.02319183 0.3950511 205 205 205
0.1254302 -0.022042 0.3883773 205 205 205
0.1433544 -0.02266189 0.3855949 205 205 205
0.1586665 -0.02415279 0.3872865 205 205 205
-0.0269526 -0.01073229 0.4253775 205 205 205
-0.02189485 -0.009568587 0.4171367 205 205 205
-0.018781 -0.008982847 0.4125713 205 205 205
-0.0008403106 -0.01182564 0.4099806 205 205 205
0.04810411 -0.02408519 0.4249833 205 205 205
0.0535143 -0.02240279 0.4156664 205 205 205
0.06779826 -0.02880317 0.4321679 205 205 205
0.07980654 -0.03087266 0.4340189 205 205 205
0.09017903 -0.04189637 0.4701984 205 205 205
0.1249566 -0.03746976 0.4397226 205 205 205
0.1231013 -0.02321384 0.3888435 205 205 205
0.1399449 -0.02396075 0.3866286 205 205 205
0.1447232 -0.02404836 0.3857028 205 205 205
0.1593952 -0.02589211 0.3886932 205 205 205
-0.0341944 -0.01529682 0.4428116 205 205 205
-0.01143582 -0.0107669 0.4090395 205 205 205
0.04272354 -0.0384624 0.4763665 205 205 205
0.07133872 -0.02775055 0.4214959 205 205 205
0.0748704 -0.02777994 0.4199048 205 205 205
0.07609215 -0.02787721 0.4196829 205 205 205
0.07731329 -0.02797202 0.4194567 205 205 205
0.08281352 -0.03131344 0.4291532 205 205 205
0.1186344 -0.03003794 0.4101531 205 205 205
0.1275008 -0.02342782 0.3838606 205 205 205
0.1296789 -0.02337994 0.383053 205 205 205
0.1339955 -0.02414054 0.3844879 205 205 205
0.1398319 -0.02511922 0.3863085 205 205 205
0.1457107 -0.02515589 0.3849188 205 205 205
0.1562317 -0.02667614 0.3876463 205 205 205
0.1598115 -0.02580556 0.383884 205 205 205
0.1566238 -0.02293029 0.3747736 205 205 205
-0.01032737 -0.01191298 0.4078609 205 205 205
-0.009173978 -0.01216337 0.407944 205 205 205
-1.47778E-05 -0.01433681 0.4094232 205 205 205
0.003473667 -0.01502516 0.409548 205 205 205
0.0410215 -0.03914279 0.4741686 205 205 205
0.04161051 -0.02572981 0.424894 205 205 205
0.04663718 -0.02160473 0.4070447 205 205 205
0.05488083 -0.02282882 0.4070737 205 205 205
0.0560484 -0.02295561 0.4069242 205 205 205
0.1317372 -0.02445429 0.3819133 205 205 205
0.1382498 -0.02603184 0.38554 205 205 205
0.1541945 -0.02736381 0.3860775 205 205 205
0.1557102 -0.02757628 0.3864467 205 205 205
0.1602889 -0.02819653 0.3875121 205 205 205
-0.01165178 -0.0127891 0.4074667 205 205 205
-0.003364134 -0.01401539 0.406062 205 205 205
0.03953015 -0.04144152 0.4777328 205 205 205
0.05446108 -0.02314094 0.4038856 205 205 205
0.06013906 -0.02644542 0.4128061 205 205 205
0.09288616 -0.04058217 0.4478185 205 205 205
0.1178429 -0.03073847 0.4036169 205 205 205
0.1359523 -0.0263521 0.3829894 205 205 205
0.1377708 -0.02689333 0.3843271 205 205 205
0.1429057 -0.02729031 0.3843057 205 205 205
0.1555981 -0.02875538 0.3861102 205 205 205
-0.03030617 -0.01514921 0.424757 205 205 205
-0.02213817 -0.01349609 0.413015 205 205 205
-0.02049885 -0.01304808 0.410264 205 205 205
-0.01297671 -0.01366065 0.4070646 205 205 205
-0.008127257 -0.01416988 0.4054807 205 205 205
-0.005831145 -0.01465842 0.4056239 205 205 205
0.003138176 -0.01730005 0.4089206 205 205 205
0.00716069 -0.0207995 0.4186591 205 205 205
0.008952108 -0.02413117 0.4292847 205 205 205
0.03957071 -0.02465822 0.4127995 205 205 205
0.04493036 -0.02263113 0.4026871 205 205 205
0.05068361 -0.02332385 0.402072 205 205 205
0.06461498 -0.03055587 0.420509 205 205 205
0.06965263 -0.03129709 0.42068 205 205 205
0.07247995 -0.02987988 0.4143699 205 205 205
0.08865624 -0.03550081 0.4267916 205 205 205
0.1340466 -0.05169366 0.4652335 205 205 205
0.1372912 -0.02774579 0.383112 205 205 205
0.1453705 -0.02863041 0.3839289 205 205 205
0.1475665 -0.02851421 0.3829919 205 205 205
0.1497557 -0.02838854 0.3820398 205 205 205
0.1603299 -0.02990963 0.3845936 205 205 205
-0.04438163 -0.02822871 0.4754015 205 205 205
-0.01674923 -0.01425242 0.4074104 205 205 205
-0.01559443 -0.01451591 0.4075138 205 205 205
-0.01186743 -0.01479052 0.4058802 205 205 205
-0.007149618 -0.01553532 0.4052395 205 205 205
-0.0002488964 -0.01696473 0.4055934 205 205 205
0.002969602 -0.01843522 0.4086002 205 205 205
0.003982806 -0.01918645 0.4105566 205 205 205
0.006056433 -0.02069103 0.4144579 205 205 205
0.008132366 -0.02246354 0.4193057 205 205 205
0.04127654 -0.02303386 0.4017269 205 205 205
0.04586755 -0.0236183 0.4012925 205 205 205
0.04930925 -0.02403318 0.4009241 205 205 205
0.05783485 -0.02636621 0.4046838 205 205 205
0.06434312 -0.03147596 0.419211 205 205 205
0.06703739 -0.03228899 0.4207292 205 205 205
0.07032268 -0.03174381 0.4172837 205 205 205
0.07204434 -0.0304872 0.4121351 205 205 205
0.07413828 -0.0300944 0.4098157 205 205 205
0.08160774 -0.03120436 0.4103102 205 205 205
0.0878797 -0.03387235 0.4167896 205 205 205
0.1221825 -0.02862779 0.3863227 205 205 205
0.1452546 -0.02978551 0.3835901 205 205 205
0.1511365 -0.02977202 0.3820857 205 205 205
0.1549607 -0.03081328 0.3845607 205 205 205
0.1568914 -0.0313289 0.385783 205 205 205
-0.01562802 -0.01538976 0.406236 205 205 205
-0.008350362 -0.01615009 0.403888 205 205 205
0.0007349334 -0.01831707 0.4053167 205 205 205
0.006022562 -0.021313 0.4122037 205 205 205
0.04801119 -0.02502077 0.4007243 205 205 205
0.05038297 -0.02558099 0.4014202 205 205 205
0.06921183 -0.0334296 0.4190294 205 205 205
0.07160974 -0.03107787 0.4099001 205 205 205
0.1269762 -0.04581671 0.4375401 205 205 205
0.1234836 -0.03005279 0.3864993 205 205 205
0.1337959 -0.02919917 0.3806495 205 205 205
0.1377846 -0.02968268 0.3811207 205 205 205
0.1396135 -0.03024071 0.3824384 205 205 205
0.1591342 -0.03332492 0.3875006 205 205 205
-0.04272777 -0.02831357 0.4641533 205 205 205
-0.03648844 -0.02228353 0.4396049 205 205 205
-0.02519353 -0.01662039 0.4127363 205 205 205
-0.01465015 -0.01677238 0.4060103 205 205 205
-0.008521249 -0.01726299 0.4035656 205 205 205
0.002873061 -0.01989361 0.4050668 205 205 205
0.04430008 -0.02513729 0.3988407 205 205 205
0.05617686 -0.02793846 0.4022696 205 205 205
0.05900878 -0.02966296 0.4066986 205 205 205
0.07660395 -0.03120833 0.4037493 205 205 205
0.08489162 -0.0338012 0.4088573 205 205 205
0.08784684 -0.03485332 0.4111342 205 205 205
0.1256941 -0.0302192 0.3822941 205 205 205
0.1264551 -0.02989149 0.3810039 205 205 205
0.1340313 -0.0306322 0.3811935 205 205 205
0.1402175 -0.0310296 0.380771 205 205 205
0.1476087 -0.03227749 0.3828313 205 205 205
0.1487091 -0.03221494 0.3823556 205 205 205
0.161341 -0.03097728 0.3755057 205 205 205
-0.04217882 -0.02866477 0.459963 205 205 205
-0.02808056 -0.01769414 0.4140311 205 205 205
-0.02672468 -0.01773203 0.4132188 205 205 205
-0.009837291 -0.01812588 0.4031623 205 205 205
0.0005748865 -0.02001316 0.4027444 205 205 205
0.004866576 -0.02201018 0.4067126 205 205 205
0.005959744 -0.02250763 0.4076948 205 205 205
0.01448505 -0.03010596 0.4278716 205 205 205
0.05612087 -0.02937125 0.402879 205 205 205
0.07235453 -0.03321834 0.4080446 205 205 205
0.08113041 -0.0326864 0.4024586 205 205 205
0.0881229 -0.03488341 0.4067774 205 205 205
0.1171411 -0.03298416 0.3898837 205 205 205
0.1195904 -0.03204378 0.386062 205 205 205
0.1256679 -0.03039061 0.3788811 205 205 205
0.1397257 -0.03185692 0.3795485 205 205 205
0.1470993 -0.03312331 0.3816107 205 205 205
0.1485906 -0.03336833 0.3820026 205 205 205
0.1503863 -0.03292832 0.3801769 205 205 205
-0.03557308 -0.02301092 0.4322279 205 205 205
-0.01845703 -0.0182173 0.405043 205 205 205
-0.0006461271 -0.02061778 0.4014119 205 205 205
0.003846351 -0.02180209 0.4025173 205 205 205
0.004919739 -0.02230219 0.4035019 205 205 205
0.008062868 -0.02435842 0.4083476 205 205 205
0.0252637 -0.05059318 0.4846296 205 205 205
0.03266465 -0.02727864 0.4038751 205 205 205
0.03480807 -0.02554909 0.3970329 205 205 205
0.03817387 -0.02572461 0.3958209 205 205 205
0.04161347 -0.02647282 0.3964815 205 205 205
0.04741792 -0.0277821 0.3978152 205 205 205
0.05115774 -0.0293897 0.4012237 205 205 205
0.05732772 -0.03123674 0.4042711 205 205 205
0.06540905 -0.03762588 0.4213677 205 205 205
0.06738792 -0.03663104 0.4171992 205 205 205
0.07797902 -0.03244357 0.3988414 205 205 205
0.1173421 -0.03569496 0.3944155 205 205 205
0.1202627 -0.03285173 0.3844377 205 205 205
0.1240257 -0.03216939 0.3811074 205 205 205
0.1269633 -0.03179076 0.3790279 205 205 205
0.1305599 -0.03201874 0.378691 205 205 205
0.1330805 -0.03226322 0.3787368 205 205 205
0.1352487 -0.03218495 0.3778837 205 205 205
0.1528592 -0.03424393 0.3797047 205 205 205
0.162633 -0.03521156 0.3804003 205 205 205
-0.02574061 -0.02005198 0.4117181 205 205 205
0.02266474 -0.03897488 0.4431912 205 205 205
0.03241741 -0.02691748 0.3987569 205 205 205
0.034627 -0.02635056 0.3957413 205 205 205
0.03685592 -0.02636727 0.3946202 205 205 205
0.0449221 -0.02830991 0.3967639 205 205 205
0.06845401 -0.03794019 0.4166273 205 205 205
0.08531376 -0.03496273 0.3998097 205 205 205
0.1171739 -0.03558341 0.3900762 205 205 205
0.1193337 -0.03430194 0.3853601 205 205 205
0.1217104 -0.03331774 0.3815331 205 205 205
0.1394841 -0.03411667 0.3788434 205 205 205
0.1449864 -0.03484793 0.3796305 205 205 205
0.1490532 -0.03528966 0.3799419 205 205 205
0.151645 -0.03546598 0.3798339 205 205 205
0.1596314 -0.03695665 0.3824486 205 205 205
-0.02710145 -0.02090441 0.4112359 205 205 205
-0.0152116 -0.02097159 0.403717 205 205 205
-0.01010527 -0.02089899 0.4002499 205 205 205
-0.003063853 -0.02179581 0.3987307 205 205 205
-0.000795543 -0.02226094 0.3988273 205 205 205
0.004733107 -0.02395669 0.4009092 205 205 205
0.01134655 -0.02669188 0.4057598 205 205 205
0.01359016 -0.02769221 0.4076625 205 205 205
0.03110329 -0.02755447 0.3975302 205 205 205
0.03786439 -0.02791698 0.3951427 205 205 205
0.04012657 -0.02822041 0.3949509 205 205 205
0.05879783 -0.03550913 0.4090676 205 205 205
0.06719434 -0.03934085 0.4173944 205 205 205
0.06885933 -0.03767312 0.4113461 205 205 205
0.07306483 -0.03437569 0.3990318 205 205 205
0.07718764 -0.0337633 0.3953312 205 205 205
0.08079115 -0.03430876 0.3955527 205 205 205
0.132275 -0.06272572 0.4653271 205 205 205
0.1170437 -0.04057388 0.4016479 205 205 205
0.1182873 -0.03446369 0.3823139 205 205 205
0.1281388 -0.03430822 0.3788075 205 205 205
0.1404504 -0.03519369 0.3780367 205 205 205
0.1630084 -0.03889827 0.3835725 205 205 205
-0.02129076 -0.02101598 0.4037972 205 205 205
-0.01639317 -0.02154414 0.4023246 205 205 205
-0.01027767 -0.02199634 0.3999082 205 205 205
0.01012457 -0.02701735 0.4034968 205 205 205
0.01355626 -0.02793962 0.4044439 205 205 205
0.03767309 -0.02870335 0.3938463 205 205 205
0.03992829 -0.02900626 0.3936548 205 205 205
0.05326382 -0.03396367 0.4027209 205 205 205
0.06189469 -0.03943966 0.4158935 205 205 205
0.07391812 -0.0352768 0.3975174 205 205 205
0.07801488 -0.03464229 0.3938091 205 205 205
0.09123746 -0.03820491 0.399581 205 205 205
0.1171189 -0.0433774 0.4061547 205 205 205
0.1184625 -0.03590292 0.3828509 205 205 205
0.1280128 -0.03542085 0.3784491 205 205 205
0.1291011 -0.03539177 0.3780407 205 205 205
-0.03820407 -0.02835723 0.4333999 205 205 205
-0.03522178 -0.02627637 0.4250651 205 205 205
-0.02746966 -0.02317966 0.4105259 205 205 205
-0.02162953 -0.02240038 0.404396 205 205 205
-0.01886045 -0.02211672 0.4017724 205 205 205
0.006618515 -0.02689439 0.4012072 205 205 205
0.01001291 -0.02783522 0.4021892 205 205 205
0.01463545 -0.02866615 0.4021703 205 205 205
0.01691426 -0.02936872 0.4030895 205 205 205
0.02165324 -0.028633 0.3982082 205 205 205
0.02394947 -0.02869881 0.3971738 205 205 205
0.02623793 -0.02814216 0.3942196 205 205 205
0.04440005 -0.03130385 0.3947696 205 205 205
0.06362754 -0.04267024 0.4209712 205 205 205
0.06802028 -0.03873778 0.4068423 205 205 205
0.07558924 -0.03560059 0.3939084 205 205 205
0.08242046 -0.03604804 0.3924804 205 205 205
0.08696061 -0.03629996 0.3914494 205 205 205
0.127548 -0.03620325 0.3772044 205 205 205
0.1362024 -0.03693362 0.3768936 205 205 205
0.1416684 -0.03771709 0.3777207 205 205 205
0.1427586 -0.03766122 0.377264 205 205 205
0.1651701 -0.04212888 0.3848014 205 205 205
0.1672115 -0.04086384 0.3806556 205 205 205
-0.02919162 -0.0245702 0.4119169 205 205 205
-0.02595914 -0.02377779 0.4074596 205 205 205
-0.02312818 -0.0235128 0.4048703 205 205 205
-0.01674581 -0.02375126 0.4016238 205 205 205
0.01110749 -0.02855407 0.3999287 205 205 205
0.01566318 -0.02967559 0.4008448 205 205 205
0.01681635 -0.02987517 0.4008256 205 205 205
0.02720615 -0.0290917 0.3928634 205 205 205
0.03505034 -0.0299384 0.3914233 205 205 205
0.03848893 -0.03103191 0.3930508 205 205 205
0.04430207 -0.03271763 0.3953598 205 205 205
0.06717909 -0.04109251 0.4104123 205 205 205
0.06865127 -0.03902146 0.4034521 205 205 205
0.06941552 -0.03814206 0.4004403 205 205 205
0.07445781 -0.03696055 0.3946994 205 205 205
0.1027447 -0.04776024 0.4162837 205 205 205
0.1168757 -0.0391415 0.385545 205 205 205
0.1189958 -0.0377921 0.3808523 205 205 205
0.1197841 -0.03744864 0.3795838 205 205 205
0.1256662 -0.03667112 0.3754779 205 205 205
0.1328331 -0.03713907 0.3747663 205 205 205
0.1353508 -0.03738623 0.3747824 205 205 205
0.1637525 -0.04233224 0.3818845 205 205 205
-0.02067553 -0.02461431 0.4028486 205 205 205
-0.0107977 -0.02527873 0.3988568 205 205 205
-0.005676944 -0.02480016 0.3943813 205 205 205
-5.883574E-05 -0.025965 0.3946255 205 205 205
0.006349248 -0.02879948 0.3995411 205 205 205
0.00984975 -0.02914026 0.3986172 205 205 205
0.03039874 -0.03005177 0.3904241 205 205 205
0.03261444 -0.03006302 0.389332 205 205 205
0.03486727 -0.03069833 0.3901211 205 205 205
0.04176692 -0.03288473 0.3933328 205 205 205
0.04534579 -0.03427899 0.3958236 205 205 205
0.05586156 -0.04021646 0.4088381 205 205 205
0.07028748 -0.03904306 0.3989226 205 205 205
0.07130502 -0.03880607 0.3977781 205 205 205
0.07231436 -0.03856612 0.3966309 205 205 205
0.08607621 -0.03752681 0.3879492 205 205 205
0.09612042 -0.04285993 0.400037 205 205 205
0.09797017 -0.04391089 0.4024785 205 205 205
0.1170743 -0.05198487 0.4196191 205 205 205
0.1153654 -0.04127586 0.3885906 205 205 205
0.1177617 -0.03890936 0.3808561 205 205 205
0.1212046 -0.03785234 0.3766761 205 205 205
0.1244565 -0.03779242 0.3755076 205 205 205
0.1255378 -0.03776779 0.3751106 205 205 205
0.1280367 -0.03804753 0.3751838 205 205 205
0.1312748 -0.03794546 0.3739445 205 205 205
0.1366694 -0.03878171 0.3748451 205 205 205
0.005181213 -0.02906792 0.397262 205 205 205
0.009740387 -0.02992753 0.3973051 205 205 205
0.01321102 -0.03023946 0.3963454 205 205 205
0.03245736 -0.03113095 0.3889765 205 205 205
0.0347103 -0.03177047 0.3897639 205 205 205
0.03926225 -0.03302954 0.3912884 205 205 205
0.0586905 -0.04360783 0.4137518 205 205 205
0.06262508 -0.04848905 0.4265238 205 205 205
0.06820571 -0.04097839 0.4017555 205 205 205
0.07216238 -0.0396886 0.396254 205 205 205
0.07316441 -0.03944211 0.3951055 205 205 205
0.08705502 -0.03868453 0.3873132 205 205 205
0.08858874 -0.0394154 0.3888807 205 205 205
0.09763423 -0.04308672 0.3962992 205 205 205
0.1125979 -0.04476367 0.3959376 205 205 205
0.1135192 -0.04308124 0.3907259 205 205 205
0.1184225 -0.03966788 0.3792176 205 205 205
0.1460343 -0.0411865 0.3755963 205 205 205
0.1539109 -0.0428483 0.378285 205 205 205
-0.02003667 -0.02738716 0.4031704 205 205 205
-0.01727803 -0.02704966 0.40054 205 205 205
0.0007288571 -0.02834372 0.3939468 205 205 205
0.001855086 -0.02856883 0.3939791 205 205 205
0.004936772 -0.03046401 0.3978457 205 205 205
0.006080089 -0.03068335 0.3978624 205 205 205
0.01649598 -0.03161156 0.3949853 205 205 205
0.03343488 -0.03268215 0.3894846 205 205 205
0.04508951 -0.03680727 0.3960268 205 205 205
0.04874672 -0.03821445 0.3984645 205 205 205
0.05720751 -0.04432481 0.4125854 205 205 205
0.06097266 -0.04892275 0.42442 205 205 205
0.06627724 -0.05008917 0.425517 205 205 205
0.06804886 -0.04211729 0.4013684 205 205 205
0.07099844 -0.04105656 0.3970177 205 205 205
0.07483396 -0.03971105 0.391496 205 205 205
0.07790346 -0.03926527 0.3889513 205 205 205
0.08110388 -0.03913639 0.3873033 205 205 205
0.08670887 -0.03944215 0.3860202 205 205 205
0.0880329 -0.03983833 0.386669 205 205 205
0.09841654 -0.04392736 0.3946899 205 205 205
0.1000447 -0.04465076 0.3961972 205 205 205
0.111634 -0.04489022 0.3928456 205 205 205
0.1122333 -0.04421283 0.3906941 205 205 205
0.1190754 -0.04041477 0.3775761 205 205 205
0.138948 -0.04123847 0.3740678 205 205 205
0.1581779 -0.04365744 0.375863 205 205 205
0.159698 -0.04390604 0.3761858 205 205 205
0.1616526 -0.04448987 0.377339 205 205 205
0.1636195 -0.04507004 0.3784816 205 205 205
0.1675856 -0.04432306 0.3754867 205 205 205
-0.02921166 -0.02796754 0.4066561 205 205 205
-0.02153391 -0.02851265 0.403632 205 205 205
-0.02021725 -0.02849319 0.4027973 205 205 205
-0.01359993 -0.028037 0.3976079 205 205 205
0.004917118 -0.03093013 0.3955815 205 205 205
0.01292531 -0.03209454 0.394664 205 205 205
0.03212441 -0.03293448 0.3873081 205 205 205
0.0332763 -0.03375081 0.3891192 205 205 205
0.04372606 -0.03743217 0.3948288 205 205 205
0.06748515 -0.0451954 0.4067677 205 205 205
0.0758216 -0.0408961 0.3908873 205 205 205
0.09872098 -0.04406242 0.3912606 205 205 205
0.1109443 -0.04534044 0.3906541 205 205 205
0.1115375 -0.04465548 0.3885073 205 205 205
0.1197202 -0.04115005 0.3759317 205 205 205
0.1208079 -0.04113434 0.3755496 205 205 205
0.1229796 -0.04109585 0.3747741 205 205 205
0.1294618 -0.04092436 0.3723589 205 205 205
0.141362 -0.04258161 0.3736396 205 205 205
0.1610952 -0.04529988 0.3761006 205 205 205
0.1674588 -0.04547704 0.3750834 205 205 205
-0.02786801 -0.02879361 0.4045306 205 205 205
-0.02403593 -0.02906194 0.4030254 205 205 205
-0.02287623 -0.02934213 0.4031416 205 205 205
-0.02187582 -0.02991751 0.4041948 205 205 205
-0.002987952 -0.02979851 0.3930947 205 205 205
0.005955582 -0.03191335 0.3942797 205 205 205
0.01972786 -0.03240828 0.3884869 205 205 205
0.03084287 -0.03350059 0.3860716 205 205 205
0.03194968 -0.03366273 0.3859978 205 205 205
0.07128986 -0.06833132 0.4675399 205 205 205
0.06736378 -0.04968494 0.4158742 205 205 205
0.08174709 -0.04103989 0.385376 205 205 205
0.1133683 -0.04404336 0.3825743 205 205 205
0.1180164 -0.04296821 0.378071 205 205 205
0.1296765 -0.04236425 0.3728454 205 205 205
0.1307561 -0.04232717 0.3724286 205 205 205
0.1613944 -0.04679194 0.37653 205 205 205
0.1670777 -0.04548912 0.3716533 205 205 205
0.1672548 -0.044692 0.3694603 205 205 205
-0.03112867 -0.03049671 0.4076246 205 205 205
-0.0268877 -0.03019323 0.404276 205 205 205
-0.01154318 -0.03040854 0.3960758 205 205 205
-0.007774685 -0.03022477 0.3934517 205 205 205
-0.002133301 -0.03141508 0.3937104 205 205 205
-0.0009076011 -0.0313312 0.392806 205 205 205
0.001434162 -0.03146914 0.3919289 205 205 205
0.01498674 -0.03367915 0.3910531 205 205 205
0.01961828 -0.03281005 0.3862284 205 205 205
0.03519472 -0.03620028 0.388207 205 205 205
0.03637587 -0.03702958 0.3899987 205 205 205
0.0398833 -0.03850069 0.392522 205 205 205
0.04340505 -0.03962044 0.3940645 205 205 205
0.04875217 -0.04394003 0.4038669 205 205 205
0.08809456 -0.04211888 0.3825083 205 205 205
0.10137 -0.04569846 0.387714 205 205 205
0.1075651 -0.04651865 0.3878591 205 205 205
0.1156781 -0.04408057 0.3784238 205 205 205
0.1342145 -0.04364606 0.37163 205 205 205
0.1480894 -0.04588484 0.3739215 205 205 205
0.1514781 -0.04679131 0.3754888 205 205 205
0.1616914 -0.04828953 0.3769525 205 205 205
0.1669499 -0.04662817 0.3712453 205 205 205
-0.03663854 -0.03336737 0.4152002 205 205 205
-0.02724895 -0.03160327 0.4048246 205 205 205
-0.01944897 -0.03176815 0.4008152 205 205 205
-0.01814341 -0.03173129 0.3999738 205 205 205
-0.01541067 -0.03133652 0.3973365 205 205 205
-0.01399113 -0.03097692 0.3955401 205 205 205
-0.009074849 -0.0310491 0.393012 205 205 205
0.002388023 -0.03275835 0.3915805 205 205 205
0.003593501 -0.03265784 0.3906606 205 205 205
0.01257235 -0.03434546 0.3907044 205 205 205
0.01369628 -0.03454651 0.3906921 205 205 205
0.01948321 -0.03352747 0.3849138 205 205 205
0.02170754 -0.03355997 0.3838967 205 205 205
0.04733321 -0.04458646 0.4026646 205 205 205
0.04872443 -0.04576424 0.4053349 205 205 205
0.0687208 -0.05017469 0.4090448 205 205 205
0.08015006 -0.04279055 0.3839336 205 205 205
0.1080222 -0.04693799 0.3853231 205 205 205
0.1127996 -0.04589946 0.3808928 205 205 205
0.1236604 -0.04433863 0.3732168 205 205 205
0.1398809 -0.04596279 0.3729057 205 205 205
0.1591779 -0.04847472 0.3745607 205 205 205
0.1672972 -0.05009039 0.3768687 205 205 205
-0.03483943 -0.03363338 0.4112136 205 205 205
-0.0194761 -0.03255409 0.3994874 205 205 205
-0.002477865 -0.03355633 0.392951 205 205 205
0.01245591 -0.03507781 0.3893814 205 205 205
0.01482646 -0.03447844 0.3865265 205 205 205
0.02374478 -0.03495723 0.3834333 205 205 205
0.02923614 -0.03546885 0.3822013 205 205 205
0.03034301 -0.03597388 0.3830714 205 205 205
0.03145766 -0.03647783 0.3839371 205 205 205
0.03611406 -0.03986024 0.3911093 205 205 205
0.04876243 -0.04795065 0.4077277 205 205 205
0.05308574 -0.05698625 0.4307741 205 205 205
0.07049815 -0.06011743 0.4319862 205 205 205
0.06963672 -0.05108916 0.4074841 205 205 205
0.070926 -0.04843549 0.3996581 205 205 205
0.07196061 -0.04817189 0.3985157 205 205 205
0.08334839 -0.04405995 0.3827875 205 205 205
0.08759492 -0.04391978 0.3808183 205 205 205
0.09985317 -0.04611632 0.3824103 205 205 205
0.1194862 -0.04586519 0.37525 205 205 205
0.1216708 -0.04583021 0.3744793 205 205 205
0.1339475 -0.04582946 0.3708363 205 205 205
0.1415878 -0.04773016 0.3737544 205 205 205
0.1512106 -0.04904982 0.3746665 205 205 205
0.1557394 -0.04988011 0.3756854 205 205 205
0.1609971 -0.05023134 0.3752841 205 205 205
-0.0368276 -0.03536466 0.4134487 205 205 205
-0.03364281 -0.03477282 0.4100225 205 205 205
-0.03226061 -0.03477287 0.4092336 205 205 205
-0.01067822 -0.03325345 0.3931191 205 205 205
-0.002752254 -0.03494985 0.3935051 205 205 205
-0.0002952799 -0.03476059 0.3916986 205 205 205
0.002046918 -0.03488489 0.3908159 205 205 205
0.02250084 -0.0354786 0.3821625 205 205 205
0.07072247 -0.05897374 0.4248308 205 205 205
0.07180007 -0.04930066 0.3981019 205 205 205
0.07454398 -0.04775825 0.3928242 205 205 205
0.08096738 -0.04501375 0.3828984 205 205 205
0.09055115 -0.04476989 0.3786857 205 205 205
0.09431088 -0.04561938 0.3796271 205 205 205
0.09786762 -0.04608379 0.379623 205 205 205
0.1149607 -0.04699481 0.3763451 205 205 205
0.1338123 -0.0469185 0.3704332 205 205 205
0.1385224 -0.04822567 0.372543 205 205 205
0.1462035 -0.04894631 0.3723258 205 205 205
0.1476879 -0.04923851 0.3726934 205 205 205
0.1679022 -0.05110905 0.3724533 205 205 205
-0.03364117 -0.03559519 0.4086801 205 205 205
-0.0322619 -0.03559127 0.4078917 205 205 205
-0.01838289 -0.03436839 0.3969233 205 205 205
-0.01211667 -0.03439125 0.3935957 205 205 205
-0.009723222 -0.03456977 0.3927963 205 205 205
-0.005194212 -0.0355453 0.3930238 205 205 205
-0.000373332 -0.03549349 0.3903702 205 205 205
0.003166402 -0.03550242 0.3885713 205 205 205
0.006378883 -0.03682329 0.390494 205 205 205
0.02453146 -0.03686476 0.381684 205 205 205
0.03004276 -0.03875305 0.3841833 205 205 205
0.03345272 -0.0406392 0.3876929 205 205 205
0.03931479 -0.04353108 0.3928244 205 205 205
0.07196405 -0.0606758 0.4250711 205 205 205
0.07893167 -0.04668903 0.3848178 205 205 205
0.08619024 -0.04601549 0.3802939 205 205 205
0.08819806 -0.04574798 0.3788445 205 205 205
0.09724206 -0.04642536 0.3774246 205 205 205
0.09834227 -0.04645351 0.3771169 205 205 205
0.09968868 -0.04684871 0.3777012 205 205 205
0.1131943 -0.04882779 0.3784317 205 205 205
0.1167117 -0.04769478 0.3743201 205 205 205
0.1224833 -0.04798163 0.3732807 205 205 205
0.1383853 -0.04932697 0.3721304 205 205 205
0.1475517 -0.05035277 0.3722756 205 205 205
0.1675581 -0.05308698 0.3742118 205 205 205
0.170591 -0.05154325 0.3695436 205 205 205
0.0006699827 -0.03644419 0.3890704 205 205 205
0.004034675 -0.03711128 0.3891373 205 205 205
0.01088808 -0.03770246 0.3872885 205 205 205
0.01321987 -0.03742063 0.3853901 205 205 205
0.01995982 -0.03753124 0.3824181 205 205 205
0.02105955 -0.03771358 0.3823783 205 205 205
0.03446264 -0.04256881 0.3890786 205 205 205
0.04163452 -0.0463463 0.3959269 205 205 205
0.0738295 -0.05173187 0.3968103 205 205 205
0.07538351 -0.05005628 0.3917649 205 205 205
0.07877833 -0.04777075 0.384411 205 205 205
0.08084722 -0.04753496 0.3830049 205 205 205
0.08401346 -0.04734759 0.3813274 205 205 205
0.09047315 -0.04727843 0.3787881 205 205 205
0.1083291 -0.04953214 0.3785489 205 205 205
0.1367911 -0.05010813 0.3713061 205 205 205
0.1408001 -0.05068354 0.3716595 205 205 205
0.149699 -0.05250075 0.3738912 205 205 205
0.1638954 -0.05335166 0.3724034 205 205 205
0.165434 -0.05361211 0.372684 205 205 205
-0.01759815 -0.03679534 0.396213 205 205 205
-0.0007182835 -0.03760808 0.3895814 205 205 205
0.0004064179 -0.03783606 0.3896115 205 205 205
0.00282524 -0.03760496 0.3877865 205 205 205
0.00730137 -0.03847086 0.3878352 205 205 205
0.01071956 -0.03875181 0.3868938 205 205 205
0.01300366 -0.03881014 0.3859344 205 205 205
0.01416309 -0.03866123 0.3849806 205 205 205
0.01531511 -0.03850878 0.3840231 205 205 205
0.02199634 -0.0389282 0.3819447 205 205 205
0.02419716 -0.03928253 0.3818456 205 205 205
0.02860502 -0.04032039 0.3825359 205 205 205
0.02971846 -0.04084219 0.3833993 205 205 205
0.04642361 -0.05695746 0.4183908 205 205 205
0.08069418 -0.04861132 0.3825952 205 205 205
0.08366875 -0.04804566 0.380012 205 205 205
0.08477992 -0.04810182 0.3797496 205 205 205
0.1117934 -0.05101016 0.377962 205 205 205
0.1153325 -0.04986382 0.3738699 205 205 205
0.1362872 -0.05082703 0.3700344 205 205 205
0.1373712 -0.05077382 0.3695913 205 205 205
0.146882 -0.05220206 0.3705873 205 205 205
0.1491622 -0.05324857 0.3726224 205 205 205
-0.01534221 -0.03807125 0.3950435 205 205 205
-0.004586115 -0.03898169 0.3918714 205 205 205
0.009433394 -0.03959326 0.3865007 205 205 205
0.01621749 -0.04009232 0.3845376 205 205 205
0.04009308 -0.04802299 0.3942776 205 205 205
0.04471146 -0.0561576 0.4134292 205 205 205
0.07672456 -0.06842957 0.4321217 205 205 205
0.08259341 -0.04943268 0.3807656 205 205 205
0.0844319 -0.04879063 0.3784338 205 205 205
0.08775035 -0.04894467 0.3776263 205 205 205
0.09084223 -0.04869808 0.3758859 205 205 205
0.1006931 -0.04896967 0.3731679 205 205 205
0.1020398 -0.04936877 0.3737356 205 205 205
0.1257433 -0.05035577 0.3687132 205 205 205
0.1271598 -0.05070219 0.3691673 205 205 205
0.1285823 -0.05104603 0.369615 205 205 205
0.1310953 -0.05134615 0.3696344 205 205 205
0.1361472 -0.05191576 0.3696121 205 205 205
0.137943 -0.05142791 0.3678745 205 205 205
0.1437871 -0.0526922 0.369424 205 205 205
0.1576752 -0.05574107 0.373339 205 205 205
0.1607341 -0.05630105 0.3739452 205 205 205
0.1655961 -0.05626256 0.372621 205 205 205
0.1715544 -0.05606047 0.3706603 205 205 205
-0.03362603 -0.03879477 0.4032924 205 205 205
-0.02991247 -0.0393725 0.4027736 205 205 205
-0.02837681 -0.0390159 0.4010451 205 205 205
-0.02056904 -0.03907106 0.3970669 205 205 205
-0.009667788 -0.04008874 0.3940535 205 205 205
-0.002189817 -0.03948472 0.3887426 205 205 205
0.02054423 -0.0411695 0.3821301 205 205 205
0.02387021 -0.04134744 0.3810528 205 205 205
0.02607259 -0.04169411 0.3809375 205 205 205
0.0282754 -0.04203191 0.3808069 205 205 205
0.07961693 -0.05145503 0.3838271 205 205 205
0.08759933 -0.05000668 0.377212 205 205 205
0.09156869 -0.04941257 0.3742895 205 205 205
0.09484757 -0.0495167 0.3734087 205 205 205
0.1016364 -0.05004621 0.3724338 205 205 205
0.1049002 -0.05008741 0.3714496 205 205 205
0.109549 -0.05202984 0.374832 205 205 205
0.1259363 -0.05180968 0.3691544 205 205 205
0.1399573 -0.05239175 0.3665484 205 205 205
0.1521709 -0.05523827 0.3702753 205 205 205
0.1718711 -0.05757676 0.3710184 205 205 205
0.1715937 -0.05632863 0.3680348 205 205 205
-0.02757422 -0.04073263 0.4016707 205 205 205
-0.01959884 -0.04042428 0.3967441 205 205 205
-0.01099096 -0.04090649 0.3935758 205 205 205
0.005668462 -0.04140171 0.3866187 205 205 205
0.006859167 -0.04126203 0.3856917 205 205 205
0.02257195 -0.04292728 0.3825653 205 205 205
0.02922751 -0.04396287 0.3821929 205 205 205
0.03996338 -0.05206021 0.398066 205 205 205
0.07734773 -0.05800134 0.3980051 205 205 205
0.09337691 -0.05014988 0.3723973 205 205 205
0.0955532 -0.05021204 0.371801 205 205 205
0.1034031 -0.05074414 0.3704805 205 205 205
0.1222152 -0.05258157 0.3690681 205 205 205
0.1322472 -0.05384796 0.3692099 205 205 205
0.1333332 -0.05380154 0.3687794 205 205 205
0.1706258 -0.05884075 0.3711284 205 205 205
-0.03696973 -0.04136529 0.4049108 205 205 205
-0.03184403 -0.04193649 0.403635 205 205 205
-0.02208962 -0.04095259 0.3961262 205 205 205
-0.01702955 -0.04101973 0.3937148 205 205 205
-0.01218199 -0.04137444 0.3921612 205 205 205
-0.006364038 -0.04227172 0.3915193 205 205 205
-0.005115782 -0.0421636 0.3906344 205 205 205
0.005496401 -0.04244614 0.386207 205 205 205
0.007805018 -0.0425149 0.3852826 205 205 205
0.0190791 -0.04341351 0.3822909 205 205 205
0.02018777 -0.04359866 0.3822498 205 205 205
0.02573368 -0.04449097 0.3819867 205 205 205
0.08412083 -0.08257012 0.4535064 205 205 205
0.07838417 -0.05657335 0.3907127 205 205 205
0.07903076 -0.0554819 0.387747 205 205 205
0.0804327 -0.0536762 0.3827223 205 205 205
0.08250447 -0.05341311 0.381307 205 205 205
0.08708832 -0.05173517 0.3754739 205 205 205
0.1054224 -0.05181486 0.3693953 205 205 205
0.1133593 -0.05377727 0.3716733 205 205 205
0.1169395 -0.05413857 0.3714322 205 205 205
0.1180328 -0.05412362 0.3710536 205 205 205
0.1191248 -0.05410629 0.3706713 205 205 205
0.1306672 -0.05458179 0.3683512 205 205 205
0.1360831 -0.05556061 0.369167 205 205 205
0.1368057 -0.05511671 0.3678776 205 205 205
0.1382596 -0.05544968 0.3682745 205 205 205
0.148496 -0.05645891 0.3678828 205 205 205
-0.0332161 -0.04273688 0.4030621 205 205 205
-0.02227409 -0.04202817 0.3956995 205 205 205
-0.01981075 -0.04223612 0.3949674 205 205 205
-0.01721142 -0.04208654 0.3932911 205 205 205
-0.005183206 -0.04286716 0.3892847 205 205 205
0.01891159 -0.04444582 0.3818783 205 205 205
0.02334827 -0.04517426 0.3816902 205 205 205
0.03002644 -0.04694944 0.3831464 205 205 205
0.0311577 -0.04748908 0.3839929 205 205 205
0.03715958 -0.05281653 0.3946336 205 205 205
0.07939395 -0.06041833 0.396601 205 205 205
0.08063249 -0.05553542 0.3840934 205 205 205
0.08309101 -0.0537574 0.3788142 205 205 205
0.08512515 -0.05347467 0.3773852 205 205 205
0.09284864 -0.05184837 0.3706665 205 205 205
0.1001005 -0.05319109 0.3714898 205 205 205
0.1178853 -0.05519298 0.3706204 205 205 205
0.1222468 -0.05510864 0.3690693 205 205 205
0.1330448 -0.05595948 0.3679087 205 205 205
0.1344885 -0.05630386 0.3683211 205 205 205
0.1615161 -0.05985592 0.3694402 205 205 205
0.1645872 -0.0604194 0.3699923 205 205 205
-0.03498443 -0.04420448 0.4043226 205 205 205
-0.02245894 -0.04310184 0.3952685 205 205 205
-0.02114511 -0.04303326 0.3944428 205 205 205
-0.01538528 -0.04438049 0.3948746 205 205 205
0.008514953 -0.04516895 0.3853745 205 205 205
0.01421897 -0.04545034 0.383445 205 205 205
0.01760106 -0.04566002 0.3824269 205 205 205
0.02762353 -0.0476543 0.3828744 205 205 205
0.0287466 -0.04820117 0.3837275 205 205 205
0.08325926 -0.07410837 0.4253228 205 205 205
0.09752139 -0.0537998 0.3708065 205 205 205
0.09994997 -0.05424187 0.3710602 205 205 205
0.1103016 -0.05511852 0.3697837 205 205 205
0.1124782 -0.05510988 0.3690673 205 205 205
0.1220996 -0.05617553 0.3686321 205 205 205
0.126777 -0.05645015 0.3678758 205 205 205
0.1325444 -0.05663822 0.3666209 205 205 205
0.1368815 -0.05767371 0.3678381 205 205 205
0.1398014 -0.05834993 0.3686165 205 205 205
0.1486055 -0.05904561 0.3678157 205 205 205
0.1735018 -0.06188288 0.3680349 205 205 205
-0.03636478 -0.04499928 0.4037301 205 205 205
-0.03340507 -0.04459695 0.4012555 205 205 205
-0.02264419 -0.04417361 0.3948333 205 205 205
-0.01258862 -0.04419794 0.3899578 205 205 205
-0.01018853 -0.04434694 0.3891578 205 205 205
-0.006554988 -0.04436744 0.3874634 205 205 205
-0.001840501 -0.04459005 0.3857637 205 205 205
-0.0007181448 -0.04481999 0.385792 205 205 205
0.01404834 -0.04648492 0.3830222 205 205 205
0.03204163 -0.05203818 0.388599 205 205 205
0.03440415 -0.05351676 0.3911827 205 205 205
0.08388624 -0.0742379 0.4218287 205 205 205
0.08160974 -0.06593825 0.4026297 205 205 205
0.08408695 -0.05633622 0.3785756 205 205 205
0.08883046 -0.05497907 0.3736308 205 205 205
0.09386355 -0.05436072 0.3704032 205 205 205
0.09979851 -0.05529077 0.3706267 205 205 205
0.134553 -0.05886183 0.3682747 205 205 205
0.1407466 -0.05937479 0.367707 205 205 205
0.1429267 -0.05924201 0.3667793 205 205 205
0.1577515 -0.06111021 0.3671243 205 205 205
0.1592704 -0.06140683 0.367417 205 205 205
0.1627566 -0.06238593 0.3687913 205 205 205
0.1742775 -0.06380161 0.3691554 205 205 205
0.1764877 -0.0635364 0.3679942 205 205 205
-0.02565399 -0.04573052 0.3969469 205 205 205
-0.02449024 -0.04601603 0.3970544 205 205 205
-0.02183736 -0.04587446 0.3954137 205 205 205
-0.01676021 -0.04589848 0.3929988 205 205 205
-0.01561023 -0.04616345 0.3930763 205 205 205
-0.004475829 -0.04589084 0.3871174 205 205 205
0.004649002 -0.04734784 0.3863703 205 205 205
0.006977082 -0.04740814 0.3854498 205 205 205
0.009352989 -0.04708248 0.3835884 205 205 205
0.01271095 -0.04769486 0.3835433 205 205 205
0.01837492 -0.04791138 0.3815409 205 205 205
0.01948836 -0.04809839 0.3814989 205 205 205
0.02281434 -0.04902798 0.3822738 205 205 205
0.02616487 -0.0499409 0.3830127 205 205 205
0.03073594 -0.05332024 0.3891678 205 205 205
0.03309332 -0.05481429 0.3917549 205 205 205
0.08398297 -0.07313123 0.4156409 205 205 205
0.08576754 -0.05669554 0.3758069 205 205 205
0.08778119 -0.05638695 0.374364 205 205 205
0.08867522 -0.0560264 0.3731936 205 205 205
0.09262072 -0.05536862 0.3702654 205 205 205
0.0950344 -0.05583609 0.370552 205 205 205
0.1009913 -0.0567619 0.3707462 205 205 205
0.1067256 -0.05722312 0.3699532 205 205 205
0.1177424 -0.05879565 0.3701578 205 205 205
0.1257247 -0.05902444 0.3682476 205 205 205
0.1268159 -0.05898937 0.3678369 205 205 205
0.1354961 -0.05988841 0.3673815 205 205 205
0.1442532 -0.06065932 0.3666849 205 205 205
0.1498036 -0.06155752 0.3672359 205 205 205
0.1517053 -0.06227671 0.368386 205 205 205
0.1606469 -0.06281371 0.3672349 205 205 205
0.1652494 -0.06368443 0.368045 205 205 205
0.1678966 -0.06385093 0.3677477 205 205 205
0.1705497 -0.06400568 0.3674287 205 205 205
0.1721068 -0.06427678 0.3676591 205 205 205
0.1752357 -0.06480885 0.3680981 205 205 205
0.1749381 -0.06348905 0.3651432 205 205 205
0.1633994 -0.0508648 0.3390462 205 205 205
-0.03067804 -0.04599084 0.3969473 205 205 205
-0.02566856 -0.04645448 0.3955802 205 205 205
-0.02334758 -0.0470223 0.3957897 205 205 205
-0.002394202 -0.04740502 0.3867506 205 205 205
0.03534801 -0.05778385 0.3947863 205 205 205
0.09949277 -0.05738293 0.3697474 205 205 205
0.1208781 -0.05979941 0.3685452 205 205 205
0.1302773 -0.06034518 0.3669757 205 205 205
0.1346259 -0.06014982 0.365247 205 205 205
0.1400743 -0.06113641 0.3659593 205 205 205
0.1455836 -0.06207836 0.3665766 205 205 205
-0.01989209 -0.04856955 0.3947022 205 205 205
-0.01727574 -0.04838651 0.3930299 205 205 205
-0.01326727 -0.04771544 0.3895668 205 205 205
-0.006073894 -0.04810624 0.3871262 205 205 205
-0.0002164843 -0.0485347 0.3854406 205 205 205
0.004297217 -0.04943064 0.385496 205 205 205
0.01006667 -0.04973575 0.3836321 205 205 205
0.01343834 -0.05034547 0.3835738 205 205 205
0.02468424 -0.05262017 0.3840466 205 205 205
0.09034636 -0.05778424 0.3708514 205 205 205
0.09386182 -0.05830052 0.3708509 205 205 205
0.1355598 -0.06116261 0.3643483 205 205 205
0.1410125 -0.06214855 0.365037 205 205 205
0.155112 -0.06461812 0.3667472 205 205 205
0.1713515 -0.06613131 0.3659014 205 205 205
-0.02854537 -0.04837625 0.3953661 205 205 205
-0.007503326 -0.04927927 0.3875588 205 205 205
0.0006435944 -0.05017898 0.3859386 205 205 205
0.005325449 -0.05030535 0.3841356 205 205 205
0.009892215 -0.05076895 0.3831908 205 205 205
0.08331207 -0.06784973 0.3936239 205 205 205
0.08340353 -0.06542862 0.3880024 205 205 205
0.09150749 -0.05927519 0.3709952 205 205 205
0.1007795 -0.06031898 0.3702781 205 205 205
0.1021342 -0.06075147 0.3708236 205 205 205
0.1123004 -0.0612008 0.3685665 205 205 205
0.1147867 -0.06159824 0.3686896 205 205 205
0.1219853 -0.06231416 0.3680882 205 205 205
0.1397731 -0.06328998 0.3650312 205 205 205
0.166783 -0.06774362 0.3676543 205 205 205
0.1683354 -0.06803325 0.3678969 205 205 205
-0.0329953 -0.04999379 0.3981895 205 205 205
-0.03162943 -0.04993646 0.3974046 205 205 205
-0.02490107 -0.04958614 0.3934073 205 205 205
-0.0007615645 -0.05137131 0.3863902 205 205 205
0.02202449 -0.05552795 0.3860272 205 205 205
0.1069191 -0.06268084 0.3707484 205 205 205
0.116824 -0.06262477 0.3674748 205 205 205
0.1229272 -0.06334817 0.3672241 205 205 205
0.1746304 -0.06934194 0.3661411 205 205 205
0.1735095 -0.0619737 0.3501885 205 205 205
-0.0262461 -0.05036309 0.3928402 205 205 205
-0.0009409838 -0.05241156 0.3859367 205 205 205
0.01504084 -0.05502735 0.384928 205 205 205
0.0173154 -0.05541924 0.384852 205 205 205
0.02181201 -0.05737474 0.3874021 205 205 205
0.02296198 -0.05755975 0.3873419 205 205 205
0.02757117 -0.06149948 0.3943834 205 205 205
0.08525214 -0.07267951 0.3977017 205 205 205
0.08460533 -0.06852578 0.3885454 205 205 205
0.08464129 -0.06605347 0.3829488 205 205 205
0.0859569 -0.06405114 0.3779693 205 205 205
0.08872202 -0.06292571 0.3744746 205 205 205
0.1111761 -0.06373481 0.368865 205 205 205
0.1144751 -0.06370845 0.3677626 205 205 205
0.1155723 -0.06369476 0.3673878 205 205 205
0.1166683 -0.06367864 0.3670093 205 205 205
0.1249612 -0.06434393 0.3659456 205 205 205
0.1274815 -0.06469271 0.3659624 205 205 205
0.1486481 -0.0665971 0.3640538 205 205 205
0.1501413 -0.0669315 0.3643762 205 205 205
0.1542408 -0.06749764 0.3644928 205 205 205
0.180788 -0.07155564 0.366403 205 205 205
-0.03891688 -0.0523634 0.4003263 205 205 205
-0.03065303 -0.05202289 0.3956773 205 205 205
-0.02263069 -0.05152871 0.3908518 205 205 205
-0.01372178 -0.05114393 0.3859249 205 205 205
-0.01132267 -0.05127263 0.3851311 205 205 205
-0.003391671 -0.052982 0.3854294 205 205 205
0.003507284 -0.05396556 0.3846147 205 205 205
0.009304457 -0.05425313 0.3827585 205 205 205
0.01037499 -0.05485744 0.3836582 205 205 205
0.01938807 -0.05724491 0.3852155 205 205 205
0.02982683 -0.06660382 0.401954 205 205 205
0.09471464 -0.09967038 0.4516155 205 205 205
0.08581863 -0.06761376 0.3830765 205 205 205
0.09883064 -0.06469654 0.3721514 205 205 205
0.1041253 -0.06434684 0.3696347 205 205 205
0.1124068 -0.06520849 0.3688886 205 205 205
0.1146129 -0.06518815 0.3681475 205 205 205
0.1422488 -0.06721836 0.3643292 205 205 205
0.1448204 -0.06749565 0.364204 205 205 205
0.1582115 -0.06913494 0.3640654 205 205 205
0.1696362 -0.07073527 0.3644932 205 205 205
0.1743195 -0.07159561 0.3651371 205 205 205
0.1754259 -0.071459 0.3645556 205 205 205
0.1804434 -0.07032247 0.3608208 205 205 205
0.1635359 -0.05293752 0.3275759 205 205 205
-0.02546647 -0.05276928 0.3920091 205 205 205
-0.02298382 -0.05295911 0.3912951 205 205 205
-0.01518059 -0.05230285 0.3863109 205 205 205
-0.01163576 -0.05269065 0.385585 205 205 205
-0.008348121 -0.05382865 0.3866501 205 205 205
-0.007091205 -0.05368616 0.3857788 205 205 205
0.007933471 -0.05547075 0.3832268 205 205 205
0.02028283 -0.05969541 0.3874378 205 205 205
0.02252839 -0.06170053 0.3909723 205 205 205
0.02365103 -0.06351959 0.3945579 205 205 205
0.08755913 -0.06793941 0.3802635 205 205 205
0.0950914 -0.06524118 0.3717513 205 205 205
0.09779244 -0.06615589 0.3728674 205 205 205
0.1064416 -0.06583939 0.3693397 205 205 205
0.1111423 -0.06626897 0.3687784 205 205 205
0.1199486 -0.06614727 0.3657553 205 205 205
0.1304463 -0.06668129 0.363742 205 205 205
0.1768406 -0.07286213 0.3642405 205 205 205
0.1756336 -0.06529881 0.3483722 205 205 205
-0.02530747 -0.05306828 0.3897169 205 205 205
-0.02432722 -0.05373159 0.3907257 205 205 205
-0.02300563 -0.05363273 0.3899121 205 205 205
-0.01923707 -0.0536949 0.3883538 205 205 205
-0.0143667 -0.05398681 0.3868226 205 205 205
-0.002820427 -0.05607789 0.3863549 205 205 205
-0.0005325746 -0.05654584 0.386396 205 205 205
0.08808801 -0.07836927 0.4000113 205 205 205
0.09111214 -0.06745341 0.3751051 205 205 205
0.09336733 -0.06752655 0.3745042 205 205 205
0.09650921 -0.06718342 0.3727047 205 205 205
0.1015914 -0.06641623 0.3693563 205 205 205
0.1240428 -0.06841373 0.3666042 205 205 205
0.1441212 -0.06921705 0.3624106 205 205 205
0.154454 -0.07024051 0.3617015 205 205 205
0.1616165 -0.07142779 0.3622783 205 205 205
0.1679724 -0.07168585 0.3611242 205 205 205
0.1746467 -0.07327972 0.3627566 205 205 205
-0.03259245 -0.05530591 0.3950225 205 205 205
-0.01683313 -0.05449917 0.3862146 205 205 205
-0.01569254 -0.05476325 0.3862847 205 205 205
-0.01340936 -0.0552845 0.386413 205 205 205
-0.01099479 -0.05540333 0.385615 205 205 205
0.002886201 -0.05746535 0.3841307 205 205 205
0.007442128 -0.05834085 0.3841167 205 205 205
0.01982498 -0.06344953 0.390125 205 205 205
0.08821646 -0.07226297 0.3836719 205 205 205
0.1016811 -0.06789799 0.3697391 205 205 205
0.106653 -0.06881171 0.3700968 205 205 205
0.1166369 -0.0687502 0.3668014 205 205 205
0.122459 -0.06906688 0.3656817 205 205 205
0.1271856 -0.06936209 0.3648771 205 205 205
0.1297221 -0.06971283 0.3648647 205 205 205
0.134109 -0.06950961 0.3631262 205 205 205
0.168907 -0.07265769 0.3600575 205 205 205
0.1778442 -0.06854615 0.3490976 205 205 205
-0.03991741 -0.05708114 0.3992721 205 205 205
-0.03712276 -0.05696366 0.3977533 205 205 205
-0.01716692 -0.05592683 0.3866469 205 205 205
-0.01602236 -0.05619225 0.386717 205 205 205
0.003764331 -0.05912698 0.3845679 205 205 205
0.006050348 -0.05956697 0.3845604 205 205 205
0.01620673 -0.06309044 0.3879677 205 205 205
0.09687716 -0.07060751 0.3743341 205 205 205
0.1006529 -0.06936945 0.3704461 205 205 205
0.1262549 -0.07089897 0.3656368 205 205 205
0.1379572 -0.07126743 0.3629317 205 205 205
0.140862 -0.07062553 0.3607325 205 205 205
0.1500473 -0.07181139 0.3606067 205 205 205
0.1661151 -0.07357458 0.3598766 205 205 205
0.167655 -0.07388207 0.3601052 205 205 205
0.1791614 -0.07089772 0.3508782 205 205 205
-0.04011559 -0.05816466 0.3987707 205 205 205
-0.02720299 -0.05630736 0.3890789 205 205 205
-0.02489442 -0.05688122 0.389281 205 205 205
-0.01750232 -0.0573594 0.387072 205 205 205
-0.01277042 -0.05801313 0.3864212 205 205 205
-0.007940556 -0.05822001 0.3847974 205 205 205
-0.002225197 -0.05942477 0.3849459 205 205 205
0.01935525 -0.06725165 0.3927698 205 205 205
0.02370624 -0.08408599 0.4269416 205 205 205
0.09188948 -0.07327759 0.3788595 205 205 205
0.09304105 -0.07331611 0.3785549 205 205 205
0.1018545 -0.07087661 0.3704829 205 205 205
0.1090991 -0.07180742 0.3701137 205 205 205
0.1102188 -0.07180531 0.3697525 205 205 205
0.1227722 -0.0720615 0.3663715 205 205 205
0.1366985 -0.07239336 0.3628854 205 205 205
0.1458246 -0.07225992 0.3599608 205 205 205
0.1591853 -0.07393872 0.3597028 205 205 205
0.176367 -0.0763347 0.3600304 205 205 205
0.1798904 -0.07385545 0.3540036 205 205 205
0.180063 -0.07181961 0.3497733 205 205 205
-0.03572111 -0.05827388 0.3941871 205 205 205
-0.02891447 -0.05784306 0.3902864 205 205 205
-0.02129234 -0.05797856 0.3872557 205 205 205
-0.01768948 -0.05839754 0.3865852 205 205 205
0.007909528 -0.06248255 0.3844761 205 205 205
0.01230646 -0.06500069 0.388005 205 205 205
0.01342579 -0.06562769 0.3888767 205 205 205
0.01459509 -0.06583248 0.3888383 205 205 205
0.1114517 -0.07330392 0.3697358 205 205 205
0.1306799 -0.07328484 0.3637697 205 205 205
0.150816 -0.07385913 0.3590961 205 205 205
0.1564161 -0.07479205 0.3594455 205 205 205
0.1657929 -0.0757557 0.3588441 205 205 205
0.1668849 -0.07563029 0.3582907 205 205 205
0.1779231 -0.07671138 0.357556 205 205 205
0.1820149 -0.07257254 0.3480585 205 205 205
0.184071 -0.0732698 0.3489503 205 205 205
-0.03142527 -0.05829838 0.3895634 205 205 205
-0.03026612 -0.05859641 0.3896788 205 205 205
-0.02527419 -0.05897054 0.3882971 205 205 205
-0.01442882 -0.06022948 0.3862908 205 205 205
-0.001448116 -0.06172369 0.3839885 205 205 205
0.1152274 -0.07523461 0.3697951 205 205 205
0.1230768 -0.07507578 0.3670318 205 205 205
0.1275322 -0.07492903 0.3653711 205 205 205
0.1289782 -0.07533721 0.3657736 205 205 205
0.1297513 -0.07484037 0.3645186 205 205 205
0.1319644 -0.07474155 0.3636514 205 205 205
0.1411307 -0.07469352 0.3608471 205 205 205
0.1656299 -0.07684292 0.3583218 205 205 205
0.1833534 -0.07495332 0.3497903 205 205 205
-0.02795541 -0.059834 0.3884975 205 205 205
-0.02067787 -0.06073307 0.3872504 205 205 205
-0.01360127 -0.06193548 0.3867542 205 205 205
-0.007468869 -0.061968 0.3842726 205 205 205
-0.006322119 -0.06221328 0.3843057 205 205 205
-0.0004870368 -0.06298582 0.3835079 205 205 205
0.007277653 -0.06624522 0.3871019 205 205 205
0.01409479 -0.06922248 0.3905399 205 205 205
0.01846222 -0.07562889 0.402068 205 205 205
0.09686964 -0.08830968 0.3998169 205 205 205
0.09772128 -0.08250701 0.3876065 205 205 205
0.1047493 -0.07812998 0.376323 205 205 205
0.1153489 -0.07675061 0.3701231 205 205 205
0.1302627 -0.07680752 0.3656535 205 205 205
0.133253 -0.07619974 0.3635193 205 205 205
0.1380346 -0.07641296 0.3625342 205 205 205
0.145792 -0.07733028 0.3621307 205 205 205
0.1479998 -0.07716207 0.3611534 205 205 205
0.1571815 -0.07683459 0.3578871 205 205 205
0.1613112 -0.0773952 0.3578678 205 205 205
0.1803773 -0.0780063 0.3539432 205 205 205
0.1894212 -0.07814692 0.35187 205 205 205
0.1613574 -0.0504361 0.3038175 205 205 205
-0.03886873 -0.06122332 0.3932895 205 205 205
-0.03412579 -0.05978297 0.3883179 205 205 205
-0.01263426 -0.06323252 0.3863055 205 205 205
-0.006621345 -0.06366066 0.3847085 205 205 205
-0.005360592 -0.06348579 0.383836 205 205 205
-0.0007658054 -0.06443564 0.3839115 205 205 205
0.01386301 -0.0707141 0.3909264 205 205 205
0.1015821 -0.09730241 0.4135811 205 205 205
0.1013784 -0.08189088 0.3822975 205 205 205
0.1034915 -0.08147117 0.3807568 205 205 205
0.1273945 -0.0789185 0.3680672 205 205 205
0.1278596 -0.07796031 0.3659913 205 205 205
0.1515362 -0.07841308 0.3599311 205 205 205
0.153043 -0.07877031 0.3602175 205 205 205
0.1611459 -0.07847197 0.3573402 205 205 205
0.1644152 -0.07811057 0.3557132 205 205 205
0.1692027 -0.07804057 0.3542625 205 205 205
0.1743071 -0.07941109 0.3556077 205 205 205
0.1770895 -0.07851901 0.3530888 205 205 205
0.1786489 -0.07881042 0.353252 205 205 205
0.1862598 -0.0744862 0.3426983 205 205 205
-0.02968277 -0.06202625 0.388276 205 205 205
-0.02370111 -0.06306722 0.38787 205 205 205
-0.01527423 -0.06416026 0.386588 205 205 205
-0.003250179 -0.06499362 0.3833784 205 205 205
0.005597456 -0.06897165 0.3879001 205 205 205
0.1016498 -0.0861977 0.3880837 205 205 205
0.1050242 -0.08579948 0.3861841 205 205 205
0.1155853 -0.07979701 0.3707566 205 205 205
0.1212579 -0.07969315 0.3687827 205 205 205
0.1257716 -0.07956349 0.3671359 205 205 205
0.1343771 -0.07871912 0.3628494 205 205 205
0.1517717 -0.07994052 0.3601946 205 205 205
0.160548 -0.07909185 0.3560293 205 205 205
0.1769242 -0.07960254 0.3525524 205 205 205
0.1682415 -0.05734496 0.3111658 205 205 205
0.1744125 -0.06158924 0.3178799 205 205 205
-0.04022174 -0.06261969 0.3912208 205 205 205
-0.02522567 -0.06423359 0.3881625 205 205 205
-0.01792889 -0.06507801 0.3868474 205 205 205
-0.01676758 -0.06534776 0.3869124 205 205 205
-0.01430529 -0.06546006 0.3861333 205 205 205
-0.01069891 -0.06581552 0.3853821 205 205 205
0.1082018 -0.09575063 0.4021596 205 205 205
0.1083404 -0.08462542 0.3799535 205 205 205
0.1110573 -0.08323329 0.3763165 205 205 205
0.1136959 -0.08181756 0.3726663 205 205 205
0.1735067 -0.08113125 0.3537667 205 205 205
0.1789138 -0.08037226 0.3508245 205 205 205
0.1804986 -0.0668076 0.3240557 205 205 205
-0.02792561 -0.06510738 0.3883456 205 205 205
-0.02208363 -0.0665435 0.3887943 205 205 205
-0.007528922 -0.06803114 0.3858722 205 205 205
-0.003830629 -0.06790549 0.3841526 205 205 205
0.1206887 -0.08325239 0.3706076 205 205 205
0.1325004 -0.08188009 0.3643047 205 205 205
0.1384657 -0.08057708 0.359972 205 205 205
0.1525361 -0.08198322 0.3586127 205 205 205
0.1739553 -0.0816076 0.3518845 205 205 205
0.1893671 -0.08081431 0.3462266 205 205 205
0.1862904 -0.07595342 0.337685 205 205 205
-0.04039674 -0.06431283 0.3892837 205 205 205
-0.02811952 -0.06614777 0.387822 205 205 205
-0.02695265 -0.06644022 0.3879196 205 205 205
-0.02094829 -0.06744435 0.387454 205 205 205
-0.01962636 -0.06729823 0.3866342 205 205 205
-0.01831133 -0.06714793 0.3858099 205 205 205
-0.003163248 -0.07047905 0.3863339 205 205 205
0.003703968 -0.07275853 0.3881361 205 205 205
0.009199859 -0.07696949 0.3942964 205 205 205
0.1105555 -0.09153847 0.3872741 205 205 205
0.1253956 -0.08467188 0.3692386 205 205 205
0.1276777 -0.08459467 0.3683898 205 205 205
0.1337942 -0.08335671 0.3641315 205 205 205
0.1349166 -0.0832987 0.3636818 205 205 205
0.1405 -0.08148578 0.3585061 205 205 205
0.1754701 -0.08192065 0.349418 205 205 205
0.1875077 -0.08379884 0.3497639 205 205 205
0.1928401 -0.08397164 0.3486792 205 205 205
-0.03200252 -0.06670997 0.3878662 205 205 205
-0.01850305 -0.06817959 0.385285 205 205 205
-0.0171943 -0.06802212 0.3844577 205 205 205
-0.01487685 -0.06855529 0.3845735 205 205 205
0.001069023 -0.07378568 0.3885082 205 205 205
0.1129346 -0.09075788 0.3822058 205 205 205
0.1160123 -0.0878675 0.3756496 205 205 205
0.1241681 -0.08771411 0.3728148 205 205 205
0.1258519 -0.08669391 0.3703298 205 205 205
0.1270012 -0.08665619 0.3699045 205 205 205
0.1462654 -0.08410569 0.3592317 205 205 205
0.1753005 -0.08298802 0.348869 205 205 205
0.1921889 -0.08350604 0.3452992 205 205 205
-0.03665295 -0.06610093 0.3859703 205 205 205
-0.02986046 -0.06834856 0.3875485 205 205 205
-0.02400238 -0.06980848 0.3880145 205 205 205
-0.02266519 -0.06966496 0.3872067 205 205 205
-0.009625736 -0.07218962 0.3869362 205 205 205
-0.007276418 -0.07269504 0.3869961 205 205 205
-0.00599154 -0.07250365 0.3861288 205 205 205
0.004276581 -0.07641763 0.3897264 205 205 205
0.1344808 -0.08691207 0.3654585 205 205 205
0.1352651 -0.08637486 0.364199 205 205 205
0.1501133 -0.08432463 0.3559112 205 205 205
0.1523066 -0.0841264 0.3548994 205 205 205
0.1581826 -0.0840573 0.3530797 205 205 205
0.1616449 -0.08263434 0.3494047 205 205 205
0.1762029 -0.083898 0.3477286 205 205 205
0.1820313 -0.08354611 0.3454746 205 205 205
0.1898827 -0.08496366 0.3460172 205 205 205
0.1797848 -0.06964496 0.3200198 205 205 205
0.1721803 -0.0621666 0.3080421 205 205 205
-0.039167 -0.06650273 0.3851744 205 205 205
-0.03005594 -0.06938507 0.3870111 205 205 205
-0.02888592 -0.06968234 0.3871121 205 205 205
-0.009818868 -0.07322698 0.3863975 205 205 205
-0.008526677 -0.07303911 0.3855399 205 205 205
-0.007469393 -0.07373317 0.3864567 205 205 205
-0.004145711 -0.07536507 0.3882944 205 205 205
-0.003059323 -0.076055 0.3891954 205 205 205
0.008493138 -0.0810855 0.3944219 205 205 205
0.1214985 -0.09384861 0.3799285 205 205 205
0.1273859 -0.09173847 0.3741116 205 205 205
0.1521329 -0.08517863 0.3543482 205 205 205
0.1554098 -0.08486076 0.3528042 205 205 205
0.159321 -0.08392539 0.3499286 205 205 205
0.1614737 -0.08368023 0.3488567 205 205 205
0.1828155 -0.0733752 0.3237816 205 205 205
-0.03492332 -0.06920424 0.3860261 205 205 205
-0.03375676 -0.06951161 0.3861431 205 205 205
-0.03278423 -0.07024395 0.3871388 205 205 205
-0.0078918 -0.07566186 0.3876883 205 205 205
-0.003551557 -0.07845152 0.3913088 205 205 205
-3.51021E-05 -0.07963019 0.3922061 205 205 205
0.007336144 -0.08010724 0.3903393 205 205 205
0.123395 -0.09639154 0.3813941 205 205 205
0.1358455 -0.09146985 0.368355 205 205 205
0.1382898 -0.08830532 0.3617027 205 205 205
0.143139 -0.08696297 0.3577513 205 205 205
0.1471708 -0.08613469 0.3550173 205 205 205
0.1722997 -0.08490884 0.3455456 205 205 205
0.1765493 -0.08428612 0.3432132 205 205 205
0.1927508 -0.08541861 0.3408853 205 205 205
0.1829865 -0.07259834 0.3199255 205 205 205
-0.02810671 -0.07204533 0.3861207 205 205 205
-0.02207857 -0.0730488 0.3856577 205 205 205
-0.009269685 -0.07644786 0.3871099 205 205 205
-0.001530529 -0.08090391 0.3925313 205 205 205
0.002019188 -0.08207816 0.3934014 205 205 205
0.1271227 -0.09790768 0.3803357 205 205 205
0.1376138 -0.09193688 0.3660548 205 205 205
0.1422242 -0.08857986 0.3584591 205 205 205
0.1517821 -0.08727603 0.3532338 205 205 205
0.1877815 -0.08790662 0.3442205 205 205 205
0.1893597 -0.08819129 0.3443094 205 205 205
-0.03531602 -0.07126185 0.3849333 205 205 205
-0.0187561 -0.07491349 0.3853099 205 205 205
-0.008629579 -0.07909972 0.3892336 205 205 205
-0.0009635261 -0.08450038 0.396383 205 205 205
0.1366636 -0.1006891 0.3798176 205 205 205
0.1382246 -0.09756282 0.3735983 205 205 205
0.1424173 -0.09012119 0.3586808 205 205 205
0.1431589 -0.08955013 0.3574131 205 205 205
0.1461041 -0.08880281 0.3551703 205 205 205
0.1719516 -0.08700264 0.3444223 205 205 205
0.1736064 -0.08621568 0.3425259 205 205 205
0.1902878 -0.08793568 0.3410265 205 205 205
0.1903075 -0.08679823 0.3389619 205 205 205
0.1733814 -0.06546126 0.3049717 205 205 205
-0.01598544 -0.07856233 0.3884452 205 205 205
-0.002394988 -0.08532964 0.3958035 205 205 205
0.001130181 -0.08698802 0.3975504 205 205 205
0.1419887 -0.1025644 0.3788997 205 205 205
0.1421479 -0.101012 0.3760264 205 205 205
0.143354 -0.09109195 0.3576275 205 205 205
0.1459247 -0.08984695 0.3546025 205 205 205
0.1481308 -0.08966166 0.3536137 205 205 205
0.1562137 -0.08941945 0.350805 205 205 205
0.1696367 -0.08834383 0.344999 205 205 205
0.1728418 -0.08789298 0.3432775 205 205 205
0.188538 -0.0887114 0.3403704 205 205 205
0.191688 -0.08927778 0.3405208 205 205 205
0.1927537 -0.08793229 0.3378146 205 205 205
-0.03103765 -0.07453311 0.3842625 205 205 205
-0.02165313 -0.07686246 0.3849448 205 205 205
-0.02063207 -0.07759386 0.3858905 205 205 205
-0.01363628 -0.0840665 0.3950467 205 205 205
-0.01228734 -0.08387808 0.3942026 205 205 205
-0.003067399 -0.08872609 0.3996207 205 205 205
0.1456238 -0.1055463 0.3804691 205 205 205
0.1450207 -0.09147394 0.3552991 205 205 205
0.1549412 -0.09057506 0.3507556 205 205 205
0.1616739 -0.0887461 0.3455172 205 205 205
0.1925765 -0.08898593 0.3372362 205 205 205
-0.03781088 -0.07282378 0.3812762 205 205 205
-0.03453832 -0.0741976 0.3825054 205 205 205
-0.02889346 -0.07615361 0.3838948 205 205 205
-0.0189121 -0.08054878 0.3880777 205 205 205
-0.009281015 -0.08759096 0.3972122 205 205 205
-0.00536033 -0.08743732 0.3954993 205 205 205
-0.004128288 -0.08769032 0.3955056 205 205 205
0.1467186 -0.09342619 0.355783 205 205 205
0.1735509 -0.08981512 0.3415509 205 205 205
-0.03589803 -0.07490369 0.3818275 205 205 205
-0.03260163 -0.07627286 0.3830316 205 205 205
-0.01785453 -0.08583133 0.3946133 205 205 205
0.1695691 -0.1405584 0.4298256 205 205 205
0.1475319 -0.1039728 0.3717027 205 205 205
0.1464992 -0.1008652 0.3665138 205 205 205
0.1461793 -0.09556971 0.3572425 205 205 205
0.1560887 -0.09303925 0.3498359 205 205 205
0.1567633 -0.09242306 0.3485508 205 205 205
0.1578529 -0.09230394 0.3480213 205 205 205
0.1634596 -0.09054046 0.3432803 205 205 205
0.1681818 -0.0904721 0.3417959 205 205 205
0.1750147 -0.09003721 0.3390748 205 205 205
0.1838979 -0.08913711 0.3349828 205 205 205
-0.03609512 -0.07591626 0.3812606 205 205 205
-0.03472895 -0.0757764 0.3805052 205 205 205
-0.02793621 -0.07803418 0.3819761 205 205 205
-0.02694383 -0.07878361 0.3829343 205 205 205
-0.02476484 -0.07982228 0.3839674 205 205 205
-0.02185547 -0.08252195 0.3876715 205 205 205
0.1632791 -0.09156618 0.3427016 205 205 205
0.1669351 -0.09164523 0.3417785 205 205 205
0.1915061 -0.09046837 0.3327397 205 205 205
-0.03883075 -0.07674848 0.3813163 205 205 205
-0.03745444 -0.07661371 0.3805716 205 205 205
0.1528674 -0.1106041 0.3764088 205 205 205
0.1528275 -0.09595761 0.3509814 205 205 205
0.1620262 -0.09272429 0.3426657 205 205 205
0.1662989 -0.09216889 0.3404587 205 205 205
0.1715936 -0.09141519 0.3376227 205 205 205
0.1866428 -0.09180062 0.3339877 205 205 205
0.1913036 -0.09031826 0.3301218 205 205 205
-0.0306665 -0.079464 0.3806426 205 205 205
-0.02949918 -0.07976263 0.3807362 205 205 205
-0.02567288 -0.08325821 0.3854139 205 205 205
-0.01703157 -0.09790831 0.4077398 205 205 205
-0.01444364 -0.09848022 0.4078083 205 205 205
0.1541533 -0.09739583 0.3506241 205 205 205
0.1552597 -0.09728268 0.3501007 205 205 205
0.1724648 -0.09227389 0.3364609 205 205 205
0.1875033 -0.09263612 0.3327689 205 205 205
0.1932142 -0.09211951 0.3302701 205 205 205
-0.04248811 -0.07734668 0.3789087 205 205 205
-0.04132996 -0.0776701 0.3790421 205 205 205
-0.02430829 -0.08721665 0.3893033 205 205 205
-0.02250741 -0.08968473 0.3929045 205 205 205
-0.01983403 -0.09843837 0.407012 205 205 205
0.1526658 -0.1079279 0.3666127 205 205 205
0.15113 -0.1025699 0.3579267 205 205 205
0.1514848 -0.1014372 0.355887 205 205 205
0.1674529 -0.09456751 0.3394539 205 205 205
0.1701741 -0.09360502 0.3370233 205 205 205
0.1780056 -0.0929547 0.3336485 205 205 205
0.1862905 -0.0926653 0.3307791 205 205 205
0.187835 -0.0917742 0.3288291 205 205 205
-0.0413031 -0.07821335 0.3776002 205 205 205
-0.03572289 -0.08025434 0.3790656 205 205 205
-0.0314436 -0.08241087 0.3812045 205 205 205
-0.02658984 -0.08672395 0.3868213 205 205 205
-0.01427138 -0.08859608 0.3856496 205 205 205
0.155702 -0.1003897 0.3503963 205 205 205
0.1580158 -0.09732786 0.3445327 205 205 205
0.1720982 -0.09430113 0.3352807 205 205 205
0.1794094 -0.09310821 0.331149 205 205 205
0.1866237 -0.09298518 0.3288645 205 205 205
0.1876522 -0.09278711 0.3282369 205 205 205
-0.03339384 -0.08140438 0.3778306 205 205 205
-0.02025334 -0.09602671 0.3978871 205 205 205
0.1560204 -0.1036262 0.3533134 205 205 205
0.1563292 -0.1024696 0.3512818 205 205 205
0.1599988 -0.09809384 0.3428558 205 205 205
0.1617245 -0.0973106 0.3410321 205 205 205
0.1649445 -0.09689237 0.3393792 205 205 205
0.1744927 -0.09549357 0.3342351 205 205 205
0.1864394 -0.09399606 0.3282682 205 205 205
-0.04169828 -0.08020139 0.3764287 205 205 205
-0.03822966 -0.08115851 0.3768006 205 205 205
-0.02872831 -0.08991796 0.3881102 205 205 205
-0.02624423 -0.09417442 0.3943653 205 205 205
-0.02564773 -0.09639845 0.3978802 205 205 205
-0.02374578 -0.09892914 0.4014534 205 205 205
0.1619733 -0.09884515 0.3411618 205 205 205
0.1647563 -0.09790565 0.338776 205 205 205
-0.03043243 -0.08794966 0.3830295 205 205 205
-0.02313839 -0.1017775 0.40344 205 205 205
0.1581432 -0.1139818 0.3649155 205 205 205
0.1602383 -0.102357 0.3451254 205 205 205
0.1698941 -0.09816211 0.3353477 205 205 205
0.1714213 -0.09852242 0.3354883 205 205 205
0.1720103 -0.09784171 0.3341953 205 205 205
0.1881226 -0.09560853 0.3258074 205 205 205
-0.03535364 -0.08455466 0.3768 205 205 205
-0.02688777 -0.1009808 0.4008807 205 205 205
0.157373 -0.1077125 0.3523803 205 205 205
0.1597866 -0.1045699 0.3465183 205 205 205
0.1608949 -0.10444 0.3459731 205 205 205
0.17335 -0.09920397 0.3337145 205 205 205
0.1765861 -0.0974782 0.3299455 205 205 205
-0.0413617 -0.08396285 0.3756196 205 205 205
-0.03221971 -0.09015775 0.3825645 205 205 205
0.1695142 -0.1322143 0.3860252 205 205 205
0.158394 -0.1103613 0.3539636 205 205 205
0.1721 -0.1003753 0.3336827 205 205 205
0.1820827 -0.09807958 0.3270143 205 205 205
-0.03216363 -0.09391993 0.3862928 205 205 205
-0.02918764 -0.1005551 0.3960004 205 205 205
0.1629437 -0.1050234 0.341603 205 205 205
0.1635989 -0.1043497 0.3403239 205 205 205
0.1772466 -0.09929257 0.3281273 205 205 205
0.1885794 -0.09840137 0.3233428 205 205 205
0.1911521 -0.0984984 0.3227396 205 205 205
-0.03255888 -0.09543911 0.3865061 205 205 205
-0.02940276 -0.1016201 0.3953399 205 205 205
0.1662119 -0.1043907 0.3372961 205 205 205
0.1711177 -0.1030756 0.3337276 205 205 205
0.1770546 -0.1002846 0.3275106 205 205 205
-0.04404243 -0.08577894 0.3726895 205 205 205
-0.04218598 -0.08739959 0.3746352 205 205 205
0.1619274 -0.1124689 0.3490743 205 205 205
0.1629127 -0.1105753 0.3457828 205 205 205
0.1636015 -0.1098965 0.3445012 205 205 205
0.1640778 -0.107454 0.3404984 205 205 205
0.1681697 -0.105092 0.3355307 205 205 205
0.1715179 -0.103378 0.3318157 205 205 205
0.1799717 -0.1007207 0.3250857 205 205 205
-0.04424137 -0.08675367 0.3720745 205 205 205
-0.03335409 -0.09848879 0.3869084 205 205 205
-0.03091549 -0.1029278 0.3930839 205 205 205
0.1701162 -0.1315078 0.3740665 205 205 205
0.1631343 -0.1121519 0.3458525 205 205 205
0.1723804 -0.1042065 0.3306042 205 205 205
0.1813117 -0.1020483 0.3245364 205 205 205
-0.03974244 -0.09181171 0.3762724 205 205 205
-0.02793819 -0.1025791 0.3891767 205 205 205
0.1652098 -0.1098818 0.3393641 205 205 205
0.1697599 -0.1080249 0.335095 205 205 205
0.1709894 -0.1066153 0.3325323 205 205 205
0.1732398 -0.1050288 0.3293861 205 205 205
0.1811403 -0.10177 0.3219395 205 205 205
-0.0422976 -0.09214964 0.375404 205 205 205
-0.0351941 -0.1007309 0.3863457 205 205 205
-0.02712504 -0.1005618 0.3834488 205 205 205
0.1786446 -0.1441573 0.3858258 205 205 205
0.1701138 -0.1307591 0.3677775 205 205 205
0.1641225 -0.1176577 0.3494094 205 205 205
0.1652125 -0.1126881 0.3414141 205 205 205
0.1718574 -0.1074461 0.3313091 205 205 205
-0.04461604 -0.09197664 0.3736805 205 205 205
-0.04080089 -0.09528665 0.3775131 205 205 205
0.1647507 -0.119813 0.3501666 205 205 205
0.1685345 -0.1119983 0.3370572 205 205 205
0.1698102 -0.1105802 0.3344991 205 205 205
0.1733135 -0.1075518 0.3288002 205 205 205
0.1749489 -0.1066548 0.3269305 205 205 205
0.1797202 -0.103913 0.3212881 205 205 205
0.180244 -0.1031781 0.3200063 205 205 205
-0.03581263 -0.1032908 0.3858488 205 205 205
0.1758429 -0.1395575 0.3743596 205 205 205
0.1662147 -0.123093 0.3523441 205 205 205
0.1735835 -0.109089 0.3288431 205 205 205
-0.0428445 -0.09795168 0.3777636 205 205 205
-0.03946692 -0.09944429 0.3789329 205 205 205
0.1675856 -0.1245702 0.3517803 205 205 205
0.1671868 -0.1190919 0.3436599 205 205 205
0.1777521 -0.106783 0.3218943 205 205 205
-0.04009845 -0.1014657 0.379934 205 205 205
0.1690526 -0.1278839 0.3539157 205 205 205
0.1737626 -0.1103298 0.326262 205 205 205
0.1758737 -0.1099705 0.3250746 205 205 205
0.1862642 -0.1053978 0.3150515 205 205 205
-0.04073281 -0.103497 0.3809227 205 205 205
0.1708215 -0.1199606 0.3392622 205 205 205
0.1712462 -0.1173825 0.3353134 205 205 205
0.1714345 -0.1160922 0.3333448 205 205 205
0.1819932 -0.10588 0.3149586 205 205 205
0.1723296 -0.1332867 0.3561126 205 205 205
0.169334 -0.1271971 0.3457824 205 205 205
0.171919 -0.1192252 0.333359 205 205 205
0.1779722 -0.1104543 0.3186889 205 205 205
0.1836093 -0.1073678 0.3124324 205 205 205
-0.04099208 -0.1089343 0.3822706 205 205 205
0.1716885 -0.1316858 0.3492443 205 205 205
0.1717354 -0.1234199 0.3372786 205 205 205
0.1735993 -0.1179959 0.328853 205 205 205
0.1787987 -0.1112181 0.3174246 205 205 205
0.1813835 -0.1087285 0.3130147 205 205 205
-0.04670878 -0.1037139 0.3743218 205 205 205
-0.04141765 -0.1104717 0.3823916 205 205 205
0.1749338 -0.1193768 0.3282468 205 205 205
0.1821896 -0.109466 0.311745 205 205 205
0.1831993 -0.1092568 0.3111272 205 205 205
0.1846904 -0.1082686 0.3092397 205 205 205
-0.04444228 -0.1083484 0.3780836 205 205 205
-0.04243648 -0.1100826 0.3799411 205 205 205
0.2087197 -0.1868582 0.411507 205 205 205
0.1750212 -0.12227 0.3301742 205 205 205
0.1759343 -0.1188488 0.325016 205 205 205
-0.04144728 -0.1149649 0.3843448 205 205 205
0.1719524 -0.1243708 0.3319358 205 205 205
0.1757178 -0.1198257 0.3243267 205 205 205
0.1786062 -0.115993 0.3179978 205 205 205
0.1842769 -0.1101384 0.3079261 205 205 205
-0.04329851 -0.1131523 0.3801543 205 205 205
0.1728099 -0.1317211 0.3397915 205 205 205
0.172179 -0.1292123 0.3364758 205 205 205
0.1730846 -0.1271167 0.3332526 205 205 205
0.1783922 -0.1169493 0.3173174 205 205 205
0.1830873 -0.1126419 0.309783 205 205 205
-0.04652525 -0.1115115 0.3766648 205 205 205
-0.04373178 -0.1146921 0.3802483 205 205 205
0.1762238 -0.1229373 0.32426 205 205 205
0.1768279 -0.1221657 0.3229944 205 205 205
0.1776158 -0.1186795 0.3178931 205 205 205
0.178729 -0.1171247 0.3153746 205 205 205
0.1838868 -0.1133625 0.3084908 205 205 205
-0.04918756 -0.108768 0.371539 205 205 205
-0.04673843 -0.1124975 0.3759497 205 205 205
0.1869 -0.155242 0.3633159 205 205 205
0.1785026 -0.1420457 0.3477818 205 205 205
0.1748628 -0.1287613 0.3306118 205 205 205
0.1789358 -0.1200201 0.3172451 205 205 205
0.1821477 -0.1166707 0.3115903 205 205 205
-0.04618495 -0.1149125 0.3769601 205 205 205
-0.04378748 -0.1192175 0.382132 205 205 205
0.2005762 -0.1754104 0.3841101 205 205 205
0.1746348 -0.1297558 0.3298864 205 205 205
0.1759302 -0.1282071 0.3273515 205 205 205
0.1787165 -0.120974 0.3165495 205 205 205
0.1792769 -0.1201875 0.3152918 205 205 205
-0.04984922 -0.1112407 0.3709253 205 205 205
0.175764 -0.1358713 0.3356842 205 205 205
0.1748611 -0.131342 0.3298196 205 205 205
0.1769629 -0.1276289 0.324099 205 205 205
0.1780522 -0.1274369 0.3234882 205 205 205
0.1784089 -0.1233034 0.3177532 205 205 205
0.1827203 -0.1197188 0.3114872 205 205 205
0.1837633 -0.1181191 0.3089731 205 205 205
-0.04729915 -0.1185335 0.3779102 205 205 205
-0.04574312 -0.1251009 0.3862729 205 205 205
0.1819373 -0.1472559 0.346856 205 205 205
0.1762205 -0.1361049 0.3336586 205 205 205
0.1792454 -0.1240578 0.3164334 205 205 205
0.184553 -0.1174397 0.3057765 205 205 205
-0.05002895 -0.1157136 0.3728112 205 205 205
-0.04672663 -0.1209797 0.3788808 205 205 205
0.1774422 -0.130772 0.323951 205 205 205
-0.05048319 -0.1172368 0.3728747 205 205 205
-0.04773388 -0.12051 0.376421 205 205 205
0.1764306 -0.137327 0.3308806 205 205 205
0.1765759 -0.1325403 0.3244767 205 205 205
0.1785829 -0.1287552 0.3187969 205 205 205
0.1825844 -0.1217195 0.3081379 205 205 205
-0.05191744 -0.1178517 0.3720095 205 205 205
0.1948708 -0.167273 0.3622138 205 205 205
0.1777809 -0.138743 0.3301597 205 205 205
-0.04964165 -0.1226835 0.3755961 205 205 205
0.1806355 -0.1322824 0.3186294 205 205 205
0.1812364 -0.1314715 0.3173712 205 205 205
0.1826574 -0.1227534 0.3054825 205 205 205
0.202785 -0.1791527 0.3701802 205 205 205
0.1824131 -0.1250962 0.3066343 205 205 205
-0.05255802 -0.123924 0.3738324 205 205 205
0.182149 -0.1274489 0.3077774 205 205 205
0.1837355 -0.1249704 0.3040511 205 205 205
0.1836731 -0.1317479 0.308781 205 205 205
0.1837259 -0.1303011 0.306923 205 205 205
0.18481 -0.1271812 0.3025909 205 205 205
-0.0516857 -0.1298562 0.3748835 205 205 205
0.1822082 -0.1358011 0.3123901 205 205 205
0.1850876 -0.1287054 0.3024689 205 205 205
-0.0544186 -0.1268563 0.3698362 205 205 205
-0.05392319 -0.1289497 0.3722971 205 205 205
-0.05411201 -0.1331839 0.3755147 205 205 205
0.1839502 -0.1357739 0.3077603 205 205 205
-0.05608587 -0.1283997 0.3681445 205 205 205
0.1836213 -0.1446945 0.3168951 205 205 205
0.1874842 -0.1564202 0.3278978 205 205 205
0.1829738 -0.1369968 0.3056406 205 205 205
0.1851585 -0.13358 0.3007104 205 205 205
0.1831386 -0.1400311 0.3073152 205 205 205
0.1899947 -0.1607549 0.3280158 205 205 205
