ply
format ascii 1.0
comment Generated by Floating Hands
element vertex 1970
property double x
property double y
property double z
property uchar red
property uchar green
property uchar blue
end_header
0.1995584 0.009547677 0.4283885 205 205 205
0.1883473 0.01265443 0.4051009 205 205 205
0.1985594 0.01174082 0.413121 205 205 205
0.1879914 0.01067646 0.4096086 205 205 205
0.1740503 0.01561053 0.3742877 0 0 0
0.1799068 0.01487644 0.3801384 0 0 0
0.2027293 0.01018873 0.4151683 205 205 205
0.1677696 0.01536567 0.3673643 0 0 0
0.1774062 0.0146512 0.3734181 0 0 0
0.2109639 0.007663894 0.4240104 205 205 205
0.1794118 0.00230226 0.4485522 205 205 205
0.1658404 0.008816988 0.4035698 205 205 205
0.1872935 0.003069486 0.4427906 205 205 205
0.1671997 0.01507279 0.3618813 0 0 0
0.1963994 0.01024262 0.396708 205 205 205
0.1497536 0.01270721 0.3693431 205 205 205
0.169421 0.008470751 0.3973137 205 205 205
0.1735769 0.007613385 0.4030078 205 205 205
0.1619636 0.01470251 0.3566542 0 0 0
0.1689431 0.01453642 0.3585027 0 0 0
0.1772064 0.01344779 0.3663704 205 205 205
0.1806793 0.01292501 0.3700967 205 205 205
0.1437223 0.0132259 0.3588693 205 205 205
0.1450583 0.01314218 0.3593461 205 205 205
0.1463998 0.01306086 0.3598165 205 205 205
0.1477466 0.01298207 0.3602804 205 205 205
0.1508912 0.01269378 0.3620786 205 205 205
0.1522573 0.01262281 0.3625213 205 205 205
0.1578098 0.01306995 0.3597699 205 205 205
0.1595375 0.01430838 0.3521711 0 0 0
0.1636622 0.01418416 0.3533262 0 0 0
0.1687308 0.01554428 0.3459153 0 0 0
0.1575891 0.004815524 0.4055953 205 205 205
0.1410059 0.01236105 0.3577606 205 205 205
0.1464524 0.01269784 0.3552535 205 205 205
0.1482559 0.01282627 0.3543921 205 205 205
0.1505013 0.01317513 0.3521934 205 205 205
0.1522825 0.01332319 0.3513034 0 0 0
0.1535953 0.01361925 0.349525 0 0 0
0.1567073 0.01372862 0.3490233 0 0 0
0.1589444 0.01376659 0.3489562 0 0 0
0.1603065 0.01372017 0.3493479 0 0 0
0.1693891 0.01499873 0.3430682 0 0 0
0.141134 0.01048611 0.362945 205 205 205
0.1404379 0.01112531 0.3589286 205 205 205
0.1428864 0.01212656 0.3523878 205 205 205
0.1437789 0.01218502 0.3519715 205 205 205
0.1455594 0.01230793 0.3511293 205 205 205
0.1473339 0.0124388 0.3502746 205 205 205
0.1490809 0.01293954 0.3472081 205 205 205
0.150368 0.01323338 0.3454519 0 0 0
0.1530307 0.01310326 0.3463107 205 205 205
0.1565032 0.01344356 0.3444833 0 0 0
0.1642723 0.01293074 0.3481315 205 205 205
0.1656494 0.01289347 0.3484941 205 205 205
0.1715764 0.01302584 0.3485118 205 205 205
0.1726391 0.01379228 0.3444238 0 0 0
0.1447487 0.007206928 0.3762857 205 205 205
0.1417341 0.00877386 0.3668217 205 205 205
0.1400609 0.01058757 0.3556782 205 205 205
0.1432928 0.01131439 0.3509381 205 205 205
0.1450773 0.01180112 0.3479019 205 205 205
0.1459543 0.01186698 0.3474779 205 205 205
0.1468296 0.01193484 0.3470508 205 205 205
0.1477035 0.01200468 0.3466206 205 205 205
0.1515091 0.01290663 0.3413606 205 205 205
0.1528335 0.01284251 0.3417835 205 205 205
0.1599028 0.01280304 0.3424649 205 205 205
0.16824 0.01217262 0.346845 205 205 205
0.1696267 0.01214192 0.3471852 205 205 205
0.1724085 0.01315354 0.3420793 0 0 0
0.1416661 0.007701149 0.3666689 205 205 205
0.1413176 0.00945461 0.3560218 205 205 205
0.142767 0.01008495 0.3521 205 205 205
0.1432334 0.01029818 0.3507928 205 205 205
0.1458978 0.01085942 0.3473336 205 205 205
0.1467738 0.01092751 0.3469064 205 205 205
0.1489381 0.01129592 0.3447288 205 205 205
0.1498045 0.01137161 0.344291 205 205 205
0.1526886 0.01223093 0.3394545 205 205 205
0.1543806 0.01240592 0.3385499 205 205 205
0.1552242 0.01249634 0.3380931 205 205 205
0.1642883 0.01190356 0.3420949 205 205 205
0.1699445 0.01135705 0.3456773 205 205 205
0.1708167 0.01147313 0.3451638 205 205 205
0.1728947 0.01197771 0.3427676 205 205 205
0.1419964 0.006469517 0.3674147 205 205 205
0.1426501 0.008690967 0.3541505 205 205 205
0.1435999 0.009124608 0.3515339 205 205 205
0.1453994 0.009628969 0.3484949 205 205 205
0.1462727 0.0100782 0.3458761 205 205 205
0.1492925 0.01052601 0.3432679 205 205 205
0.1509384 0.01107468 0.340201 205 205 205
0.1521635 0.01139664 0.3384418 205 205 205
0.1555301 0.01175406 0.3366278 205 205 205
0.1576982 0.01179233 0.3365586 205 205 205
0.1688701 0.01061658 0.3438343 205 205 205
0.1730362 0.01052419 0.3448121 205 205 205
0.1733793 0.01079512 0.3434508 205 205 205
0.1742447 0.01091979 0.342925 205 205 205
0.1740404 0.0113404 0.3407307 205 205 205
0.1741276 0.01203606 0.3371855 205 205 205
0.1423251 0.005231085 0.3681553 205 205 205
0.1410964 0.007013706 0.3579187 205 205 205
0.1420982 0.007445953 0.3553034 205 205 205
0.1425865 0.00766453 0.3539957 205 205 205
0.1430665 0.00788466 0.352688 205 205 205
0.1512658 0.01032819 0.3387387 205 205 205
0.1541568 0.01083598 0.3360759 205 205 205
0.1616725 0.010644 0.3375421 205 205 205
0.1654002 0.01024181 0.3399553 205 205 205
0.174676 0.01158055 0.3343234 205 205 205
0.1503881 0.0002457684 0.3891724 205 205 205
0.1424488 0.006249592 0.356038 205 205 205
0.1434258 0.006696963 0.3534205 205 205 205
0.1439017 0.006923025 0.3521117 205 205 205
0.1439392 0.007316527 0.3499155 205 205 205
0.1448424 0.007775834 0.3473016 205 205 205
0.1470289 0.008146637 0.3451407 205 205 205
0.1479003 0.008219056 0.3447089 205 205 205
0.1487702 0.008293487 0.3442741 205 205 205
0.1515853 0.009592258 0.3372742 205 205 205
0.1601122 0.01012429 0.3348399 205 205 205
0.1670572 0.00945678 0.3388006 205 205 205
0.1741563 0.008846368 0.342605 205 205 205
0.1710109 0.01264448 0.323577 0 0 0
0.1431387 0.003125245 0.3674015 205 205 205
0.1421878 0.004425799 0.3602829 205 205 205
0.1437143 0.005103128 0.3563493 205 205 205
0.1447356 0.005964783 0.3515283 205 205 205
0.1451991 0.006198302 0.3502186 205 205 205
0.1452176 0.006602642 0.3480255 205 205 205
0.148712 0.007294635 0.3441149 205 205 205
0.1504483 0.007449896 0.3432361 205 205 205
0.1511583 0.008363112 0.3384288 205 205 205
0.1532153 0.008790001 0.3362205 205 205 205
0.1540546 0.008880743 0.3357673 205 205 205
0.1644243 0.009252016 0.3344357 205 205 205
0.1681846 0.00884204 0.3367934 205 205 205
0.1725198 0.008288412 0.3399406 205 205 205
0.1700878 0.01227979 0.3204628 0 0 0
0.1536583 -0.003089859 0.393752 205 205 205
0.1455912 0.005422655 0.3487442 205 205 205
0.1511873 0.006957386 0.3404467 205 205 205
0.1511029 0.007382052 0.3382683 205 205 205
0.1544857 0.00773575 0.3364661 205 205 205
0.157345 0.008288187 0.333765 205 205 205
0.1606612 0.008703099 0.3318756 205 205 205
0.1619996 0.008646498 0.3322378 205 205 205
0.1660436 0.008493792 0.333284 205 205 205
0.1755758 0.007490505 0.3390212 205 205 205
0.1778274 0.007598703 0.3387725 205 205 205
0.1761974 0.009588157 0.3292604 205 205 205
0.1683041 -0.01091802 0.4268406 205 205 205
0.1463793 -4.814303E-05 0.3720071 205 205 205
0.1440887 0.001437227 0.3644136 205 205 205
0.1439969 0.002855491 0.3568988 205 205 205
0.1440718 0.003271042 0.3546982 205 205 205
0.1481704 0.005048803 0.3450955 205 205 205
0.1535877 0.006665075 0.3367569 205 205 205
0.1544315 0.0067567 0.3363018 205 205 205
0.1569532 0.007043407 0.334919 205 205 205
0.1581256 0.007415206 0.3331334 205 205 205
0.1592781 0.007793155 0.3313437 205 205 205
0.1636028 0.007894568 0.3311018 205 205 205
0.1663008 0.007792512 0.3317853 205 205 205
0.1695506 0.007535785 0.3332709 205 205 205
0.1733714 0.007127592 0.3355466 205 205 205
0.1464644 -0.0007246055 0.3695983 205 205 205
0.1476804 0.003362148 0.3484231 205 205 205
0.1485577 0.003868928 0.3457992 205 205 205
0.150675 0.004720805 0.3414234 205 205 205
0.1526858 0.005596844 0.3370409 205 205 205
0.1552191 0.005872559 0.3356758 205 205 205
0.1555701 0.006144199 0.3343611 205 205 205
0.1564063 0.006241677 0.3338991 205 205 205
0.1595417 0.00710505 0.3298597 205 205 205
0.1625144 0.007263846 0.3292604 205 205 205
0.1660204 0.007272298 0.3294543 205 205 205
0.1673718 0.007223611 0.3297842 205 205 205
0.1636184 -0.01027686 0.4101243 205 205 205
0.1455292 3.81609E-05 0.3600967 205 205 205
0.1480411 0.001726501 0.3513162 205 205 205
0.1498264 0.002758753 0.3460577 205 205 205
0.1502092 0.003466416 0.3425611 205 205 205
0.15178 0.004531079 0.3373182 205 205 205
0.156005 0.004991897 0.3350432 205 205 205
0.1576834 0.005190044 0.3341124 205 205 205
0.1594906 0.006141875 0.3296901 205 205 205
0.1619452 0.00647362 0.3282541 205 205 205
0.164099 0.00652958 0.3281146 205 205 205
0.1488111 -0.0001201291 0.3550883 205 205 205
0.1497758 0.0008501095 0.3502553 205 205 205
0.1497765 0.001301262 0.3480645 205 205 205
0.1501882 0.002019121 0.3445641 205 205 205
0.150606 0.002286361 0.3432512 205 205 205
0.1504843 0.003197158 0.3388969 205 205 205
0.1508702 0.003467767 0.3375888 205 205 205
0.1525696 0.00364275 0.3366937 205 205 205
0.1534168 0.003733182 0.3362416 205 205 205
0.1584655 0.004317448 0.3334672 205 205 205
0.1596287 0.004709639 0.3316758 205 205 205
0.1599479 0.004998586 0.330358 205 205 205
0.1615938 0.005219282 0.3293998 205 205 205
0.1635235 0.00574395 0.3271093 205 205 205
0.1667595 0.006230556 0.3251316 205 205 205
0.1746488 0.005662832 0.3282891 205 205 205
0.1554098 -0.006714454 0.3810193 205 205 205
0.1517944 -0.0045178 0.3708057 205 205 205
0.1510747 -0.00367791 0.3668145 205 205 205
0.1513513 -0.002312694 0.3601756 205 205 205
0.1510169 -0.001204873 0.3548898 205 205 205
0.1505988 -0.0005539519 0.3518174 205 205 205
0.1510563 -0.0002857398 0.3504975 205 205 205
0.1508093 0.002491764 0.3374096 205 205 205
0.1560204 0.002569656 0.3368565 205 205 205
0.1563806 0.002854553 0.3355402 205 205 205
0.1575719 0.003241286 0.3337579 205 205 205
0.1584098 0.003343917 0.3332881 205 205 205
0.1607187 0.004143288 0.3297027 205 205 205
0.1640311 0.005387885 0.3242958 205 205 205
0.1675164 0.005399114 0.3244535 205 205 205
0.1702178 0.005300336 0.3250756 205 205 205
0.1546513 -0.005410026 0.3692293 205 205 205
0.1544086 -0.004280022 0.3639125 205 205 205
0.1532455 -0.001344033 0.3502744 205 205 205
0.1524489 0.001692792 0.3363316 205 205 205
0.1546265 0.00168466 0.3362792 205 205 205
0.1558326 0.002068648 0.3345057 205 205 205
0.1575145 0.002268486 0.333575 205 205 205
0.1586871 0.002665979 0.3317891 205 205 205
0.1628957 0.00401237 0.325922 205 205 205
0.1655847 0.00468417 0.3231305 205 205 205
0.1669257 0.00462625 0.3234532 205 205 205
0.17091 0.005289109 0.3209138 205 205 205
0.1516216 0.0001481174 0.3387621 205 205 205
0.1545654 0.0007079361 0.3360918 205 205 205
0.1566152 0.001195528 0.3338553 205 205 205
0.1586298 0.00169866 0.3316034 205 205 205
0.1594621 0.001805395 0.3311297 205 205 205
0.1597838 0.002106784 0.3298141 205 205 205
0.1628431 0.003058698 0.3257387 205 205 205
0.1639297 0.003488471 0.3239344 205 205 205
0.1684763 0.003934118 0.3222629 205 205 205
0.1692737 0.004067021 0.3217551 205 205 205
0.1700692 0.004201903 0.3212444 205 205 205
0.1849148 -0.02771346 0.4570978 205 205 205
0.1593796 -0.009366881 0.3762379 205 205 205
0.1674254 -0.01086811 0.3821238 205 205 205
0.1675522 -0.01037208 0.3798745 205 205 205
0.1553468 -0.002934471 0.3476369 205 205 205
0.1529624 -0.001436165 0.341151 205 205 205
0.1532743 -0.0006540132 0.337668 205 205 205
0.1565549 0.0002245794 0.333665 205 205 205
0.1585715 0.000732397 0.3314139 205 205 205
0.1597267 0.001144985 0.3296255 205 205 205
0.1616811 0.001677826 0.3273517 205 205 205
0.1627892 0.002106105 0.3255517 205 205 205
0.1638772 0.002540335 0.3237483 205 205 205
0.1678785 0.003174539 0.3212617 205 205 205
0.1770058 -0.02658057 0.4463392 205 205 205
0.1423299 -0.003342902 0.3461746 205 205 205
0.1560909 -0.007350563 0.3623547 205 205 205
0.1583876 -0.007890184 0.3644952 205 205 205
0.1645323 -0.008567516 0.3668802 205 205 205
0.1537659 -0.0023377 0.3404982 205 205 205
0.1544398 -0.001242274 0.335706 205 205 205
0.15529 -0.001146124 0.3352463 205 205 205
0.158512 -0.0002327899 0.3312208 205 205 205
0.1593454 -0.0001254425 0.3307472 205 205 205
0.1616249 0.0007218358 0.3271603 205 205 205
0.1662315 0.001968895 0.3220752 205 205 205
0.16728 0.002423631 0.3202585 205 205 205
0.1456533 -0.0110513 0.3754978 205 205 205
0.1345107 -0.002922481 0.3409221 205 205 205
0.1345536 -0.00244212 0.3387612 205 205 205
0.135414 -0.002387146 0.338371 205 205 205
0.1358532 -0.002117202 0.3370958 205 205 205
0.1396952 -0.002082979 0.336376 205 205 205
0.1405472 -0.002016234 0.3359681 205 205 205
0.1431603 -0.002793405 0.339047 205 205 205
0.1453553 -0.003355166 0.3412387 205 205 205
0.1555842 -0.004161804 0.3437242 205 205 205
0.1576157 -0.001302509 0.3314947 205 205 205
0.1596093 -0.0007754007 0.3292373 205 205 205
0.1607471 -0.000347752 0.3274465 205 205 205
0.1640394 0.0009713485 0.3220526 205 205 205
0.1664337 0.001352281 0.320567 205 205 205
0.1672282 0.001483149 0.3200662 205 205 205
0.1690434 0.002084271 0.3177404 205 205 205
0.1322173 -0.004251493 0.3427668 205 205 205
0.1353296 -0.001371634 0.329571 205 205 205
0.1391254 -0.00182329 0.3310018 205 205 205
0.1447167 -0.002604672 0.333687 205 205 205
0.1473242 -0.002872237 0.3345557 205 205 205
0.1572102 -0.00257947 0.3326055 205 205 205
0.1583896 -0.002159855 0.3308236 205 205 205
0.159224 -0.002051938 0.33035 205 205 205
0.1595488 -0.00173395 0.3290377 205 205 205
0.1655833 0.0002832309 0.320869 205 205 205
0.1663802 0.0004125051 0.3203711 205 205 205
0.1374529 -0.01051089 0.3646717 205 205 205
0.1311622 -0.005751595 0.345106 205 205 205
0.130692 -0.002358299 0.330409 205 205 205
0.1360378 -0.001725719 0.326845 205 205 205
0.137295 -0.001878554 0.3273216 205 205 205
0.1401986 -0.001885687 0.3269826 205 205 205
0.1422909 -0.001952458 0.3270242 205 205 205
0.1440309 -0.002308483 0.328329 205 205 205
0.1488527 -0.003140534 0.331329 205 205 205
0.1496891 -0.003051749 0.3308889 205 205 205
0.1528001 -0.00351385 0.3325498 205 205 205
0.1561571 -0.003118558 0.3307153 205 205 205
0.1569922 -0.003014755 0.3302494 205 205 205
0.1603155 -0.002579627 0.328357 205 205 205
0.1622689 -0.00202232 0.3260801 205 205 205
0.1631251 -0.001032751 0.3221464 205 205 205
0.166027 1.740991E-05 0.3180482 205 205 205
0.1668142 0.0001498307 0.3175489 205 205 205
0.1675997 0.0002842311 0.3170467 205 205 205
0.1289212 -0.003875926 0.3330977 205 205 205
0.1297859 -0.003327037 0.330585 205 205 205
0.1334171 -0.001807966 0.3235469 205 205 205
0.1346586 -0.001967706 0.3240337 205 205 205
0.137523 -0.001987466 0.3237242 205 205 205
0.1383295 -0.001915876 0.3233249 205 205 205
0.1485479 -0.003030829 0.3268377 205 205 205
0.1541157 -0.00320635 0.3271413 205 205 205
0.1575858 -0.003325494 0.3274299 205 205 205
0.1592318 -0.003105114 0.3264856 205 205 205
0.1633367 -0.001635689 0.3206351 205 205 205
0.1662099 -0.0005701229 0.316539 205 205 205
0.1675458 -0.0006447057 0.3168456 205 205 205
0.1310127 -0.01065871 0.3573222 205 205 205
0.1266244 -0.005665421 0.3370265 205 205 205
0.1297194 -0.00373369 0.3282472 205 205 205
0.1301284 -0.003451746 0.3269938 205 205 205
0.130529 -0.003168409 0.3257408 205 205 205
0.1313436 -0.003111881 0.3253656 205 205 205
0.1321568 -0.003053444 0.3249875 205 205 205
0.1341523 -0.00263984 0.3229657 205 205 205
0.1422745 -0.002430872 0.3210886 205 205 205
0.1499645 -0.0032366 0.3236192 205 205 205
0.1517548 -0.003583182 0.3248613 205 205 205
0.1533819 -0.003382187 0.3239586 205 205 205
0.1563175 -0.003285705 0.3234168 205 205 205
0.1674909 -0.001572486 0.3166409 205 205 205
0.1339666 -0.01626898 0.3757572 205 205 205
0.1279464 -0.01103766 0.355148 205 205 205
0.1266619 -0.009596768 0.3493814 205 205 205
0.1252026 -0.006912332 0.338431 205 205 205
0.1249172 -0.006171867 0.3353918 205 205 205
0.126683 -0.005581127 0.332533 205 205 205
0.1283952 -0.004975366 0.3296663 205 205 205
0.1292326 -0.004408228 0.3271636 205 205 205
0.1387663 -0.002576588 0.3182784 205 205 205
0.1395544 -0.002498358 0.317875 205 205 205
0.1457027 -0.0026691 0.3179343 205 205 205
0.1474643 -0.003028542 0.3191939 205 205 205
0.1529243 -0.003205888 0.3194987 205 205 205
0.155023 -0.003215273 0.3194195 205 205 205
0.1581619 -0.003659099 0.3209751 205 205 205
0.1608102 -0.003868423 0.3216734 205 205 205
0.1640181 -0.003375656 0.3197296 205 205 205
0.1658589 -0.002768024 0.3174337 205 205 205
0.150082 -0.03157959 0.4306346 205 205 205
0.1377687 -0.0222217 0.3948109 205 205 205
0.1318394 -0.01741241 0.3762912 205 205 205
0.1238773 -0.007648359 0.3376788 205 205 205
0.1266032 -0.006499783 0.3323248 205 205 205
0.1282861 -0.006408351 0.3315956 205 205 205
0.1291566 -0.00531062 0.3269587 205 205 205
0.1299625 -0.004729721 0.324459 205 205 205
0.1355297 -0.003755932 0.3196634 205 205 205
0.1385612 -0.002917635 0.3159627 205 205 205
0.1413709 -0.002904534 0.3155968 205 205 205
0.143408 -0.002962182 0.3156158 205 205 205
0.1449659 -0.0027812 0.3147738 205 205 205
0.1531889 -0.002888076 0.3146104 205 205 205
0.1652956 -0.004400549 0.3198359 205 205 205
0.1655523 -0.004047867 0.3185282 205 205 205
0.1663466 -0.003915495 0.3180298 205 205 205
0.1269053 -0.01585015 0.3664615 205 205 205
0.1239004 -0.01240102 0.3530745 205 205 205
0.1222908 -0.009406065 0.3412059 205 205 205
0.1310862 -0.00526786 0.3226291 205 205 205
0.1326312 -0.00460389 0.3197514 205 205 205
0.1338652 -0.004776813 0.3202353 205 205 205
0.1342207 -0.004471232 0.3189835 205 205 205
0.1354589 -0.00463988 0.3194585 205 205 205
0.1358047 -0.004331199 0.3182046 205 205 205
0.1384933 -0.003792781 0.3157597 205 205 205
0.1392742 -0.003712944 0.315357 205 205 205
0.1423828 -0.003375164 0.3137198 205 205 205
0.1431563 -0.003286107 0.3133038 205 205 205
0.1451884 -0.003335601 0.313304 205 205 205
0.1454676 -0.003007905 0.3120399 205 205 205
0.156501 -0.003902914 0.3146747 205 205 205
0.1622942 -0.005488213 0.3202775 205 205 205
0.1636292 -0.005590518 0.3206054 205 205 205
0.1663132 -0.005786065 0.321241 205 205 205
-0.03691702 -0.01577842 0.4784683 205 205 205
-0.03756883 -0.01812759 0.4892928 205 205 205
0.1399798 -0.02881559 0.4109372 205 205 205
0.1241123 -0.01568075 0.3620523 205 205 205
0.1213305 -0.01166451 0.346527 205 205 205
0.1243649 -0.008172581 0.3317261 205 205 205
0.131761 -0.005547347 0.3199241 205 205 205
0.1365241 -0.00513701 0.3176037 205 205 205
0.141065 -0.00409699 0.3130803 205 205 205
0.1244059 -0.01772773 0.365792 205 205 205
0.1212721 -0.01469844 0.3545653 205 205 205
0.1201273 -0.01317372 0.3487918 205 205 205
0.1198248 -0.011625 0.3426924 205 205 205
0.1196395 -0.01084852 0.3396505 205 205 205
0.1201525 -0.01057153 0.3384109 205 205 205
0.120786 -0.009762224 0.3350357 205 205 205
0.1238197 -0.009373347 0.3327512 205 205 205
0.125902 -0.009541738 0.3329262 205 205 205
0.1268055 -0.008954961 0.3304319 205 205 205
0.1285127 -0.007763242 0.3254458 205 205 205
0.1332808 -0.006296408 0.3189509 205 205 205
0.1340758 -0.006228726 0.3185655 205 205 205
0.1356617 -0.006087804 0.3177866 205 205 205
0.1374307 -0.005052372 0.3136382 205 205 205
0.1382057 -0.004972769 0.3132391 205 205 205
0.1461302 -0.003737033 0.3078442 205 205 205
0.147636 -0.003532919 0.306984 205 205 205
0.1483865 -0.003428092 0.3065501 205 205 205
0.150167 -0.003795841 0.30776 205 205 205
0.1527182 -0.004047604 0.3085101 205 205 205
0.1597757 -0.00581214 0.3144664 205 205 205
0.1672547 -0.007163813 0.3189811 205 205 205
-0.03193311 -0.01649792 0.4637508 205 205 205
0.1195445 -0.01310369 0.3446058 205 205 205
0.1237345 -0.01028807 0.332529 205 205 205
0.1245824 -0.01024842 0.3321745 205 205 205
0.1300491 -0.007987596 0.3223666 205 205 205
0.131239 -0.007616883 0.3207453 205 205 205
0.1324095 -0.00723975 0.3191195 205 205 205
0.133644 -0.007423538 0.3196006 205 205 205
0.1363801 -0.006890998 0.3171792 205 205 205
0.1458089 -0.004008327 0.3055495 205 205 205
0.1470637 -0.004147888 0.3059481 205 205 205
0.1552269 -0.005165876 0.309019 205 205 205
0.1679921 -0.007959931 0.3182476 205 205 205
-0.03308545 -0.01539561 0.4544135 205 205 205
0.1187524 -0.01354011 0.3425694 205 205 205
0.1266389 -0.01077431 0.3299859 205 205 205
0.1311618 -0.008497578 0.320527 205 205 205
0.1343677 -0.008235192 0.3189954 205 205 205
0.1347216 -0.007911881 0.3177462 205 205 205
0.1365121 -0.006858202 0.313609 205 205 205
0.1368281 -0.00652859 0.3123618 205 205 205
0.1386695 -0.006033559 0.3103165 205 205 205
0.1492392 -0.004679753 0.3044326 205 205 205
0.1510263 -0.00505695 0.3056279 205 205 205
0.1522998 -0.005187033 0.3059972 205 205 205
0.1535783 -0.005314285 0.3063601 205 205 205
0.1548616 -0.005438654 0.3067164 205 205 205
0.1676709 -0.009268623 0.3193238 205 205 205
0.1684758 -0.009130916 0.3188169 205 205 205
0.1687275 -0.008752152 0.3175078 205 205 205
-0.03292765 -0.01630326 0.4521878 205 205 205
0.1379995 -0.03347557 0.409254 205 205 205
0.1179027 -0.01531215 0.34571 205 205 205
0.1177689 -0.01450572 0.3426691 205 205 205
0.1183094 -0.01422222 0.3414331 205 205 205
0.1202406 -0.01362282 0.338619 205 205 205
0.1207514 -0.01333208 0.3373806 205 205 205
0.1216204 -0.01330129 0.3370349 205 205 205
0.1229813 -0.01297243 0.3354446 205 205 205
0.1256457 -0.01229297 0.3322463 205 205 205
0.1261041 -0.01198839 0.3310019 205 205 205
0.1269492 -0.0119426 0.3306386 205 205 205
0.1286354 -0.01184522 0.3299035 205 205 205
0.1286656 -0.01127414 0.3277788 205 205 205
0.1294961 -0.01007295 0.3231686 205 205 205
0.1307015 -0.009696822 0.32155 205 205 205
0.1326904 -0.009249264 0.3195451 205 205 205
0.1342915 -0.009113897 0.3187738 205 205 205
0.1356604 -0.007797249 0.313785 205 205 205
0.135982 -0.007465084 0.3125396 205 205 205
0.1362952 -0.007131763 0.3112952 205 205 205
0.136897 -0.006461769 0.3088088 205 205 205
0.1376568 -0.006379227 0.3084116 205 205 205
0.1399276 -0.006120784 0.3072045 205 205 205
0.1421852 -0.005846019 0.3059742 205 205 205
0.1459178 -0.005351911 0.3038723 205 205 205
0.1491754 -0.005529832 0.3042174 205 205 205
0.1537354 -0.005814339 0.3048756 205 205 205
0.1640911 -0.009116783 0.3155686 205 205 205
-0.03295818 -0.01739109 0.4509223 205 205 205
-0.0326132 -0.02620234 0.4855054 205 205 205
0.1250102 -0.0234912 0.3705471 205 205 205
0.1185627 -0.01542756 0.3420928 205 205 205
0.1187477 -0.01487228 0.3399585 205 205 205
0.1201479 -0.0145541 0.3383817 205 205 205
0.1227672 -0.01446089 0.3373403 205 205 205
0.1259459 -0.01347227 0.3328958 205 205 205
0.1285036 -0.01333328 0.3317969 205 205 205
0.128952 -0.01301923 0.3305478 205 205 205
0.129392 -0.01270367 0.3292989 205 205 205
0.1298237 -0.01238663 0.3280502 205 205 205
0.1298349 -0.01180503 0.3259296 205 205 205
0.1350134 -0.009920796 0.3181592 205 205 205
0.135364 -0.009587897 0.3169109 205 205 205
0.1365286 -0.007646759 0.3098335 205 205 205
0.1406129 -0.006875175 0.3065801 205 205 205
0.1421174 -0.006689689 0.3057574 205 205 205
0.1431179 -0.006242317 0.3040954 205 205 205
0.1433601 -0.005889493 0.3028499 205 205 205
0.1453442 -0.005940936 0.3028324 205 205 205
0.1460832 -0.005836893 0.3024063 205 205 205
0.1473354 -0.005983319 0.3027972 205 205 205
0.1485926 -0.006126998 0.3031816 205 205 205
0.1493336 -0.006016532 0.302744 205 205 205
0.1505975 -0.006155078 0.3031175 205 205 205
0.1186527 -0.01580648 0.3397168 205 205 205
0.1198884 -0.01605075 0.3402724 205 205 205
0.1258572 -0.01438973 0.3326578 205 205 205
0.1280186 -0.01398239 0.3306813 205 205 205
0.1297112 -0.01387994 0.3299372 205 205 205
0.1301473 -0.01355868 0.328688 205 205 205
0.1337717 -0.01120206 0.3195676 205 205 205
0.1375149 -0.008068476 0.3079745 205 205 205
0.139032 -0.007896986 0.3071724 205 205 205
0.1412967 -0.007626157 0.30595 205 205 205
0.1420486 -0.007532222 0.3055374 205 205 205
0.1425526 -0.00682217 0.3030485 205 205 205
0.1543547 -0.007411236 0.3039746 205 205 205
0.1642047 -0.01055941 0.3138001 205 205 205
0.1671804 -0.0114274 0.3164996 205 205 205
-0.03233082 -0.02230677 0.4583354 205 205 205
-0.03220022 -0.02593762 0.4721383 205 205 205
0.118022 -0.01703661 0.340705 205 205 205
0.1236888 -0.01713788 0.3395203 205 205 205
0.1251932 -0.01620703 0.3357866 205 205 205
0.125678 -0.01589339 0.334542 205 205 205
0.1278698 -0.01548628 0.3325646 205 205 205
0.1291792 -0.01511522 0.3309451 205 205 205
0.1300288 -0.01506261 0.33057 205 205 205
0.1309013 -0.01441015 0.3280707 205 205 205
0.1336918 -0.01208141 0.319335 205 205 205
0.134763 -0.01106331 0.3155992 205 205 205
0.136075 -0.009688836 0.3106285 205 205 205
0.1366814 -0.00899469 0.3081482 205 205 205
0.1384833 -0.008474781 0.3061111 205 205 205
0.1419869 -0.007393349 0.3020004 205 205 205
0.1447032 -0.007353862 0.3015704 205 205 205
0.1512086 -0.007733278 0.3022268 205 205 205
0.1519489 -0.007616245 0.3017798 205 205 205
0.1537554 -0.008010938 0.3029415 205 205 205
0.1625055 -0.01070199 0.3111602 205 205 205
0.1660178 -0.01184093 0.3146595 205 205 205
-0.03329326 -0.02262468 0.4549557 205 205 205
0.1194407 -0.0199369 0.3470709 205 205 205
0.1239621 -0.0183533 0.3401568 205 205 205
0.1280921 -0.01727914 0.3353221 205 205 205
0.1298916 -0.01657986 0.332448 205 205 205
0.1319966 -0.01309347 0.3198681 205 205 205
0.1328045 -0.01302748 0.319485 205 205 205
0.1361396 -0.01115901 0.3124879 205 205 205
0.1366076 -0.009836784 0.3079216 205 205 205
0.1373692 -0.00975327 0.3075245 205 205 205
0.1414178 -0.008947178 0.3042582 205 205 205
0.1444006 -0.008552958 0.30259 205 205 205
0.1466216 -0.00823823 0.3013122 205 205 205
0.149876 -0.00843142 0.3016329 205 205 205
0.1555069 -0.009260483 0.303861 205 205 205
0.1578762 -0.009913818 0.3058001 205 205 205
0.1691911 -0.01324608 0.3157852 205 205 205
-0.03446477 -0.02498104 0.4594203 205 205 205
0.1211976 -0.01939107 0.34096 205 205 205
0.1220882 -0.01936093 0.3406101 205 205 205
0.1226129 -0.01904806 0.3393693 205 205 205
0.1247525 -0.01925829 0.3395422 205 205 205
0.1261437 -0.01889965 0.3379331 205 205 205
0.1301322 -0.01838947 0.3351961 205 205 205
0.1314019 -0.01861631 0.3356892 205 205 205
0.1306794 -0.013758 0.3191475 205 205 205
0.1319139 -0.01397092 0.3196289 205 205 205
0.1339644 -0.01411298 0.3197167 205 205 205
0.1343348 -0.01376658 0.3184712 205 205 205
0.1358453 -0.01299489 0.3155887 205 205 205
0.1361859 -0.01264315 0.3143442 205 205 205
0.1365182 -0.01229023 0.3131005 205 205 205
0.1368422 -0.01193612 0.3118577 205 205 205
0.1369991 -0.01095111 0.3085332 205 205 205
0.1372949 -0.01059402 0.3072948 205 205 205
0.1393619 -0.009697954 0.3040161 205 205 205
0.1430869 -0.009219623 0.3019594 205 205 205
0.1440595 -0.008747289 0.3002998 205 205 205
0.1447936 -0.008643066 0.2998778 205 205 205
0.1518156 -0.009303905 0.3013211 205 205 205
0.1620534 -0.01183309 0.3085946 205 205 205
0.1685679 -0.01390843 0.3147409 205 205 205
-0.03639057 -0.02635357 0.4608167 205 205 205
-0.03640305 -0.02823791 0.4677007 205 205 205
0.1461176 -0.0452668 0.4204019 205 205 205
0.1239721 -0.0211223 0.3426584 205 205 205
0.1289638 -0.02059921 0.3395728 205 205 205
0.1302411 -0.02083559 0.3400723 205 205 205
0.1324168 -0.02101809 0.3401796 205 205 205
0.1337079 -0.02124727 0.3406624 205 205 205
0.1346013 -0.02119148 0.3402686 205 205 205
0.1350865 -0.02085128 0.3390031 205 205 205
0.1327349 -0.01728736 0.3274314 205 205 205
0.1314712 -0.01581817 0.3227316 205 205 205
0.1342526 -0.01464221 0.3182286 205 205 205
0.1350572 -0.01457006 0.3178373 205 205 205
0.1354153 -0.01421678 0.3165925 205 205 205
0.1365586 -0.01378511 0.3149522 205 205 205
0.1407843 -0.01034256 0.3029704 205 205 205
0.1417772 -0.009875467 0.3013214 205 205 205
0.1430161 -0.01004935 0.3017289 205 205 205
0.1439899 -0.009572722 0.3000705 205 205 205
0.1484782 -0.009954179 0.300799 205 205 205
0.1497395 -0.01011053 0.3011697 205 205 205
0.1510059 -0.01026401 0.3015338 205 205 205
0.1530205 -0.01029427 0.3014402 205 205 205
0.1555811 -0.01058188 0.302127 205 205 205
0.1579544 -0.01125407 0.3040535 205 205 205
0.1598525 -0.05719938 0.452677 205 205 205
0.1394113 -0.03896901 0.3959273 205 205 205
0.1311783 -0.0232685 0.3445696 205 205 205
0.1341739 -0.02403064 0.3464161 205 205 205
0.1389382 -0.02529642 0.3495627 205 205 205
0.1412094 -0.02545879 0.3495976 205 205 205
0.1409008 -0.02453686 0.3465821 205 205 205
0.1368163 -0.02104644 0.3358064 205 205 205
0.1326007 -0.01629128 0.3208565 205 205 205
0.1349744 -0.01544426 0.3175915 205 205 205
0.1357781 -0.01537 0.3171974 205 205 205
0.1371441 -0.01392733 0.3122228 205 205 205
0.1374324 -0.01190582 0.3055905 205 205 205
0.1399639 -0.01126635 0.3031454 205 205 205
0.1444255 -0.01067284 0.3006552 205 205 205
0.1531574 -0.0107449 0.2999487 205 205 205
0.154973 -0.01116243 0.3010893 205 205 205
0.1568001 -0.01157592 0.3022193 205 205 205
0.1632334 -0.01373531 0.3084037 205 205 205
0.1379961 -0.03623911 0.3827724 205 205 205
0.1351028 -0.03298862 0.3726076 205 205 205
0.1311288 -0.02732562 0.3546261 205 205 205
0.1317061 -0.02699245 0.3533574 205 205 205
0.1356962 -0.02772833 0.3548052 205 205 205
0.1462838 -0.03244696 0.3679552 205 205 205
0.134623 -0.01796924 0.3227848 205 205 205
0.1375223 -0.01506949 0.3128198 205 205 205
0.1373854 -0.01441649 0.3107376 205 205 205
0.137828 -0.013023 0.3061869 205 205 205
0.1388685 -0.01256177 0.3045492 205 205 205
0.1398896 -0.01209487 0.3029085 205 205 205
0.1406373 -0.01200023 0.3024998 205 205 205
0.1431109 -0.01132343 0.3000219 205 205 205
0.1465651 -0.01117757 0.2991397 205 205 205
0.1478183 -0.01134416 0.2995168 205 205 205
0.153088 -0.01158405 0.2997084 205 205 205
0.1543645 -0.01173432 0.3000506 205 205 205
0.1561881 -0.01215547 0.3011805 205 205 205
0.1650388 -0.01502668 0.3092352 205 205 205
-0.04432204 -0.03866789 0.4950706 205 205 205
0.1669726 -0.06040485 0.4510635 205 205 205
0.1400932 -0.03385286 0.3702343 205 205 205
0.1422529 -0.03468854 0.3724402 205 205 205
0.1668944 -0.04976654 0.4159478 205 205 205
0.1772677 -0.0564566 0.4354025 205 205 205
0.137547 -0.02090267 0.3285066 205 205 205
0.1375612 -0.01658916 0.3146551 205 205 205
0.1383929 -0.01480948 0.30885 205 205 205
0.1385111 -0.01377046 0.3055425 205 205 205
0.1398142 -0.01292222 0.3026684 205 205 205
0.1400736 -0.01254173 0.3014354 205 205 205
0.1457574 -0.01211192 0.2993289 205 205 205
0.1464934 -0.01200244 0.2989002 205 205 205
0.1542942 -0.01257568 0.2998061 205 205 205
0.1555757 -0.01272639 0.3001407 205 205 205
0.1603469 -0.01412445 0.3039468 205 205 205
0.1633108 -0.01509125 0.3066146 205 205 205
0.1559414 -0.0345254 0.3649229 205 205 205
0.1399634 -0.02092724 0.3249044 205 205 205
0.1391926 -0.01451441 0.3048924 205 205 205
0.1456844 -0.01293592 0.2990861 205 205 205
0.1491457 -0.01276988 0.2981588 205 205 205
0.1591783 -0.01442936 0.3021156 205 205 205
0.1862063 -0.05483925 0.4188097 205 205 205
0.1401451 -0.01486688 0.3030029 205 205 205
0.1409135 -0.01369734 0.2993088 205 205 205
0.1416512 -0.01359732 0.2988965 205 205 205
0.1518043 -0.01352208 0.2973783 205 205 205
0.1574622 -0.01443435 0.2994986 205 205 205
0.1467853 -0.02480719 0.3293868 205 205 205
0.1387657 -0.01832983 0.3109971 205 205 205
0.1376823 -0.01704515 0.3072617 205 205 205
0.1382734 -0.01627022 0.3047965 205 205 205
0.139034 -0.01617919 0.304392 205 205 205
0.1393123 -0.01578873 0.3031602 205 205 205
0.1400665 -0.01569444 0.3027524 205 205 205
0.1405885 -0.0149077 0.3002908 205 205 205
0.1420731 -0.01470803 0.299465 205 205 205
0.142312 -0.01431052 0.2982348 205 205 205
0.1455353 -0.01458034 0.2985913 205 205 205
0.1470081 -0.01435778 0.2977318 205 205 205
0.1492056 -0.01401022 0.2964239 205 205 205
0.155557 -0.014835 0.2981343 205 205 205
0.1392323 -0.01661531 0.3029064 205 205 205
0.1399869 -0.01652079 0.3024987 205 205 205
0.1402528 -0.01612391 0.3012685 205 205 205
0.1410011 -0.0160261 0.3008576 205 205 205
0.1412539 -0.01562687 0.2996279 205 205 205
0.1419958 -0.01552588 0.2992139 205 205 205
0.1454592 -0.01540074 0.2983393 205 205 205
0.1476674 -0.01506328 0.2970465 205 205 205
0.1484003 -0.01494712 0.2966106 205 205 205
0.1491316 -0.01482916 0.2961722 205 205 205
0.1498613 -0.01470932 0.2957314 205 205 205
0.1523905 -0.01505012 0.296424 205 205 205
0.1536625 -0.01521605 0.2967606 205 205 205
0.136583 -0.01810815 0.3050846 205 205 205
0.1396315 -0.01774577 0.303472 205 205 205
0.1426584 -0.01623936 0.2985431 205 205 205
0.1428939 -0.01583252 0.2973148 205 205 205
0.1448717 -0.01591902 0.2972786 205 205 205
0.1530478 -0.01574751 0.2957151 205 205 205
0.1543215 -0.01591439 0.296046 205 205 205
0.140029 -0.01888242 0.3040322 205 205 205
0.1413314 -0.0179741 0.3011592 205 205 205
0.1420823 -0.01787347 0.3007439 205 205 205
0.1430797 -0.01736056 0.2990959 205 205 205
0.1440574 -0.01684221 0.2974455 205 205 205
0.1482484 -0.01658192 0.2960978 205 205 205
0.1524327 -0.01627034 0.2946687 205 205 205
0.1381177 -0.02030385 0.3058106 205 205 205
0.148171 -0.01739749 0.2958368 205 205 205
0.1508967 -0.01733986 0.2953044 205 205 205
0.1534361 -0.01769495 0.2959776 205 205 205
0.1389692 -0.02177227 0.3071894 205 205 205
0.1400475 -0.02126965 0.3055482 205 205 205
0.1408189 -0.02117422 0.3051359 205 205 205
0.1411063 -0.02076116 0.3039041 205 205 205
0.1439171 -0.01962148 0.3001852 205 205 205
0.1441649 -0.01920126 0.2989548 205 205 205
0.1500861 -0.01828039 0.2954843 205 205 205
0.1520863 -0.01833933 0.2953781 205 205 205
0.1528193 -0.0182116 0.2949263 205 205 205
0.1535506 -0.01808199 0.2944719 205 205 205
0.1407326 -0.02200946 0.3048618 205 205 205
0.1417861 -0.02149336 0.3032157 205 205 205
0.1425499 -0.02139243 0.3027976 205 205 205
0.14282 -0.0209715 0.3015667 205 205 205
0.1440829 -0.02001978 0.2986861 205 205 205
0.1465419 -0.01925837 0.2961741 205 205 205
0.1472784 -0.01914254 0.2957411 205 205 205
0.1480132 -0.01902487 0.2953056 205 205 205
0.1527411 -0.01903043 0.2946571 205 205 205
0.1547482 -0.01907836 0.294525 205 205 205
0.140348 -0.02326335 0.305815 205 205 205
0.1406453 -0.02284338 0.3045845 205 205 205
0.1429526 -0.0225441 0.3033326 205 205 205
0.1437187 -0.02244053 0.3029102 205 205 205
0.1447462 -0.02072785 0.2979892 205 205 205
0.1484548 -0.02015396 0.2958271 205 205 205
0.1541243 -0.01958562 0.2934742 205 205 205
0.1554014 -0.01976434 0.2937907 205 205 205
0.1606659 -0.0404947 0.3470583 205 205 205
0.140259 -0.02409992 0.3055333 205 205 205
0.1428656 -0.02337591 0.3030524 205 205 205
0.1431406 -0.02294661 0.3018223 205 205 205
0.1439021 -0.02284131 0.3013992 205 205 205
0.1446621 -0.02273416 0.3009737 205 205 205
0.1451675 -0.02186706 0.2985145 205 205 205
0.1454078 -0.02143217 0.2972869 205 205 205
0.1468936 -0.02120388 0.2964247 205 205 205
0.1476341 -0.02108696 0.2959899 205 205 205
0.1513126 -0.02047427 0.2937788 205 205 205
0.153314 -0.02053371 0.2936557 205 205 205
0.1547738 -0.02026692 0.2927402 205 205 205
0.1411171 -0.02559793 0.30688 205 205 205
0.1409453 -0.02483827 0.3048345 205 205 205
0.1422898 -0.02387682 0.3019606 205 205 205
0.1445756 -0.02356013 0.3006918 205 205 205
0.1450825 -0.02268514 0.2982353 205 205 205
0.147551 -0.02190016 0.2957123 205 205 205
0.1499672 -0.02108956 0.2931654 205 205 205
0.152692 -0.02102713 0.2926003 205 205 205
0.1539643 -0.02121557 0.2929211 205 205 205
0.1546937 -0.02108091 0.2924622 205 205 205
0.1424463 -0.02744432 0.3090329 205 205 205
0.144488 -0.02438482 0.3004068 205 205 205
0.1447464 -0.02394381 0.2991792 205 205 205
0.1452383 -0.02305909 0.2967281 205 205 205
0.1474668 -0.02271207 0.2954316 205 205 205
0.1489445 -0.02247136 0.2945549 205 205 205
0.1498849 -0.02189656 0.2928864 205 205 205
0.1506148 -0.02177023 0.2924415 205 205 205
0.1518806 -0.02196748 0.2927721 205 205 205
0.1432989 -0.02897267 0.3103618 205 205 205
0.1417165 -0.02718085 0.3058783 205 205 205
0.1420188 -0.02674278 0.3046488 205 205 205
0.1423128 -0.02630365 0.3034203 205 205 205
0.1441321 -0.02565221 0.3013462 205 205 205
0.1464074 -0.02409002 0.296807 205 205 205
0.14664 -0.02364052 0.2955824 205 205 205
0.1473817 -0.02352266 0.2951478 205 205 205
0.1538001 -0.02284028 0.2923556 205 205 205
0.1545303 -0.02270495 0.291897 205 205 205
0.1484043 -0.03359554 0.3189895 205 205 205
0.1435282 -0.02938691 0.3088219 205 205 205
0.1425074 -0.02668998 0.3019003 205 205 205
0.14507 -0.02591995 0.2993997 205 205 205
0.1465535 -0.02445009 0.2952954 205 205 205
0.1497174 -0.02350666 0.2923191 205 205 205
0.1544471 -0.02351498 0.2916098 205 205 205
0.1432706 -0.02944561 0.3064756 205 205 205
0.1436733 -0.02775367 0.3019839 205 205 205
0.1439506 -0.02730275 0.3007579 205 205 205
0.145483 -0.02583094 0.2966588 205 205 205
0.1474294 -0.02468038 0.2933503 205 205 205
0.1496321 -0.02430973 0.292031 205 205 205
0.1503631 -0.02418245 0.2915864 205 205 205
0.1523597 -0.02425803 0.2914619 205 205 205
0.1420345 -0.02879092 0.3025287 205 205 205
0.1435803 -0.02858086 0.3016837 205 205 205
0.1433659 -0.02777904 0.299661 205 205 205
0.1461426 -0.02652659 0.295933 205 205 205
0.1478614 -0.02582585 0.2938415 205 205 205
0.1502771 -0.02498385 0.2912953 205 205 205
0.1542776 -0.02513106 0.2910264 205 205 205
0.1437651 -0.02894786 0.3001573 205 205 205
0.1494585 -0.02591186 0.2914457 205 205 205
0.1443679 -0.03094041 0.3026688 205 205 205
0.1444373 -0.02965838 0.2994255 205 205 205
0.1491618 -0.02718622 0.2923665 205 205 205
0.153372 -0.02687865 0.2908888 205 205 205
0.1449443 -0.03295481 0.3051774 205 205 205
0.1453317 -0.03119186 0.300702 205 205 205
0.1456056 -0.03072183 0.2994786 205 205 205
0.1461283 -0.02977901 0.2970357 205 205 205
0.1471293 -0.02918742 0.2953808 205 205 205
0.1473649 -0.02871245 0.2941622 205 205 205
0.1481104 -0.02859029 0.2937238 205 205 205
0.1483328 -0.02811314 0.2925062 205 205 205
0.1518136 -0.0279512 0.291495 205 205 205
0.1525493 -0.02781766 0.2910419 205 205 205
0.1532833 -0.02768222 0.2905864 205 205 205
0.145776 -0.03106768 0.2979456 205 205 205
0.1465383 -0.03095135 0.2975114 205 205 205
0.1472725 -0.02951718 0.2938558 205 205 205
0.1504544 -0.02853098 0.2908704 205 205 205
0.1494312 -0.03744788 0.3104484 205 205 205
0.146125 -0.03356883 0.3016503 205 205 205
0.1464072 -0.03309001 0.300426 205 205 205
0.1488887 -0.02958685 0.2914526 205 205 205
0.1496267 -0.02945895 0.291009 205 205 205
0.1523681 -0.02942129 0.2904277 205 205 205
0.147204 -0.03598554 0.3049214 205 205 205
0.1463085 -0.03391507 0.3001047 205 205 205
0.1475981 -0.03148755 0.2940106 205 205 205
0.1478311 -0.03099946 0.292796 205 205 205
0.1487957 -0.03038425 0.2911419 205 205 205
0.1495341 -0.03025603 0.2906984 205 205 205
0.1490594 -0.03831684 0.3077439 205 205 205
0.1469838 -0.03462184 0.2993432 205 205 205
0.1475163 -0.03364285 0.2969033 205 205 205
0.14777 -0.03315202 0.2956854 205 205 205
0.1487017 -0.03118026 0.2908282 205 205 205
0.1507073 -0.03128707 0.2907044 205 205 205
0.151446 -0.03115415 0.2902542 205 205 205
0.1475957 -0.0366854 0.3018028 205 205 205
0.147882 -0.03619241 0.3005787 205 205 205
0.1478661 -0.03210177 0.2909524 205 205 205
0.1491295 -0.03234536 0.2912794 205 205 205
0.1513516 -0.03195134 0.2899365 205 205 205
0.1526249 -0.03218431 0.2902437 205 205 205
0.1495554 -0.03351617 0.2917246 205 205 205
0.1525294 -0.03298329 0.2899217 205 205 205
0.1484578 -0.0377252 0.2994656 205 205 205
0.1489904 -0.03532813 0.2938233 205 205 205
0.1492282 -0.03482197 0.2926105 205 205 205
0.1502039 -0.03418438 0.2909522 205 205 205
0.1509486 -0.0340518 0.2905028 205 205 205
0.1524329 -0.03378084 0.2895967 205 205 205
0.1533688 -0.03312809 0.2879282 205 205 205
0.1476566 -0.04095467 0.3047968 205 205 205
0.1472837 -0.03917515 0.3007887 205 205 205
0.1488552 -0.03893397 0.2999013 205 205 205
0.149666 -0.03740834 0.2962431 205 205 205
0.1491286 -0.03562322 0.2922804 205 205 205
0.1498802 -0.03549361 0.291834 205 205 205
0.1523353 -0.03457688 0.2892687 205 205 205
0.1525373 -0.03405995 0.2880589 205 205 205
0.1421884 -0.03750459 0.2958525 205 205 205
0.1522368 -0.03537146 0.2889377 205 205 205
0.1537157 -0.03509142 0.2880225 205 205 205
0.14559 -0.03964918 0.2977691 205 205 205
0.149459 -0.03903605 0.2955615 205 205 205
0.151395 -0.036302 0.2890577 205 205 205
0.1536168 -0.03588384 0.2876889 205 205 205
0.1480363 -0.04101286 0.2980892 205 205 205
0.1505499 -0.03722975 0.2891719 205 205 205
0.1527776 -0.03681643 0.2878107 205 205 205
0.1487096 -0.04170659 0.2972923 205 205 205
0.1511923 -0.03788433 0.2883806 205 205 205
0.1519352 -0.03774622 0.287927 205 205 205
0.147532 -0.04317283 0.2985945 205 205 205
0.1486011 -0.04252277 0.2969375 205 205 205
0.1488753 -0.0419949 0.2957262 205 205 205
0.1486319 -0.04106547 0.2937545 205 205 205
0.149369 -0.03947577 0.2901393 205 205 205
0.1501205 -0.03934257 0.2896911 205 205 205
0.1503446 -0.03880971 0.2884886 205 205 205
0.1525742 -0.03839438 0.2871283 205 205 205
0.1517291 -0.0393218 0.2872384 205 205 205
0.1526724 -0.03863964 0.2855823 205 205 205
0.1485949 -0.04509429 0.2981925 205 205 205
0.1518318 -0.03956331 0.2856913 205 205 205
0.1351213 -0.03622622 0.2803134 205 205 205
0.1447265 -0.04355732 0.2936823 205 205 205
0.147487 -0.04508734 0.2962995 205 205 205
0.1487703 -0.04537406 0.2966158 205 205 205
0.1500588 -0.04565767 0.2969258 205 205 205
0.1498294 -0.04470454 0.294958 205 205 205
0.1500859 -0.04266562 0.2905891 205 205 205
0.1530022 -0.04060646 0.2856247 205 205 205
0.1471561 -0.04493991 0.2939691 205 205 205
0.1502156 -0.04291175 0.2890299 205 205 205
0.1514125 -0.04167359 0.2861833 205 205 205
0.1528962 -0.04138814 0.2852703 205 205 205
0.1501063 -0.04370052 0.2886687 205 205 205
0.1382168 -0.03989237 0.2815433 205 205 205
0.1492499 -0.04615227 0.2918963 205 205 205
0.1495069 -0.04559825 0.2906976 205 205 205
0.1524727 -0.04350802 0.2857466 205 205 205
0.149394 -0.04639141 0.290327 205 205 205
0.1496435 -0.04583273 0.2891315 205 205 205
0.1501173 -0.04471301 0.2867451 205 205 205
0.1490216 -0.04774458 0.2911485 205 205 205
0.1515051 -0.04521164 0.2854707 205 205 205
0.1529977 -0.0449222 0.2845549 205 205 205
0.1486382 -0.04910281 0.2919649 205 205 205
0.1494164 -0.04740657 0.2883849 205 205 205
0.1498933 -0.04627167 0.2860057 205 205 205
0.150644 -0.04613159 0.285554 205 205 205
0.1513932 -0.04598948 0.2850998 205 205 205
0.1480166 -0.04946303 0.2908361 205 205 205
0.1487894 -0.04933029 0.2903888 205 205 205
0.1495447 -0.04762018 0.2868186 205 205 205
0.1489327 -0.04954764 0.2888148 205 205 205
0.1501858 -0.04825984 0.2859888 205 205 205
0.1519142 -0.04739556 0.2838931 205 205 205
0.1526605 -0.04724881 0.2834345 205 205 205
0.1482831 -0.05148515 0.2908065 205 205 205
0.1490598 -0.05135117 0.2903576 205 205 205
0.1505898 -0.04947634 0.2863397 205 205 205
0.1508248 -0.04889515 0.285154 205 205 205
0.1525461 -0.04802107 0.2830553 205 205 205
0.1504723 -0.05025512 0.2859535 205 205 205
0.1507081 -0.04967016 0.2847696 205 205 205
0.1452678 -0.05139783 0.2875022 205 205 205
0.1495935 -0.05117319 0.2860169 205 205 205
0.1503539 -0.05103221 0.2855644 205 205 205
0.1511127 -0.05088921 0.2851094 205 205 205
0.1513441 -0.05029913 0.2839271 205 205 205
0.1515673 -0.04970831 0.2827463 205 205 205
0.140422 -0.04866907 0.2816183 205 205 205
0.1474176 -0.05339944 0.2888842 205 205 205
0.1492231 -0.05253918 0.2868059 205 205 205
0.1509935 -0.05166428 0.2847176 205 205 205
0.1491017 -0.05331695 0.286409 205 205 205
0.1511064 -0.05184003 0.2831443 205 205 205
0.1482114 -0.05423149 0.2864582 205 205 205
0.1492315 -0.05349524 0.2848317 205 205 205
0.15151 -0.0530632 0.2834683 205 205 205
0.1478214 -0.05560529 0.2872317 205 205 205
0.149366 -0.05532845 0.2863323 205 205 205
0.1523691 -0.05307653 0.2814335 205 205 205
0.1500112 -0.05596252 0.2854716 205 205 205
0.1502633 -0.0553553 0.2842956 205 205 205
0.1512653 -0.05460057 0.2826648 205 205 205
0.1522472 -0.05384029 0.2810324 205 205 205
0.09144112 -0.05089406 0.2907887 205 205 205
0.09463809 -0.05232442 0.2924582 205 205 205
0.1485741 -0.05809501 0.287866 205 205 205
0.152424 -0.05568229 0.2825125 205 205 205
0.08486344 -0.04965265 0.2888477 205 205 205
0.0889404 -0.05014221 0.2884497 205 205 205
0.09179765 -0.05110251 0.2893259 205 205 205
0.1023463 -0.05783507 0.2985076 205 205 205
0.1497589 -0.05750839 0.2846483 205 205 205
0.1510166 -0.0561309 0.2818497 205 205 205
0.1517737 -0.05598147 0.2813912 205 205 205
0.08186526 -0.05915005 0.3056342 205 205 205
0.08216669 -0.05130867 0.2910759 205 205 205
0.08269311 -0.05082368 0.2900106 205 205 205
0.08346085 -0.05083239 0.289777 205 205 205
0.0864837 -0.04936075 0.2860942 205 205 205
0.08929648 -0.05033921 0.2869976 205 205 205
0.09080999 -0.05032123 0.2864864 205 205 205
0.09261459 -0.05079127 0.2867827 205 205 205
0.09702326 -0.05420534 0.2916723 205 205 205
0.1001486 -0.0566345 0.2951588 205 205 205
0.1012626 -0.05710297 0.2956743 205 205 205
0.1062813 -0.06096701 0.3012142 205 205 205
0.1488174 -0.06012866 0.2877514 205 205 205
0.1493685 -0.05889615 0.2854038 205 205 205
0.1516481 -0.05674365 0.2809795 205 205 205
0.1513479 -0.0556502 0.2791052 205 205 205
0.0886128 -0.05003484 0.2849794 205 205 205
0.0976746 -0.05490373 0.2909984 205 205 205
0.0990793 -0.05587655 0.2923314 205 205 205
0.1016104 -0.05731672 0.2941677 205 205 205
0.1030528 -0.05828222 0.2954781 205 205 205
0.1111531 -0.06406424 0.3035024 205 205 205
0.1488948 -0.06200663 0.2892233 205 205 205
0.1492391 -0.05966829 0.2849829 205 205 205
0.07922164 -0.05712415 0.2991847 205 205 205
0.08118621 -0.05120252 0.2878195 205 205 205
0.1030684 -0.05798874 0.2931638 205 205 205
0.1155651 -0.06509807 0.3021633 205 205 205
0.1109593 -0.05755337 0.2900127 205 205 205
0.1492581 -0.06327455 0.2895126 205 205 205
0.1498833 -0.06029447 0.2841049 205 205 205
0.1503938 -0.05904099 0.2817705 205 205 205
0.0780599 -0.05732325 0.2981693 205 205 205
0.09164996 -0.05186554 0.2840143 205 205 205
0.1022837 -0.05771272 0.2911583 205 205 205
0.1055218 -0.06016349 0.2945372 205 205 205
0.1134412 -0.06074227 0.2931949 205 205 205
0.1497095 -0.06280551 0.28673 205 205 205
0.1505077 -0.05917021 0.2801853 205 205 205
0.08973487 -0.05206757 0.2833369 205 205 205
0.09498532 -0.05453285 0.2860591 205 205 205
0.09605509 -0.0550197 0.2865885 205 205 205
0.09821406 -0.05598697 0.2876317 205 205 205
0.102938 -0.0584029 0.2904519 205 205 205
0.1043889 -0.05938178 0.291738 205 205 205
0.1061897 -0.06086549 0.2938093 205 205 205
0.1185062 -0.07121786 0.3083527 205 205 205
0.1144758 -0.06193633 0.2932181 205 205 205
0.1500775 -0.06407116 0.2870081 205 205 205
0.1501292 -0.06231636 0.2839585 205 205 205
0.09592538 -0.05571971 0.2861933 205 205 205
0.09885492 -0.05666541 0.2869463 205 205 205
0.1090289 -0.06356181 0.2959123 205 205 205
0.1220757 -0.07337048 0.3091345 205 205 205
0.1210948 -0.07076118 0.3048767 205 205 205
0.1506679 -0.06936558 0.2941341 205 205 205
0.1503354 -0.06710713 0.2903406 205 205 205
0.0776477 -0.05948991 0.2969477 205 205 205
0.07816679 -0.056959 0.2923572 205 205 205
0.0947262 -0.05592467 0.2852698 205 205 205
0.09579503 -0.05641803 0.2857954 205 205 205
0.09981474 -0.05785489 0.2870511 205 205 205
0.1034573 -0.05981013 0.2893294 205 205 205
0.106381 -0.06178684 0.2918677 205 205 205
0.1160687 -0.06975661 0.3027512 205 205 205
0.1226615 -0.07521178 0.310221 205 205 205
0.1113085 -0.05608291 0.2805338 205 205 205
0.1487313 -0.06931313 0.2926984 205 205 205
0.1490633 -0.06867678 0.291523 205 205 205
0.1500081 -0.06676169 0.2880047 205 205 205
0.14987 -0.06207319 0.2800639 205 205 205
0.1513955 -0.06177027 0.2791479 205 205 205
0.07802367 -0.05406495 0.2857361 205 205 205
0.08916006 -0.05515296 0.2840468 205 205 205
0.09968244 -0.05856112 0.2866449 205 205 205
0.1055685 -0.06148437 0.2898742 205 205 205
0.1103797 -0.06496605 0.2943984 205 205 205
0.1118978 -0.06594828 0.2956275 205 205 205
0.114498 -0.06847651 0.2991844 205 205 205
0.1217753 -0.07500219 0.3081999 205 205 205
0.1195612 -0.06700535 0.2951639 205 205 205
0.149372 -0.067044 0.2868451 205 205 205
0.1497256 -0.06461405 0.2826476 205 205 205
0.07717094 -0.06452386 0.3023581 205 205 205
0.07710741 -0.058339 0.2917688 205 205 205
0.07724226 -0.05679395 0.2890751 205 205 205
0.07789289 -0.05474142 0.2853441 205 205 205
0.08621841 -0.05481017 0.2827873 205 205 205
0.09035133 -0.0568699 0.2850037 205 205 205
0.09140119 -0.05737986 0.2855454 205 205 205
0.09187894 -0.05684264 0.2844782 205 205 205
0.09845945 -0.05877438 0.2857336 205 205 205
0.1050951 -0.06168747 0.2886699 205 205 205
0.1065643 -0.06268536 0.2899234 205 205 205
0.1091948 -0.06415243 0.2916255 205 205 205
0.1132872 -0.06768739 0.296407 205 205 205
0.1468012 -0.07117534 0.2926863 205 205 205
0.1471449 -0.07053498 0.2915165 205 205 205
0.1482931 -0.06975544 0.289894 205 205 205
0.1490288 -0.06667143 0.2845244 205 205 205
0.1493466 -0.06422723 0.2803475 205 205 205
0.07722846 -0.06578787 0.3027527 205 205 205
0.07689073 -0.05695658 0.2878501 205 205 205
0.08533511 -0.05548744 0.2826372 205 205 205
0.08973175 -0.05809403 0.2856644 205 205 205
0.0915538 -0.05859627 0.2859426 205 205 205
0.09356798 -0.05802024 0.2843384 205 205 205
0.09509639 -0.0579773 0.2837911 205 205 205
0.09693219 -0.05845195 0.2840261 205 205 205
0.09832626 -0.05947393 0.285324 205 205 205
0.1046223 -0.06188212 0.2874668 205 205 205
0.1244836 -0.07693904 0.306886 205 205 205
0.1466566 -0.07196816 0.2922217 205 205 205
0.1465223 -0.07081535 0.2903385 205 205 205
0.1476646 -0.07003303 0.2887222 205 205 205
0.1509938 -0.06402289 0.2778394 205 205 205
0.1507091 -0.06286595 0.2759985 205 205 205
0.07662138 -0.05920521 0.2901278 205 205 205
0.07686847 -0.05607199 0.28477 205 205 205
0.08675504 -0.05774534 0.2844126 205 205 205
0.09603368 -0.05916975 0.2838988 205 205 205
0.1070828 -0.06408817 0.2887539 205 205 205
0.1127523 -0.06756664 0.2928598 205 205 205
0.1146507 -0.06908625 0.294829 205 205 205
0.1165698 -0.07060219 0.2967866 205 205 205
0.1208418 -0.07414765 0.3014314 205 205 205
0.1228258 -0.07565169 0.3033516 205 205 205
0.1254174 -0.07542524 0.3022088 205 205 205
0.1141338 -0.0580006 0.2764958 205 205 205
0.1467307 -0.07507845 0.295527 205 205 205
0.1470364 -0.07030207 0.2875513 205 205 205
0.1468643 -0.0691416 0.2856837 205 205 205
0.1471688 -0.06849112 0.2845271 205 205 205
0.1477525 -0.06718739 0.2822181 205 205 205
0.1485337 -0.0670421 0.2817657 205 205 205
0.1490736 -0.06573193 0.2794617 205 205 205
0.150858 -0.06477 0.2773976 205 205 205
0.07589822 -0.06670355 0.3012761 205 205 205
0.07593514 -0.06250778 0.2942554 205 205 205
0.08509142 -0.05843097 0.2845006 205 205 205
0.09185316 -0.06104397 0.2867173 205 205 205
0.09282739 -0.05994661 0.2845874 205 205 205
0.09666611 -0.05983275 0.2832068 205 205 205
0.1010183 -0.06183222 0.2851891 205 205 205
0.1088787 -0.06524115 0.2884544 205 205 205
0.1192044 -0.07282078 0.2979093 205 205 205
0.1215478 -0.07486379 0.3005917 205 205 205
0.1458903 -0.07303184 0.2905701 205 205 205
0.1467222 -0.06990945 0.2852256 205 205 205
0.1473244 -0.06860033 0.2829181 205 205 205
0.1476127 -0.06794443 0.2817664 205 205 205
0.1509608 -0.06485172 0.2758065 205 205 205
0.07599819 -0.06374976 0.2946506 205 205 205
0.08419097 -0.05910981 0.2843355 205 205 205
0.08547121 -0.06018266 0.2857004 205 205 205
0.08991899 -0.06284559 0.2886896 205 205 205
0.09043226 -0.06229998 0.2876277 205 205 205
0.1046572 -0.06344008 0.2851085 205 205 205
0.1072521 -0.06494754 0.2867993 205 205 205
0.1117535 -0.06798746 0.2904347 205 205 205
0.1144574 -0.06946648 0.2920512 205 205 205
0.1179425 -0.07199706 0.2951615 205 205 205
0.1247287 -0.07648396 0.3005019 205 205 205
0.1265057 -0.07517835 0.2978403 205 205 205
0.1588277 -0.09666625 0.3235962 205 205 205
0.1445643 -0.0746002 0.2917057 205 205 205
0.1459415 -0.07198775 0.2870733 205 205 205
0.1468852 -0.07001764 0.2836123 205 205 205
0.1479695 -0.06921459 0.28201 205 205 205
0.1493043 -0.06774215 0.2792568 205 205 205
0.1498203 -0.06641305 0.2769637 205 205 205
0.1508238 -0.0655914 0.2753613 205 205 205
0.07644218 -0.06819956 0.3001698 205 205 205
0.07625151 -0.06340651 0.2923676 205 205 205
0.07678025 -0.06075741 0.2878506 205 205 205
0.08151083 -0.05923554 0.2838327 205 205 205
0.08584781 -0.06194589 0.2868896 205 205 205
0.08793631 -0.06301969 0.2879856 205 205 205
0.08872315 -0.06301408 0.2877279 205 205 205
0.09080017 -0.06244607 0.2861451 205 205 205
0.09456307 -0.06071954 0.2821494 205 205 205
0.09855856 -0.06222356 0.2833708 205 205 205
0.1004223 -0.06269351 0.2835653 205 205 205
0.1026273 -0.06369254 0.2845201 205 205 205
0.107113 -0.06566191 0.2863658 205 205 205
0.10825 -0.06614812 0.2868138 205 205 205
0.1190006 -0.07322244 0.2950988 205 205 205
0.1279384 -0.07808997 0.3003585 205 205 205
0.1232128 -0.06940144 0.2876478 205 205 205
0.1456365 -0.07157875 0.2847486 205 205 205
0.1475339 -0.07063472 0.2827 205 205 205
0.1483887 -0.06864092 0.2792567 205 205 205
0.1491638 -0.06849103 0.2788021 205 205 205
0.1494268 -0.0678233 0.277657 205 205 205
0.1504447 -0.06699988 0.2760557 205 205 205
0.07632121 -0.06679024 0.2962362 205 205 205
0.07742383 -0.06145997 0.287212 205 205 205
0.07853362 -0.06040807 0.2851446 205 205 205
0.07930535 -0.06042169 0.2849186 205 205 205
0.0800764 -0.0604334 0.2846901 205 205 205
0.08209737 -0.06153668 0.2858353 205 205 205
0.08518003 -0.06317756 0.2875171 205 205 205
0.08726901 -0.06426173 0.2886141 205 205 205
0.08832358 -0.06480083 0.2891553 205 205 205
0.09043027 -0.06423488 0.2875734 205 205 205
0.09144245 -0.06312431 0.2854554 205 205 205
0.0924214 -0.06200643 0.2833379 205 205 205
0.0931913 -0.06198721 0.2830667 205 205 205
0.09472848 -0.06194291 0.2825173 205 205 205
0.09549573 -0.06191784 0.2822389 205 205 205
0.09656978 -0.06243271 0.2827402 205 205 205
0.1032674 -0.0643509 0.2837868 205 205 205
0.1043815 -0.06484781 0.2842505 205 205 205
0.1069731 -0.06637446 0.2859296 205 205 205
0.1096042 -0.06789024 0.287581 205 205 205
0.1107567 -0.06837427 0.2880146 205 205 205
0.1122744 -0.06939483 0.2892045 205 205 205
0.1134428 -0.06987343 0.2896255 205 205 205
0.11535 -0.07142644 0.2915584 205 205 205
0.1181051 -0.07290705 0.2931217 205 205 205
0.1193084 -0.07337397 0.2935154 205 205 205
0.1225017 -0.07537343 0.2957873 205 205 205
0.1423981 -0.08180702 0.3003154 205 205 205
0.1431973 -0.07932087 0.2961007 205 205 205
0.1422284 -0.07708097 0.292789 205 205 205
0.1421472 -0.07589892 0.2909189 205 205 205
0.1425126 -0.07524418 0.2897666 205 205 205
0.1432177 -0.07393134 0.2874655 205 205 205
0.1482471 -0.0693882 0.278799 205 205 205
0.1490223 -0.06923798 0.2783446 205 205 205
0.1497886 -0.06722167 0.2749206 205 205 205
0.07740863 -0.06862207 0.2971967 205 205 205
0.07718914 -0.06591906 0.2929111 205 205 205
0.07793708 -0.06377844 0.2892197 205 205 205
0.08371086 -0.06440812 0.2883829 205 205 205
0.08474917 -0.06495836 0.288938 205 205 205
0.08579425 -0.06550667 0.2894883 205 205 205
0.08844519 -0.06604727 0.2895186 205 205 205
0.09029053 -0.06493154 0.2871433 205 205 205
0.09179869 -0.06325276 0.2839727 205 205 205
0.09228478 -0.06268951 0.2829161 205 205 205
0.09382397 -0.06264888 0.2823716 205 205 205
0.09751314 -0.06363433 0.282811 205 205 205
0.103129 -0.0650489 0.2833558 205 205 205
0.1042427 -0.06554897 0.2838174 205 205 205
0.1053625 -0.0660466 0.2842738 205 205 205
0.1064887 -0.06654178 0.2847248 205 205 205
0.1079685 -0.06757762 0.2859347 205 205 205
0.1121305 -0.07012456 0.2887537 205 205 205
0.1132984 -0.07060625 0.2891728 205 205 205
0.1172113 -0.07257654 0.2911499 205 205 205
0.1211999 -0.07452036 0.2930664 205 205 205
0.1231915 -0.07606213 0.294937 205 205 205
0.1244216 -0.07652047 0.295304 205 205 205
0.1293515 -0.07949341 0.298592 205 205 205
0.1293998 -0.0783245 0.2967131 205 205 205
0.1413596 -0.08155227 0.2983695 205 205 205
0.1421897 -0.08024368 0.2960493 205 205 205
0.1472449 -0.07214876 0.2817686 205 205 205
0.1486354 -0.06878582 0.2760594 205 205 205
0.1494008 -0.06863238 0.2756045 205 205 205
0.07746326 -0.06771939 0.2940926 205 205 205
0.07858857 -0.06448553 0.2885641 205 205 205
0.07938008 -0.06450136 0.2883351 205 205 205
0.08119269 -0.06507639 0.2886724 205 205 205
0.08198591 -0.06508636 0.2884348 205 205 205
0.08325673 -0.06619316 0.2897958 205 205 205
0.09291768 -0.06335135 0.2822208 205 205 205
0.09368697 -0.06332996 0.2819474 205 205 205
0.09552556 -0.06382991 0.2821727 205 205 205
0.09923603 -0.06480464 0.2825779 205 205 205
0.1000099 -0.06476907 0.2822835 205 205 205
0.10299 -0.06574506 0.282922 205 205 205
0.1101163 -0.06927314 0.2863589 205 205 205
0.1143267 -0.0718193 0.2891288 205 205 205
0.1155062 -0.07229874 0.2895347 205 205 205
0.1190808 -0.07372073 0.2907184 205 205 205
0.1202842 -0.07418916 0.2911015 205 205 205
0.1255051 -0.0777475 0.2951843 205 205 205
0.1284639 -0.07684688 0.2928851 205 205 205
0.1390282 -0.0808623 0.2961411 205 205 205
0.1415363 -0.07930987 0.2929672 205 205 205
0.1413882 -0.07691973 0.2892429 205 205 205
0.1417517 -0.07625843 0.2880969 205 205 205
0.1432622 -0.07480011 0.2853693 205 205 205
0.1435951 -0.07413387 0.2842261 205 205 205
0.1481805 -0.07208048 0.279703 205 205 205
0.1495076 -0.06868828 0.2740106 205 205 205
0.07990909 -0.06684627 0.2903125 205 205 205
0.0807114 -0.06686024 0.2900777 205 205 205
0.08464026 -0.06855442 0.2915052 205 205 205
0.08545028 -0.06855845 0.2912542 205 205 205
0.08842948 -0.06633743 0.2868003 205 205 205
0.0900092 -0.06631947 0.2862751 205 205 205
0.09384397 -0.06456135 0.2823005 205 205 205
0.09491453 -0.06508981 0.2828021 205 205 205
0.09723678 -0.06500687 0.2819522 205 205 205
0.09800899 -0.06497525 0.2816641 205 205 205
0.1009683 -0.06597055 0.2823232 205 205 205
0.1031818 -0.06699 0.2832518 205 205 205
0.1126465 -0.07151749 0.2875049 205 205 205
0.121344 -0.07540522 0.2910072 205 205 205
0.1241724 -0.07687976 0.2924806 205 205 205
0.1278392 -0.07943122 0.2953975 205 205 205
0.1294953 -0.08042844 0.296472 205 205 205
0.1307567 -0.08087761 0.296804 205 205 205
0.1287358 -0.0769731 0.2912767 205 205 205
0.1397431 -0.08273626 0.297082 205 205 205
0.1401657 -0.08207784 0.2959286 205 205 205
0.140985 -0.08075704 0.2936244 205 205 205
0.1412366 -0.07769104 0.288758 205 205 205
0.1411407 -0.07648902 0.2869073 205 205 205
0.1426426 -0.07502498 0.2841899 205 205 205
0.1442494 -0.07475428 0.2833084 205 205 205
0.1450503 -0.07461565 0.2828639 205 205 205
0.1501246 -0.06926095 0.2730942 205 205 205
0.0809067 -0.07912971 0.3076963 205 205 205
0.08073501 -0.07637622 0.3034284 205 205 205
0.08027569 -0.07085996 0.2949165 205 205 205
0.08170015 -0.07033484 0.2936364 205 205 205
0.08463539 -0.07147728 0.2944927 205 205 205
0.08934589 -0.06757668 0.2868877 205 205 205
0.09322206 -0.06581935 0.2829229 205 205 205
0.0950727 -0.06632899 0.2831451 205 205 205
0.09693453 -0.06683019 0.2833523 205 205 205
0.09740644 -0.06624528 0.2822914 205 205 205
0.1022585 -0.06772815 0.2831165 205 205 205
0.1033716 -0.0682396 0.2835747 205 205 205
0.1086815 -0.07020707 0.2850285 205 205 205
0.1098283 -0.07070377 0.2854558 205 205 205
0.1109813 -0.07119787 0.2858776 205 205 205
0.1140329 -0.07328147 0.2882057 205 205 205
0.116025 -0.07369891 0.2882566 205 205 205
0.1204229 -0.07505421 0.2890503 205 205 205
0.1216299 -0.07552376 0.2894212 205 205 205
0.1306356 -0.08046827 0.2944428 205 205 205
0.1323112 -0.08146221 0.2954938 205 205 205
0.1331646 -0.08135971 0.2950829 205 205 205
0.136565 -0.08332936 0.2971443 205 205 205
0.137 -0.08267334 0.2959976 205 205 205
0.1400196 -0.0840771 0.2972942 205 205 205
0.1408288 -0.08154332 0.2931257 205 205 205
0.1418056 -0.07712238 0.2859882 205 205 205
0.1441003 -0.07550877 0.2828299 205 205 205
0.1466081 -0.07318877 0.2785262 205 205 205
0.1476712 -0.0723576 0.2769404 205 205 205
0.1479432 -0.07167349 0.2758068 205 205 205
0.1489727 -0.07083412 0.2742204 205 205 205
0.1492228 -0.07014702 0.2730896 205 205 205
0.08448683 -0.07219357 0.294035 205 205 205
0.08540423 -0.07052567 0.2911502 205 205 205
0.08787332 -0.06884307 0.2877546 205 205 205
0.0886721 -0.06883685 0.2874934 205 205 205
0.09415203 -0.06703836 0.2829866 205 205 205
0.09571084 -0.06698828 0.2824249 205 205 205
0.104014 -0.06889198 0.2828193 205 205 205
0.1051354 -0.06940185 0.2832663 205 205 205
0.1108357 -0.0719134 0.28542 205 205 205
0.116689 -0.07435942 0.2874356 205 205 205
0.1198883 -0.07524118 0.287838 205 205 205
0.1304796 -0.08124225 0.2939478 205 205 205
0.1325672 -0.08279227 0.2957206 205 205 205
0.1394111 -0.08311566 0.2942057 205 205 205
0.1408376 -0.0780119 0.2859374 205 205 205
0.1416538 -0.07788249 0.285502 205 205 205
0.1431475 -0.0763983 0.2827902 205 205 205
0.1447515 -0.07612196 0.2819046 205 205 205
0.1450683 -0.07544095 0.2807684 205 205 205
0.1490753 -0.07278907 0.2755598 205 205 205
0.07823816 -0.06778672 0.2876193 205 205 205
0.08124695 -0.07342552 0.2953569 205 205 205
0.08230492 -0.07400224 0.2959089 205 205 205
0.08291197 -0.07345213 0.294867 205 205 205
0.08397608 -0.07402478 0.2954116 205 205 205
0.08492361 -0.07235132 0.2925304 205 205 205
0.08550127 -0.07179263 0.2914861 205 205 205
0.08905926 -0.06896025 0.2859994 205 205 205
0.09250963 -0.06946915 0.2857026 205 205 205
0.09616959 -0.06879501 0.2835262 205 205 205
0.0977397 -0.06873617 0.2829495 205 205 205
0.09883448 -0.06926497 0.2834244 205 205 205
0.09962085 -0.06923035 0.2831285 205 205 205
0.1004062 -0.06919372 0.2828302 205 205 205
0.1011906 -0.06915504 0.2825294 205 205 205
0.1030859 -0.06963202 0.2826805 205 205 205
0.1106893 -0.07262699 0.2849597 205 205 205
0.1118473 -0.0731246 0.285372 205 205 205
0.1133738 -0.0741777 0.2865252 205 205 205
0.1165399 -0.07508824 0.2869654 205 205 205
0.1193543 -0.07541963 0.286627 205 205 205
0.1229683 -0.07683996 0.2877206 205 205 205
0.1311707 -0.08191417 0.2930453 205 205 205
0.1341214 -0.0833644 0.2943894 205 205 205
0.1379631 -0.08346914 0.2934169 205 205 205
0.1379403 -0.08225168 0.2915639 205 205 205
0.1387834 -0.08213281 0.2911351 205 205 205
0.1399497 -0.08011884 0.2877197 205 205 205
0.1402265 -0.07822341 0.2847474 205 205 205
0.1410393 -0.07809427 0.2843141 205 205 205
0.1425245 -0.07660441 0.2816126 205 205 205
0.144122 -0.07632867 0.2807312 205 205 205
0.1452274 -0.07550203 0.2791542 205 205 205
0.1473776 -0.07383031 0.2759944 205 205 205
0.1499596 -0.0726717 0.2734978 205 205 205
0.0856806 -0.07926958 0.3012744 205 205 205
0.08824071 -0.07532885 0.2944403 205 205 205
0.08831138 -0.07362899 0.2918207 205 205 205
0.08861703 -0.07249292 0.2899888 205 205 205
0.08916893 -0.07192065 0.288941 205 205 205
0.08997818 -0.07020448 0.2860658 205 205 205
0.09104796 -0.07075763 0.2865753 205 205 205
0.09315899 -0.07014243 0.2849766 205 205 205
0.09553532 -0.0700746 0.2841336 205 205 205
0.09947725 -0.06992107 0.2826792 205 205 205
0.1002627 -0.06988428 0.282381 205 205 205
0.1018307 -0.06980465 0.2817772 205 205 205
0.1029421 -0.0703254 0.2822294 205 205 205
0.1071068 -0.07182093 0.2832328 205 205 205
0.1160176 -0.07525466 0.2857528 205 205 205
0.1385801 -0.0816808 0.2887884 205 205 205
0.1388931 -0.07977988 0.2858184 205 205 205
0.1444492 -0.07762008 0.280934 205 205 205
0.1450773 -0.07624301 0.2786721 205 205 205
0.1472294 -0.07456362 0.2755173 205 205 205
0.1487805 -0.07425641 0.2746092 205 205 205
0.09273152 -0.08458191 0.3054332 205 205 205
0.0900959 -0.07318109 0.2889929 205 205 205
0.09964647 -0.07117746 0.2829886 205 205 205
0.1004357 -0.07114037 0.282689 205 205 205
0.101224 -0.07110124 0.282387 205 205 205
0.1108364 -0.07342228 0.2829518 205 205 205
0.1119922 -0.07392392 0.2833576 205 205 205
0.1178614 -0.07639135 0.2853029 205 205 205
0.1194784 -0.07623425 0.2845791 205 205 205
0.1206748 -0.07671445 0.2849429 205 205 205
0.1242991 -0.07813761 0.2859999 205 205 205
0.1275598 -0.08019157 0.2881178 205 205 205
0.1292094 -0.08121281 0.2891628 205 205 205
0.1308717 -0.08223011 0.2901985 205 205 205
0.1350077 -0.08045953 0.2863092 205 205 205
0.1358301 -0.08034304 0.2858914 205 205 205
0.1386511 -0.0793012 0.2834965 205 205 205
0.143819 -0.07781626 0.2797591 205 205 205
0.1457162 -0.07683647 0.2777403 205 205 205
0.1467966 -0.07599226 0.2761634 205 205 205
0.1470803 -0.0752949 0.2750374 205 205 205
0.09315137 -0.072092 0.2848388 205 205 205
0.09474432 -0.07204815 0.2842769 205 205 205
0.09553941 -0.07202315 0.2839922 205 205 205
0.09633362 -0.07199612 0.2837051 205 205 205
0.1079516 -0.07373461 0.2827335 205 205 205
0.1173319 -0.07654759 0.2840925 205 205 205
0.1181375 -0.07647022 0.2837336 205 205 205
0.1213322 -0.07735493 0.2840934 205 205 205
0.1237461 -0.07830755 0.2847916 205 205 205
0.1311345 -0.08232248 0.2885766 205 205 205
0.131968 -0.08221637 0.28817 205 205 205
0.133596 -0.08076461 0.2855205 205 205 205
0.1339813 -0.08009102 0.2844019 205 205 205
0.1360531 -0.08041584 0.284273 205 205 205
0.1368691 -0.08029518 0.2838521 205 205 205
0.1372344 -0.07961479 0.2827306 205 205 205
0.1438146 -0.07980395 0.2810806 205 205 205
0.1452581 -0.07827058 0.278379 205 205 205
0.1466458 -0.07672501 0.2756786 205 205 205
0.1507965 -0.07523666 0.2722691 205 205 205
0.1263542 -0.1603446 0.4043131 205 205 205
0.09408753 -0.07333516 0.2848657 205 205 205
0.09648427 -0.07325948 0.2840079 205 205 205
0.09777268 -0.07262442 0.2826639 205 205 205
0.1047445 -0.07344656 0.2817366 205 205 205
0.1066662 -0.07391665 0.2818458 205 205 205
0.1156253 -0.07620072 0.2825067 205 205 205
0.117605 -0.07661815 0.2825265 205 205 205
0.1260287 -0.07998291 0.2849762 205 205 205
0.1284875 -0.08091751 0.2856235 205 205 205
0.1297254 -0.08138023 0.2859383 205 205 205
0.1317625 -0.08049488 0.2840201 205 205 205
0.1329567 -0.07970766 0.2825002 205 205 205
0.1342035 -0.08015484 0.2827912 205 205 205
0.1354558 -0.08059886 0.2830763 205 205 205
0.1366309 -0.07979509 0.28154 205 205 205
0.1439885 -0.07985166 0.2794572 205 205 205
0.1469872 -0.07800865 0.2758624 205 205 205
0.148056 -0.07714947 0.274285 205 205 205
0.09317084 -0.07580102 0.287261 205 205 205
0.09553819 -0.07397689 0.2838318 205 205 205
0.09999716 -0.07320457 0.2813113 205 205 205
0.102686 -0.0736562 0.281148 205 205 205
0.1045968 -0.07413833 0.2812709 205 205 205
0.109243 -0.07501595 0.2811401 205 205 205
0.1123424 -0.07597409 0.2816051 205 205 205
0.1146735 -0.07698257 0.28238 205 205 205
0.1154746 -0.07690968 0.2820294 205 205 205
0.1162744 -0.07683475 0.2816765 205 205 205
0.1174537 -0.07732991 0.2820473 205 205 205
0.1194423 -0.07774024 0.282049 205 205 205
0.1254679 -0.08014587 0.2837682 205 205 205
0.1316067 -0.08123225 0.2835237 205 205 205
0.1328017 -0.08044132 0.2820063 205 205 205
0.1348588 -0.08077342 0.281881 205 205 205
0.1441547 -0.07988932 0.2778369 205 205 205
0.1460468 -0.07889125 0.275821 205 205 205
0.1463413 -0.07818428 0.2747005 205 205 205
0.1471232 -0.07803194 0.274249 205 205 205
0.148953 -0.07700843 0.2722186 205 205 205
0.1497248 -0.07684809 0.2717595 205 205 205
0.0964836 -0.07521858 0.2838346 205 205 205
0.0972845 -0.07518885 0.2835425 205 205 205
0.0985764 -0.0745426 0.2821968 205 205 205
0.1012745 -0.07500917 0.2820449 205 205 205
0.1020695 -0.07496703 0.281738 205 205 205
0.1044483 -0.07482816 0.2808026 205 205 205
0.1060289 -0.07472527 0.2801667 205 205 205
0.1082999 -0.07577053 0.2809975 205 205 205
0.1090936 -0.07571132 0.280668 205 205 205
0.1121919 -0.07667527 0.2811291 205 205 205
0.1133539 -0.07718387 0.2815173 205 205 205
0.1220758 -0.08000366 0.282984 205 205 205
0.13145 -0.08196752 0.2830246 205 205 205
0.1342624 -0.08093953 0.2806873 205 205 205
0.1350683 -0.08081958 0.2802724 205 205 205
0.1371263 -0.08113954 0.2801251 205 205 205
0.1386139 -0.07962215 0.2774766 205 205 205
0.1394072 -0.07948965 0.2770489 205 205 205
0.1419318 -0.08034422 0.2775437 205 205 205
0.1451035 -0.0797702 0.275774 205 205 205
0.1454038 -0.07906129 0.2746564 205 205 205
0.1480269 -0.07788896 0.272185 205 205 205
0.1503428 -0.07740696 0.2708085 205 205 205
0.09904007 -0.07639583 0.2832312 205 205 205
0.1025623 -0.07682141 0.2827594 205 205 205
0.1054258 -0.0760476 0.2807555 205 205 205
0.1120408 -0.07737447 0.2806504 205 205 205
0.114001 -0.07781523 0.2806903 205 205 205
0.1159708 -0.07824625 0.2807141 205 205 205
0.1179502 -0.07866739 0.2807217 205 205 205
0.1223338 -0.08005638 0.2814018 205 205 205
0.124752 -0.08102236 0.2820674 205 205 205
0.1275924 -0.08129946 0.2816111 205 205 205
0.1316789 -0.08201601 0.2814176 205 205 205
0.1324894 -0.08190234 0.2810103 205 205 205
0.134106 -0.08166844 0.2801883 205 205 205
0.1353551 -0.08211888 0.2804649 205 205 205
0.1377746 -0.0817434 0.2792006 205 205 205
0.1389194 -0.08091414 0.2776632 205 205 205
0.1397162 -0.08078077 0.2772338 205 205 205
0.1449481 -0.08049838 0.2752756 205 205 205
0.1470979 -0.07876592 0.2721459 205 205 205
0.1486472 -0.07845041 0.2712358 205 205 205
0.1501897 -0.07812624 0.2703163 205 205 205
0.1211381 -0.1384483 0.3641499 205 205 205
0.100009 -0.08960325 0.3004201 205 205 205
0.09765571 -0.07953214 0.2866571 205 205 205
0.09869005 -0.07829443 0.2845551 205 205 205
0.1008048 -0.07759767 0.2828977 205 205 205
0.1040128 -0.07742216 0.2816546 205 205 205
0.1102922 -0.07820243 0.2808459 205 205 205
0.1110911 -0.07813807 0.2805087 205 205 205
0.1118888 -0.0780716 0.280169 205 205 205
0.1126854 -0.07800304 0.279827 205 205 205
0.1169955 -0.07945303 0.2805938 205 205 205
0.1177967 -0.07937285 0.2802347 205 205 205
0.1221787 -0.08077043 0.2809089 205 205 205
0.1233844 -0.08125784 0.2812425 205 205 205
0.1241921 -0.08116321 0.2808621 205 205 205
0.1270215 -0.08144405 0.2804092 205 205 205
0.132332 -0.08262967 0.2805082 205 205 205
0.1331411 -0.08251356 0.2800986 205 205 205
0.1347549 -0.08227471 0.279272 205 205 205
0.1387628 -0.08163924 0.2771627 205 205 205
0.1395598 -0.08150557 0.2767335 205 205 205
0.1411489 -0.08123166 0.2758679 205 205 205
0.1424146 -0.08166015 0.276104 205 205 205
0.1450936 -0.08050864 0.2736616 205 205 205
0.1453871 -0.07979195 0.2725501 205 205 205
0.1469433 -0.07948443 0.27165 205 205 205
0.1013225 -0.08971316 0.2985118 205 205 205
0.0994406 -0.08075983 0.2863182 205 205 205
0.1020882 -0.07942695 0.2835963 205 205 205
0.1077356 -0.07907884 0.281358 205 205 205
0.1093393 -0.07896034 0.2806962 205 205 205
0.1101394 -0.07889792 0.2803617 205 205 205
0.1144933 -0.07913975 0.2793728 205 205 205
0.1172192 -0.08074156 0.2808216 205 205 205
0.1196302 -0.08049287 0.2797325 205 205 205
0.1208236 -0.0809891 0.2800757 205 205 205
0.1244357 -0.08119905 0.2792774 205 205 205
0.1301266 -0.08300158 0.2801189 205 205 205
0.1313629 -0.08346908 0.2804103 205 205 205
0.1345969 -0.0829991 0.2787678 205 205 205
0.1354017 -0.08287613 0.278351 205 205 205
0.1302752 -0.1528599 0.377263 205 205 205
0.1015425 -0.08257522 0.2867007 205 205 205
0.1038756 -0.08062522 0.2832197 205 205 205
0.1051677 -0.07993522 0.2818446 205 205 205
0.1059735 -0.0798832 0.2815225 205 205 205
0.1115828 -0.07945982 0.2791985 205 205 205
0.1143394 -0.07983541 0.2788844 205 205 205
0.1194747 -0.08119691 0.2792383 205 205 205
0.1222732 -0.08151401 0.2788332 205 205 205
0.1254904 -0.08239368 0.2790967 205 205 205
0.1275131 -0.08277183 0.2790165 205 205 205
0.131584 -0.08349631 0.2788056 205 205 205
0.1377511 -0.08450189 0.2783625 205 205 205
0.1397061 -0.08352552 0.2763986 205 205 205
0.1452655 -0.08251993 0.2733165 205 205 205
0.1455639 -0.08179571 0.2722079 205 205 205
0.1468391 -0.08221283 0.2724142 205 205 205
0.1471274 -0.08148557 0.2713048 205 205 205
0.1069243 -0.09767329 0.3046846 205 205 205
0.1028334 -0.08443321 0.2873688 205 205 205
0.1038622 -0.08315425 0.2852553 205 205 205
0.1064849 -0.08176511 0.2824957 205 205 205
0.1077676 -0.08105908 0.2811096 205 205 205
0.1093789 -0.08093934 0.2804453 205 205 205
0.1101828 -0.08087627 0.2801095 205 205 205
0.1109856 -0.08081106 0.2797711 205 205 205
0.1122255 -0.08008172 0.2783676 205 205 205
0.1165304 -0.08155762 0.2791162 205 205 205
0.1395463 -0.08424702 0.2758879 205 205 205
0.1424104 -0.08440641 0.2752482 205 205 205
0.1482475 -0.08261497 0.2709944 205 205 205
0.1128149 -0.1086059 0.3163812 205 205 205
0.1091045 -0.08288747 0.281734 205 205 205
0.1124322 -0.0813662 0.2785932 205 205 205
0.1199629 -0.08251087 0.2778743 205 205 205
0.1267806 -0.08360506 0.2773122 205 205 205
0.1300314 -0.08445589 0.2775038 205 205 205
0.1316379 -0.08422571 0.2766957 205 205 205
0.1344798 -0.08444983 0.2761439 205 205 205
0.1352799 -0.08432433 0.2757271 205 205 205
0.1430473 -0.08498306 0.2742916 205 205 205
0.1433658 -0.08425603 0.2731874 205 205 205
0.144157 -0.08410734 0.2727428 205 205 205
0.145431 -0.08453507 0.2729519 205 205 205
0.1483678 -0.08259372 0.2693783 205 205 205
0.1068339 -0.08435815 0.2829529 205 205 205
0.1076534 -0.08430253 0.2826228 205 205 205
0.1084718 -0.08424474 0.2822901 205 205 205
0.1174363 -0.08218893 0.2766933 205 205 205
0.1222017 -0.08293124 0.2762558 205 205 205
0.1306751 -0.0850523 0.2765898 205 205 205
0.1330785 -0.08469636 0.2753672 205 205 205
0.1351193 -0.08503646 0.2752147 205 205 205
0.137967 -0.08523261 0.2746195 205 205 205
0.1436818 -0.08555466 0.2733303 205 205 205
0.1166225 -0.1125413 0.3170024 205 205 205
0.1077274 -0.09186473 0.2914426 205 205 205
0.11846 -0.08339266 0.276533 205 205 205
0.1232428 -0.0841264 0.2760681 205 205 205
0.1264614 -0.08501337 0.2762945 205 205 205
0.1272628 -0.08490638 0.2759028 205 205 205
0.1313167 -0.08564382 0.275671 205 205 205
0.1321179 -0.0855249 0.2752637 205 205 205
0.134958 -0.08574643 0.2746996 205 205 205
0.1378052 -0.08594482 0.2741027 205 205 205
0.1419247 -0.08656443 0.2736955 205 205 205
0.1451071 -0.08596904 0.2719159 205 205 205
0.1458986 -0.08581463 0.271465 205 205 205
0.1129846 -0.1029317 0.303266 205 205 205
0.1093909 -0.0943673 0.2927459 205 205 205
0.1078347 -0.08818229 0.2848267 205 205 205
0.1210868 -0.08441357 0.2756191 205 205 205
0.1319562 -0.08623044 0.2747475 205 205 205
0.1339954 -0.08658055 0.2745979 205 205 205
0.1347958 -0.08645421 0.2741818 205 205 205
0.1368433 -0.08678832 0.2740086 205 205 205
0.1409612 -0.08742297 0.2736111 205 205 205
0.1446294 -0.08742373 0.2724935 205 205 205
0.146221 -0.08711516 0.2715908 205 205 205
0.1470143 -0.08695754 0.2711358 205 205 205
0.1478059 -0.08679769 0.2706784 205 205 205
0.1496678 -0.08572105 0.2686543 205 205 205
0.125859 -0.1287682 0.3324012 205 205 205
0.1090017 -0.08816257 0.282914 205 205 205
0.1106573 -0.08803777 0.282233 205 205 205
0.111957 -0.08729541 0.2808307 205 205 205
0.1145676 -0.08449599 0.2762528 205 205 205
0.1153671 -0.08441667 0.275899 205 205 205
0.1177583 -0.08416572 0.274823 205 205 205
0.1189402 -0.08468303 0.2751549 205 205 205
0.1225211 -0.08491167 0.274359 205 205 205
0.1257267 -0.08581083 0.2745824 205 205 205
0.1301325 -0.08585381 0.2732857 205 205 205
0.1415964 -0.08799212 0.2726469 205 205 205
0.1481331 -0.08810012 0.2707936 205 205 205
0.148721 -0.08659671 0.2685934 205 205 205
0.1495042 -0.08643055 0.2681311 205 205 205
0.1157722 -0.106833 0.30426 205 205 205
0.1129686 -0.08853415 0.2806718 205 205 205
0.1134333 -0.08785043 0.2796142 205 205 205
0.1138896 -0.08716514 0.2785572 205 205 205
0.1160059 -0.08501866 0.2750342 205 205 205
0.1175989 -0.0848488 0.2743148 205 205 205
0.1199672 -0.08588612 0.2749688 205 205 205
0.1336682 -0.08799009 0.273554 205 205 205
0.1369652 -0.08880181 0.2736233 205 205 205
0.1390263 -0.08912853 0.2734258 205 205 205
0.1418982 -0.08929913 0.2727711 205 205 205
0.1426999 -0.08915205 0.2723287 205 205 205
0.1479668 -0.08881447 0.2702625 205 205 205
0.1490541 -0.08789484 0.2687026 205 205 205
0.150342 -0.08831741 0.2688718 205 205 205
0.11018 -0.09073239 0.2829518 205 205 205
0.1118481 -0.0906013 0.2822603 205 205 205
0.1123305 -0.08991748 0.281204 205 205 205
0.1153516 -0.08770145 0.2773294 205 205 205
0.1174004 -0.08684026 0.2755531 205 205 205
0.1178211 -0.0861415 0.2744966 205 205 205
0.1229945 -0.08618564 0.2729542 205 205 205
0.1355489 -0.08903813 0.272856 205 205 205
0.1388597 -0.08983772 0.2728941 205 205 205
0.1401226 -0.09029845 0.273115 205 205 205
0.1430029 -0.09046198 0.2724441 205 205 205
0.1474914 -0.09028374 0.2708262 205 205 205
0.1490869 -0.08995704 0.2699027 205 205 205
0.1506756 -0.08962132 0.2689697 205 205 205
0.1514673 -0.08945008 0.2684996 205 205 205
0.1277927 -0.1300332 0.3276691 205 205 205
0.1152899 -0.1045647 0.2980521 205 205 205
0.1129923 -0.09054545 0.280325 205 205 205
0.1139236 -0.08916274 0.2782172 205 205 205
0.1208351 -0.08777705 0.2742504 205 205 205
0.1236264 -0.08676675 0.2720567 205 205 205
0.1268342 -0.0876672 0.2722468 205 205 205
0.1288478 -0.08805016 0.2721268 205 205 205
0.1304385 -0.08781396 0.2713238 205 205 205
0.1428343 -0.09117375 0.2719061 205 205 205
0.1449161 -0.09147098 0.2716534 205 205 205
0.1510068 -0.09092902 0.2690605 205 205 205
0.1540291 -0.1813628 0.3845865 205 205 205
0.1150195 -0.1033973 0.2949742 205 205 205
0.1113632 -0.09331383 0.2829525 205 205 205
0.113178 -0.09186274 0.2804945 205 205 205
0.1136522 -0.0911686 0.2794412 205 205 205
0.1153908 -0.08969623 0.2769794 205 205 205
0.1206715 -0.08846215 0.2737282 205 205 205
0.1352156 -0.09043936 0.2717925 205 205 205
0.1385239 -0.09124932 0.2718228 205 205 205
0.1447461 -0.09218287 0.271111 205 205 205
0.1492409 -0.09198008 0.2694535 205 205 205
0.1500396 -0.09181198 0.2689867 205 205 205
0.1526366 -0.09266517 0.2692949 205 205 205
0.1125554 -0.09651656 0.2852224 205 205 205
0.1123787 -0.09457445 0.2827629 205 205 205
0.1128743 -0.09387998 0.2817095 205 205 205
0.1150275 -0.09303312 0.2799428 205 205 205
0.1180408 -0.09075296 0.2760527 205 205 205
0.1180944 -0.08942231 0.2743132 205 205 205
0.1237054 -0.0887447 0.2716896 205 205 205
0.1265055 -0.0890379 0.2711978 205 205 205
0.1289405 -0.09004139 0.2717392 205 205 205
0.1383547 -0.09195173 0.2712831 205 205 205
0.1421534 -0.09334802 0.271909 205 205 205
0.1429623 -0.09319845 0.2714637 205 205 205
0.1712797 -0.2149611 0.4175357 205 205 205
0.113741 -0.09974135 0.2874708 205 205 205
0.1138933 -0.09513567 0.2815073 205 205 205
0.1148583 -0.0937309 0.279402 205 205 205
0.1165193 -0.0935707 0.2786784 205 205 205
0.1174309 -0.09215211 0.276572 205 205 205
0.1183086 -0.09072761 0.2744685 205 205 205
0.1215373 -0.09035098 0.2729778 205 205 205
0.1223411 -0.0902513 0.2725991 205 205 205
0.1231436 -0.09014942 0.272218 205 205 205
0.1255429 -0.08983061 0.2710601 205 205 205
0.1308007 -0.09110755 0.2710606 205 205 205
0.1320335 -0.09160117 0.2713101 205 205 205
0.1394449 -0.09312349 0.2709535 205 205 205
0.1427903 -0.09390635 0.2709155 205 205 205
0.1472944 -0.09373046 0.2692839 205 205 205
0.1499588 -0.1731991 0.3682409 205 205 205
0.1250986 -0.1238813 0.3131478 205 205 205
0.1145628 -0.0957623 0.2806003 205 205 205
0.1150454 -0.09505557 0.279549 205 205 205
0.1176341 -0.09346847 0.276718 205 205 205
0.1185205 -0.09203672 0.2746164 205 205 205
0.1233772 -0.09145463 0.2723571 205 205 205
0.1249853 -0.09124287 0.2715846 205 205 205
0.1269692 -0.09028663 0.2697455 205 205 205
0.1318645 -0.09229171 0.2707708 205 205 205
0.1347093 -0.0925243 0.2701775 205 205 205
0.1380138 -0.0933497 0.270196 205 205 205
0.1405383 -0.09429486 0.270611 205 205 205
0.1500167 -0.09454545 0.2679628 205 205 205
0.1355991 -0.1450041 0.3348012 205 205 205
0.1140893 -0.09914312 0.283534 205 205 205
0.1138987 -0.09717011 0.2810988 205 205 205
0.1170076 -0.09487472 0.2772245 205 205 205
0.1183522 -0.09271967 0.2740785 205 205 205
0.1227988 -0.09286683 0.272873 205 205 205
0.1357851 -0.09370147 0.2698589 205 205 205
0.1395563 -0.09514108 0.2704971 205 205 205
0.1432512 -0.09516248 0.2693641 205 205 205
0.1445294 -0.09562304 0.2695455 205 205 205
0.149529 -0.09603447 0.2684954 205 205 205
0.1508275 -0.09647507 0.2686449 205 205 205
0.1185127 -0.1101086 0.2943982 205 205 205
0.1145696 -0.09779441 0.280183 205 205 205
0.1167331 -0.0969181 0.2784064 205 205 205
0.1189376 -0.09466626 0.2748902 205 205 205
0.1198075 -0.09321426 0.2727955 205 205 205
0.1210057 -0.09374961 0.2730917 205 205 205
0.1246494 -0.09397008 0.2722254 205 205 205
0.1315239 -0.09366594 0.2696846 205 205 205
0.1360574 -0.0950159 0.2699539 205 205 205
0.1373119 -0.09550133 0.2701688 205 205 205
0.1414599 -0.09616703 0.269699 205 205 205
0.1456369 -0.09678592 0.2691606 205 205 205
0.1532611 -0.0980604 0.2683572 205 205 205
0.1667785 -0.2076599 0.3991029 205 205 205
0.1174917 -0.09616651 0.2757583 205 205 205
0.1236665 -0.09475928 0.2720668 205 205 205
0.1252889 -0.0945442 0.2712888 205 205 205
0.1309745 -0.09510392 0.2701963 205 205 205
0.133021 -0.09547908 0.2700189 205 205 205
0.133829 -0.0953486 0.2696016 205 205 205
0.1350754 -0.09584298 0.2698246 205 205 205
0.1358838 -0.09570739 0.2694007 205 205 205
0.1400163 -0.09639059 0.268948 205 205 205
0.1522693 -0.09895182 0.2682668 205 205 205
0.1491319 -0.1727538 0.3589719 205 205 205
0.1200804 -0.1134655 0.2948592 205 205 205
0.1164971 -0.1050406 0.2855778 205 205 205
0.1162634 -0.09966878 0.2790162 205 205 205
0.1181451 -0.09676295 0.2748355 205 205 205
0.1193458 -0.09731059 0.2751347 205 205 205
0.1230748 -0.09618119 0.2725659 205 205 205
0.1251079 -0.09660508 0.2724493 205 205 205
0.1332795 -0.09679738 0.2701087 205 205 205
0.1357795 -0.09779266 0.2705493 205 205 205
0.1386705 -0.09800296 0.2698949 205 205 205
0.1423806 -0.09803688 0.268762 205 205 205
0.1478603 -0.09910939 0.2683515 205 205 205
0.1239975 -0.121966 0.302438 205 205 205
0.116301 -0.1023785 0.2808512 205 205 205
0.1164437 -0.1010083 0.2791271 205 205 205
0.1253337 -0.09792797 0.2725503 205 205 205
0.1277886 -0.09898029 0.2730656 205 205 205
0.129024 -0.09810887 0.2716062 205 205 205
0.1310816 -0.09850203 0.2714377 205 205 205
0.1327192 -0.09824913 0.2706091 205 205 205
0.1339673 -0.09875342 0.2708327 205 205 205
0.1360412 -0.0991187 0.2706237 205 205 205
0.1502772 -0.1007225 0.2680689 205 205 205
0.1481799 -0.1714709 0.3533526 205 205 205
0.1168266 -0.1043751 0.2816271 205 205 205
0.1171138 -0.1016201 0.2781864 205 205 205
0.121031 -0.09913256 0.2739256 205 205 205
0.1226859 -0.09893146 0.2731584 205 205 205
0.132148 -0.09970375 0.2711027 205 205 205
0.1383884 -0.1008032 0.2704594 205 205 205
0.1476359 -0.1019394 0.2688972 205 205 205
0.1497592 -0.1022293 0.2685725 205 205 205
0.117864 -0.105647 0.2813423 205 205 205
0.1180121 -0.1042618 0.2796242 205 205 205
0.1185071 -0.1035248 0.2785785 205 205 205
0.1219963 -0.101757 0.2753429 205 205 205
0.1232193 -0.1023026 0.2756148 205 205 205
0.1236727 -0.1015528 0.2745661 205 205 205
0.1257383 -0.1019846 0.2744334 205 205 205
0.1319854 -0.1018029 0.2722316 205 205 205
0.142862 -0.1028141 0.2699879 205 205 205
0.1475721 -0.1040756 0.2700076 205 205 205
0.1538399 -0.1034842 0.2672823 205 205 205
0.1180353 -0.1070058 0.2814233 205 205 205
0.1203993 -0.1046899 0.2779033 205 205 205
0.1224815 -0.1051471 0.2777922 205 205 205
0.1258913 -0.1047309 0.276213 205 205 205
0.1301397 -0.1027444 0.2724822 205 205 205
0.1347405 -0.1041689 0.2727247 205 205 205
0.1376847 -0.1044015 0.272064 205 205 205
0.138521 -0.1042597 0.2716269 205 205 205
0.1419204 -0.1050993 0.2715471 205 205 205
0.1427571 -0.1049468 0.2710963 205 205 205
0.1478568 -0.1054202 0.2700294 205 205 205
0.1538127 -0.1056386 0.2683767 205 205 205
0.1197927 -0.1095909 0.2824476 205 205 205
0.1208205 -0.108098 0.2803486 205 205 205
0.1255363 -0.1082524 0.2790373 205 205 205
0.1349815 -0.1055142 0.2727715 205 205 205
0.1387752 -0.1056045 0.2716651 205 205 205
0.1400558 -0.1061031 0.2718485 205 205 205
0.1451588 -0.1066203 0.2708265 205 205 205
0.1481392 -0.106768 0.2700436 205 205 205
0.1228154 -0.1162269 0.2878111 205 205 205
0.1229736 -0.1113374 0.2819956 205 205 205
0.1249694 -0.1132081 0.2835687 205 205 205
0.128728 -0.1099389 0.2785167 205 205 205
0.1288656 -0.1070931 0.2751141 205 205 205
0.1305675 -0.1068537 0.2742883 205 205 205
0.1364928 -0.1088109 0.2747043 205 205 205
0.1369201 -0.1080247 0.2736386 205 205 205
0.1377701 -0.1078854 0.2732015 205 205 205
0.1454961 -0.1094192 0.2725308 205 205 205
0.1471956 -0.1090947 0.2715992 205 205 205
0.1497318 -0.1085897 0.2701829 205 205 205
0.1539235 -0.1076995 0.2677727 205 205 205
0.1281099 -0.1198674 0.2888382 205 205 205
0.13372 -0.1227143 0.2903852 205 205 205
0.1321743 -0.1151285 0.281995 205 205 205
0.1341417 -0.1105717 0.276027 205 205 205
0.1397315 -0.1103999 0.2740308 205 205 205
0.1405886 -0.1102538 0.2735835 205 205 205
0.1414442 -0.1101053 0.2731337 205 205 205
0.1444521 -0.1102924 0.2723833 205 205 205
0.148316 -0.110287 0.2711278 205 205 205
0.150012 -0.1099458 0.2701779 205 205 205
0.1508573 -0.1097716 0.2696992 205 205 205
0.1538678 -0.109875 0.2688433 205 205 205
0.1560409 -0.1101423 0.2684507 205 205 205
0.1338228 -0.131213 0.2986216 205 205 205
0.1351771 -0.1317615 0.2988273 205 205 205
0.138283 -0.1335087 0.2998669 205 205 205
0.1404683 -0.1318103 0.2971955 205 205 205
0.1358656 -0.1174567 0.2819836 205 205 205
0.1359462 -0.1160111 0.2802768 205 205 205
0.13954 -0.1125627 0.2751094 205 205 205
0.1438803 -0.1132705 0.2745326 205 205 205
0.1507605 -0.1119515 0.2707658 205 205 205
0.1563374 -0.1115009 0.2684235 205 205 205
0.1543802 -0.1607287 0.3244164 205 205 205
0.1539651 -0.1579316 0.3213238 205 205 205
0.1489625 -0.1435888 0.3063837 205 205 205
0.1430904 -0.1286214 0.2909995 205 205 205
0.1423976 -0.1258406 0.2880129 205 205 205
0.1420898 -0.1237206 0.2856647 205 205 205
0.1480515 -0.1146521 0.2732587 205 205 205
0.1511111 -0.1147912 0.2724242 205 205 205
0.1519752 -0.1146153 0.271939 205 205 205
0.152364 -0.1137884 0.2708553 205 205 205
0.1540765 -0.1134255 0.2698762 205 205 205
0.1857455 -0.2141088 0.3735254 205 205 205
0.1442276 -0.1233759 0.2829859 205 205 205
0.1438595 -0.1212454 0.280663 205 205 205
0.14789 -0.116849 0.2743118 205 205 205
0.1549275 -0.1169293 0.2721058 205 205 205
0.1570423 -0.1157155 0.2700177 205 205 205
0.1853257 -0.2000886 0.3553405 205 205 205
0.1792709 -0.1879141 0.3434566 205 205 205
0.1569731 -0.1461766 0.3032109 205 205 205
0.148355 -0.1292739 0.2867777 205 205 205
0.1471981 -0.1243236 0.2815205 205 205 205
0.1490437 -0.1195476 0.2754815 205 205 205
0.1508119 -0.1192067 0.2745154 205 205 205
0.159656 -0.1188478 0.2712024 205 205 205
0.2029333 -0.2254603 0.3760134 205 205 205
0.192315 -0.2058878 0.357368 205 205 205
0.1613623 -0.1506703 0.3050871 205 205 205
0.1563927 -0.1411854 0.2959931 205 205 205
0.1530576 -0.134371 0.2893828 205 205 205
0.1509622 -0.1295568 0.2846275 205 205 205
0.1497274 -0.1245829 0.2794103 205 205 205
0.1506366 -0.1244147 0.278923 205 205 205
0.1528956 -0.1232346 0.2768489 205 205 205
0.1537941 -0.1230566 0.2763529 205 205 205
0.1573694 -0.1223186 0.2743422 205 205 205
0.1582586 -0.1221277 0.273833 205 205 205
0.1595465 -0.1210839 0.272226 205 205 205
0.1853878 -0.1896131 0.3390997 205 205 205
0.1754773 -0.1720429 0.3226394 205 205 205
0.1545056 -0.1251204 0.2768742 205 205 205
0.1567399 -0.1239058 0.2747737 205 205 205
0.1579122 -0.1342133 0.2843155 205 205 205
0.1570504 -0.1298515 0.2797395 205 205 205
0.160698 -0.1275684 0.2759872 205 205 205
0.162511 -0.1271683 0.2749389 205 205 205
0.1610055 -0.132035 0.2792477 205 205 205
0.1642245 -0.1305669 0.2765513 205 205 205
0.1651415 -0.1303594 0.2760158 205 205 205
0.2274626 -0.2417343 0.373501 205 205 205
0.1899949 -0.1758236 0.3141283 205 205 205
0.1859605 -0.1682075 0.3071682 205 205 205
0.1832711 -0.1626128 0.3019632 205 205 205
0.1786848 -0.1527854 0.292773 205 205 205
0.2307066 -0.2383645 0.3662487 205 205 205
0.2055279 -0.1934691 0.3260689 205 205 205
