ply
format ascii 1.0
comment Generated by Floating Hands
element vertex 2001
property double x
property double y
property double z
property uchar red
property uchar green
property uchar blue
end_header
0.2003276 -0.06111283 0.4539063 205 205 205
0.1955546 -0.06274278 0.4546119 205 205 205
0.196957 -0.06260657 0.4539488 205 205 205
0.1983571 -0.06246711 0.4532811 205 205 205
0.1997547 -0.06232432 0.4526085 205 205 205
0.2015937 -0.06247203 0.4527779 205 205 205
0.1958483 -0.06454258 0.4550098 205 205 205
0.1982226 -0.06396723 0.4528269 205 205 205
0.1996209 -0.06382404 0.4521545 205 205 205
0.2010168 -0.06367762 0.4514773 205 205 205
0.2024103 -0.06352794 0.4507954 205 205 205
0.2042517 -0.06367164 0.4509508 205 205 205
0.2074904 -0.063651 0.4503985 205 205 205
0.1914742 -0.06643753 0.4565137 205 205 205
0.1924664 -0.06600675 0.4550092 205 205 205
0.193875 -0.06587628 0.4543559 205 205 205
0.1952812 -0.06574254 0.4536977 205 205 205
0.1962523 -0.06530333 0.4521854 205 205 205
0.1980865 -0.0654652 0.4523672 205 205 205
0.2008821 -0.06517476 0.4510176 205 205 205
0.2022763 -0.06502466 0.4503358 205 205 205
0.204118 -0.06517161 0.4504902 205 205 205
0.2059643 -0.06531458 0.4506364 205 205 205
0.1913327 -0.06793909 0.4560468 205 205 205
0.1951422 -0.06723918 0.453232 205 205 205
0.1961143 -0.0667958 0.451721 205 205 205
0.1989092 -0.06651178 0.4503845 205 205 205
0.200303 -0.06636488 0.4497091 205 205 205
0.2016943 -0.0662147 0.4490291 205 205 205
0.2039828 -0.0666695 0.4500239 205 205 205
0.2053761 -0.06651195 0.4493309 205 205 205
0.2072236 -0.06665449 0.4494697 205 205 205
0.1916076 -0.0697495 0.4564277 205 205 205
0.1926055 -0.06931018 0.454924 205 205 205
0.1940189 -0.06917861 0.4542691 205 205 205
0.19543 -0.06904373 0.4536095 205 205 205
0.1959747 -0.06828616 0.451251 205 205 205
0.1978096 -0.06845471 0.4514305 205 205 205
0.1987709 -0.0680013 0.4499146 205 205 205
0.1997229 -0.06754538 0.4483973 205 205 205
0.2038459 -0.06816512 0.4495519 205 205 205
0.2052399 -0.06800719 0.448859 205 205 205
0.2070878 -0.06815293 0.4489966 205 205 205
0.20987 -0.06781975 0.4475841 205 205 205
0.2107904 -0.06734239 0.4460409 205 205 205
0.213112 -0.06777869 0.4469808 205 205 205
0.2144974 -0.06760011 0.4462563 205 205 205
0.1843281 -0.07184583 0.4591346 205 205 205
0.1914626 -0.07125045 0.4559482 205 205 205
0.1924616 -0.07080702 0.4544458 205 205 205
0.193451 -0.07036092 0.4529418 205 205 205
0.1954018 -0.0694609 0.4499295 205 205 205
0.1967983 -0.06932005 0.4492654 205 205 205
0.1981924 -0.06917593 0.4485966 205 205 205
0.1995841 -0.06902852 0.447923 205 205 205
0.2037074 -0.06965857 0.4490742 205 205 205
0.2046495 -0.06918898 0.4475458 205 205 205
0.2064942 -0.06933843 0.447684 205 205 205
0.2092709 -0.06900513 0.4462751 205 205 205
0.2101889 -0.06852399 0.444735 205 205 205
0.2120372 -0.0686586 0.4448476 205 205 205
0.2138897 -0.06878904 0.4449519 205 205 205
0.2152697 -0.06860708 0.4442247 205 205 205
0.2185053 -0.06854051 0.4435758 205 205 205
0.2231168 -0.06825936 0.4421471 205 205 205
0.1813073 -0.07356209 0.4598898 205 205 205
0.1819519 -0.0728155 0.4575506 205 205 205
0.1833791 -0.07270657 0.4569309 205 205 205
0.1866335 -0.07279812 0.4565331 205 205 205
0.1884678 -0.07299805 0.4567518 205 205 205
0.1894794 -0.07255647 0.455257 205 205 205
0.1908988 -0.07243071 0.4546118 205 205 205
0.1918952 -0.07198351 0.4531123 205 205 205
0.1928822 -0.07153364 0.4516112 205 205 205
0.1952593 -0.07094316 0.4494493 205 205 205
0.1966565 -0.07080188 0.4487853 205 205 205
0.1994436 -0.07050949 0.4474431 205 205 205
0.2003883 -0.07004274 0.4459271 205 205 205
0.2031185 -0.07083453 0.4477546 205 205 205
0.2040581 -0.07036118 0.4462292 205 205 205
0.2058997 -0.0705143 0.4463681 205 205 205
0.2072866 -0.07034921 0.4456679 205 205 205
0.2086708 -0.07018086 0.444963 205 205 205
0.2095864 -0.06969599 0.4434259 205 205 205
0.2109621 -0.06952149 0.4427135 205 205 205
0.2118622 -0.06903137 0.4411725 205 205 205
0.2137055 -0.06916264 0.4412747 205 205 205
0.2155531 -0.06928965 0.4413686 205 205 205
0.2174048 -0.06941245 0.4414544 205 205 205
0.2192606 -0.06953099 0.4415318 205 205 205
0.2206305 -0.06933533 0.4407861 205 205 205
0.2210108 -0.06851734 0.43841 205 205 205
0.2228652 -0.06862505 0.4384699 205 205 205
0.2247236 -0.06872839 0.4385214 205 205 205
0.2260824 -0.06851952 0.4377574 205 205 205
0.2279452 -0.06861468 0.4377941 205 205 205
0.2293017 -0.06839866 0.437019 205 205 205
0.2301417 -0.06787293 0.4354378 205 205 205
0.2273535 -0.06520438 0.4282592 205 205 205
0.1836275 -0.07452112 0.4573 205 205 205
0.1854595 -0.07473163 0.4575303 205 205 205
0.1897443 -0.07437211 0.4556188 205 205 205
0.190751 -0.07392349 0.4541221 205 205 205
0.1921689 -0.07379403 0.4534722 205 205 205
0.1931604 -0.07333969 0.4519708 205 205 205
0.1941426 -0.07288277 0.4504679 205 205 205
0.1955463 -0.07274402 0.449807 205 205 205
0.1973821 -0.07292244 0.4499831 205 205 205
0.1983466 -0.07245665 0.448471 205 205 205
0.199743 -0.07230802 0.447796 205 205 205
0.2006922 -0.0718367 0.4462796 205 205 205
0.2029771 -0.07231984 0.4472669 205 205 205
0.2039177 -0.07184234 0.4457428 205 205 205
0.2057597 -0.07199871 0.4458806 205 205 205
0.2080698 -0.07134701 0.4436476 205 205 205
0.208983 -0.07085837 0.4421137 205 205 205
0.2098867 -0.07036734 0.4405786 205 205 205
0.2130938 -0.07032485 0.4399681 205 205 205
0.2167869 -0.070582 0.4401493 205 205 205
0.2200067 -0.07050851 0.4394838 205 205 205
0.220385 -0.06968317 0.4371122 205 205 205
0.2222364 -0.06979449 0.4371729 205 205 205
0.2254478 -0.06969254 0.4364632 205 205 205
0.226801 -0.06948034 0.4356966 205 205 205
0.2287772 -0.06758585 0.4301762 205 205 205
0.2280258 -0.06612694 0.4262137 205 205 205
0.2267216 -0.06436103 0.4214682 205 205 205
0.182438 -0.07645106 0.4582837 205 205 205
0.1838737 -0.07634087 0.457661 205 205 205
0.1853071 -0.07622736 0.4570335 205 205 205
0.1867383 -0.07611049 0.4564012 205 205 205
0.1885767 -0.07631679 0.456616 205 205 205
0.1895939 -0.07586674 0.4551222 205 205 205
0.1920202 -0.07528412 0.4529769 205 205 205
0.1930128 -0.07482572 0.4514768 205 205 205
0.1944231 -0.07468953 0.450819 205 205 205
0.1954003 -0.07422552 0.4493144 205 205 205
0.1972364 -0.07440722 0.4494894 205 205 205
0.199599 -0.07378822 0.4473037 205 205 205
0.2005492 -0.07331277 0.4457886 205 205 205
0.2023859 -0.0734802 0.4459397 205 205 205
0.2037757 -0.07332123 0.4452507 205 205 205
0.2051629 -0.07315893 0.4445571 205 205 205
0.2065476 -0.07299334 0.4438588 205 205 205
0.2079298 -0.07282448 0.4431559 205 205 205
0.2088439 -0.07233171 0.4416232 205 205 205
0.2097487 -0.0718365 0.4400896 205 205 205
0.212481 -0.0714775 0.4386585 205 205 205
0.2143224 -0.07161182 0.4387538 205 205 205
0.2161679 -0.07174196 0.438841 205 205 205
0.2175316 -0.07154999 0.4381058 205 205 205
0.2188926 -0.07135473 0.4373659 205 205 205
0.2197582 -0.07083929 0.4358111 205 205 205
0.2216064 -0.07095429 0.4358725 205 205 205
0.2224597 -0.07043329 0.4343123 205 205 205
0.2238064 -0.07022538 0.4335562 205 205 205
0.2256564 -0.07032897 0.4335984 205 205 205
0.2275104 -0.07042818 0.4336321 205 205 205
0.2288553 -0.07020931 0.4328586 205 205 205
0.2296809 -0.06967399 0.4312834 205 205 205
0.2315363 -0.06976169 0.4312978 205 205 205
0.2278903 -0.06556357 0.4202245 205 205 205
0.2185885 -0.05911816 0.4036676 205 205 205
0.1826777 -0.07827663 0.458638 205 205 205
0.1837191 -0.0778347 0.4571584 205 205 205
0.1851532 -0.07772078 0.456531 205 205 205
0.1869906 -0.07793405 0.456751 205 205 205
0.1898546 -0.07768898 0.455469 205 205 205
0.1912831 -0.07756139 0.4548207 205 205 205
0.1922897 -0.07710121 0.4533218 205 205 205
0.1928636 -0.07630946 0.4509771 205 205 205
0.1942745 -0.07617287 0.4503195 205 205 205
0.195683 -0.07603293 0.4496571 205 205 205
0.1970891 -0.07588972 0.4489899 205 205 205
0.1989302 -0.07607066 0.4491557 205 205 205
0.2003349 -0.07592046 0.4484775 205 205 205
0.2008488 -0.07511339 0.4461262 205 205 205
0.2022417 -0.07495726 0.445442 205 205 205
0.2036321 -0.07479785 0.4447531 205 205 205
0.2045653 -0.07430955 0.4432305 205 205 205
0.2073264 -0.07397501 0.441833 205 205 205
0.2077732 -0.07315423 0.4394797 205 205 205
0.2086721 -0.07265571 0.4379509 205 205 205
0.2105052 -0.07280169 0.4380617 205 205 205
0.2118673 -0.07262047 0.4373457 205 205 205
0.2132268 -0.072436 0.4366252 205 205 205
0.2150657 -0.07257024 0.4367149 205 205 205
0.2169089 -0.07270025 0.4367964 205 205 205
0.2177782 -0.07218391 0.4352475 205 205 205
0.2191303 -0.07198581 0.4345069 205 205 205
0.2231703 -0.07137186 0.4322581 205 205 205
0.2263589 -0.07126402 0.431536 205 205 205
0.2276977 -0.07104572 0.4307665 205 205 205
0.2295497 -0.07114091 0.4307883 205 205 205
0.2308861 -0.07091543 0.4300078 205 205 205
0.230129 -0.06942393 0.426055 205 205 205
0.2298685 -0.06824885 0.4229034 205 205 205
0.2290557 -0.06675956 0.4189714 205 205 205
0.2228875 -0.06213262 0.407191 205 205 205
0.2053698 -0.05093979 0.3789987 205 205 205
0.1835631 -0.07932624 0.4566502 205 205 205
0.1845962 -0.07887752 0.4551703 205 205 205
0.1868355 -0.07942854 0.4562416 205 205 205
0.1882692 -0.0793073 0.455603 205 205 205
0.1897008 -0.07918269 0.4549597 205 205 205
0.1907141 -0.07872143 0.4534652 205 205 205
0.1921374 -0.07859048 0.452814 205 205 205
0.1927128 -0.07779093 0.4504719 205 205 205
0.1941243 -0.07765391 0.4498143 205 205 205
0.1992185 -0.07788536 0.4494859 205 205 205
0.200187 -0.0774035 0.4479714 205 205 205
0.2011461 -0.07691907 0.4464557 205 205 205
0.2020958 -0.07643205 0.4449386 205 205 205
0.2034868 -0.07627218 0.4442498 205 205 205
0.204421 -0.07577977 0.4427286 205 205 205
0.2058035 -0.07561366 0.4420322 205 205 205
0.2080962 -0.07494361 0.4398032 205 205 205
0.2089995 -0.07444055 0.4382741 205 205 205
0.2108364 -0.07458918 0.4383817 205 205 205
0.2122026 -0.07440703 0.4376642 205 205 205
0.2135661 -0.07422159 0.436942 205 205 205
0.2154088 -0.07435857 0.4370288 205 205 205
0.2162852 -0.07384083 0.435484 205 205 205
0.2176407 -0.07364553 0.4347481 205 205 205
0.2189935 -0.07344691 0.4340077 205 205 205
0.2203435 -0.07324503 0.4332628 205 205 205
0.2206932 -0.07239345 0.4309049 205 205 205
0.222031 -0.07218599 0.4301548 205 205 205
0.2243771 -0.07261954 0.4310009 205 205 205
0.225716 -0.07240449 0.4302379 205 205 205
0.2280767 -0.07282825 0.4310635 205 205 205
0.2299323 -0.07292598 0.4310823 205 205 205
0.2317917 -0.07301927 0.4310927 205 205 205
0.232088 -0.07215012 0.4287225 205 205 205
0.2334192 -0.07191746 0.4279332 205 205 205
0.2331606 -0.070727 0.4247792 205 205 205
0.2328792 -0.06953683 0.4216327 205 205 205
0.1852421 -0.08103903 0.4563603 205 205 205
0.1899571 -0.0810114 0.4552912 205 205 205
0.1909751 -0.08054578 0.4537966 205 205 205
0.1919837 -0.08007742 0.4523004 205 205 205
0.1925604 -0.07927004 0.449961 205 205 205
0.1939726 -0.07913268 0.4493035 205 205 205
0.1958119 -0.07932756 0.4494797 205 205 205
0.1986314 -0.07903535 0.4481378 205 205 205
0.1995974 -0.07854971 0.4466264 205 205 205
0.2001106 -0.07772739 0.4442819 205 205 205
0.2015013 -0.0775708 0.4435997 205 205 205
0.2028895 -0.07741087 0.4429127 205 205 205
0.2056583 -0.07708109 0.4415249 205 205 205
0.206578 -0.07657917 0.440001 205 205 205
0.2079527 -0.07640643 0.4392973 205 205 205
0.2093247 -0.07623041 0.4385891 205 205 205
0.2120609 -0.07586841 0.4371587 205 205 205
0.2143051 -0.0751639 0.4348979 205 205 205
0.2156605 -0.07497186 0.4341686 205 205 205
0.2170132 -0.07477647 0.4334347 205 205 205
0.218855 -0.07490573 0.4335029 205 205 205
0.2202056 -0.07470329 0.4327582 205 205 205
0.2223969 -0.07396225 0.430454 205 205 205
0.223736 -0.07375043 0.4296976 205 205 205
0.2250721 -0.07353538 0.4289367 205 205 205
0.2269175 -0.07364173 0.4289667 205 205 205
0.2282513 -0.07341951 0.4281949 205 205 205
0.230101 -0.07351763 0.42821 205 205 205
0.2319545 -0.07361122 0.4282167 205 205 205
0.2327611 -0.07305559 0.4266402 205 205 205
0.2340868 -0.07281964 0.4258486 205 205 205
0.2364733 -0.07322285 0.4266195 205 205 205
0.2367291 -0.07233785 0.424252 205 205 205
0.1822018 -0.08275644 0.4570923 205 205 205
0.1832464 -0.08230237 0.4556167 205 205 205
0.1846824 -0.08218737 0.4549894 205 205 205
0.1865205 -0.08241058 0.4552058 205 205 205
0.1879556 -0.08228859 0.4545674 205 205 205
0.1897998 -0.08250415 0.4547694 205 205 205
0.1908188 -0.08203447 0.4532761 205 205 205
0.1918284 -0.08156203 0.4517813 205 205 205
0.1924065 -0.08074689 0.4494445 205 205 205
0.1942449 -0.08094873 0.4496259 205 205 205
0.1952298 -0.08046795 0.448125 205 205 205
0.1966379 -0.08032346 0.4474581 205 205 205
0.1995181 -0.07885657 0.4429382 205 205 205
0.2018412 -0.07820293 0.4407457 205 205 205
0.202767 -0.07770349 0.4392324 205 205 205
0.2059717 -0.07770442 0.4386678 205 205 205
0.2078074 -0.07786694 0.438786 205 205 205
0.2087127 -0.07735556 0.4372596 205 205 205
0.2105501 -0.07751063 0.4373651 205 205 205
0.2114433 -0.07699351 0.4358331 205 205 205
0.2132011 -0.07595225 0.4327666 205 205 205
0.2145503 -0.07576066 0.432041 205 205 205
0.2158969 -0.0755658 0.431311 205 205 205
0.2190766 -0.07549721 0.430641 205 205 205
0.2204184 -0.07529198 0.4298957 205 205 205
0.2212559 -0.07475353 0.4283461 205 205 205
0.2225888 -0.07454226 0.4275936 205 205 205
0.2239189 -0.07432769 0.4268367 205 205 205
0.2262694 -0.07476658 0.4276634 205 205 205
0.2276006 -0.07454439 0.4268937 205 205 205
0.2299655 -0.07497334 0.4276998 205 205 205
0.2318193 -0.07507005 0.4277055 205 205 205
0.2331518 -0.07483622 0.4269165 205 205 205
0.2344814 -0.07459912 0.4261231 205 205 205
0.2368713 -0.07500841 0.4268897 205 205 205
0.2379142 -0.07354421 0.422938 205 205 205
-0.05615551 -0.06152773 0.4930073 205 205 205
0.1838794 -0.08447857 0.456792 205 205 205
0.1849228 -0.0840171 0.455313 205 205 205
0.1863607 -0.08389805 0.4546794 205 205 205
0.1877964 -0.08377569 0.4540411 205 205 205
0.1910755 -0.08386512 0.4535923 205 205 205
0.1916715 -0.08304428 0.4512565 205 205 205
0.1926727 -0.08256507 0.4497616 205 205 205
0.1940897 -0.08242648 0.4491026 205 205 205
0.1950755 -0.08194159 0.447603 205 205 205
0.1964842 -0.08179669 0.4469363 205 205 205
0.1983262 -0.08199066 0.4470973 205 205 205
0.1988551 -0.08115499 0.444758 205 205 205
0.1989248 -0.07997601 0.4415915 205 205 205
0.1998635 -0.07947821 0.4400855 205 205 205
0.2012426 -0.07931859 0.4394039 205 205 205
0.2021659 -0.07881543 0.4378938 205 205 205
0.203993 -0.0789895 0.438027 205 205 205
0.207197 -0.07898615 0.4374504 205 205 205
0.2104045 -0.07896778 0.4368484 205 205 205
0.2112986 -0.07844653 0.4353179 205 205 205
0.2130585 -0.07739697 0.4322542 205 205 205
0.2144083 -0.07720489 0.4315289 205 205 205
0.2180819 -0.07748119 0.4316728 205 205 205
0.218936 -0.07694355 0.430128 205 205 205
0.2207762 -0.07707193 0.4301832 205 205 205
0.2221193 -0.07686235 0.4294316 205 205 205
0.222955 -0.07631636 0.4278789 205 205 205
0.2237812 -0.07576821 0.4263256 205 205 205
0.2261317 -0.07621384 0.4271499 205 205 205
0.2274634 -0.07599109 0.4263804 205 205 205
0.231161 -0.07619621 0.4264018 205 205 205
0.2324908 -0.07596239 0.425615 205 205 205
0.2343457 -0.07605435 0.4256067 205 205 205
0.235673 -0.07581333 0.4248091 205 205 205
0.2364627 -0.07524108 0.4232281 205 205 205
-0.05640452 -0.06299385 0.492501 205 205 205
-0.05488272 -0.06339622 0.4926908 205 205 205
-0.05335963 -0.06379552 0.4928751 205 205 205
0.1851608 -0.08585183 0.4556283 205 205 205
0.1880428 -0.08560904 0.4543533 205 205 205
0.1894804 -0.08548258 0.4537087 205 205 205
0.1909156 -0.08535273 0.4530592 205 205 205
0.1915131 -0.08452413 0.4507261 205 205 205
0.1925153 -0.08404087 0.4492326 205 205 205
0.1943576 -0.08424886 0.4494098 205 205 205
0.1953481 -0.08375955 0.4479101 205 205 205
0.1963291 -0.08326757 0.4464089 205 205 205
0.1977359 -0.08311889 0.4457376 205 205 205
0.1992153 -0.08177607 0.4418975 205 205 205
0.1992669 -0.08058434 0.4387391 205 205 205
0.2001936 -0.08008032 0.437235 205 205 205
0.2020167 -0.08026169 0.437375 205 205 205
0.203844 -0.08043895 0.437507 205 205 205
0.207512 -0.08078093 0.4377467 205 205 205
0.2093526 -0.08094563 0.4378543 205 205 205
0.2102572 -0.08042266 0.4363263 205 205 205
0.2111524 -0.07989726 0.4347972 205 205 205
0.2137807 -0.07830694 0.4302047 205 205 205
0.2151251 -0.07811154 0.4294768 205 205 205
0.217448 -0.07859049 0.4303501 205 205 205
0.2201368 -0.07818121 0.4288645 205 205 205
0.2228146 -0.07775877 0.427361 205 205 205
0.2236418 -0.07720636 0.4258092 205 205 205
0.2259921 -0.07765871 0.426631 205 205 205
0.2291717 -0.07754328 0.4258755 205 205 205
0.2323531 -0.07741225 0.4250942 205 205 205
0.2342083 -0.07750727 0.4250848 205 205 205
0.2363268 -0.07668915 0.4227079 205 205 205
0.2365703 -0.07577971 0.4203524 205 205 205
-0.05360822 -0.06526063 0.4923621 205 205 205
-0.05208346 -0.06565745 0.4925407 205 205 205
-0.05055753 -0.06605121 0.4927138 205 205 205
0.1748359 -0.08808392 0.4593989 205 205 205
0.1762939 -0.08798759 0.4587978 205 205 205
0.1777499 -0.08788792 0.4581918 205 205 205
0.1849969 -0.08733856 0.4550892 205 205 205
0.1878802 -0.08709506 0.4538145 205 205 205
0.1893184 -0.08696815 0.4531698 205 205 205
0.1913531 -0.08600163 0.4501901 205 205 205
0.19335 -0.08502423 0.4472043 205 205 205
0.1943344 -0.08453154 0.4457093 205 205 205
0.1953093 -0.08403623 0.4442129 205 205 205
0.1967099 -0.08388782 0.4435451 205 205 205
0.1976694 -0.08338696 0.4420443 205 205 205
0.1991148 -0.0820291 0.4382144 205 205 205
0.2004916 -0.08186899 0.4375348 205 205 205
0.2023182 -0.08205315 0.4376719 205 205 205
0.2036934 -0.08188602 0.4369814 205 205 205
0.2050661 -0.08171555 0.4362863 205 205 205
0.2068992 -0.08188809 0.4364027 205 205 205
0.2082701 -0.08171059 0.4356967 205 205 205
0.2105312 -0.08100069 0.4334604 205 205 205
0.2114144 -0.08046925 0.4319337 205 205 205
0.2131523 -0.07939933 0.4288777 205 205 205
0.2168133 -0.07969017 0.4290245 205 205 205
0.2181562 -0.07948718 0.428286 205 205 205
0.2194965 -0.07928086 0.427543 205 205 205
0.220834 -0.07907126 0.4267955 205 205 205
0.2216649 -0.078518 0.4252497 205 205 205
0.2224863 -0.07796256 0.4237033 205 205 205
0.2238087 -0.07774414 0.4229462 205 205 205
0.2256422 -0.0778612 0.422973 205 205 205
0.2274796 -0.07797389 0.4229915 205 205 205
0.2306418 -0.07784887 0.4222212 205 205 205
0.2324872 -0.07794873 0.4222167 205 205 205
0.2343364 -0.07804403 0.4222037 205 205 205
0.2351214 -0.07746456 0.4206297 205 205 205
0.2358968 -0.07688303 0.4190554 205 205 205
-0.05690368 -0.06591894 0.4914709 205 205 205
-0.05538105 -0.0663227 0.4916598 205 205 205
-0.05366745 -0.0664221 0.4909088 205 205 205
-0.05214607 -0.06681864 0.4910865 205 205 205
0.1808765 -0.08952118 0.4572696 205 205 205
0.1852307 -0.08917944 0.4553891 205 205 205
0.1891548 -0.08845136 0.4526253 205 205 205
0.1901779 -0.08796538 0.4511377 205 205 205
0.1911915 -0.08747668 0.4496485 205 205 205
0.1921957 -0.08698531 0.4481578 205 205 205
0.1936145 -0.08684549 0.4474991 205 205 205
0.1946034 -0.08634836 0.4460039 205 205 205
0.1955829 -0.08584859 0.4445073 205 205 205
0.1979516 -0.08519404 0.4423369 205 205 205
0.1993478 -0.08503857 0.4416597 205 205 205
0.1998514 -0.08417562 0.4393312 205 205 205
0.2003385 -0.08331101 0.4370049 205 205 205
0.2017134 -0.08314712 0.4363209 205 205 205
0.2030858 -0.08297995 0.4356323 205 205 205
0.2044556 -0.08280947 0.4349391 205 205 205
0.2062853 -0.0829856 0.435056 205 205 205
0.2076535 -0.08280805 0.4343519 205 205 205
0.2090191 -0.0826272 0.4336433 205 205 205
0.2099093 -0.08209445 0.4321208 205 205 205
0.2116613 -0.08102188 0.4290732 205 205 205
0.2125229 -0.08048212 0.4275481 205 205 205
0.2138617 -0.0802867 0.4268242 205 205 205
0.2156877 -0.08043408 0.426896 205 205 205
0.2170245 -0.08023155 0.4261614 205 205 205
0.2188552 -0.08037084 0.4262187 205 205 205
0.22069 -0.08050583 0.4262679 205 205 205
0.2215219 -0.07994835 0.4247235 205 205 205
0.2223442 -0.0793887 0.4231786 205 205 205
0.2241774 -0.07951269 0.4232105 205 205 205
0.2255009 -0.07928996 0.4224475 205 205 205
0.2268216 -0.07906388 0.4216799 205 205 205
0.2291799 -0.07951691 0.4224738 205 205 205
0.2305016 -0.07928308 0.4216935 205 205 205
0.2331362 -0.0788056 0.4201198 205 205 205
0.2344491 -0.07856189 0.4193264 205 205 205
0.2352222 -0.07797673 0.4177556 205 205 205
-0.06626409 -0.06488586 0.4897037 205 205 205
-0.06496564 -0.06560677 0.4908541 205 205 205
-0.06192406 -0.06644576 0.4912803 205 205 205
-0.0573516 -0.0676808 0.4918793 205 205 205
-0.05429681 -0.06848854 0.4922518 205 205 205
-0.05258097 -0.06858186 0.4914964 205 205 205
0.1763316 -0.09131991 0.4585544 205 205 205
0.1774115 -0.09085774 0.4570961 205 205 205
0.1792509 -0.09111531 0.4573348 205 205 205
0.1807074 -0.09100784 0.4567177 205 205 205
0.1836136 -0.0907827 0.455469 205 205 205
0.1850634 -0.09066501 0.4548375 205 205 205
0.1871444 -0.08970013 0.4518795 205 205 205
0.1881707 -0.08921349 0.450398 205 205 205
0.1900137 -0.08944213 0.450589 205 205 205
0.1906118 -0.08859071 0.4482659 205 205 205
0.1920336 -0.08845386 0.447612 205 205 205
0.1930293 -0.08795568 0.4461213 205 205 205
0.1940158 -0.08745483 0.4446292 205 205 205
0.1954233 -0.08730861 0.4439645 205 205 205
0.1973559 -0.0862931 0.4409703 205 205 205
0.1987493 -0.08613757 0.440295 205 205 205
0.1992507 -0.08526728 0.437971 205 205 205
0.2015594 -0.08458625 0.4357856 205 205 205
0.2029324 -0.08441862 0.4350971 205 205 205
0.2075015 -0.08424895 0.4338158 205 205 205
0.2083987 -0.08371491 0.4322976 205 205 205
0.2101647 -0.08263976 0.4292583 205 205 205
0.2110335 -0.08209866 0.4277374 205 205 205
0.2123754 -0.081906 0.4270182 205 205 205
0.2137148 -0.08171003 0.4262945 205 205 205
0.2150514 -0.08151086 0.4255664 205 205 205
0.2163853 -0.08130832 0.4248338 205 205 205
0.2195449 -0.08124158 0.4241484 205 205 205
0.220874 -0.08102871 0.4234007 205 205 205
0.2222004 -0.08081251 0.4226485 205 205 205
0.223524 -0.08059305 0.421892 205 205 205
0.2248448 -0.0803703 0.421131 205 205 205
0.2274778 -0.07991493 0.4195958 205 205 205
0.230626 -0.07979003 0.4188208 205 205 205
0.2319357 -0.07955021 0.4180359 205 205 205
0.2337758 -0.07964952 0.4180202 205 205 205
0.235083 -0.07940254 0.4172246 205 205 205
-0.06521867 -0.06706347 0.4903254 205 205 205
-0.06217631 -0.06790388 0.4907508 205 205 205
-0.05454713 -0.06995007 0.4917201 205 205 205
-0.05301743 -0.0703499 0.4918978 205 205 205
-0.05148649 -0.07074663 0.4920702 205 205 205
0.1746957 -0.0929026 0.4585992 205 205 205
0.1757823 -0.0924396 0.4571456 205 205 205
0.1772401 -0.09233893 0.4565398 205 205 205
0.1783116 -0.09186985 0.455081 205 205 205
0.1801491 -0.09212728 0.4553136 205 205 205
0.1819915 -0.09238079 0.4555383 205 205 205
0.1834441 -0.09226615 0.4549116 205 205 205
0.1848945 -0.09214807 0.4542801 205 205 205
0.1863426 -0.09202661 0.4536438 205 205 205
0.1869775 -0.09117517 0.4513251 205 205 205
0.1880049 -0.0906845 0.4498451 205 205 205
0.189848 -0.09091634 0.4500348 205 205 205
0.1904476 -0.09005723 0.4477145 205 205 205
0.1914502 -0.08955804 0.4462284 205 205 205
0.1928667 -0.08941775 0.4455715 205 205 205
0.1938541 -0.08891288 0.4440808 205 205 205
0.194832 -0.08840529 0.4425888 205 205 205
0.1958005 -0.08789514 0.4410955 205 205 205
0.1971968 -0.08774254 0.440425 205 205 205
0.1985907 -0.08758655 0.4397498 205 205 205
0.1990936 -0.08670858 0.4374287 205 205 205
0.1995801 -0.08582884 0.4351098 205 205 205
0.2018551 -0.0863815 0.4360622 205 205 205
0.2027774 -0.0858549 0.4345565 205 205 205
0.2036902 -0.08532583 0.4330499 205 205 205
0.2055168 -0.08550873 0.4331662 205 205 205
0.2068827 -0.08533064 0.4324641 205 205 205
0.2073089 -0.08443673 0.4301409 205 205 205
0.2086627 -0.08425295 0.4294333 205 205 205
0.2095385 -0.08371051 0.4279166 205 205 205
0.2104048 -0.08316577 0.426399 205 205 205
0.2112616 -0.08261871 0.4248807 205 205 205
0.213436 -0.08187119 0.4226392 205 205 205
0.2147603 -0.0816697 0.4219123 205 205 205
0.2165779 -0.08181727 0.4219748 205 205 205
0.2179002 -0.08160874 0.4212373 205 205 205
0.2192198 -0.08139692 0.4204955 205 205 205
0.2200305 -0.08083118 0.4189613 205 205 205
0.223162 -0.08074186 0.4182436 205 205 205
0.2244704 -0.08051697 0.4174843 205 205 205
0.2262957 -0.08063722 0.4175008 205 205 205
0.2276018 -0.08040524 0.4167307 205 205 205
0.2312645 -0.08062463 0.4167263 205 205 205
0.2325686 -0.08038158 0.4159393 205 205 205
0.2338698 -0.08013526 0.4151479 205 205 205
-0.06654844 -0.06748439 0.4877173 205 205 205
-0.06503645 -0.06790788 0.4879365 205 205 205
-0.06221863 -0.06905256 0.4892871 205 205 205
0.1715868 -0.09457107 0.4592259 205 205 205
0.1745212 -0.09438567 0.4580357 205 205 205
0.1759852 -0.09428782 0.4574333 205 205 205
0.1770671 -0.09381768 0.4559778 205 205 205
0.1785233 -0.0937132 0.4553672 205 205 205
0.1799774 -0.09360533 0.4547518 205 205 205
0.1818199 -0.09386215 0.4549752 205 205 205
0.1839282 -0.09289367 0.452036 205 205 205
0.1857713 -0.09313963 0.4522419 205 205 205
0.186404 -0.09228078 0.4499276 205 205 205
0.1874289 -0.09178642 0.4484507 205 205 205
0.1888564 -0.09165554 0.4478064 205 205 205
0.189866 -0.09115534 0.4463249 205 205 205
0.1908662 -0.09065247 0.4448419 205 205 205
0.1918569 -0.09014686 0.4433574 205 205 205
0.1932645 -0.09000352 0.4426993 205 205 205
0.1942399 -0.08949229 0.4412104 205 205 205
0.1956393 -0.08934259 0.4405446 205 205 205
0.1979902 -0.08866974 0.4383782 205 205 205
0.1989349 -0.08814741 0.4368809 205 205 205
0.1998701 -0.08762253 0.4353825 205 205 205
0.2016975 -0.08781943 0.4355147 205 205 205
0.2030751 -0.08765048 0.4348247 205 205 205
0.2049001 -0.08658083 0.4318099 205 205 205
0.2066872 -0.08550145 0.4287911 205 205 205
0.2075666 -0.08495825 0.4272805 205 205 205
0.2084365 -0.08441266 0.4257689 205 205 205
0.2092968 -0.08386478 0.4242565 205 205 205
0.2106297 -0.08367261 0.4235431 205 205 205
0.2127987 -0.08292139 0.421307 205 205 205
0.2146123 -0.08307636 0.4213763 205 205 205
0.2159346 -0.08287111 0.4206453 205 205 205
0.217254 -0.08266256 0.4199099 205 205 205
0.2180685 -0.08209591 0.4183817 205 205 205
0.2193792 -0.08188139 0.4176394 205 205 205
0.2206871 -0.08166358 0.4168928 205 205 205
0.2219922 -0.08144259 0.4161419 205 205 205
0.2232946 -0.08121829 0.4153866 205 205 205
0.2245941 -0.08099075 0.4146271 205 205 205
0.2253683 -0.08040853 0.4130863 205 205 205
0.2271846 -0.08052593 0.413095 205 205 205
0.2290047 -0.08063883 0.4130954 205 205 205
0.2308286 -0.08074722 0.4130875 205 205 205
0.2321205 -0.08050219 0.4123024 205 205 205
-0.06657912 -0.06862093 0.4862548 205 205 205
-0.06528889 -0.06935257 0.4873988 205 205 205
-0.06398982 -0.07008319 0.4885386 205 205 205
-0.06247098 -0.07050221 0.4887472 205 205 205
-0.06095074 -0.07091809 0.4889505 205 205 205
-0.05983604 -0.07195606 0.491004 205 205 205
-0.05677402 -0.07277615 0.4913856 205 205 205
0.1717748 -0.09642577 0.4595094 205 205 205
0.1747176 -0.09623926 0.4583164 205 205 205
0.1761858 -0.09614088 0.4577126 205 205 205
0.1783495 -0.09518909 0.4547997 205 205 205
0.1801909 -0.09545289 0.4550281 205 205 205
0.1816469 -0.09534096 0.4544064 205 205 205
0.1827067 -0.09485412 0.4529392 205 205 205
0.1851993 -0.09424282 0.4508372 205 205 205
0.1858299 -0.09337667 0.4485274 205 205 205
0.1872603 -0.0932488 0.447888 205 205 205
0.1901144 -0.09298287 0.446595 205 205 205
0.1907002 -0.09210636 0.4442822 205 205 205
0.1921143 -0.09196563 0.4436272 205 205 205
0.1940765 -0.09093769 0.4406539 205 205 205
0.1959094 -0.09115531 0.4408112 205 205 205
0.1968739 -0.09063405 0.4393179 205 205 205
0.197829 -0.09011022 0.4378234 205 205 205
0.1987746 -0.08958382 0.4363277 205 205 205
0.2001577 -0.08942104 0.435647 205 205 205
0.2015384 -0.08925492 0.4349617 205 205 205
0.2029165 -0.08908548 0.4342719 205 205 205
0.2038348 -0.08854778 0.4327665 205 205 205
0.2047435 -0.08800761 0.4312601 205 205 205
0.2056427 -0.08746508 0.4297528 205 205 205
0.2060647 -0.0865566 0.4274389 205 205 205
0.2069416 -0.0860097 0.4259315 205 205 205
0.2082836 -0.08582309 0.4252253 205 205 205
0.209145 -0.08527106 0.4237144 205 205 205
0.2099969 -0.08471676 0.4222029 205 205 205
0.212649 -0.08432256 0.4207669 205 205 205
0.2161085 -0.08334774 0.4177909 205 205 205
0.2174191 -0.08313648 0.4170552 205 205 205
0.2192322 -0.08327989 0.4171002 205 205 205
0.2218464 -0.08283999 0.4156031 205 205 205
0.2244494 -0.08238704 0.4140887 205 205 205
0.2257466 -0.08215568 0.413325 205 205 205
0.2270411 -0.08192107 0.412557 205 205 205
0.2319779 -0.08190269 0.4117623 205 205 205
-0.06705434 -0.07036991 0.4866371 205 205 205
-0.06554162 -0.07079484 0.4868554 205 205 205
-0.06424283 -0.07152972 0.4879934 205 205 205
-0.06293514 -0.07226355 0.4891271 205 205 205
-0.06141084 -0.07268117 0.4893304 205 205 205
-0.05395849 -0.07504205 0.4911946 205 205 205
0.1715957 -0.0979081 0.4589331 205 205 205
0.1730688 -0.09781622 0.4583391 205 205 205
0.1741677 -0.09734425 0.4568918 205 205 205
0.1756329 -0.09724575 0.4562896 205 205 205
0.1781742 -0.09666248 0.4542266 205 205 205
0.1800157 -0.09692954 0.4544537 205 205 205
0.1814722 -0.09681726 0.4538321 205 205 205
0.1825331 -0.09632646 0.4523663 205 205 205
0.1835846 -0.09583275 0.4508989 205 205 205
0.1850273 -0.09571072 0.4502659 205 205 205
0.185255 -0.09446274 0.4471244 205 205 205
0.1870903 -0.09470868 0.4473197 205 205 205
0.1889304 -0.09495059 0.4475071 205 205 205
0.1899455 -0.09444198 0.4460269 205 205 205
0.1909511 -0.09393069 0.4445453 205 205 205
0.1923694 -0.09378918 0.4438888 205 205 205
0.1939116 -0.09238064 0.440092 205 205 205
0.195312 -0.09223005 0.4394264 205 205 205
0.196274 -0.09170511 0.4379363 205 205 205
0.1972266 -0.09117758 0.436445 205 205 205
0.1981697 -0.09064751 0.4349526 205 205 205
0.1995499 -0.09048471 0.4342737 205 205 205
0.2009276 -0.09031857 0.4335903 205 205 205
0.2018493 -0.08978014 0.432091 205 205 205
0.2032185 -0.08960775 0.4314003 205 205 205
0.2041248 -0.08906397 0.4298973 205 205 205
0.2050215 -0.08851776 0.4283932 205 205 205
0.2059088 -0.08796918 0.4268883 205 205 205
0.2067866 -0.08741819 0.4253825 205 205 205
0.2081292 -0.08723107 0.4246764 205 205 205
0.2098444 -0.08611652 0.4216571 205 205 205
0.2120096 -0.0853571 0.4194282 205 205 205
0.2138202 -0.08551878 0.4194971 205 205 205
0.2151401 -0.08531301 0.4187683 205 205 205
0.2159592 -0.08474132 0.4172475 205 205 205
0.2172703 -0.08452954 0.4165119 205 205 205
0.2198844 -0.08409617 0.4150277 205 205 205
0.2211872 -0.0838746 0.4142791 205 205 205
0.2224873 -0.08364976 0.4135262 205 205 205
0.2232662 -0.0830625 0.411993 205 205 205
0.2253205 -0.08223978 0.4096975 205 205 205
0.2276595 -0.08271791 0.4104716 205 205 205
0.2307635 -0.08258858 0.4096848 205 205 205
-0.06753115 -0.07212355 0.487011 205 205 205
-0.0657947 -0.07223462 0.4863062 205 205 205
-0.06449614 -0.07297377 0.4874424 205 205 205
-0.06318872 -0.07371185 0.4885743 205 205 205
-0.0616641 -0.07413012 0.4887771 205 205 205
-0.06034274 -0.07486498 0.4898997 205 205 205
-0.05881162 -0.07527799 0.4900923 205 205 205
-0.05574552 -0.07609449 0.4904614 205 205 205
0.1714152 -0.09938785 0.4583512 205 205 205
0.1728888 -0.09929568 0.4577573 205 205 205
0.1743603 -0.09920008 0.4571585 205 205 205
0.1754546 -0.09872092 0.4557093 205 205 205
0.1769182 -0.0986186 0.4551022 205 205 205
0.1783797 -0.09851286 0.4544904 205 205 205
0.179839 -0.09840367 0.4538736 205 205 205
0.1809067 -0.09791201 0.4524127 205 205 205
0.182358 -0.09779619 0.4517878 205 205 205
0.1834105 -0.09729852 0.4503219 205 205 205
0.1848537 -0.09717611 0.4496891 205 205 205
0.1858909 -0.09667248 0.4482183 205 205 205
0.1873261 -0.09654355 0.4475774 205 205 205
0.188759 -0.0964112 0.446932 205 205 205
0.1901895 -0.09627539 0.4462817 205 205 205
0.1907817 -0.09538322 0.4439732 205 205 205
0.1922005 -0.09524129 0.4433168 205 205 205
0.193745 -0.09382105 0.4395245 205 205 205
0.1965447 -0.09351572 0.4381891 205 205 205
0.1975017 -0.09298372 0.4366976 205 205 205
0.198892 -0.09282303 0.4360201 205 205 205
0.2002797 -0.09265891 0.4353379 205 205 205
0.2012153 -0.09211847 0.4338395 205 205 205
0.2016883 -0.09120297 0.4315302 205 205 205
0.2026016 -0.09065801 0.4300315 205 205 205
0.2035053 -0.09011056 0.4285318 205 205 205
0.2043996 -0.08956074 0.4270312 205 205 205
0.2052843 -0.08900854 0.4255296 205 205 205
0.2066301 -0.08882419 0.4248281 205 205 205
0.2079733 -0.08863656 0.4241222 205 205 205
0.2092095 -0.08714503 0.4203106 205 205 205
0.2126858 -0.08618003 0.4173667 205 205 205
0.2139994 -0.08597478 0.4166419 205 205 205
0.2153104 -0.08576626 0.4159127 205 205 205
0.2161175 -0.08518881 0.4143948 205 205 205
0.2179243 -0.08533946 0.4144413 205 205 205
0.2182112 -0.0843921 0.4121382 205 205 205
0.2195045 -0.08417169 0.4113957 205 205 205
0.2233679 -0.0834911 0.4091423 205 205 205
0.2251748 -0.0836193 0.4091533 205 205 205
0.2264574 -0.08338213 0.4083875 205 205 205
0.2272059 -0.08278134 0.4068506 205 205 205
0.2290142 -0.082898 0.406843 205 205 205
-0.06756144 -0.07324557 0.4855339 205 205 205
-0.06604805 -0.0736719 0.4857513 205 205 205
-0.06474978 -0.0744153 0.4868856 205 205 205
-0.06344268 -0.07515761 0.4880157 205 205 205
-0.06212671 -0.07589888 0.4891414 205 205 205
-0.06039127 -0.07599247 0.4884152 205 205 205
-0.05906512 -0.07672942 0.4895311 205 205 205
-0.05753237 -0.07713993 0.4897178 205 205 205
-0.0558043 -0.07722098 0.4889742 205 205 205
-0.0540825 -0.07729684 0.4882242 205 205 205
-0.05292646 -0.07835242 0.490246 205 205 205
-0.04059155 -0.08144532 0.4914179 205 205 205
-0.03904467 -0.0818175 0.4915401 205 205 205
-0.03749676 -0.08218651 0.491657 205 205 205
-0.03594787 -0.08255226 0.4917685 205 205 205
0.1760241 -0.1009609 0.4568115 205 205 205
0.1767389 -0.1000909 0.4545164 205 205 205
0.178201 -0.09998477 0.4539046 205 205 205
0.1796609 -0.0998752 0.453288 205 205 205
0.1817887 -0.09888107 0.4503674 205 205 205
0.1832349 -0.09876174 0.4497394 205 205 205
0.1846787 -0.09863897 0.4491067 205 205 205
0.1857169 -0.09813128 0.4476374 205 205 205
0.1889966 -0.09825 0.4471799 205 205 205
0.1904312 -0.09811349 0.4465281 205 205 205
0.1914459 -0.09759342 0.4450463 205 205 205
0.1928723 -0.09745038 0.4443868 205 205 205
0.1938716 -0.09692451 0.4429004 205 205 205
0.1944334 -0.09601697 0.4405924 205 205 205
0.1954103 -0.09548615 0.439105 205 205 205
0.1968129 -0.09533097 0.4384334 205 205 205
0.1977745 -0.09479452 0.4369419 205 205 205
0.1987265 -0.09425553 0.4354491 205 205 205
0.2001148 -0.09409104 0.4347672 205 205 205
0.2006022 -0.09316991 0.4324602 205 205 205
0.2015258 -0.09262332 0.4309641 205 205 205
0.2033447 -0.09152279 0.4279688 205 205 205
0.2037768 -0.09059405 0.4256666 205 205 205
0.2064719 -0.09022775 0.4242685 205 205 205
0.2078157 -0.09003967 0.4235628 205 205 205
0.2082029 -0.0891024 0.4212608 205 205 205
0.2090543 -0.0885363 0.4197558 205 205 205
0.209896 -0.08796792 0.4182501 205 205 205
0.2133527 -0.08699005 0.4153025 205 205 205
0.2164671 -0.08693903 0.4146268 205 205 205
0.218569 -0.08613649 0.4123682 205 205 205
0.2198662 -0.08591498 0.4116239 205 205 205
0.2211607 -0.08569019 0.4108753 205 205 205
0.2224524 -0.08546216 0.4101224 205 205 205
0.2232203 -0.08486515 0.4085941 205 205 205
0.2250273 -0.08499638 0.4086039 205 205 205
0.2263105 -0.08475862 0.4078383 205 205 205
0.2288683 -0.08427332 0.4062943 205 205 205
-0.06804006 -0.07500134 0.4858935 205 205 205
-0.06630173 -0.0751067 0.4851906 205 205 205
-0.06369691 -0.07660092 0.4874513 205 205 205
-0.06217151 -0.07702059 0.4876533 205 205 205
-0.06064482 -0.07743712 0.4878499 205 205 205
-0.05931894 -0.07817831 0.488964 205 205 205
-0.05758744 -0.07826062 0.4882271 205 205 205
-0.05433407 -0.07874063 0.4876586 205 205 205
-0.05317887 -0.07980399 0.4896773 205 205 205
-0.04084108 -0.08290198 0.4908459 205 205 205
0.1714133 -0.1027277 0.4580175 205 205 205
0.1728915 -0.1026346 0.4574223 205 205 205
0.1739971 -0.1021506 0.455978 205 205 205
0.1765582 -0.1015605 0.453925 205 205 205
0.1780208 -0.1014541 0.4533134 205 205 205
0.1794812 -0.1013442 0.4526968 205 205 205
0.1805508 -0.1008446 0.4512388 205 205 205
0.1823954 -0.101114 0.4514492 205 205 205
0.1838493 -0.1009937 0.4508182 205 205 205
0.1849014 -0.1004846 0.4493506 205 205 205
0.1863471 -0.1003577 0.4487116 205 205 205
0.1877905 -0.1002273 0.4480678 205 205 205
0.1892316 -0.1000935 0.4474193 205 205 205
0.1906704 -0.09995621 0.446766 205 205 205
0.1916897 -0.09943179 0.4452842 205 205 205
0.1926995 -0.0989046 0.4438009 205 205 205
0.1936998 -0.09837473 0.4423162 205 205 205
0.1946907 -0.09784216 0.4408301 205 205 205
0.1952408 -0.0969247 0.4385253 205 205 205
0.1966441 -0.09676906 0.4378539 205 205 205
0.1971682 -0.09584717 0.4355501 205 205 205
0.1981177 -0.0953045 0.4340606 205 205 205
0.1990577 -0.09475935 0.43257 205 205 205
0.1995396 -0.09383142 0.4302696 205 205 205
0.2004572 -0.09328162 0.4287786 205 205 205
0.2027232 -0.09255363 0.426597 205 205 205
0.203616 -0.0919961 0.4251013 205 205 205
0.2044992 -0.09143616 0.4236047 205 205 205
0.2058426 -0.09125134 0.4229054 205 205 205
0.2071834 -0.09106325 0.4222017 205 205 205
0.2075686 -0.09011883 0.4199046 205 205 205
0.2084174 -0.08954913 0.4184031 205 205 205
0.2102234 -0.08972815 0.4184824 205 205 205
0.2105733 -0.08877791 0.4161869 205 205 205
0.2118874 -0.08857539 0.4154686 205 205 205
0.2127051 -0.0879957 0.4139608 205 205 205
0.2145074 -0.0881606 0.4140191 205 205 205
0.2158133 -0.08794829 0.4132879 205 205 205
0.2176204 -0.08810503 0.4133319 205 205 205
0.21791 -0.08714223 0.411035 205 205 205
0.2192044 -0.08692075 0.4102928 205 205 205
0.2207504 -0.08572817 0.4072522 205 205 205
0.2243542 -0.08600228 0.4072815 205 205 205
0.2281868 -0.08527933 0.4049785 205 205 205
-0.06806971 -0.07611123 0.4844077 205 205 205
-0.06633415 -0.0762127 0.4837053 205 205 205
-0.06482245 -0.07663626 0.4839159 205 205 205
-0.06373744 -0.07771332 0.4859613 205 205 205
-0.06242576 -0.07846203 0.4870827 205 205 205
-0.06089872 -0.07887923 0.4872789 205 205 205
-0.05937037 -0.07929327 0.4874698 205 205 205
-0.05611445 -0.07977837 0.486913 205 205 205
-0.05458594 -0.0801819 0.4870874 205 205 205
-0.05324396 -0.08091762 0.4881795 205 205 205
0.1741835 -0.1040131 0.456222 205 205 205
0.1767533 -0.1034183 0.4541677 205 205 205
0.178601 -0.1037017 0.4543926 205 205 205
0.1796846 -0.1032007 0.4529365 205 205 205
0.181147 -0.1030867 0.4523137 205 205 205
0.1826072 -0.1029692 0.4516861 205 205 205
0.1840651 -0.1028482 0.4510536 205 205 205
0.1851218 -0.1023348 0.449586 205 205 205
0.1876131 -0.1016878 0.4474731 205 205 205
0.1890548 -0.1015536 0.4468247 205 205 205
0.1929453 -0.1007432 0.4440303 205 205 205
0.1939502 -0.100209 0.4425455 205 205 205
0.1949456 -0.09967201 0.4410593 205 205 205
0.1955006 -0.09874654 0.438756 205 205 205
0.197437 -0.09766011 0.4357806 205 205 205
0.198391 -0.09711305 0.434291 205 205 205
0.1988906 -0.09617915 0.4319913 205 205 205
0.1993738 -0.09524359 0.429694 205 205 205
0.1998405 -0.09430639 0.4273991 205 205 205
0.2007461 -0.09375057 0.4259104 205 205 205
0.2016423 -0.09319228 0.4244208 205 205 205
0.202529 -0.09263161 0.4229302 205 205 205
0.203872 -0.09245011 0.4222374 205 205 205
0.2052125 -0.09226525 0.42154 205 205 205
0.2069335 -0.09112559 0.4185461 205 205 205
0.2077797 -0.09055229 0.417048 205 205 205
0.2090995 -0.09035576 0.4163386 205 205 205
0.2089576 -0.08902036 0.4132623 205 205 205
0.2143524 -0.08953717 0.4134577 205 205 205
0.2151588 -0.08894792 0.4119467 205 205 205
0.2172502 -0.08813834 0.4096994 205 205 205
0.2180316 -0.08754219 0.4081852 205 205 205
0.2188035 -0.08694398 0.4066706 205 205 205
0.219566 -0.08634368 0.4051557 205 205 205
0.2213594 -0.08648722 0.4051772 205 205 205
0.2239041 -0.08601754 0.4036669 205 205 205
0.224642 -0.08540682 0.402143 205 205 205
0.2264374 -0.08553497 0.4021398 205 205 205
-0.06636563 -0.07730909 0.482217 205 205 205
-0.0624694 -0.07956801 0.4855874 205 205 205
-0.06073865 -0.07965094 0.4848631 205 205 205
-0.05942083 -0.08039854 0.4859726 205 205 205
-0.0548382 -0.08162063 0.4865104 205 205 205
-0.05196147 -0.08275933 0.4877643 205 205 205
-0.050606 -0.0834958 0.4888452 205 205 205
-0.03994779 -0.08652913 0.4907306 205 205 205
0.1798857 -0.1050618 0.4531677 205 205 205
0.1857383 -0.1045822 0.4506418 205 205 205
0.1871958 -0.1044536 0.4499983 205 205 205
0.1892855 -0.1034027 0.4470486 205 205 205
0.1907289 -0.1032643 0.446394 205 205 205
0.1931888 -0.1025864 0.4442512 205 205 205
0.1950449 -0.1028282 0.4444017 205 205 205
0.195625 -0.1018962 0.4420962 205 205 205
0.195758 -0.100573 0.4389783 205 205 205
0.1971694 -0.1004156 0.4383038 205 205 205
0.1977034 -0.09947766 0.4360028 205 205 205
0.1982209 -0.09853794 0.4337039 205 205 205
0.1987219 -0.09759641 0.4314073 205 205 205
0.1996544 -0.09704062 0.4299189 205 205 205
0.2001259 -0.09609532 0.4276253 205 205 205
0.2005811 -0.0951485 0.4253342 205 205 205
0.2014782 -0.09458616 0.4238462 205 205 205
0.2023659 -0.09402145 0.4223574 205 205 205
0.2027787 -0.09306921 0.4200707 205 205 205
0.2041128 -0.09288483 0.4193771 205 205 205
0.204972 -0.09231307 0.4178858 205 205 205
0.2066622 -0.09116261 0.414901 205 205 205
0.2084583 -0.09134929 0.4149833 205 205 205
0.2088006 -0.09038529 0.4126996 205 205 205
0.2101054 -0.09018334 0.4119873 205 205 205
0.2114076 -0.08997813 0.4112707 205 205 205
0.2136995 -0.0905307 0.4121106 205 205 205
0.216304 -0.09010182 0.4106485 205 205 205
0.2165895 -0.08912481 0.4083616 205 205 205
0.2178782 -0.0889034 0.4076238 205 205 205
0.218138 -0.08792339 0.4053401 205 205 205
0.2188981 -0.0873196 0.4038288 205 205 205
0.2206882 -0.08746671 0.403851 205 205 205
0.2224822 -0.08760939 0.4038651 205 205 205
0.2232272 -0.08699714 0.4023451 205 205 205
0.2244925 -0.0867575 0.4015859 205 205 205
-0.06789963 -0.07796995 0.4805119 205 205 205
-0.06639615 -0.07839594 0.4807259 205 205 205
-0.06360035 -0.07957388 0.4820552 205 205 205
-0.06230058 -0.08032791 0.4831716 205 205 205
-0.06099191 -0.08108084 0.4842835 205 205 205
-0.0594704 -0.0814942 0.4844725 205 205 205
-0.05814784 -0.08224387 0.4855753 205 205 205
-0.05528353 -0.08339826 0.4868475 205 205 205
-0.05356045 -0.08345838 0.4860958 205 205 205
-0.05221404 -0.08420029 0.4871793 205 205 205
-0.05085884 -0.08494098 0.4882583 205 205 205
-0.04949491 -0.08568037 0.4893327 205 205 205
-0.04794839 -0.08607211 0.4894806 205 205 205
-0.04330195 -0.0872279 0.489892 205 205 205
-0.04159221 -0.08725657 0.4890953 205 205 205
-0.04004393 -0.08763121 0.489216 205 205 205
-0.0386457 -0.08835455 0.4902551 205 205 205
-0.0370915 -0.08872357 0.4903653 205 205 205
0.1815549 -0.1068122 0.4527647 205 205 205
0.1830234 -0.1066934 0.4521343 205 205 205
0.1840951 -0.1061746 0.4506699 205 205 205
0.1855554 -0.106049 0.4500313 205 205 205
0.1870134 -0.10592 0.4493879 205 205 205
0.188064 -0.105392 0.4479155 205 205 205
0.1895139 -0.1052563 0.4472641 205 205 205
0.1909614 -0.1051171 0.446608 205 205 205
0.1924064 -0.1049745 0.4459471 205 205 205
0.1934298 -0.1044342 0.4444637 205 205 205
0.1948666 -0.1042849 0.443795 205 205 205
0.1958746 -0.1037388 0.4423071 205 205 205
0.196443 -0.102797 0.440005 205 205 205
0.1974284 -0.1022458 0.4385161 205 205 205
0.1979673 -0.1012998 0.4362165 205 205 205
0.1980492 -0.09996021 0.4331113 205 205 205
0.1985516 -0.0990111 0.4308179 205 205 205
0.199485 -0.09845121 0.429331 205 205 205
0.2004145 -0.0965439 0.4247527 205 205 205
0.2008546 -0.09558791 0.4224674 205 205 205
0.2017397 -0.09501959 0.420982 205 205 205
0.2026154 -0.09444888 0.4194957 205 205 205
0.2034816 -0.09387584 0.4180086 205 205 205
0.2043384 -0.09330046 0.4165207 205 205 205
0.2051857 -0.09272279 0.4150321 205 205 205
0.2065022 -0.09252961 0.4143311 205 205 205
0.2078162 -0.09233316 0.4136258 205 205 205
0.208642 -0.09174773 0.4121316 205 205 205
0.2104363 -0.0919304 0.4122021 205 205 205
0.21125 -0.09133953 0.4107031 205 205 205
0.2135416 -0.0918987 0.4115403 205 205 205
0.2143466 -0.09130183 0.4100345 205 205 205
0.2161472 -0.09146873 0.4100785 205 205 205
0.216434 -0.09048412 0.4077949 205 205 205
0.2172139 -0.08988032 0.406286 205 205 205
0.2179843 -0.08927445 0.4047767 205 205 205
0.2187452 -0.08866656 0.4032672 205 205 205
0.2200161 -0.08843661 0.4025227 205 205 205
0.2218069 -0.0885829 0.4025375 205 205 205
0.2225495 -0.08796714 0.4010212 205 205 205
0.223812 -0.08772758 0.4002643 205 205 205
-0.06769857 -0.07871179 0.4781049 205 205 205
-0.06620228 -0.07913635 0.4783173 205 205 205
-0.0647046 -0.07955779 0.4785246 205 205 205
-0.06385332 -0.0809928 0.4814737 205 205 205
-0.06276599 -0.08209098 0.4835043 205 205 205
-0.06145389 -0.08284918 0.4846149 205 205 205
-0.05992832 -0.08326422 0.4848039 205 205 205
-0.05840142 -0.08367608 0.4849876 205 205 205
-0.05667611 -0.08374077 0.484248 205 205 205
-0.05534378 -0.08449028 0.4853391 205 205 205
-0.04957016 -0.08677819 0.4878182 205 205 205
-0.04802709 -0.08716957 0.4879653 205 205 205
-0.04648285 -0.08755776 0.4881071 205 205 205
-0.04493747 -0.08794272 0.4882435 205 205 205
-0.04184344 -0.0887029 0.4885002 205 205 205
-0.03889686 -0.08980561 0.4896578 205 205 205
0.1832279 -0.1085622 0.4523454 205 205 205
0.1843042 -0.1080391 0.4508812 205 205 205
0.1868295 -0.1073838 0.4487719 205 205 205
0.1878811 -0.1068518 0.4473011 205 205 205
0.1889232 -0.1063169 0.4458287 205 205 205
0.1903677 -0.1061777 0.4451743 205 205 205
0.1928306 -0.105491 0.4430351 205 205 205
0.1942643 -0.1053417 0.4423681 205 205 205
0.1952697 -0.1047919 0.4408835 205 205 205
0.1962656 -0.1042394 0.4393976 205 205 205
0.1968189 -0.1032881 0.4371007 205 205 205
0.1977923 -0.1027307 0.4356139 205 205 205
0.1993141 -0.09985933 0.428738 205 205 205
0.1997885 -0.0988988 0.4264507 205 205 205
0.1997923 -0.09754308 0.4233667 205 205 205
0.2006878 -0.09697314 0.4218838 205 205 205
0.2015739 -0.09640078 0.4204001 205 205 205
0.2028497 -0.09485713 0.4166379 205 205 205
0.203704 -0.09427819 0.4151535 205 205 205
0.2050235 -0.09408779 0.414457 205 205 205
0.2058624 -0.09350382 0.4129694 205 205 205
0.2076551 -0.09369713 0.4130509 205 205 205
0.208967 -0.09349687 0.4123415 205 205 205
0.2102762 -0.09329333 0.4116277 205 205 205
0.2110909 -0.0926984 0.4101304 205 205 205
0.2128868 -0.09287652 0.4101873 205 205 205
0.2141881 -0.0926632 0.4094607 205 205 205
0.2149844 -0.09206008 0.4079562 205 205 205
0.2157713 -0.09145489 0.4064513 205 205 205
0.2160398 -0.09046224 0.4041764 205 205 205
0.2175595 -0.08924261 0.4011687 205 205 205
0.2193432 -0.08939695 0.4011923 205 205 205
0.2206084 -0.08916388 0.4004459 205 205 205
0.2218709 -0.08892755 0.3996953 205 205 205
0.2231306 -0.08868805 0.3989406 205 205 205
0.2249198 -0.08882637 0.3989376 205 205 205
-0.06623018 -0.08020043 0.4768221 205 205 205
-0.06473599 -0.0806215 0.4770284 205 205 205
-0.06367351 -0.08172431 0.4790581 205 205 205
-0.06259461 -0.08282813 0.4810843 205 205 205
-0.06108132 -0.08324398 0.4812768 205 205 205
-0.05997725 -0.08434767 0.4832954 205 205 205
-0.05845382 -0.08475919 0.4834782 205 205 205
-0.05540309 -0.08557269 0.483828 205 205 205
-0.05406606 -0.08632419 0.4849123 205 205 205
-0.0525338 -0.08672392 0.4850743 205 205 205
-0.05118299 -0.087472 0.4861492 205 205 205
-0.04964455 -0.0878663 0.4863009 205 205 205
-0.04810492 -0.08825738 0.4864472 205 205 205
-0.04656415 -0.08864524 0.4865882 205 205 205
-0.04502222 -0.08902988 0.4867239 205 205 205
-0.04193511 -0.08978941 0.4869792 205 205 205
-0.04038994 -0.09016436 0.4870989 205 205 205
-0.03899605 -0.09089508 0.4881339 205 205 205
-0.03744501 -0.09126437 0.4882432 205 205 205
0.1830399 -0.1100315 0.4517205 205 205 205
0.1841172 -0.1095045 0.4502579 205 205 205
0.1855822 -0.109378 0.449618 205 205 205
0.1862435 -0.1084418 0.4473276 205 205 205
0.1872924 -0.1079061 0.44586 205 205 205
0.1887397 -0.10777 0.4452105 205 205 205
0.1897733 -0.1072283 0.4437382 205 205 205
0.1912124 -0.1070855 0.4430808 205 205 205
0.1926491 -0.1069393 0.4424188 205 205 205
0.1945054 -0.1071904 0.4425651 205 205 205
0.1955153 -0.1066363 0.4410805 205 205 205
0.1965157 -0.1060794 0.4395945 205 205 205
0.1990926 -0.1026297 0.431229 205 205 205
0.1995883 -0.1016629 0.4289408 205 205 205
0.199623 -0.09892978 0.4227762 205 205 205
0.2005195 -0.0983558 0.421295 205 205 205
0.2014065 -0.09777938 0.4198129 205 205 205
0.20182 -0.09680476 0.4175376 205 205 205
0.2031521 -0.09661945 0.4168463 205 205 205
0.2053343 -0.09584458 0.4146637 205 205 205
0.2056996 -0.09486218 0.4123908 205 205 205
0.2083201 -0.09446498 0.4109802 205 205 205
0.2096264 -0.0942615 0.4102685 205 205 205
0.2104386 -0.09366301 0.4087748 205 205 205
0.2130311 -0.0932408 0.4073338 205 205 205
0.2143234 -0.09302481 0.4066069 205 205 205
0.2151079 -0.09241609 0.4051057 205 205 205
0.2153743 -0.09141634 0.4028358 205 205 205
0.2166484 -0.09119239 0.4021022 205 205 205
0.2174044 -0.0905775 0.4006 205 205 205
0.2186695 -0.09034769 0.3998599 205 205 205
0.2199319 -0.09011465 0.3991156 205 205 205
0.2217168 -0.09026425 0.3991257 205 205 205
0.2229769 -0.09002419 0.3983712 205 205 205
0.2247662 -0.09016546 0.398367 205 205 205
-0.06797493 -0.08117387 0.476025 205 205 205
-0.0664818 -0.08159875 0.476236 205 205 205
-0.0649873 -0.08202054 0.4764419 205 205 205
-0.06392577 -0.08313101 0.4784681 205 205 205
-0.06284787 -0.08424256 0.480491 205 205 205
-0.06133426 -0.08465905 0.4806831 205 205 205
-0.06002529 -0.08542141 0.4817841 205 205 205
-0.05850532 -0.0858326 0.4819661 205 205 205
-0.0571824 -0.08659165 0.4830578 205 205 205
-0.05585071 -0.08734953 0.4841451 205 205 205
-0.05451021 -0.08810623 0.485228 205 205 205
-0.05316092 -0.08886163 0.4863063 205 205 205
-0.05180287 -0.08961581 0.48738 205 205 205
-0.05007706 -0.0896567 0.4866149 205 205 205
-0.04853333 -0.09004938 0.4867612 205 205 205
-0.04681653 -0.09008094 0.4859844 205 205 205
-0.04510615 -0.09010732 0.4852016 205 205 205
-0.04373096 -0.09084819 0.4862496 205 205 205
-0.04202597 -0.09086625 0.4854554 205 205 205
-0.04064102 -0.09160247 0.4864934 205 205 205
-0.03924742 -0.09233733 0.4875267 205 205 205
-0.03784521 -0.09307072 0.4885551 205 205 205
0.1864572 -0.1103031 0.4475234 205 205 205
0.1875107 -0.1097632 0.4460559 205 205 205
0.1885547 -0.1092204 0.4445868 205 205 205
0.1900002 -0.1090803 0.4439326 205 205 205
0.1914434 -0.1089368 0.4432738 205 205 205
0.1924661 -0.1083849 0.4417969 205 205 205
0.1943225 -0.1086391 0.4419418 205 205 205
0.195906 -0.1071164 0.4381664 205 205 205
0.1968943 -0.1065532 0.4366826 205 205 205
0.1988424 -0.105419 0.433711 205 205 205
0.1993595 -0.1044458 0.431422 205 205 205
0.1994448 -0.1016919 0.425255 205 205 205
0.1999054 -0.1007147 0.4229767 205 205 205
0.2016977 -0.09955528 0.4200133 205 205 205
0.2025796 -0.09897197 0.4185303 205 205 205
0.2034521 -0.09838633 0.4170465 205 205 205
0.2047856 -0.09819674 0.4163493 205 205 205
0.2051687 -0.09720803 0.4140767 205 205 205
0.2060127 -0.09661541 0.4125907 205 205 205
0.2068474 -0.09602053 0.4111041 205 205 205
0.2097855 -0.09461796 0.4074171 205 205 205
0.2105857 -0.09401383 0.4059265 205 205 205
0.2118744 -0.09380166 0.4052079 205 205 205
0.2144437 -0.09336763 0.403758 205 205 205
0.2154677 -0.09174511 0.399997 205 205 205
0.2167327 -0.09151857 0.3992633 205 205 205
0.217995 -0.09128881 0.3985254 205 205 205
0.2192546 -0.09105586 0.3977834 205 205 205
0.2228217 -0.09135774 0.3977968 205 205 205
0.2246111 -0.09150197 0.3977914 205 205 205
-0.06799804 -0.08222266 0.4745241 205 205 205
-0.06650839 -0.08264717 0.4747342 205 205 205
-0.06523891 -0.08341691 0.4758498 205 205 205
-0.06396054 -0.08418572 0.4769614 205 205 205
-0.06288739 -0.08530384 0.4789804 205 205 205
-0.06158756 -0.0860715 0.4800838 205 205 205
-0.06027889 -0.08683804 0.4811829 205 205 205
-0.05855584 -0.08689635 0.4804512 205 205 205
-0.05723704 -0.08765859 0.4815407 205 205 205
-0.05590945 -0.08841962 0.4826256 205 205 205
-0.05457303 -0.08917946 0.4837061 205 205 205
-0.05341554 -0.09029564 0.4856969 205 205 205
-0.0520578 -0.09105396 0.4867687 205 205 205
-0.05033104 -0.091092 0.4860047 205 205 205
-0.04896336 -0.09184577 0.4870666 205 205 205
-0.04724183 -0.09187537 0.4862912 205 205 205
-0.04569552 -0.09226219 0.4864264 205 205 205
-0.04414806 -0.09264576 0.4865562 205 205 205
-0.0425995 -0.09302606 0.4866807 205 205 205
-0.04104989 -0.09340311 0.4867999 205 205 205
-0.03949921 -0.09377691 0.4869137 205 205 205
-0.03824706 -0.09488142 0.4888583 205 205 205
-0.03668671 -0.09525049 0.4889619 205 205 205
0.1874681 -0.1129892 0.4493499 205 205 205
0.1881299 -0.1120345 0.4470612 205 205 205
0.189182 -0.111487 0.4455905 205 205 205
0.1916719 -0.1107924 0.4434581 205 205 205
0.1922815 -0.1098277 0.4411696 205 205 205
0.1937169 -0.1096771 0.4405032 205 205 205
0.1951498 -0.109523 0.439832 205 205 205
0.1971449 -0.1083906 0.4368655 205 205 205
0.1989987 -0.1086333 0.436987 205 205 205
0.1996239 -0.1062663 0.4316065 205 205 205
0.1992378 -0.104473 0.427725 205 205 205
0.1992798 -0.1016954 0.4215796 205 205 205
0.2001782 -0.1011133 0.4201017 205 205 205
0.201067 -0.1005289 0.4186231 205 205 205
0.2024096 -0.1003449 0.417933 205 205 205
0.203283 -0.09975523 0.4164509 205 205 205
0.2046171 -0.09956516 0.4157539 205 205 205
0.2050015 -0.09856887 0.4134845 205 205 205
0.2058464 -0.09797225 0.4120003 205 205 205
0.2066819 -0.09737334 0.4105154 205 205 205
0.207508 -0.0967722 0.40903 205 205 205
0.2096225 -0.09596212 0.4068321 205 205 205
0.2104235 -0.09535389 0.4053433 205 205 205
0.2112152 -0.09474352 0.4038539 205 205 205
0.2124983 -0.09452818 0.4031332 205 205 205
0.2137787 -0.09430959 0.4024084 205 205 205
0.214041 -0.09329581 0.4001489 205 205 205
0.2153092 -0.09307193 0.3994195 205 205 205
0.2185764 -0.09198747 0.3964493 205 205 205
0.2203548 -0.09214423 0.3964607 205 205 205
0.222137 -0.09229653 0.3964641 205 205 205
0.2244542 -0.09283598 0.3972107 205 205 205
-0.06847949 -0.08396135 0.4748371 205 205 205
-0.06698583 -0.08438762 0.4750473 205 205 205
-0.06571297 -0.08516259 0.4761615 205 205 205
-0.0644312 -0.08593658 0.4772716 205 205 205
-0.06163018 -0.08712635 0.4785681 205 205 205
-0.06032562 -0.087896 0.4796647 205 205 205
-0.05860543 -0.08795043 0.4789337 205 205 205
-0.05729073 -0.08871584 0.4800208 205 205 205
-0.05577137 -0.08912096 0.4801908 205 205 205
-0.05463494 -0.09024303 0.4821815 205 205 205
-0.05310554 -0.09064374 0.4823419 205 205 205
-0.05040466 -0.09216154 0.4844748 205 205 205
-0.04904106 -0.09291854 0.4855344 205 205 205
-0.04594894 -0.09369666 0.4858093 205 205 205
-0.04440119 -0.09408084 0.4859388 205 205 205
-0.04301412 -0.09482954 0.4869786 205 205 205
-0.0414604 -0.0952081 0.4870976 205 205 205
-0.03990562 -0.09558346 0.4872113 205 205 205
-0.03850015 -0.09632596 0.4882362 205 205 205
-0.03693951 -0.0966956 0.4883394 205 205 205
0.1883429 -0.1139038 0.4472382 205 205 205
0.1893995 -0.1133521 0.4457677 205 205 205
0.1904467 -0.1127975 0.4442956 205 205 205
0.1925126 -0.1116798 0.441347 205 205 205
0.193952 -0.1115284 0.440679 205 205 205
0.1949647 -0.1109622 0.4391995 205 205 205
0.197393 -0.1102323 0.4370399 205 205 205
0.1997972 -0.1094899 0.4348685 205 205 205
0.1998858 -0.1080912 0.4317826 205 205 205
0.2003962 -0.1071003 0.429499 205 205 205
0.1999925 -0.1052911 0.425628 205 205 205
0.2000105 -0.10389 0.4225596 205 205 205
0.2013726 -0.1037104 0.4218715 205 205 205
0.2031635 -0.1025282 0.4189061 205 205 205
0.2035786 -0.1015275 0.4166362 205 205 205
0.2049166 -0.1013365 0.4159375 205 205 205
0.2053058 -0.1003321 0.4136697 205 205 205
0.2066316 -0.1001354 0.4129659 205 205 205
0.206995 -0.09912745 0.4107004 205 205 205
0.2078254 -0.09852178 0.4092149 205 205 205
0.2081595 -0.09751093 0.4069537 205 205 205
0.2105553 -0.09567576 0.402498 205 205 205
0.211335 -0.09505977 0.401012 205 205 205
0.2126091 -0.09484182 0.4002911 205 205 205
0.212866 -0.09382167 0.398039 205 205 205
0.214128 -0.09359843 0.3973137 205 205 205
0.2153872 -0.09337199 0.3965843 205 205 205
0.2166437 -0.09314233 0.3958508 205 205 205
0.2173768 -0.09251241 0.3943574 205 205 205
0.2209241 -0.09282993 0.3943776 205 205 205
0.2232343 -0.09337712 0.3951254 205 205 205
-0.06873217 -0.08535111 0.4742347 205 205 205
-0.06746481 -0.08613238 0.4753518 205 205 205
-0.06596572 -0.08655727 0.4755568 205 205 205
-0.06167181 -0.08817151 0.4770497 205 205 205
-0.06016361 -0.08858478 0.4772343 205 205 205
-0.05602411 -0.09053075 0.4795786 205 205 205
-0.05354791 -0.09242641 0.4826375 205 205 205
-0.05238355 -0.0935566 0.4846168 205 205 205
-0.05065875 -0.09358794 0.4838547 205 205 205
-0.04929549 -0.09434906 0.4849124 205 205 205
-0.04757589 -0.09437194 0.4841389 205 205 205
-0.04637275 -0.09549784 0.4861001 205 205 205
-0.0448209 -0.09588362 0.4862294 205 205 205
-0.0434304 -0.09663735 0.4872677 205 205 205
-0.04187255 -0.09701744 0.4873866 205 205 205
-0.04031366 -0.09739426 0.4875002 205 205 205
-0.0387537 -0.09776781 0.4876084 205 205 205
-0.03733996 -0.09851296 0.4886265 205 205 205
0.1929478 -0.1153485 0.4454212 205 205 205
0.1931578 -0.1139518 0.4423243 205 205 205
0.1946048 -0.1137992 0.4416532 205 205 205
0.1952019 -0.1128136 0.4393669 205 205 205
0.1966369 -0.1126547 0.4386896 205 205 205
0.1976386 -0.1120783 0.4372058 205 205 205
0.1986308 -0.1114993 0.4357207 205 205 205
0.1996135 -0.1109175 0.4342344 205 205 205
0.199704 -0.1095077 0.4311534 205 205 205
0.2002158 -0.1085093 0.4288731 205 205 205
0.2002861 -0.1056846 0.4227366 205 205 205
0.2011967 -0.1050932 0.4212571 205 205 205
0.2016391 -0.1040888 0.4189886 205 205 205
0.2029895 -0.103903 0.4182953 205 205 205
0.2047444 -0.1027032 0.4153302 205 205 205
0.2056076 -0.1020998 0.4138466 205 205 205
0.2064613 -0.1014941 0.4123622 205 205 205
0.2063465 -0.1000711 0.4093228 205 205 205
0.2075064 -0.09844402 0.4055849 205 205 205
0.2083119 -0.09783094 0.4041038 205 205 205
0.2091081 -0.09721573 0.4026223 205 205 205
0.2098947 -0.09659837 0.4011402 205 205 205
0.2106719 -0.09597896 0.3996579 205 205 205
0.2114396 -0.09535743 0.3981753 205 205 205
0.2121979 -0.09473385 0.3966923 205 205 205
0.2129468 -0.09410828 0.395209 205 205 205
0.2141998 -0.0938825 0.3944838 205 205 205
0.21545 -0.09365355 0.3937545 205 205 205
0.2161773 -0.09302082 0.3922668 205 205 205
0.2184659 -0.09358596 0.3930359 205 205 205
0.2202383 -0.09374606 0.3930427 205 205 205
0.2214842 -0.09350301 0.392293 205 205 205
-0.06921601 -0.08709497 0.4745321 205 205 205
-0.06771812 -0.08752368 0.4747419 205 205 205
-0.06621877 -0.08794924 0.4749465 205 205 205
-0.06449836 -0.08801175 0.4742391 205 205 205
-0.06321598 -0.08879092 0.47534 205 205 205
-0.06150034 -0.08884504 0.4746211 205 205 205
-0.06020779 -0.08961996 0.4757125 205 205 205
-0.0589064 -0.09039373 0.4767996 205 205 205
-0.05779707 -0.09153146 0.4787914 205 205 205
-0.05647429 -0.09230393 0.4798701 205 205 205
-0.05533599 -0.0934423 0.4818542 205 205 205
-0.05245313 -0.09461412 0.4830794 205 205 205
-0.05091316 -0.09501162 0.483229 205 205 205
-0.04937204 -0.09540587 0.4833733 205 205 205
-0.04782975 -0.09579683 0.4835123 205 205 205
-0.04662761 -0.09693038 0.4854701 205 205 205
-0.04507547 -0.09731676 0.485599 205 205 205
-0.04384828 -0.09844941 0.487548 205 205 205
-0.04228634 -0.09883104 0.4876668 205 205 205
-0.04072333 -0.0992094 0.4877803 205 205 205
0.195674 -0.1165001 0.4434208 205 205 205
0.1967064 -0.1159241 0.4419365 205 205 205
0.1973024 -0.1149274 0.4396488 205 205 205
0.1983121 -0.1143462 0.4381634 205 205 205
0.1993123 -0.1137624 0.4366767 205 205 205
0.1998657 -0.1127591 0.4343918 205 205 205
0.1999614 -0.1113378 0.431314 205 205 205
0.2004781 -0.1103314 0.4290354 205 205 205
0.2009783 -0.1093233 0.4267591 205 205 205
0.2014619 -0.1083136 0.4244853 205 205 205
0.2019291 -0.1073023 0.422214 205 205 205
0.2032757 -0.1056886 0.4184639 205 205 205
0.2032318 -0.1042593 0.415416 205 205 205
0.2045706 -0.1040673 0.4147177 205 205 205
0.2062894 -0.1028501 0.4117533 205 205 205
0.2074877 -0.1012133 0.4080125 205 205 205
0.2078246 -0.1001873 0.4057581 205 205 205
0.2086344 -0.09956969 0.4042768 205 205 205
0.2094348 -0.09894988 0.4027952 205 205 205
0.2110072 -0.09770387 0.3998307 205 205 205
0.2117793 -0.0970777 0.3983479 205 205 205
0.213295 -0.09581929 0.3953815 205 205 205
0.2140387 -0.09518703 0.3938979 205 205 205
0.2147729 -0.09455284 0.3924142 205 205 205
0.2160176 -0.09432075 0.391683 205 205 205
0.2177827 -0.09448891 0.3916984 205 205 205
0.2195517 -0.09465256 0.3917058 205 205 205
0.2207947 -0.09440961 0.3909585 205 205 205
-0.06923825 -0.08812273 0.4730135 205 205 205
-0.06624798 -0.08897625 0.473426 205 205 205
-0.06453042 -0.08903494 0.4727192 205 205 205
-0.06325217 -0.0898172 0.4738176 205 205 205
-0.06175226 -0.09023289 0.4740056 205 205 205
-0.05936434 -0.09215742 0.4770871 205 205 205
-0.05805069 -0.09293523 0.4781683 205 205 205
-0.05672826 -0.09371187 0.4792451 205 205 205
-0.05539703 -0.09448728 0.4803174 205 205 205
-0.0527082 -0.09603442 0.4824485 205 205 205
-0.05116795 -0.09643255 0.4825976 205 205 205
-0.04980538 -0.09720191 0.4836513 205 205 205
-0.04843409 -0.0979699 0.4847004 205 205 205
-0.04705404 -0.09873658 0.4857448 205 205 205
-0.04410414 -0.09988743 0.4869083 205 205 205
-0.04254189 -0.1002697 0.4870268 205 205 205
-0.04097861 -0.1006486 0.4871399 205 205 205
0.1983908 -0.1176328 0.4413965 205 205 205
0.1994121 -0.1170465 0.4399078 205 205 205
0.199557 -0.1156161 0.4368238 205 205 205
0.2001152 -0.1146049 0.4345407 205 205 205
0.1997759 -0.1127523 0.4306725 205 205 205
0.200738 -0.1121578 0.4291891 205 205 205
0.2012431 -0.1111417 0.4269145 205 205 205
0.2017316 -0.110124 0.4246423 205 205 205
0.2022036 -0.1091047 0.4223726 205 205 205
0.2022012 -0.1076663 0.4193207 205 205 205
0.2026368 -0.1066445 0.4170581 205 205 205
0.2025912 -0.1052046 0.4140169 205 205 205
0.2039271 -0.1050126 0.4133207 205 205 205
0.2047887 -0.1044017 0.4118424 205 205 205
0.2056408 -0.1037884 0.4103634 205 205 205
0.2060047 -0.1027583 0.4081098 205 205 205
0.2081402 -0.101935 0.4059229 205 205 205
0.2089544 -0.1013128 0.4044417 205 205 205
0.2097591 -0.1006884 0.40296 205 205 205
0.2105544 -0.1000619 0.4014778 205 205 205
0.2113402 -0.09943321 0.3999953 205 205 205
0.2123774 -0.09775957 0.3962703 205 205 205
0.213876 -0.09648904 0.3933071 205 205 205
0.2146112 -0.09585075 0.3918252 205 205 205
0.2188643 -0.09554952 0.3903673 205 205 205
-0.06822544 -0.09029824 0.4735056 205 205 205
-0.06500347 -0.0907821 0.4730041 205 205 205
-0.06350458 -0.09120166 0.4731968 205 205 205
-0.0620044 -0.09161805 0.4733844 205 205 205
-0.05961787 -0.09355433 0.4764605 205 205 205
-0.05850681 -0.09470829 0.4784456 205 205 205
-0.05737931 -0.0958631 0.4804271 205 205 205
-0.05623548 -0.09701867 0.482405 205 205 205
-0.05469367 -0.09742496 0.4825648 205 205 205
-0.05178958 -0.09860471 0.4837764 205 205 205
-0.04713833 -0.09978723 0.484193 205 205 205
-0.04558562 -0.1001748 0.4843212 205 205 205
-0.04419607 -0.1009409 0.4853535 205 205 205
-0.04279786 -0.1017055 0.4863811 205 205 205
-0.04123428 -0.1020851 0.4864937 205 205 205
-0.03982251 -0.1028458 0.4875114 205 205 205
0.2000782 -0.1193405 0.4408402 205 205 205
0.1997992 -0.1174741 0.4369624 205 205 205
0.1999259 -0.1160312 0.4338872 205 205 205
0.2000289 -0.1145874 0.4308176 205 205 205
0.2009954 -0.1139884 0.4293343 205 205 205
0.2019522 -0.1133868 0.4278499 205 205 205
0.2024493 -0.1123608 0.4255776 205 205 205
0.2029296 -0.111333 0.4233079 205 205 205
0.20338 -0.1088523 0.4179946 205 205 205
0.2033431 -0.1074005 0.414955 205 205 205
0.2046864 -0.1072069 0.4142553 205 205 205
0.2050845 -0.1061719 0.4119991 205 205 205
0.205941 -0.1055541 0.4105202 205 205 205
0.2067879 -0.1049341 0.4090406 205 205 205
0.2071438 -0.1038942 0.4067898 205 205 205
0.2079684 -0.1032702 0.4053109 205 205 205
0.2087835 -0.1026439 0.4038315 205 205 205
0.2106732 -0.1003375 0.3986295 205 205 205
0.210945 -0.09928919 0.3963911 205 205 205
0.2117059 -0.0986535 0.3949136 205 205 205
0.2124575 -0.09801579 0.3934359 205 205 205
0.2126873 -0.09696376 0.3912045 205 205 205
0.2139322 -0.0967344 0.3904798 205 205 205
0.2151744 -0.09650183 0.3897511 205 205 205
0.2164139 -0.09626607 0.3890184 205 205 205
0.2176506 -0.09602714 0.3882816 205 205 205
0.2188845 -0.09578497 0.3875408 205 205 205
-0.0697453 -0.09088358 0.4717702 205 205 205
-0.06802128 -0.09094512 0.471077 205 205 205
-0.06652871 -0.09137059 0.4712792 205 205 205
-0.06481318 -0.09142265 0.4705742 205 205 205
-0.06225688 -0.09300051 0.4727578 205 205 205
-0.06117576 -0.09416126 0.4747467 205 205 205
-0.06028483 -0.0956974 0.4776361 205 205 205
-0.05937 -0.09723649 0.4805229 205 205 205
-0.05803318 -0.09802546 0.4815973 205 205 205
-0.05688281 -0.09919066 0.4835725 205 205 205
-0.0555246 -0.0999781 0.4846382 205 205 205
-0.05396996 -0.1003847 0.4847935 205 205 205
-0.05241403 -0.100788 0.4849433 205 205 205
-0.05085697 -0.1011881 0.4850878 205 205 205
-0.04912238 -0.1012024 0.4843198 205 205 205
-0.04756675 -0.1015948 0.4844533 205 205 205
-0.04600994 -0.101984 0.4845813 205 205 205
-0.04445206 -0.1023698 0.484704 205 205 205
-0.04289306 -0.1027524 0.4848214 205 205 205
-0.04164763 -0.1039058 0.4867505 205 205 205
0.1981673 -0.1190771 0.4369877 205 205 205
0.1970116 -0.1163425 0.4315359 205 205 205
0.197991 -0.1157456 0.43006 205 205 205
0.1999212 -0.1145441 0.4271051 205 205 205
0.2017651 -0.1147913 0.4271997 205 205 205
0.2022634 -0.1137577 0.4249309 205 205 205
0.2022917 -0.1122975 0.4218811 205 205 205
0.2027535 -0.1112612 0.4196192 205 205 205
0.2031988 -0.1102233 0.4173599 205 205 205
0.2040401 -0.1081433 0.4128495 205 205 205
0.204907 -0.1075239 0.4113731 205 205 205
0.2052901 -0.10648 0.4091234 205 205 205
0.2061345 -0.1058565 0.4076475 205 205 205
0.2069695 -0.1052307 0.4061709 205 205 205
0.207795 -0.1046026 0.4046938 205 205 205
0.209099 -0.1043922 0.4039814 205 205 205
0.2094175 -0.1033399 0.4017383 205 205 205
0.2102146 -0.1027053 0.4002598 205 205 205
0.2110021 -0.1020686 0.3987809 205 205 205
0.2112786 -0.1010121 0.3965441 205 205 205
0.2120438 -0.1003718 0.3950666 205 205 205
0.213546 -0.09908517 0.3921108 205 205 205
0.2142829 -0.09843882 0.3906326 205 205 205
0.2150103 -0.09779055 0.3891543 205 205 205
0.2162503 -0.09755419 0.3884217 205 205 205
0.2174874 -0.09731467 0.3876852 205 205 205
0.2181932 -0.09665938 0.3862028 205 205 205
-0.06804459 -0.09194709 0.4695486 205 205 205
-0.06484284 -0.09242035 0.4690455 205 205 205
-0.06357327 -0.0932129 0.4701369 205 205 205
-0.0607474 -0.09747372 0.4778975 205 205 205
-0.05849024 -0.09981892 0.4818524 205 205 205
-0.0573371 -0.1009928 0.4838243 205 205 205
-0.0559755 -0.1017853 0.4848884 205 205 205
-0.05304135 -0.1029824 0.4860981 205 205 205
-0.05147645 -0.103385 0.4862429 205 205 205
-0.04973336 -0.1033984 0.4854768 205 205 205
-0.04816989 -0.1037934 0.4856105 205 205 205
-0.04643593 -0.1037973 0.4848328 205 205 205
-0.04503948 -0.1045735 0.4858617 205 205 205
-0.04347263 -0.1049585 0.4859792 205 205 205
0.1960584 -0.1154291 0.4262407 205 205 205
0.1974542 -0.1152578 0.4255611 205 205 205
0.1997325 -0.1159428 0.426451 205 205 205
0.2015764 -0.116193 0.4265442 205 205 205
0.2034247 -0.1164389 0.4266294 205 205 205
0.2034653 -0.1149663 0.4235795 205 205 205
0.2034824 -0.113493 0.4205357 205 205 205
0.2039361 -0.1124467 0.4182764 205 205 205
0.2043733 -0.1113989 0.4160196 205 205 205
0.2051983 -0.1092992 0.4115148 205 205 205
0.2055862 -0.1082474 0.4092667 205 205 205
0.206435 -0.1076193 0.4077908 205 205 205
0.2072743 -0.1069889 0.4063143 205 205 205
0.2081041 -0.1063563 0.4048372 205 205 205
0.2094121 -0.1061449 0.4041232 205 205 205
0.2102263 -0.1055073 0.4026433 205 205 205
0.2105366 -0.1044453 0.4004031 205 205 205
0.2116097 -0.1027395 0.396689 205 205 205
0.2118747 -0.101674 0.3944573 205 205 205
0.2131393 -0.1014476 0.3937335 205 205 205
0.2146311 -0.1001476 0.3907772 205 205 205
0.2158809 -0.09991264 0.390045 205 205 205
0.2166065 -0.0992571 0.3885646 205 205 205
0.2178474 -0.09901636 0.3878263 205 205 205
0.2185575 -0.09835635 0.3863437 205 205 205
-0.06978504 -0.09288553 0.4687099 205 205 205
-0.06806678 -0.0929394 0.468018 205 205 205
-0.06703453 -0.09411637 0.4700152 205 205 205
-0.06531727 -0.09416284 0.4693124 205 205 205
-0.06426341 -0.09533884 0.4713017 205 205 205
-0.06340861 -0.09689515 0.4741875 205 205 205
-0.06252985 -0.0984545 0.4770709 205 205 205
-0.06121155 -0.09925409 0.4781501 205 205 205
-0.06029245 -0.1008173 0.4810273 205 205 205
-0.05874863 -0.1012331 0.481197 205 205 205
-0.05759652 -0.1024144 0.4831652 205 205 205
-0.05604259 -0.1028257 0.4833249 205 205 205
-0.05467632 -0.10362 0.484382 205 205 205
-0.05311613 -0.1040256 0.4845315 205 205 205
-0.05173605 -0.1048163 0.4855789 205 205 205
-0.04999214 -0.1048268 0.4848141 205 205 205
-0.04860216 -0.1056128 0.4858514 205 205 205
-0.04546366 -0.1063959 0.4861024 205 205 205
-0.04389269 -0.1067824 0.4862198 205 205 205
0.2027853 -0.1174082 0.4251853 205 205 205
0.2032768 -0.1163571 0.4229225 205 205 205
0.2032958 -0.1148729 0.4198838 205 205 205
0.2042104 -0.1142502 0.4184044 205 205 205
0.2051154 -0.113625 0.4169243 205 205 205
0.205078 -0.1121373 0.4138973 205 205 205
0.2058799 -0.1100189 0.4094017 205 205 205
0.2062562 -0.1089578 0.4071583 205 205 205
0.2079272 -0.1076869 0.4042085 205 205 205
0.2087484 -0.107048 0.4027328 205 205 205
0.2095601 -0.106407 0.4012566 205 205 205
0.2106577 -0.1046933 0.3975467 205 205 205
0.2109369 -0.1036219 0.395317 205 205 205
0.211704 -0.1029736 0.3938432 205 205 205
0.212969 -0.1027465 0.3931196 205 205 205
0.2137205 -0.1020935 0.3916434 205 205 205
0.2149768 -0.1018606 0.3909136 205 205 205
0.2183916 -0.09963813 0.385738 205 205 205
-0.07027284 -0.09462693 0.4689681 205 205 205
-0.06855003 -0.09467911 0.4682778 205 205 205
-0.06751506 -0.0958647 0.4702718 205 205 205
-0.06579316 -0.09590948 0.4695707 205 205 205
-0.06473669 -0.09709407 0.4715568 205 205 205
-0.06366374 -0.09827966 0.4735395 205 205 205
-0.06257445 -0.09946628 0.475519 205 205 205
-0.06075602 -0.1026138 0.4812663 205 205 205
-0.05900729 -0.1026444 0.4805359 205 205 205
-0.056302 -0.1042452 0.4826598 205 205 205
-0.05493615 -0.1050436 0.4837149 205 205 205
-0.05318994 -0.105059 0.4829624 205 205 205
-0.05181408 -0.1058528 0.4840074 205 205 205
-0.04868725 -0.1066486 0.4842785 205 205 205
-0.04729269 -0.1074362 0.4853088 205 205 205
0.1909401 -0.1119108 0.4132479 205 205 205
0.2043882 -0.1205477 0.4276402 205 205 205
0.2058593 -0.1173615 0.4208488 205 205 205
0.2067792 -0.1167303 0.4193633 205 205 205
0.2067575 -0.1152297 0.4163344 205 205 205
0.2071819 -0.1141616 0.4140814 205 205 205
0.2075898 -0.1130922 0.4118312 205 205 205
0.2075049 -0.1115895 0.4088182 205 205 205
0.2073968 -0.1100867 0.4058121 205 205 205
0.2082318 -0.1094456 0.4043368 205 205 205
0.209693 -0.1066504 0.3983954 205 205 205
0.2104833 -0.1060017 0.3969223 205 205 205
0.2102635 -0.1044948 0.3939434 205 205 205
0.2122901 -0.1036161 0.391752 205 205 205
0.2135495 -0.1033858 0.3910266 205 205 205
0.2142925 -0.1027268 0.3895521 205 205 205
0.2155431 -0.1024908 0.3888205 205 205 205
0.2162704 -0.1018272 0.3873439 205 205 205
0.2164645 -0.100738 0.3851281 205 205 205
0.2171697 -0.1000713 0.3836535 205 205 205
-0.07005598 -0.09522982 0.4665349 205 205 205
-0.0673134 -0.09646811 0.4678341 205 205 205
-0.06604647 -0.09727615 0.4689246 205 205 205
-0.06521136 -0.0988534 0.4718031 205 205 205
-0.06413576 -0.1000476 0.4737827 205 205 205
-0.06325661 -0.10163 0.4766558 205 205 205
-0.06235349 -0.1032154 0.4795265 205 205 205
-0.05926622 -0.1040529 0.4798693 205 205 205
-0.05811615 -0.1052493 0.4818302 205 205 205
-0.05656177 -0.1056619 0.481989 205 205 205
-0.05519629 -0.1064644 0.4830421 205 205 205
-0.05382201 -0.1072656 0.4840904 205 205 205
-0.05243896 -0.1080654 0.4851342 205 205 205
0.2068819 -0.124591 0.4316335 205 205 205
0.2069596 -0.1230812 0.4285834 205 205 205
0.2065586 -0.1211323 0.4247643 205 205 205
0.2075029 -0.1204977 0.4232745 205 205 205
0.2079755 -0.1194231 0.4210123 205 205 205
0.2070351 -0.1170359 0.416444 205 205 205
0.2079332 -0.1163964 0.4149606 205 205 205
0.2074046 -0.1144466 0.4111784 205 205 205
0.2077975 -0.1133685 0.4089349 205 205 205
0.2076946 -0.1118541 0.405932 205 205 205
0.2080512 -0.1107741 0.4036964 205 205 205
0.2083915 -0.1096929 0.4014641 205 205 205
0.209205 -0.1090439 0.3999917 205 205 205
0.209023 -0.1075274 0.3970093 205 205 205
0.2103072 -0.1073073 0.3962928 205 205 205
0.2110888 -0.1066524 0.3948212 205 205 205
0.2113578 -0.1055646 0.3926002 205 205 205
0.2126237 -0.1053365 0.3918772 205 205 205
0.213887 -0.1051051 0.3911501 205 205 205
0.2141208 -0.1040124 0.3889323 205 205 205
0.2153719 -0.1037758 0.3882009 205 205 205
0.2166201 -0.103536 0.3874656 205 205 205
0.2168189 -0.1024387 0.3852515 205 205 205
0.2170015 -0.1013408 0.3830414 205 205 205
-0.0703088 -0.09658482 0.4658879 205 205 205
-0.06905638 -0.09740004 0.4669851 205 205 205
-0.06779503 -0.0982143 0.4680782 205 205 205
-0.06652474 -0.09902749 0.469167 205 205 205
-0.06546659 -0.1002282 0.4711461 205 205 205
-0.06460936 -0.1018195 0.474017 205 205 205
-0.06372809 -0.1034139 0.4768853 205 205 205
-0.05972765 -0.1058522 0.4800937 205 205 205
-0.05837645 -0.1066624 0.4811542 205 205 205
-0.05682185 -0.1070756 0.4813127 205 205 205
-0.05564759 -0.108279 0.4832615 205 205 205
-0.05426995 -0.1090852 0.4843082 205 205 205
0.2113641 -0.1273932 0.4325896 205 205 205
0.2100571 -0.1245419 0.4272245 205 205 205
0.2091496 -0.1190823 0.4165941 205 205 205
0.2086337 -0.1171165 0.4128134 205 205 205
0.2085629 -0.1155904 0.4098054 205 205 205
0.2084688 -0.1140641 0.4068042 205 205 205
0.2088336 -0.1129755 0.4045686 205 205 205
0.2082107 -0.1110112 0.4008223 205 205 205
0.2095142 -0.1107949 0.4001069 205 205 205
0.2093375 -0.1092669 0.3971279 205 205 205
0.2101295 -0.1086102 0.3956585 205 205 205
0.2104127 -0.1075164 0.3934395 205 205 205
0.2111824 -0.106856 0.3919715 205 205 205
0.2119426 -0.1061937 0.3905032 205 205 205
0.2132029 -0.1059624 0.3897783 205 205 205
0.2139475 -0.1052953 0.3883077 205 205 205
0.215199 -0.1050582 0.3875766 205 205 205
0.2164477 -0.1048177 0.3868415 205 205 205
0.2171707 -0.1041436 0.3853666 205 205 205
0.2168318 -0.1026077 0.3824246 205 205 205
-0.07056191 -0.09793699 0.4652356 205 205 205
-0.06930988 -0.09875632 0.4663306 205 205 205
-0.06804899 -0.09957466 0.4674216 205 205 205
-0.06700455 -0.1007829 0.4694007 205 205 205
-0.06594376 -0.1019922 0.4713767 205 205 205
-0.06508438 -0.1035955 0.4742425 205 205 205
-0.06398696 -0.1048078 0.4762121 205 205 205
-0.06266276 -0.1056259 0.4772839 205 205 205
-0.06132971 -0.1064427 0.4783513 205 205 205
-0.05978497 -0.1068611 0.4785192 205 205 205
-0.05590899 -0.1096973 0.4825757 205 205 205
0.2135191 -0.1295146 0.4326886 205 205 205
0.2108157 -0.1253069 0.4250323 205 205 205
0.2094407 -0.1224365 0.4197026 205 205 205
0.2098935 -0.1213426 0.4174477 205 205 205
0.2089154 -0.1189184 0.4129078 205 205 205
0.208375 -0.1169386 0.4091427 205 205 205
0.2082827 -0.1154014 0.4061468 205 205 205
0.208649 -0.1143053 0.4039147 205 205 205
0.2080284 -0.1123267 0.4001755 205 205 205
0.2088437 -0.1116698 0.398707 205 205 205
0.2091574 -0.1105711 0.3964867 205 205 205
0.2099503 -0.1099103 0.3950193 205 205 205
0.2102349 -0.1088091 0.3928039 205 205 205
0.2105032 -0.107707 0.3905922 205 205 205
0.2112609 -0.1070412 0.3891278 205 205 205
0.2120091 -0.1063734 0.3876632 205 205 205
0.2132604 -0.1061396 0.3869384 205 205 205
0.2139931 -0.1054673 0.3854716 205 205 205
0.2152355 -0.1052276 0.3847407 205 205 205
0.2159527 -0.1045507 0.3832718 205 205 205
0.2161346 -0.1034386 0.381071 205 205 205
-0.07010323 -0.09811307 0.4619102 205 205 205
-0.06909651 -0.09932542 0.4638913 205 205 205
-0.06703375 -0.1017536 0.4678442 205 205 205
-0.06597782 -0.1029693 0.4698159 205 205 205
-0.06512392 -0.1045825 0.4726759 205 205 205
-0.06381658 -0.1054037 0.473749 205 205 205
-0.06292239 -0.1070208 0.476603 205 205 205
-0.06138251 -0.1074422 0.4767754 205 205 205
-0.05889793 -0.1094799 0.4797854 205 205 205
0.212029 -0.1265058 0.4236023 205 205 205
0.2106339 -0.1236137 0.4182894 205 205 205
0.2091946 -0.1207244 0.4129938 205 205 205
0.2091344 -0.1191755 0.4099929 205 205 205
0.208573 -0.1171811 0.4062415 205 205 205
0.2089441 -0.1160771 0.4040113 205 205 205
0.2083292 -0.1140836 0.4002773 205 205 205
0.2094673 -0.1123154 0.3965903 205 205 205
0.2102645 -0.1116501 0.395123 205 205 205
0.2100555 -0.110099 0.3921635 205 205 205
0.2103251 -0.1089896 0.3899554 205 205 205
0.2110837 -0.1083198 0.388493 205 205 205
0.2118329 -0.107648 0.3870304 205 205 205
0.2130844 -0.1074136 0.3863058 205 205 205
0.2133027 -0.1062985 0.3841048 205 205 205
0.2150608 -0.106497 0.3841104 205 205 205
0.2157789 -0.1058162 0.3826435 205 205 205
0.2164875 -0.1051334 0.3811767 205 205 205
-0.0703548 -0.09944936 0.461252 205 205 205
-0.06934915 -0.1006692 0.4632294 205 205 205
-0.06728861 -0.1031123 0.4671747 205 205 205
-0.06623374 -0.1043355 0.4691425 205 205 205
-0.06538159 -0.1059596 0.4719971 205 205 205
-0.0640747 -0.1067849 0.4730682 205 205 205
-0.0631822 -0.1084129 0.4759166 205 205 205
-0.06185003 -0.1092379 0.4769798 205 205 205
-0.06071303 -0.1104657 0.4789301 205 205 205
-0.05935936 -0.1112892 0.4799847 205 205 205
-0.05819333 -0.1125174 0.4819272 205 205 205
0.213219 -0.1292608 0.4251876 205 205 205
0.2113707 -0.1258957 0.4191189 205 205 205
0.2090007 -0.1220846 0.412312 205 205 205
0.2084685 -0.1200756 0.4085592 205 205 205
0.2082749 -0.1169566 0.4025921 205 205 205
0.2081433 -0.115397 0.3996189 205 205 205
0.2089638 -0.1147315 0.3981525 205 205 205
0.2092837 -0.1136174 0.3959376 205 205 205
0.2100817 -0.1129481 0.3944723 205 205 205
0.2108703 -0.1122768 0.3930066 205 205 205
0.2101456 -0.1102693 0.3893138 205 205 205
0.211655 -0.1089199 0.3863927 205 205 205
0.212907 -0.1086849 0.3856685 205 205 205
0.2131266 -0.1075624 0.3834711 205 205 205
0.2148847 -0.1077638 0.3834753 205 205 205
0.2161251 -0.1075198 0.382741 205 205 205
0.2168379 -0.1068323 0.3812741 205 205 205
-0.07060651 -0.1007829 0.4605885 205 205 205
-0.06960201 -0.1020101 0.4625621 205 205 205
-0.06777102 -0.1048693 0.4673871 205 205 205
-0.06671349 -0.1061011 0.4693516 205 205 205
-0.0658593 -0.1077371 0.472201 205 205 205
-0.06454911 -0.1085675 0.4732704 205 205 205
-0.06365454 -0.1102075 0.4761138 205 205 205
-0.06231902 -0.1110376 0.4771752 205 205 205
-0.06117936 -0.1122738 0.4791222 205 205 205
-0.06002327 -0.1135108 0.4810654 205 205 205
-0.05885075 -0.1147486 0.4830049 205 205 205
0.2144365 -0.1304573 0.4237325 205 205 205
0.2116251 -0.1261612 0.4161696 205 205 205
0.2092222 -0.1223239 0.4093907 205 205 205
0.208669 -0.1203004 0.4056517 205 205 205
0.2090463 -0.1191811 0.4034271 205 205 205
0.2089234 -0.1176096 0.4004556 205 205 205
0.2087772 -0.1160381 0.3974912 205 205 205
0.209589 -0.1153664 0.3960263 205 205 205
0.2103915 -0.1146927 0.3945611 205 205 205
0.2107248 -0.1108687 0.387209 205 205 205
0.210968 -0.1097421 0.3850136 205 205 205
0.212217 -0.1095073 0.3842916 205 205 205
0.212949 -0.1088236 0.3828328 205 205 205
0.2154267 -0.108339 0.3813726 205 205 205
0.2166614 -0.1080918 0.3806366 205 205 205
-0.07085845 -0.1021135 0.4599197 205 205 205
-0.06985509 -0.1033483 0.4618894 205 205 205
-0.06883526 -0.1045841 0.463856 205 205 205
-0.06802694 -0.1062257 0.4667051 205 205 205
-0.06719472 -0.1078705 0.4695517 205 205 205
-0.06633854 -0.1095184 0.4723961 205 205 205
-0.06391551 -0.1115971 0.4754146 205 205 205
-0.06258047 -0.1124312 0.4764739 205 205 205
-0.06144189 -0.1136749 0.4784169 205 205 205
-0.06028689 -0.1149194 0.4803563 205 205 205
0.2147115 -0.1307327 0.4207567 205 205 205
0.2113913 -0.1259514 0.4124716 205 205 205
0.2099049 -0.1229998 0.4072267 205 205 205
0.2093342 -0.1209614 0.4035 205 205 205
0.2096999 -0.119833 0.4012804 205 205 205
0.2090758 -0.1177957 0.3975713 205 205 205
0.2106986 -0.1164411 0.3946414 205 205 205
0.2109988 -0.1153085 0.3924352 205 205 205
0.2107824 -0.1137235 0.3894937 205 205 205
0.2110467 -0.1125898 0.3872966 205 205 205
0.2118018 -0.1119055 0.3858381 205 205 205
0.212037 -0.1107696 0.3836465 205 205 205
0.2127698 -0.110082 0.3821897 205 205 205
0.2140104 -0.1098407 0.3814619 205 205 205
0.2152482 -0.1095962 0.3807301 205 205 205
-0.07159036 -0.1042506 0.4610105 205 205 205
-0.07034444 -0.1050892 0.4620944 205 205 205
-0.06978673 -0.1071473 0.4658245 205 205 205
-0.06896893 -0.1088029 0.4686694 205 205 205
-0.0679023 -0.1100527 0.4706275 205 205 205
-0.06681926 -0.1113035 0.4725823 205 205 205
-0.06593706 -0.1129664 0.4754188 205 205 205
-0.06368122 -0.1154746 0.4793116 205 205 205
-0.0625286 -0.1167299 0.4812524 205 205 205
0.2140262 -0.1300697 0.4162818 205 205 205
0.2116121 -0.1261758 0.4095363 205 205 205
0.2098579 -0.1200145 0.3983877 205 205 205
0.2101922 -0.1188765 0.3961785 205 205 205
0.2113082 -0.117053 0.3925091 205 205 205
0.2115969 -0.1159116 0.3903084 205 205 205
0.2118692 -0.1147692 0.3881111 205 205 205
0.212632 -0.1140797 0.3866508 205 205 205
0.2128753 -0.1129352 0.3844591 205 205 205
0.2131024 -0.1117899 0.3822711 205 205 205
0.21383 -0.1110957 0.3808143 205 205 205
0.2150682 -0.1108507 0.3800828 205 205 205
-0.07256548 -0.1068063 0.4629698 205 205 205
-0.07130885 -0.1076522 0.464053 205 205 205
-0.06945646 -0.1105749 0.4688535 205 205 205
-0.06861269 -0.1122455 0.4716908 205 205 205
-0.0675232 -0.1135059 0.4736426 205 205 205
-0.06685323 -0.1155961 0.477358 205 205 205
0.2156907 -0.1316881 0.4155689 205 205 205
0.2132542 -0.1277666 0.4088464 205 205 205
0.2112422 -0.124312 0.402894 205 205 205
0.2106366 -0.122244 0.399192 205 205 205
0.210979 -0.1210975 0.3969828 205 205 205
0.2113052 -0.11995 0.394777 205 205 205
0.2111191 -0.1183425 0.3918374 205 205 205
0.2119084 -0.1176521 0.3903758 205 205 205
0.2116829 -0.116044 0.3874471 205 205 205
0.2119404 -0.1148935 0.3852574 205 205 205
0.2126911 -0.1141987 0.3838009 205 205 205
0.213648 -0.112348 0.3801621 205 205 205
0.2148866 -0.1121024 0.3794309 205 205 205
-0.07258007 -0.1077337 0.4613974 205 205 205
-0.07132765 -0.1085826 0.4624779 205 205 205
-0.07076725 -0.1106712 0.4661942 205 205 205
-0.07040525 -0.1131798 0.4707896 205 205 205
-0.069552 -0.1148646 0.4736227 205 205 205
-0.0686747 -0.1165523 0.4764532 205 205 205
0.2168791 -0.1328391 0.4140949 205 205 205
0.2134533 -0.1279615 0.4059115 205 205 205
0.212382 -0.1254124 0.4014665 205 205 205
0.2117624 -0.1233292 0.3977752 205 205 205
0.2111126 -0.1212473 0.3940948 205 205 205
0.2114238 -0.1200915 0.3918963 205 205 205
0.2122175 -0.1193964 0.3904348 205 205 205
0.2119972 -0.1177771 0.3875098 205 205 205
0.2130144 -0.1159192 0.3838657 205 205 205
0.2137599 -0.1152178 0.3824092 205 205 205
0.2134645 -0.1135974 0.3795051 205 205 205
0.2154173 -0.1126447 0.3773196 205 205 205
-0.07331894 -0.1098957 0.4624549 205 205 205
-0.0720595 -0.1107508 0.4635342 205 205 205
-0.07149399 -0.1128557 0.4672439 205 205 205
-0.07112762 -0.115384 0.4718311 205 205 205
-0.07049532 -0.1175007 0.4755385 205 205 205
-0.0691625 -0.1183621 0.4766054 205 205 205
0.2171014 -0.1330462 0.4111294 205 205 205
0.2141218 -0.128605 0.4037216 205 205 205
0.2130302 -0.1260384 0.3992929 205 205 205
0.2119016 -0.1234744 0.3948788 205 205 205
0.212221 -0.12231 0.3926803 205 205 205
0.2130223 -0.1216097 0.3912171 205 205 205
0.2135861 -0.1192753 0.386834 205 205 205
0.2138437 -0.1181068 0.384648 205 205 205
0.2143099 -0.1157678 0.3802873 205 205 205
0.2150374 -0.1150585 0.3788328 205 205 205
0.2152335 -0.1138867 0.3766603 205 205 205
-0.07406051 -0.1120681 0.4634999 205 205 205
-0.07279413 -0.1129294 0.464578 205 205 205
-0.07245849 -0.1154708 0.4691576 205 205 205
-0.07185266 -0.1175985 0.47286 205 205 205
-0.0709879 -0.119309 0.4756834 205 205 205
0.2231434 -0.1405393 0.4200101 205 205 205
0.2168243 -0.1327634 0.4074323 205 205 205
0.2133181 -0.1278244 0.3993236 205 205 205
0.2117049 -0.1247726 0.3941833 205 205 205
0.21252 -0.12407 0.3927205 205 205 205
0.2131193 -0.1217226 0.3883381 205 205 205
0.2133944 -0.1205476 0.3861523 205 205 205
0.2149187 -0.1191272 0.3832361 205 205 205
0.2151518 -0.1179487 0.3810576 205 205 205
0.2153688 -0.1167696 0.3788831 205 205 205
0.2150481 -0.115126 0.3759964 205 205 205
-0.07431868 -0.113408 0.4627851 205 205 205
-0.0732921 -0.1146959 0.4647351 205 205 205
-0.07295585 -0.1172558 0.4693059 205 205 205
-0.07258053 -0.1198233 0.4738763 205 205 205
-0.07171002 -0.1215467 0.4766948 205 205 205
-0.07014265 -0.1219925 0.4768825 205 205 205
0.2224207 -0.1398048 0.4155298 205 205 205
0.217013 -0.1329297 0.4044821 205 205 205
0.2139591 -0.1284332 0.3971423 205 205 205
0.2136264 -0.1251245 0.3912893 205 205 205
0.2139261 -0.1239418 0.3891 205 205 205
0.2142094 -0.1227583 0.3869143 205 205 205
0.2149839 -0.1220439 0.3854544 205 205 205
0.2152379 -0.1208581 0.3832742 205 205 205
0.2154759 -0.1196717 0.3810977 205 205 205
0.2151799 -0.1180166 0.3782088 205 205 205
0.2148612 -0.1163624 0.3753278 205 205 205
-0.07506448 -0.1155943 0.4638087 205 205 205
-0.07403158 -0.1168918 0.4657557 205 205 205
-0.07392713 -0.1198983 0.4711909 205 205 205
-0.07266363 -0.1242237 0.4785672 205 205 205
0.2221576 -0.139517 0.411802 205 205 205
0.2155774 -0.1299803 0.396416 205 205 205
0.2144214 -0.1273626 0.3920389 205 205 205
0.2150207 -0.1249793 0.387664 205 205 205
0.2152958 -0.1237864 0.3854821 205 205 205
0.216065 -0.1230654 0.3840223 205 205 205
0.216311 -0.1218703 0.3818459 205 205 205
0.2151931 -0.1180665 0.3753672 205 205 205
-0.07605741 -0.1182191 0.4656899 205 205 205
-0.07525506 -0.1199564 0.4685048 205 205 205
-0.07513932 -0.1229879 0.4739306 205 205 205
0.2218732 -0.1392045 0.4080876 205 205 205
0.2183303 -0.1341642 0.4000528 205 205 205
0.2162052 -0.1305683 0.394225 205 205 205
0.2165281 -0.1293673 0.3920321 205 205 205
0.2158283 -0.1272108 0.3884017 205 205 205
0.2161116 -0.1260094 0.3862198 205 205 205
0.2158689 -0.1243312 0.383325 205 205 205
0.2158308 -0.1214512 0.3782715 205 205 205
0.2150025 -0.1193005 0.3746875 205 205 205
-0.07680933 -0.1204292 0.4666865 205 205 205
-0.07600132 -0.1221794 0.4694965 205 205 205
-0.07564434 -0.1248 0.4740426 205 205 205
0.2220601 -0.1393501 0.4051112 205 205 205
0.2174876 -0.1333158 0.3956688 205 205 205
0.2163246 -0.1306619 0.3913125 205 205 205
0.2156273 -0.1284914 0.3876897 205 205 205
0.216418 -0.1277627 0.3862287 205 205 205
0.2161804 -0.1260733 0.3833379 205 205 205
0.2169451 -0.1253417 0.3818803 205 205 205
0.2161523 -0.1231742 0.3782903 205 205 205
0.2158492 -0.1214861 0.3754208 205 205 205
-0.07699222 -0.1248483 0.4713423 205 205 205
0.2191111 -0.134861 0.3949003 205 205 205
0.2169307 -0.1312209 0.3891234 205 205 205
0.2167215 -0.1295197 0.386229 205 205 205
0.2164893 -0.127819 0.3833421 205 205 205
0.2167462 -0.1266009 0.3811739 205 205 205
0.2159558 -0.1244195 0.3775917 205 205 205
0.2156546 -0.1227208 0.3747282 205 205 205
0.2289419 -0.1476557 0.4114457 205 205 205
0.2213917 -0.138609 0.3977437 205 205 205
0.2182293 -0.1339673 0.390541 205 205 205
0.2170226 -0.1312803 0.3862208 205 205 205
0.2162874 -0.1290824 0.382627 205 205 205
0.2165456 -0.1278571 0.3804628 205 205 205
0.2159767 -0.1244366 0.374736 205 205 205
-0.07883456 -0.1266786 0.4687369 205 205 205
0.229138 -0.1477908 0.4084277 205 205 205
0.2230296 -0.1401647 0.3969334 205 205 205
0.2198425 -0.1354942 0.3897593 205 205 205
0.2176069 -0.1318106 0.3840343 205 205 205
0.2163435 -0.1291102 0.379747 205 205 205
0.2160724 -0.1273891 0.3768856 205 205 205
0.2157784 -0.1256687 0.3740321 205 205 205
-0.07885399 -0.1275917 0.4671016 205 205 205
0.229819 -0.1484008 0.4061272 205 205 205
0.2231581 -0.140238 0.3939793 205 205 205
0.2189218 -0.1345556 0.3854256 205 205 205
0.2176714 -0.1318361 0.3811422 205 205 205
0.2163845 -0.1291199 0.3768744 205 205 205
0.2160958 -0.1273884 0.374025 205 205 205
0.2304904 -0.1489973 0.4038256 205 205 205
0.2227647 -0.1397968 0.3903269 205 205 205
0.2184845 -0.1340834 0.3818179 205 205 205
0.2158939 -0.1286177 0.3733101 205 205 205
0.2281156 -0.146585 0.3973027 205 205 205
0.2208222 -0.1378363 0.3845853 205 205 205
0.2180266 -0.1335878 0.3782254 205 205 205
0.217239 -0.1313354 0.3746828 205 205 205
0.2256972 -0.1441279 0.3908258 205 205 205
0.2203787 -0.1373401 0.3809747 205 205 205
0.2170323 -0.1325685 0.3739528 205 205 205
0.2336096 -0.1535122 0.4012074 205 205 205
0.2242589 -0.1426352 0.3857864 205 205 205
0.2204296 -0.1373242 0.378073 205 205 205
0.2332399 -0.1530557 0.3974975 205 205 205
0.224332 -0.1426295 0.3828528 205 205 205
